url:http://datviettour.com.vn/gia-soc-du-lich-thai-lan-5n4d-chi-3-900-000-vnd-re-hon-gia-goc-den-2-trieu-55180.html
Tittle :Khuyến Mãi | Công ty Đất Việt Tour
content :Trụ sở Tp.HCM:(08) 38 944 888CN Bình Dương:(0650) 3 775 775CN Đồng Nai:(061) 3 889 888Hotline: 0989 120 120 - 0976 046 046
																											Khuyến mãi								
										Chọn chuyên mụcTrang chủTour 30-4Tour trong nướcTour nước ngoàiTour vé lẻTeambuildingVisa passport 
                        [Giá sốc] Du lịch Thái Lan 5N4Đ chỉ 3.900.000 VNĐ, rẻ hơn giá gốc đến 2 triệu!!                    
					Giảm ngay 2 triệu khi book tour Thái Lan 5N4Đ khởi hành ngày 16/11, cơ hội du lịch giá siêu bất ngờ. Chỉ với 3.990.000 VNĐ là bạn đã có thể bay đến xứ sở Chùa Vàng để tận mắt chiêm ngưỡng những cung điện dát vàng lộng lẫy và văn hóa Phật giáo đặc trưng của đất nước này.
Đặc biệt, đăng ký tour ngay, nhận quà liền tay!
✔ Quà tặng du lịch tiện ích.
✔ Massage Thái + tiệc BBQ Hải sản Hàn Quốc.
✔ Thưởng thức tiệc buffet 5* trên tòa nhà Baiyoke Sky 86 tầng.
✔ Giảm giá khi đăng ký theo nhóm đông người.
Hành trình tham quan: Bangkok - Chao Phraya - Hoàng Cung - Đảo San Hô - Nonooch - Sriracha Tiger Zoo,…
Giá ban đầu: 5.990.000 VNĐ
Giá khuyến mãi HOT: 3.990.000 VNĐ
Thời gian: 5N4Đ
Khách sạn: 3 sao
Ngày khởi hành: 16/11/2016
Hạn đăng ký: trước 16h00 ngày 14/11.
>>> Click xem thêm thông tin: du lịch Thái Lan 5N4Đ
Đây là cơ hội vàng để bạn thỏa sức du lịch Thái Lan với mức chi phí tiết kiệm nhất. Đừng bỏ qua cơ hội này kẻo bạn sẽ phải hối tiếc đấy!
Nhấc máy và liên hệ ngay số hotline: 0909 108 369 – 0966 980 936
Điện thoại liên hệ các chi nhánh:
+ Trụ sở Hồ Chí Minh: (08) 38 944 888.
+ Văn phòng quận 11: (08) 39 742 888.
+ Chi nhánh Bình Dương: (0650) 3 775 775.
+ Chi nhánh Đồng Nai: (061) 3 889 888.                
				Liên hệ đặt tour
				Trụ sở Tp.HCM: (08) 38 944 888Chi nhánh Bình Dương: (0650) 3844 690Chi nhánh Đồng Nai: (061) 3 889 888Hotline: 0989 120 120 - 0976 046 046
                            Tour khác
                                Khuyến mãi Tour du lịch Thái Lan 5 ngày giá cực sốc chỉ còn 5.600.000 VNĐ
                                Cơn lốc quà tặng cùng Đất Việt Tour
                                Mua tour hôm nay, nhận ngay quà tặng
                                Khuyến mãi giờ chót chùm tour tết du lịch trong nước tại Đất Việt Tour
                                Du lịch giá sốc!! Giảm ngay 1.000.000 VNĐ khi book tour Thái Lan 5N4Đ khởi hành ngày 16/11
                        Trang chủGiới thiệuKhuyến mãiQuà tặngCẩm nang du lịchKhách hàngLiên hệ
                        Tour trong nướcTour nước ngoàiTour vé lẻTeambuildingCho thuê xeVisa - PassportVé máy bay
                        Về đầu trang
						Công ty Cổ phần ĐT TM DV Du lịch Đất Việt
						Trụ sở Tp.HCM: 198 Phan Văn Trị, P.10, Quận Gò Vấp, TP.HCM
						ĐT:(08) 38 944 888 - 39 897 562
						Chi nhánh Bình Dương: 401 Đại lộ Bình Dương, P.Phú Cường, Tp.Thủ Dầu Một, Bình Dương
						ĐT: (0650) 3 775 775
						Chi nhánh Đồng Nai: 200 đường 30 Tháng Tư, P. Thanh Bình, Tp. Biên Hòa
						ĐT:(061) 3 889 888 - 3 810 091
                        Email sales@datviettour.com.vn
