url:http://datviettour.com.vn/du-lich-thai-lan-5n4d-gia-soc-chi-5-200-000-vnd-khoi-hanh-ngay-30112016-55610.html
Tittle :Khuyến Mãi | Công ty Đất Việt Tour
content :Trụ sở Tp.HCM:(08) 38 944 888CN Bình Dương:(0650) 3 775 775CN Đồng Nai:(061) 3 889 888Hotline: 0989 120 120 - 0976 046 046
																											Khuyến mãi								
										Chọn chuyên mụcTrang chủTour 30-4Tour trong nướcTour nước ngoàiTour vé lẻTeambuildingVisa passport 
                        Du lịch Thái Lan 5N4Đ giá sốc chỉ 5.200.000 VNĐ khởi hành ngày 30/11/2016                    
					Xứ sở chùa Vàng Thái Lan luôn nằm trong top những thiên đường du lịch nổi tiếng nhất tại Châu Á, là điểm đến lý tưởng để bạn tha hồ khám phá và trải nghiệm những điều thú vị. Chỉ với 5.200.000 VNĐ là bạn đã có thể bay đến Thái Lan ngay mà chẳng cần phải lo lắng nhiều về chi phí. Một mức giá vô cùng tiết kiệm phải không nào!
[Hot Hot Hot!] Book tour ngay, quà liền tay!
✔ Quà tặng du lịch tiện ích.
✔ Massage Thái + tiệc BBQ Hải sản Hàn Quốc.
✔ Thưởng thức tiệc buffet 5* trên tòa nhà Baiyoke Sky 86 tầng.
✔ Giảm giá khi đăng ký theo nhóm đông người.
Hành trình tour thú vị: Bangkok - Chao Phraya - Hoàng Cung - Đảo San Hô - Nonooch - Sriracha Tiger Zoo,…
Giá ban đầu: 5.990.000 VNĐ
Giá khuyến mãi: 5.200.000 VNĐ
Thời gian: 5N4Đ
Khách sạn: 3 sao
Ngày khởi hành: 30/11/2016.
>>> Click xem thêm thông tin: Tour Thái Lan 5N4Đ 
Đăng ký ngay hôm nay để nhận được hưởng những ưu đãi trên và thỏa sức khám phá những ngôi chùa tuyệt đẹp, những danh thắng nổi tiếng chỉ ở Thái Lan mới có. Thật hấp dẫn!
Nhấc máy và liên hệ ngay số hotline: 0909.108.369 – 0966.980.936 để được tư vấn cụ thể hơn.
Điện thoại liên hệ các chi nhánh:
+ Trụ sở Hồ Chí Minh: (08) 38 944 888.
+ Văn phòng quận 11: (08) 39 742 888.
+ Chi nhánh Bình Dương: (0650) 3 775 775.
+ Chi nhánh Đồng Nai: (061) 3 889 888.
Xem thêm bài viết liên quan:
- Đảo san hô Coral, sự lựa chọn tuyệt vời khi du lịch Thái Lan
- Khám phá điểm đến tuyệt đẹp dọc bờ sông Chaopraya
				Liên hệ đặt tour
				Trụ sở Tp.HCM: (08) 38 944 888Chi nhánh Bình Dương: (0650) 3844 690Chi nhánh Đồng Nai: (061) 3 889 888Hotline: 0989 120 120 - 0976 046 046
                            Tour khác
                                [Khuyến mãi hot] Giảm ngay 790.000 VNĐ cho tour Thái Lan 5N4Đ khởi hành ngày 9/11
                                Giảm ngay 10% chùm tour du lịch lễ 30/4, tưng bừng nhiều quà tặng hấp dẫn!
                                Nhiều cơ hội du lịch lễ 30/4 tiết kiệm tại Đất Việt Tour
                                Mua tour hôm nay, nhận ngay quà tặng
                                Giảm 5% chùm tour lễ 2/9 tại Đất Việt Tour
                        Trang chủGiới thiệuKhuyến mãiQuà tặngCẩm nang du lịchKhách hàngLiên hệ
                        Tour trong nướcTour nước ngoàiTour vé lẻTeambuildingCho thuê xeVisa - PassportVé máy bay
                        Về đầu trang
						Công ty Cổ phần ĐT TM DV Du lịch Đất Việt
						Trụ sở Tp.HCM: 198 Phan Văn Trị, P.10, Quận Gò Vấp, TP.HCM
						ĐT:(08) 38 944 888 - 39 897 562
						Chi nhánh Bình Dương: 401 Đại lộ Bình Dương, P.Phú Cường, Tp.Thủ Dầu Một, Bình Dương
						ĐT: (0650) 3 775 775
						Chi nhánh Đồng Nai: 200 đường 30 Tháng Tư, P. Thanh Bình, Tp. Biên Hòa
						ĐT:(061) 3 889 888 - 3 810 091
                        Email sales@datviettour.com.vn
