url:http://datviettour.com.vn/clip-dai-loan-day-cuon-hut-boi-thien-nhien-van-hoa-va-con-nguoi-54808.html
Tittle :Cẩm Nang Du Lịch | Công ty Đất Việt Tour
content :Trụ sở Tp.HCM:(08) 38 944 888CN Bình Dương:(0650) 3 775 775CN Đồng Nai:(061) 3 889 888Hotline: 0989 120 120 - 0976 046 046
																											Cẩm Nang Du Lịch								
										Chọn chuyên mụcTrang chủTour 30-4Tour trong nướcTour nước ngoàiTour vé lẻTeambuildingVisa passport 
                        [Clip] Đài Loan đầy cuốn hút bởi thiên nhiên, văn hóa và con người!                    
					Ngoài những thiên đường du lịch nổi tiếng như Singapore, Thái Lan, Malaysia, Hàn Quốc,… thì Đài Loan cũng là một trong những điểm đến thu hút được nhiều tín đồ đam mê du lịch đến để khám phá và trải nghiệm. Đài Loan mang trong mình một vẻ đẹp hiện đại bởi những tòa nhà cao tầng và tòa tháp Taipei 101 lừng danh thế giới, những công trình kiến trúc đậm đà dấu ấn truyền thống và nét văn hóa đặc trưng của từng vùng địa phương. Tất cả những điều này đã tạo nên sức hút to lớn đối với du khách khắp nơi trên thế giới.
Tham khảo >>> Kinh nghiệm du lịch Đài Loan có thể bạn chưa biết!
Với đoạn clip chỉ vỏn vẹn hơn 5 phút mà chúng tôi vừa chia sẻ, chắc hẳn bạn đã có một cái nhìn tổng quan hơn về Đài Loan và biết được thêm những điều thú vị về đất nước này. Nếu bạn cảm thấy yêu thích và muốn được một lần đặt chân đến Đài Loan, đừng ngần ngại book ngay tour Đào Viên – Đài Bắc – Đài Trung 5N4Đ để có thể cùng chúng tôi trải nghiệm và có một chuyến du lịch thật đáng nhớ!
Nguồn: Expedia
Xem thêm: Tour du lịch Đài Loan: Cao Hùng - Đài Bắc - Đài Trung                
				Liên hệ đặt tour
				Trụ sở Tp.HCM: (08) 38 944 888Chi nhánh Bình Dương: (0650) 3844 690Chi nhánh Đồng Nai: (061) 3 889 888Hotline: 0989 120 120 - 0976 046 046
                            Tour khác
                                Tháng 11, tưng bừng lễ hội khắp nơi
                                Những kinh nghiệm cho chuyến du lịch Nha Trang thú vị
                                Những lời khuyên khi đi máy bay với trẻ nhỏ
                                3 kiểu du lịch đáng để trải nghiệm cho giới trẻ
                                6 bí quyết tiết kiệm hiệu quả khi du lịch Tết Ất Mùi
                        Trang chủGiới thiệuKhuyến mãiQuà tặngCẩm nang du lịchKhách hàngLiên hệ
                        Tour trong nướcTour nước ngoàiTour vé lẻTeambuildingCho thuê xeVisa - PassportVé máy bay
                        Về đầu trang
						Công ty Cổ phần ĐT TM DV Du lịch Đất Việt
						Trụ sở Tp.HCM: 198 Phan Văn Trị, P.10, Quận Gò Vấp, TP.HCM
						ĐT:(08) 38 944 888 - 39 897 562
						Chi nhánh Bình Dương: 401 Đại lộ Bình Dương, P.Phú Cường, Tp.Thủ Dầu Một, Bình Dương
						ĐT: (0650) 3 775 775
						Chi nhánh Đồng Nai: 200 đường 30 Tháng Tư, P. Thanh Bình, Tp. Biên Hòa
						ĐT:(061) 3 889 888 - 3 810 091
                        Email sales@datviettour.com.vn
