url:http://datviettour.com.vn/tour-du-lich-han-quoc.html
Tittle :Tour Du Lịch Hàn Quốc | Công ty Đất Việt Tour
content :Trụ sở Tp.HCM:(08) 38 944 888CN Bình Dương:(0650) 3 775 775CN Đồng Nai:(061) 3 889 888Hotline: 0989 120 120 - 0976 046 046
                             Tour du lịch Hàn Quốc			
                    Chọn chuyên mụcTrang chủTour 30-4Tour trong nướcTour nước ngoàiTour vé lẻTeambuildingVisa passport 
					Xứ sở Kim Chi không chỉ nổi tiếng những công trình kiến trúc truyền thống và hiện đại đan xen, nhiều hòn đảo hoang sơ và quyến rũ đang chờ đón du khách khám phá.Liên hệ tổng đài tư vấn & đặt tour: (08) 38 944 888 ngay hôm nay nếu bạn muốn có một chuyến du lịch Hàn Quốc tết 2017 trọn vẹn niềm vui bên người thân, bạn bè.
												Tour du lịch Tết 2017: Seoul – Yangji Pine – Everland đưa du khách đến với xứ sở Kim Chi thơ mộng, trải nghiệm nhiều dịch vụ giải trí thú vị và khám phá ẩm thực độc đáo. Đặt tour ngay để nhận ưu đãi hấp dẫn từ Đất Việt Tour! NGÀY 1: TP.HCM – SEOUL […]... Xem tiếp »
									Tour du lịch Tết 2017: Du ngoạn Hàn Quốc 5 ngày 5 đêm                                    
												Du lịch Hàn Quốc 5 ngày 5 đêm, đưa bạn đến khám phá những điểm đến hàng đầu của Xứ sở kim chi như: Seoul, đảo Nami, đảo Jeju, công viên giải trí Everland,…Hãy cùng trải nghiệm thiên đường tình yêu lãng mạn cùng tour du lịch Hàn Quốc Tết Đinh Dậu 2017! NGÀY 01: TP.HCM […]... Xem tiếp »
									Tour du lịch Hàn Quốc: Seoul – Nami – Everland, giá hấp dẫn!                                    
												Bạn không cần phải tưởng tượng về xứ sở Kim Chi thơ mộng qua những bộ phim tình cảm lãng mạn. Đăng kí tour du lịch Hàn Quốc 5 ngày 4 đêm tại Đất Việt Tour là bạn đã có thể thỏa sức khám phá những cảnh quan thiên nhiên tuyệt đẹp, những hòn đảo thơ […]... Xem tiếp »
									Tour Hàn Quốc khám phá Seoul – Nami – Everland 5 ngày 4 đêm                                    
												Xứ kim chi Hàn Quốc là điểm đến du lịch tuyệt hảo với những cảnh đẹp và văn hóa tuyệt vời. Bạn hãy đăng kí Tour du lịch Hàn Quốc Seoul – Đảo Nami 5 ngày 4 đêm tại Du lịch Đất Việt là bạn đã có thể thỏa thích khám phá đất nước Hàn […]... Xem tiếp »
									Tour du lịch: Khám phá đất nước Hàn Quốc 5 ngày 4 đêm                                    
												Đăng kí Tour du lịch: Khám phá đất nước Hàn Quốc 5 ngày 4 đêm tại Đất Việt Tour du khách sẽ có cơ hội thỏa sức khám phá đất nước Hàn Quốc xinh đẹp và lãng mạn, những hòn đảo hoang sơ và thưởng thức nhiều món đặc sản hấp dẫn nhất. Ngày 01:  TP.HCM – SEOUL 23:30 […]... Xem tiếp »
									Tour du lịch Seoul – đảo Jeju, 6 ngày 5 đêm                                    
												Bạn muốn một lần được đặt chân lên hòn đảo Jeju – nơi từng được chọn làm bối cảnh trong những phim tình cảm lãng mạn, chìm đắm trong không gian bình yên của đảo Nami hay thỏa sức mua sắm tại những trung tâm sầm uất ở xứ sở kim chi? Tất cả có trong […]... Xem tiếp »
									Tour du lịch Hàn Quốc: Thiên đường Jeju                                    
												Những hòn đảo lãng mạn, nhiều ngôi làng truyền thống độc đáo, các khu phố sầm uất và nền ầm thực đa dạng là những lý do khiến Hàn Quốc luôn là điểm du lịch hút khách. Một tour du lịch Hàn Quốc giá rẻ của Đất Việt Tour sẽ giúp bạn thỏa mãn ước mơ được […]... Xem tiếp »
									Tour du lịch Hàn Quốc – xứ sở kim chi                                    
												NGÀY 01: TP.HỒ CHÍ MINH – JEJU Trưởng đoàn công ty du lịch Đất Việt đón quý khách tại sân bay Tân Sơn Nhất đáp chuyến bay đi Jeju (01:20 – 07:40). Quý khách nghỉ đêm trên máy bay.       NGÀY 02: JEJU – LÀNG DÂN TỘC SEONGEUP – SUMOGON 07:40 Đến Jeju, […]... Xem tiếp »
							Trang sau
                 
                        Trang chủGiới thiệuKhuyến mãiQuà tặngCẩm nang du lịchKhách hàngLiên hệ
                        Tour trong nướcTour nước ngoàiTour vé lẻTeambuildingCho thuê xeVisa - PassportVé máy bay
                        Về đầu trang
						Công ty Cổ phần ĐT TM DV Du lịch Đất Việt
						Trụ sở Tp.HCM: 198 Phan Văn Trị, P.10, Quận Gò Vấp, TP.HCM
						ĐT:(08) 38 944 888 - 39 897 562
						Chi nhánh Bình Dương: 401 Đại lộ Bình Dương, P.Phú Cường, Tp.Thủ Dầu Một, Bình Dương
						ĐT: (0650) 3 775 775
						Chi nhánh Đồng Nai: 200 đường 30 Tháng Tư, P. Thanh Bình, Tp. Biên Hòa
						ĐT:(061) 3 889 888 - 3 810 091
                        Email sales@datviettour.com.vn
