url:http://haidangtravel.com/tin-tuc/Kinh-nghiem?page=2
Tittle :Kinh nghiệm
content :Toggle navigation
                             Trang Chủ
                              Tour Du Lịch
                         Tour Trong Nước Tour Nước Ngoài
                              Tổ Chức Sự Kiện
                             Thuê Xe Du Lịch
                         Thuê Xe 4 Chổ Thuê Xe 7 Chổ Thuê Xe 16 Chổ Thuê Xe 29 Chổ Thuê Xe 35 Chổ Thuê Xe 45 Chổ
                             Khách Sạn
                              Cẩm nang du lịch
                              Tin tức du lịch
                              Bảng Giá Tour
                     1900 2011
                    08.3849.3838 - 0948.99.1080
                    Đăng Ký
                                            ×
                                            ĐĂNG KÝ
                                                        Tên đăng nhập (bắt buộc)
                                                        Nhập số điện thoại ( bắt buôt )
                                                        Nhập họ tên của bạn
                                                        Nhập mail của bạn
                                                        Nhập mật khẩu ( bắt buột )
                                                        Nhập lại mật khẩu ( bắt buột )
                                                        NamNữKhác
                                                        Địa chỉ nhà bạn
                                                        Ngày sinh của bạn
                                                 Nhận mail từ Hải Đăng Travel
                                                Đăng Ký
                        Đăng nhập
                                            ×
                                            ĐĂNG NHẬP
                                        Quên mật khẩu ?
                                        Đăng Ký
                                                Ghi nhớ mật khẩu
                                                Đăng nhập
                    Trang chủ
                 ›
                    Cẩm nang du lịch
                 ›
                    Kinh nghiệm
        Kinh nghiệm
                            Du lịch trong nước
                            Du lịch nước ngoài
                            Kinh Nghiệm Đi Biển Đảo
                                    Go
                                                                                    Giải đáp câu hỏi  thường quan tâm khi du lịch đảo Nam Du
                                    03/09/2015
                                    Dù vẫn còn mang vẻ hoang sơ và chưa được khai thác mạnh về du lịch, thế nhưng đó lại là một lợi thế cực kỳ thú vị...
                                                                                    XEM NGAY
                                                                                    Thắt dây an toàn trên máy bay có cứu được mạng bạn?
                                    28/08/2015
                                    Các du khách hẳn đều biết câu quen thuộc “Hãy thắt dây an toàn khi có đèn báo”, nhưng động tác...
                                                                                    XEM NGAY
                                                                                    Bí kíp đi 198 nước khi không rủng rỉnh tiền bạc
                                    28/08/2015
                                    Gunnar Garfors là người trẻ nhất đặt chân tới mọi quốc gia, lãnh thổ trên thế giới. Điều đáng nói là chàng trai...
                                                                                    XEM NGAY
                                                                                    Những bước chuẩn bị về tài chính khi đi du lịch
                                    26/08/2015
                                    Bạn nên kiểm tra tình trạng thẻ, số dư, nhớ số đường dây nóng của ngân hàng hoặc đổi mã PIN trước khi đi.
                                                                                    XEM NGAY
                                                                                    Một số lưu ý khi nhập cảnh du lịch Singapore
                                    26/08/2015
                                    Nếu bạn đã và đang có kế hoạch du lịch ở Singapore, những lưu ý dưới đây sẽ giúp bạn yên tâm hơn và giảm...
                                                                                    XEM NGAY
                                                                                    10 lời khuyên giúp cơ thể bớt mệt mỏi sau chuyến bay
                                    26/08/2015
                                    Sau mỗi chuyến bay, cơ thể con người sẽ cảm thấy mệt mỏi từ những tác động của sự chênh lệch múi giờ tại điểm đến (còn gọi...
                                                                                    XEM NGAY
                                                                                    Ăn rẻ, ở miễn phí, phượt qua Việt Nam và các nước Đông Nam Á
                                    26/08/2015
                                    Chàng trai 26 tuổi tiết lộ, Việt Nam là nơi khó đi nhờ xe nhất nhưng ở nhà nghỉ dành cho tây ba lô thích nhất vì...
                                                                                    XEM NGAY
                                                                                    7 phụ kiện thời trang nên có cho mọi chuyến du lịch
                                    24/08/2015
                                    Những phụ kiện thời trang đơn giản nhưng rất tiện dụng này sẽ giúp bạn luôn xinh xắn và nổi bật, bất kể trong những...
                                                                                    XEM NGAY
                                                                                    kinh nghiệm đi đảo Nam Du
                                    20/08/2015
                                    Nam Du là quần đảo xa nhất của huyện Kiên Hải (Kiên Giang), cách TP Rạch Giá 83 km đường biển. Nam Du là nơi còn rất hoang sơ,...
                                                                                    XEM NGAY
                                                                                    kinh nghiệm đi đảo Bà Lụa
                                    20/08/2015
                                    Kiên Giang có nhiều điểm du lịch Biển thu hút khách như đảo Phú Quốc, quần đảo Nam Du, Hà Tiên, và nhiều quần đảo...
                                                                                    XEM NGAY
        Đọc Nhiều Nhát
                Kỷ Niệm Đà Lạt 
                Chương trình khuyến mãi tour du lịch tết 2016
                Bảng Giá Tour Lễ 30 Tháng 4 Và Giỗ Tổ
        Bài viết mới nhất
                    Biển Của Người Xứ Nẫu
                    Quy Nhơn Thiên Đường Của Biển
                    Ôi Nha Trang
        Cẩm Nang Du Lịch
         Cẩm nang Ninh Chữ Cẩm nang Nha Trang Cẩm nang Đà Lạt Cẩm nang Phú Yên Cẩm nang Phú Quốc Cẩm nang Quảng Ngãi Cẩm nang Quảng Nam Cẩm nang Phú Thọ Cẩm nang Phan Thiết Cẩm nang Quảng Bình Cẩm nang Ninh Bình Cẩm nang Lạng Sơn
        Kinh nghiệmThư giản
                    Du lịch trong nướcDu lịch nước ngoàiKinh Nghiệm Đi Biển Đảo
                    Phượt viếtHình chếChuyện lạ
                    Ảnh đẹpTop du lịchTruyện cười
    Ảnh Khách Hàng
            «12345»
                    TRỤ SỞ CHÍNH
                         225 Bàu Cát, P12, Q.Tân Bình, HCM
                         19002011 - 08 3849 3838 
                        08 3849 2999   
                          www.haidangtravel.com  
                         info@haidangtravel.com 
                        CSKH: 0948.99.1080
                    CHI NHÁNH
                         Quận 1 : Lầu 7, Tòa Nhà Viễn Đông, 14 Phan Tôn
                        19002011(Ext-107) -  0838204589  
                         Quận 12 : 256 TX25, Thạnh Xuân, Q12 
                        19002011(Ext-111)
                         Biên Hòa : 51A2, KP11, P.Tân Phong 
                        19002011(Ext-108) -  0613999392  
                    TRỢ GIÚP
                    Liên hệ & giới thiệuĐiều khoản chungHình thức thanh toánHướng dẫn mua tourChính sách bảo mật
                        GIỜ LÀM VIỆC
                            Thứ 2 đến 6
                                Sáng: 08:00-12:00Chiều:13:30-17:30
                            Thứ 7 Sáng: 08:00-12:00Nghỉ chủ nhật, lễ, tết
                    Được tìm kiếm nhiều
                        Tour Nha Trang
                        Tour Đà Lạt
                        Tour Cà Mau
                        Tour Phú Yên
                        Tour Ninh Chữ
                        Tour Côn Đảo
                        Tour Miền Bắc
                        Tour Phú Quốc
                        Tour Đà Nẵng
                        Tour Phan Thiết
                        Tour Bình Ba
                        Tour Nam Du
                        Tour Vũng Tàu
                        Tour Bà Lụa
                THÀNH TÍCH
            2015 © All Rights Reserved. Công ty cổ phần xây dựng du lịch Hải Đăng
        Your browser doesn't support canvas. Please download IE9+ on
            IE Test Drive
            +
                Có thể bạn quan tâm ?
                                Tour Đảo Hòn Sơn Khám Phá Đỉnh Ma Thiên Lãnh 2N2Đ
                                 1,390,000 đ
                                Tour Côn Đảo, Khám Phá Lịch Sử Văn Hóa Côn Sơn 2N1Đ
                                 4,590,000 đ
                                Tour Côn Đảo, Trọn Gói Vé Máy Bay 2N1Đ
                                 3,999,000 đ
                                Tour Ninh Chữ - Vĩnh Hy - Cổ Thạch đồng giá 2N2Đ
                                 999,000 đ
                                Tour Đà Lạt Phototrip Khám Phá Những Cung Đường Hoa 3N3Đ
                                 1,250,000 đ
                                Tour Đảo Phú Quý, Khám Phá Hòn Đảo Mang Vẻ Đẹp Hoang Sơ 3N3Đ
                                 2,250,000 đ
                                Tour Đảo Bình Hưng, Hang Rái, Vĩnh Hy 2n2d
                                 1,111,000 đ
                                Tour du lịch Vũng Tàu, Long Hải, Suối nước nóng Bình Châu 2N1Đ
                                 789,000 đ
                                Tour Ninh Chữ, Vĩnh Hy Hang Rái Siêu Tiết Kiệm 2n2d
                                 850,000 đ
                                Tour Ninh Chữ - Vĩnh Hy Khám Phá Bãi Đá Bảy Màu Resort 3sao 2N2Đ
                                 1,250,000 đ
