url:http://haidangtravel.com/Tour-Dao-Ly-Son-Hoang-So-Tham-Vuong-Quoc-Toi-4N4D
Tittle :Tour Đảo Lý  Sơn Hoang Sơ Thăm Vương Quốc Tỏi 4N4Đ
content :Toggle navigation
                             Trang Chủ
                              Tour Du Lịch
                         Tour Trong Nước Tour Nước Ngoài
                              Tổ Chức Sự Kiện
                             Thuê Xe Du Lịch
                         Thuê Xe 4 Chổ Thuê Xe 7 Chổ Thuê Xe 16 Chổ Thuê Xe 29 Chổ Thuê Xe 35 Chổ Thuê Xe 45 Chổ
                             Khách Sạn
                              Cẩm nang du lịch
                              Tin tức du lịch
                              Bảng Giá Tour
                     1900 2011
                    08.3849.3838 - 0948.99.1080
                    Đăng Ký
                                            ×
                                            ĐĂNG KÝ
                                                        Tên đăng nhập (bắt buộc)
                                                        Nhập số điện thoại ( bắt buôt )
                                                        Nhập họ tên của bạn
                                                        Nhập mail của bạn
                                                        Nhập mật khẩu ( bắt buột )
                                                        Nhập lại mật khẩu ( bắt buột )
                                                        NamNữKhác
                                                        Địa chỉ nhà bạn
                                                        Ngày sinh của bạn
                                                 Nhận mail từ Hải Đăng Travel
                                                Đăng Ký
                        Đăng nhập
                                            ×
                                            ĐĂNG NHẬP
                                        Quên mật khẩu ?
                                        Đăng Ký
                                                Ghi nhớ mật khẩu
                                                Đăng nhập
                    Trang chủ
                 ›
                    Tour trong nước
                 ›
                    Tour Đảo Lý  Sơn Hoang Sơ Thăm Vương Quốc Tỏi 4N4Đ
                 Photo
                                Hổ Trợ Trực Tuyến
                             SKYPE YAHOO0947368118
                             Tour Đảo Lý  Sơn Hoang Sơ Thăm Vương Quốc Tỏi 4N4Đ
                                     3 ngày 3 đêm
                                      Ô Tô 
                                      Nhà nghỉ 
                                     Tạm dừng
                                            Giá gốc: 3,290,000 đ
                                                 Lịch khởi hành
                                 DỊCH VỤ ĐÍNH KÈM
                                  Vé tham quan  Hướng dẫn viên  Ăn uống  Phương tiện   Bảo hiểm  Khách sạn
                                 Cơ hội nhân quà hấp khi đăng ký tour tại www.haidangtravel.com xem quà tặng tại đây 
                                 MUA TOUR
                                 GIỚI THIỆU Tour Đảo Lý  Sơn Hoang Sơ Thăm Vương Quốc Tỏi 4N4Đ
                                Về thăm Lý Sơn – quê hương của Hải đội Hoàng Sa, du khách sẽ được đắm chìm trong khung cảnh thiên nhiên hoang sơ, kỳ vĩ  của  Hòn Tai, Hòn Sỏi, Hòn Vung, Giếng Tiền ..  nhưng không kém phần thơ mộng với màu xanh ngọc lung linh của biển, và hoàng hôn rơi trên đinh Thới Lới .. cùng nhìn lại một thời hào hùng của ông cha gìn giữ vùng hải đảo của tổ quốc.. Người Lý Sơn thật thà, chất phác, sống chan hòa mà vẫn hiên ngang trước phong ba, bão táp, ngày ngày vẫn ra khơi khai thác hải sản, góp phần khẳng định chủ quyền Việt Nam! 
                                         Đánh Giá Tour
                                    0.0
                                                                                                                                    Đăng nhập để đánh giá hay điền các thông tin sau :
                                                        Họ tên (bắt buộc)
                                                        Nhập mail của bạn (bắt buộc)
                                                    Nhập nhận xét của bạn (bắt buộc)
                                                     Đánh giá :
                                                                           Rất Tốt  Tốt  khá  Trung Bình  Bình Thường
                                                Rất Tốt 0
                                                Tốt  0
                                                Khá 0
                                                Tạm Được  0
                                                Bình Thường  0
                                            Nhận xét (0)
                                                                                                                                                                                Hết
                        LỊCH TRÌNH TOUR
                                 NGÀY 1 : TP.HCM – QUẢNG NGÃI
                                    Buổi Trưa
12h30 : Quý khách tập trung tại Ga Sài Gòn. Hướng Dẫn Viên đón quý khách làm thủ tục đáp chuyến tàu đi Quảng Ngãi.
Buổi Tối
18h00 : Quý khách tự do dùng cơm chiều trên tàu và nghỉ đêm trên tàu. ( chi phí tự túc)
                                 NGÀY 2 : QUẢNG NGÃI – LÝ SƠN 
                                    06h00 : Đến Tp.Quảng Ngãi. Xe trung chuyển đưa Quý khách đến Cảng Sa Kỳ (Cách Tp.Quảng Ngãi 20km). Quý khách dùng điểm tâm tại nhà hàng, nghỉ ngơi.
07h30 : Làm thủ tục lên Tàu. Khởi hành đi ra Đảo Lý Sơn. Du khách tận hưởng cảm giác lênh đênh sóng nước, ngắm nhìn cái bao la của trùng dương trong một màu xanh ngọc vô cùng đặc biệt của nước biển Lý Sơn!
09h00 : Tàu đến Lý Sơn. Quý khách nhận phòng tại nhà nghỉ và nghỉ ngơi tự do.
11h00 : Quý khách dùng cơm trưa.
Buổi Trưa
14h30 : Tham quan thắng cảnh Chùa Hang – Hang Câu. “Thiên khổng thạch tự” nằm ngay sát biển, nhưng ngay lối vào hang chính lại có mạch nước ngọt. Du khách không khỏi thú vị khi ngước nhìn mạch nước chảy ra từ đá núi rêu phong, tiếng tí tách của những hạt nước rơi từ thạch nhũ quyện với mùi hương trầm tạo nên cái u tịch của chốn linh thiêng làm cho mọi lo toan bộn bề cuộc sống bỗng chốc tan biến, chỉ còn lại sự hòa hợp giữa thiên nhiên con người với một cảm giác thoải mái bình yên đến lạ!
15h30 : Rời Chùa Hang, Đoàn sẽ tham quan Vũng neo đậu tàu thuyền tại thôn Đông, xã An Hải, là nơi trú ẩn cho hơn 300 tàu thuyền đánh cá của ngư dân trong mùa mưa bão.
16h00 : Tiếp tục, tham quan Hải Đăng Lý Sơn - Là một trong những ngọn hải đăng cao và có vị trí quan trọng trong giao thông hàng hải Việt Nam – Đứng trên Hải Đăng, du khách có thể bao quát toàn cảnh Lý Sơn với núi non hùng vĩ, sóng biển xô bờ, những cánh đồng tỏi xanh tươi và đặc biệt nhất có lẽ vẫn là khung cảnh hoàng hôn đỏ rực bao trùm biển khơi. Đối với những ai yêu thích phong cảnh thiên nhiên thì đây là một cơ hội không thể bỏ qua để tác nghiệp những bức ảnh thiên nhiên tuyệt đẹp !
16h30: Quý khách tự do tắm biển.
Buổi Tối
19h00 : Quý khách dùng bữa tối với tiệc BBQ hải sản với các đặc sản đảo Lý Sơn. 
 
                                 NGÀY 3 : KHÁM PHÁ LÝ SƠN 
                                    Buổi Sáng
06h30 : Quý khách dùng điểm tâm. Tham quan chợ Cá ngay Cầu Tàu, cùng hòa với nhịp sống hàng ngày của người dân hải đảo trong các hoạt động mua bán, trao đổi, đánh bắt thủy hải sản tại chợ Cá.
07h30 : Đoàn khởi hành thăm chùa chùa Đục, ghé lại Cồng Tò Vò – một địa điểm khá quen thuộc của dân nhiếp ảnh khi đến với Lý Sơn để quý khách có thể chiêm ngưỡng và chụp hình kỉ niệm. Cách Cổng Tò Vò không xa là chùa Đục (hay còn gọi là Chùa Không Sư). Ngôi chùa ngự giữa lưng chừng sườn núi Giếng Tiền, ngọn núi lửa đã ngủ quên hàng ngàn năm trên đảo, du khách phải vượt qua hơn 100 bậc thang men theo sườn núi để đến được Chùa Đục và trải nghiệm cảm giác thú vị khi leo lên tận đỉnh Liêm Tự để mục sở thị miệng núi lửa bây giờ là một cảnh đồng cỏ xanh hình lòng chảo. Đỉnh núi là một đài ngoạn cảnh tưởng lý tưởng để ngắm nhìn bao quát biển đảo Lý Sơn từ trên cao để hiểu vì sao nơi đây được ví như chốn bồng lai tiên cảnh!
09h30 : Tiếp theo, xe đưa du khách tham quan các khu trồng hành và tỏi nổi tiếng của Đảo. Cùng tìm hiểu quy trình trồng tỏi, các món ăn đặc biệt được chế biến từ tỏi Lý Sơn và công dụng đặc biệt của Tỏi độc. Tỏi độc hay tỏi cô đơn, tỏi một nhánh là món quà đặc biệt mà mỗi khi ghé thăm hải đảo du khách không quên mang về làm quà tặng cho gia đình và người thân!
11h00 : Xe đưa quý khách trở lại nhà nghỉ. Nghỉ ngơi tự do
Buổi Trưa
14h00 : Viếng tượng đài Hải Đội Hòang Sa kiêm quản Trường Sa – khu di tích ghi dấu mốc một thời bi hùng của Đội quân Hoàng Sa đã ra đi trấn ải không có ngày về. Tham quan khu bảo tàng với các cổ vật văn hóa và chứng tích lịch sử khẳng định chủ quyền Hoàng Sa của Việt Nam.
15h00 : Tiếp theo, du khách sẽ viếng thăm Đình làng An Vĩnh. Tìm hiểu về kiến trúc văn hóa đặc sắc của người xưa. Sự dung hòa giữa văn hóa Chăm và văn hóa Đại Việt đã tạo nên một văn hóa đặc trưng của đình làng ở Lý Sơn.
17h30 : Quý khách về khách sạn  nghỉ ngơi.
Buổi Tối
19h00 : Quý khách tự do thưởng thức hải sản và khám phá Lý Sơn về đêm.
                                 NGÀY 4 : LÝ SƠN – QUẢNG NGÃI – TP.HCM 
                                    Buổi Sáng
06h30 : Quý khách dùng điểm tâm. Trả Phòng.
07h30 : Di chuyển ra bến Tàu – Làm thủ tục lên Tàu khởi hành về đất liền.
09h00 : Về đến Cảng Sa Kỳ - Xe đưa du khách đến biển Mỹ Khê. Trên đường đi, hướng dẫn viên sẽ giới thiệu về một số di tích lịch sử, văn hóa nằm trên cung đường này : Thiên Ấn-Niêm Hà (cảnh đẹp thứ nhất trong 12 cảnh đẹp nổi tiếng của Quảng Ngãi), khu chiến tích Mỹ Lai (nơi ghi lại những tội ác rùng rợn của đế quốc Mỹ ngày 16/3/1968 tại thôn Mỹ Lai, làng Sơn Mỹ)
10h30 : Quý khách thưởng thức món bánh xèo thay bữa cơm trưa một món ăn không thể thiếu trong thực đơn của người du khách cũng như người dân Quảng Ngãi khi đến với biển Mỹ Khê.
11h30 : Xe đưa du khách về  lại Tp.Quảng Ngãi, Tạm biệt Quảng Ngãi đoàn ra Ga làm thủ tục dáp chuyến tàu về lại Tp.HCM. quý khách sẽ được nhìn ngắm làng quê Việt Nam trên hành trình trở về Tp.HCM.
Buổi Tối
18h00 : Quý khách tự do dùng cơm tối trên tàu và nghỉ đêm trên tàu. ( chi phí tự túc)
05h50 : Về đến Tp.HCM . Kết thúc chuyến đi. Chào tạm biệt và hẹn gặp lại quý khách!
** CHÚ Ý :
+ Giờ khởi hành của tàu ra đảo và chương trình có thể thay đổi phụ thuộc vào thời tiết ,nhưng vẫn đảm bảo đầy đủ điểm tham quan cho du khách
                    G.Thiệu
                                        Ngày 1
                                        Ngày 2
                                        Ngày 3
                                        Ngày 4
                     ĐỊA ĐIỂM ĐÓN KHÁCH
                                                    QUÝ KHÁCH ĐI TOUR KHỞI HÀNH BẰNG Ô TÔ VỚI NHỮNG ĐIỂM ĐÓN SAU :
                             Đón khách tại Công ty Du lịch Hải Đăng, 225 Bàu Cát, P12, Quận Tân Bình
                             Đón khách tại Nhà Văn Hóa Thanh Niên, 04 Phạm Ngọc Thạch, Quận 1
                             Đón khách tại Cây xăng Comeco, Ngã 4 Hàng Xanh, Quận Bình Thạnh
                             Đón khách tại Ngã 4 Thủ Đức, Quận 9
                             Đón khách tại Siêu thị Lotte Mart, Ngã 4 Amata, Biên Hòa, Đồng Nai
                            QUÝ KHÁCH ĐI TOUR TUYẾN MIỀN TÂY NHỮNG ĐIỂM ĐÓN SAU :
                             Đón khách tại Công viên Bàu Cát, 141 Đồng Đen, P11, Quận Tân Bình 
                             Đón khách tại Nhà Văn Hóa Thanh Niên, 04 Phạm Ngọc Thạch, Quận 1
                             Bến xe miền tây , Q 6 ( bệnh viện Triều An )
                            QUÝ KHÁCH ĐI TOUR KHỞI HÀNH BẰNG MÁY BAY VỚI NHỮNG ĐIỂM ĐÓN SAU :
                             Quý khách vui lòng tập trung tại nhà ga đối với những khách đi tour khởi hành bằng tàu
                             Quý khách vui lòng tập trung tại sân bay hoặc các phòng chờ của các hãng bay đối với những khách đi tour khởi hành bằng máy bay
                         QUY ĐỊNH TOUR
                                             GIÁ TOUR BAO GỒM 
                                                  Lưu Trú
                                                Khách sạn : Lý Sơn, Hoa Biển, Viễn Đông.. : Máy lạnh , máy quạt , tivi, hoặc khách sạn tương đương
Nhà nghỉ trên đảo, phòng 4 khách
(Do tính chất phòng óc khan hiếm tại Đảo, số lượng phòng còn rất hạn chế,nên nếu quý khách nếu có nhu cầu ở riêng, công ty có phụ thu những khoản bên dưới, mong quý khách thông cảm), Nếu ở ghép phòng 4 khách (phòng quạt), quý khách không phải đóng them phụ thu
Phụ thu phòng 2 khách : 150.000đ/khách/đêm.
Phụ thu phòng 3 khách : 75.000 đ/khách/đêm.
Phụ thu phòng đơn: 250.000 đ/khách/đêm
                                                 Vé Tham Quan
                                                    Vé vào cổng: Vé tham quan cá điểm có trong chương trình ...Tàu cao tốc qua đảo Lý Sơn 
                                                  Ăn Uống
                                                Điểm tâm: 4 buổi
1 set Menu: 40.000 đ/suất (1tô bún, phở, hủ tiếu + 1 ly nước ngọt, sữa, café)
Ăn chính: 4 buổi
3 buổi: 90.000đ/suất
1 buổi tiệc hải sản ; 150.000 đ/suất
                                                   Nón Nước - Khăn Lạnh
                                                Nước suối: 1 chai 500ml/ngày/khách
Khăn lạnh: 1 cái/ngày/khách
Nón du lịch: 1 nón HAIDANGTRAVEL/khách
                                                 Phương Tiện
                                                Xe đời mới máy lạnh 29,35,45 Chỗ, đón khách theo chương trình
Vé tàu lửa khứ hồi: SG-Quãng Ngãi-Sài Gòn
                                             GIÁ TOUR KHÔNG BAO GỒM 
                                                   Chi Phí Cá Nhân
                                                Chi phí cá nhân : Giặt ủi, điện thoại,ăn uống ngoài chương trình …..Điểm tham quan	Ngoài chương trình ...Thuế VAT 10%	Khách nào có nhu cầu xuất hóa đơn thì đóng thêm 10% giá tour, Giá vé tàu lửa SG-QN-SG( Vé Tàu ngồi mềm điều hòa khứ hồi : 1.150.000đ/khách)
                                                  Thuế VAT
                                                 10% thuế VAT
                                             QUY ĐỊNH TRẺ EM 
                                                Trẻ em dưới 05 tuổi miễn phí – cha mẹ lo toàn bộ chi phí cho bé nếu có phát sinh. 02 người lớn chỉ được kèm 01 trẻ em. Trường hợp 02 người lớn kèm 02 trẻ em dưới 05 tuổi. Trẻ em thứ 1 được miễn phí, trẻ em thứ 2 áp dụng mức phí: 50%/mức phí người lớn
Trẻ em từ 05 – 10 tuổi : 75%/mức phí người lớn – bao gồm tất cả các chi phí & ghế ngồi riêng trên xe, ngủ chung giường với bố mẹ. 02 người lớn chỉ được kèm 01 trẻ em. Trường hợp 02 người lớn đi kèm 02 trẻ em, trẻ em thứ 2 phải áp dụng mức phí của người lớn.
Trẻ em từ 11 tuổi: 100% giá tour - như người lớn.
                                             QUY ĐỊNH MUA VÀ HỦY TOUR 
                                                Sau khi đăng ký, thanh toán ít nhất 50% tiền cọc và đóng hết 100% trước khởi hành 7 ngày.
Dời ngày khởi hành trước 10 ngày không mất phí, sau 8 ngày mất 20%.( Không tính ngày lễ và chủ nhật), chỉ được dời 1 lần.
Sau khi đăng ký huỷ tour mất 10% giá tour
Từ 10 đến trước 8 ngày trước ngày khởi hành chịu phí 30% giá tour.( Không tính ngày lễ và chủ nhật)
Từ 8 đến 6 ngày trước ngày khởi hành chịu phí 50% giá tour.( Không tính ngày lễ và chủ nhật)
Từ 3-5 ngày trước ngày khởi hành chịu phí 70% giá tour.( Không tính ngày lễ và chủ nhật)
Từ 2 ngày trước ngày khởi hành chịu phí 100% giá tour.( Không tính ngày lễ và chủ nhật)
Các quy định trên không áp dụng cho các dịp lễ và tết.
Các ngày lễ tết việc dời ngày và hủy tour trước 15 ngày khởi hành mất 50% giá tour. Sau 15 ngày so với ngày khởi hành mất 100% giá tour.(Không tính ngày chủ nhật.)
Sau khi hủy tour, du khách vui lòng đến công ty nhận tiền trong vòng 2 tuần kể từ ngày đăng ký tour. Chúng tôi chỉ thanh toán trong thời gian 14 ngày nói trên.
Trường hợp hủy tour do sự cố khách quan như thiên tai, dịch bệnh hoặc do tàu thủy, xe lửa, máy bay hoãn/hủy chuyến, Hải Đăng Travel sẽ không chịu trách nhiệm bồi thường thêm bất kỳ chi phí nào khác ngoài việc hoàn trả chi phí những dịch vụ chưa được sử dụng của tour đó.
                                             HÌNH THỨC THANH TOÁN 
                                                Thanh toán bằng tiền mặt tại Trụ sở chính, chi nhánh của Hải Đăng Travel hoặc công ty hỗ trợ thu tận nơi ( nếu khách có yêu cầu)
Chuyển khoản qua số tài khoản
Số tài khoản: 711A00686521.
Chủ tài khoản: Dương Phan Quốc Văn – Vietinbank TP.HCM.
Nội dung: Tour Đảo Lý  Sơn Hoang Sơ Thăm Vương Quốc Tỏi 4N4Đ. Ngày khởi hành:…, Tên khách:…, Số lượng:…
Sử dụng Voucher, cung cấp mã số Voucher, đóng thêm phụ thu (nếu có). Quý khách giữ Voucher và nộp lại cho công ty.
Thanh toán bằng thẻ Visa ( thẻ từ, thẻ chip,…)
Thẻ giảm giá, thẻ ưu đãi xuất trình khi đăng ký tour.
                     ĐIỂM THAM QUAN 
                                                  Kiểm Tra Giá & Lịch Khởi Hành 
                                                                                                                                        Nhà nghỉ
                            Khởi Hành
                            = 
                            Người lớn
                            = 
                            Trẻ em
                            = 
                            Tổng cộng
                                = 
                         Mua Tour
                TOUR LIÊN QUAN
                                                                                                                                                                                                                                                                                                                                                                                                                                                                                                                                                                                                                                                                                                                                                                                                                                                                                                                                                                                                                                                                                                                                                                                                                                                                                                                                                                                                                                                                                                                                                                                                                                                                                                                                                                                                                                                                                                                                                                                                                                                                                                                                                                                                                                                                                                                                                                                                                                                                                                                                                                                                                                                                                                                                                                                                                                                                                                                                                                                                                                                                                                                                                                                                                                                                                                                                                                                                                                                                                                                                                                                                                                                                                                                                                                                                                                                                                                                                                                                                                                                                                                                                                                                                                                                                                                                                                                                                                                                                                                                                                                                                                                                                                                                                                                                                                                                                                                                                                                                                                                                                                                                                                                                                                                                                                                                                                                                                                                                                                                                                                                                                                                                                                                                                                                                                                                                                                                                                                                                                                                                                                                                                                                                                                                                                                                                                                                                                                                                                                                                                                                                                                                                                                                                                                                                                                                                                                                                                                                                                                                                                                                                                                                                                                                                                                                                                                                                                                                                                                    New
                                              3 ngày 2 đêm |  Máy Bay Trọn Gói |  5 sao
                                            Xem
                                    Tour Đà Nẵng, Khám Phá Furama Resort Đà Nẵng 
                                         9,900,000 đ
                                                Giá gốc: 10,900,000 đ
                                                     Lịch khởi hành
                                                        20/11/201621/11/201622/11/201623/11/201624/11/201625/11/201626/11/201627/11/201628/11/201629/11/201630/11/2016
                                                                                                                                                                                                                                                                                                                                                                                                                                                                                                                                                                                                                                                                                                                                                                                                                                                                                                                                                                                                                                                                                                                                                                                                                                                                                                                                                                                                                                                                                                                                                                                                                                                                                                                                                                                                                                                                                                                                                                                                                                                                                                                                                                                                                                                                                                                                                                                                                                                                                                                                                                                                                                                                                                                                                                                                                                                                                                                                                                                                                                                                                                                                                                                                                                                                                                                                                                                                                                                                                                                                                                                                                                                                                                                                                                                                                                                                                                                                                                                                                                                                                                                                                                                                                                                                                                                                                                                                                                                                                                                                                                                                                                                                                                                                                                                                                                                                                                                                                                                                                                                                                                                                                                                                                                                                                                                                                                                                                                                                                                                                                                                                                                                                                                                                                                                                                                                                                                                                                                                                                                                                                                                                                                                                                                                                                                                                                                                                                                                                                                                                                                                                                                                                                                                                                                                                                                                                                                                                                                                                                                                                                                                                                                                                                                                New
                                              1 ngày 1 đêm |  Ô TÔ |  2 sao
                                            Xem
                                    Tour Rừng Tràm Trà Sư, Châu Đốc 1N1Đ
                                         590,000 đ
                                                Giá gốc: 1,000,000 đ
                                                     Lịch khởi hành
                                                        25/11/201625/11/201625/11/201602/12/201602/12/201602/12/201609/12/201609/12/201609/12/201616/12/201616/12/201616/12/2016
                                                                                                                                                                                                                                                                                                                                                                                                                                                                                                                                                                                                                                                                                                                                                                                                                                                                                                                                                                                                                                                                                                                                                                                                                                                                                                                                                                                                                                                                                                                                                                                                                                                                                                                                                                                                                                                                                                                                                                                                                                                                                                                                                                                                                                                                                                                                                                                                                                                                                                                                                                                                                                                                                                                                                                                                                                                                                                                                                                                                                                                                                                                                                                                                                                                                                                                                                                                                                                                                                                                                                                                                                                                                                                                                                                                                                                                                                                                                                                                                                                                                                                                                                                                                                                                                                                                                                                                                                                                                                                                                                                                                                                                                                                                                                                                                                                                                                                                                                                                                                                                                                                                                                                                                                                                                                                                                                                                                                                                                                                                                                                                                                                                                                                                                                                                                                                                                                                                                                                                                                                                                                                                                                                                                                                                                                                                                                                                                                                                                                                                                                                                                                                                                                                                                                                                                                                                                                                                                                                                                                                                                                                                                                                                                                                                                                                                            New
                                              3 ngày 3 đêm |  Ô Tô |  2 sao
                                            Xem
                                    Tour Đà Lạt, Ẩm Thực Đà Lạt, Buffet Rau Không Giới Hạn 3N3Đ
                                         1,190,000 đ
                                                Giá gốc: 1,820,000 đ
                                                     Lịch khởi hành
                                                        24/11/201601/12/201608/12/201615/12/2016
                                                                                                                                                                                                                                                                                                                                                                                                                                                                                                                                                                                                                                                                                                                                                                                                                                                                                                                                                                                                                                                                                                                                                                                                                                                                                                                                                                                                                                                                                                                                                                                                                                                                                                                                                                                                                                                                                                                                                                                                                                                                                                                                                                                                                                                                                                                                                                                                                                                                                                                                                                                                                                                                                                                                                                                                                                                                                                                                                                                                                                                                                                                                                                                                                                                                                                                                                                                                                                                                                                                                                                                                                                                                                                                                                                                                                                                                                                                                                                                                                                                                                                                                                                                                                                                                                                                                                                                                                                                                                                                                                                                                                                                                                                                                                                                                                                                                                                                                                                                                                                                                                                                                                                                                                                                                                                                                                                                                                                                                                                                                                                                                                                                                                                                                                                                                                                                                                                                                                                                                                                                                                                                                                                                                                                                                                                                                                                                                                                                                                                                                                                                                                                                                                                                                                                                                                                                                                                                                                                                                                                                                                                                                                                                                                                                                                                                                                                                                        New
                                              2 ngày 2 đêm |  Máy Bay Trọn Gói |  5 sao
                                            Xem
                                    Tour Nghỉ Dưỡng, An Lâm Ninh Van Bay Lillas, Trọn gói Vé Máy Bay 2N2Đ
                                         13,300,000 đ
                                                Giá gốc: 16,100,000 đ
                                                     Lịch khởi hành
                                                        20/11/201621/11/201622/11/201623/11/201624/11/201625/11/201626/11/201627/11/201628/11/201629/11/201630/11/2016
                                                                                                                                                                                                                                                                                                                                                                                                                                                                                                                                                                                                                                                                                                                                                                                                                                                                                                                                                                                                                                                                                                                                                                                                                                                                                                                                                                                                                                                                                                                                                                                                                                                                                                                                                                                                                                                                                                                                                                                                                                                                                                                                                                                                                                                                                                                                                                                                                                                                                                                                                                                                                                                                                                                                                                                                                                                                                                                                                                                                                                                                                                                                                                                                                                                                                                                                                                                                                                                                                                                                                                                                                                                                                                                                                                                                                                                                                                                                                                                                                                                                                                                                                                                                                                                                                                                                                                                                                                                                                                                                                                                                                                                                                                                                                                                                                                                                                                                                                                                                                                                                                                                                                                                                                                                                                                                                                                                                                                                                                                                                                                                                                                                                                                                                                                                                                                                                                                                                                                                                                                                                                                                                                                                                                                                                                                                                                                                                                                                                                                                                                                                                                                                                                                                                                                                                                                                                                                                                                                                                                                                                                                                                                                                                                                                                                                                                                                                                                                                                                                                                                                New
                                              2 ngày 2 đêm |  Ô Tô |  0 sao
                                            Xem
                                    Tour Đảo Bình Ba, Tiệc BBQ Xe Giường Nằm 2N2Đ
                                         1,090,000 đ
                                                Giá gốc: 2,260,000 đ
                                                     Lịch khởi hành
                                                        25/11/201602/12/201609/12/201616/12/201623/12/2016
                                                                                                                                                                                                                                                                                                                                                                                                                                                                                                                                                                                                                                                                                                                                                                                                                                                                                                                                                                                                                                                                                                                                                                                                                                                                                                                                                                                                                                                                                                                                                                                                                                                                                                                                                                                                                                                                                                                                                                                                                                                                                                                                                                                                                                                                                                                                                                                                                                                                                                                                                                                                                                                                                                                                                                                                                                                                                                                                                                                                                                                                                                                                                                                                                                                                                                                                                                                                                                                                                                                                                                                                                                                                                                                                                                                                                                                                                                                                                                                                                                                                                                                                                                                                                                                                                                                                                                                                                                                                                                                                                                                                                                                                                                                                                                                                                                                                                                                                                                                                                                                                                                                                                                                                                                                                                                                                                                                                                                                                                                                                                                                                                                                                                                                                                                                                                                                                                                                                                                                                                                                                                                                                                                                                                                                                                                                                                                                                                                                                                                                                                                                                                                                                                                                                                                                                                                                                                                                                                                                                                                                                                                                                                                                                                                                                                                                                                                                                                                                                                                                                                                                                                                            New
                                              3 ngày 2 đêm |  máy bay |  2 sao
                                            Xem
                                    Tour Phú Quốc,Bao Vé Máy Bay Vinpearland, Câu Cá, Ngắm San Hô Nam Đảo 3N2Đ
                                         2,990,000 đ
                                                Giá gốc: 2,200,000 đ
                                                     Lịch khởi hành
                                                        20/11/201621/11/201622/11/201623/11/201624/11/201625/11/201626/11/201627/11/201628/11/201629/11/201630/11/2016
                    TRỤ SỞ CHÍNH
                         225 Bàu Cát, P12, Q.Tân Bình, HCM
                         19002011 - 08 3849 3838 
                        08 3849 2999   
                          www.haidangtravel.com  
                         info@haidangtravel.com 
                        CSKH: 0948.99.1080
                    CHI NHÁNH
                         Quận 1 : Lầu 7, Tòa Nhà Viễn Đông, 14 Phan Tôn
                        19002011(Ext-107) -  0838204589  
                         Quận 12 : 256 TX25, Thạnh Xuân, Q12 
                        19002011(Ext-111)
                         Biên Hòa : 51A2, KP11, P.Tân Phong 
                        19002011(Ext-108) -  0613999392  
                    TRỢ GIÚP
                    Liên hệ & giới thiệuĐiều khoản chungHình thức thanh toánHướng dẫn mua tourChính sách bảo mật
                        GIỜ LÀM VIỆC
                            Thứ 2 đến 6
                                Sáng: 08:00-12:00Chiều:13:30-17:30
                            Thứ 7 Sáng: 08:00-12:00Nghỉ chủ nhật, lễ, tết
                    Được tìm kiếm nhiều
                        Tour Nha Trang
                        Tour Đà Lạt
                        Tour Cà Mau
                        Tour Phú Yên
                        Tour Ninh Chữ
                        Tour Côn Đảo
                        Tour Miền Bắc
                        Tour Phú Quốc
                        Tour Đà Nẵng
                        Tour Phan Thiết
                        Tour Bình Ba
                        Tour Nam Du
                        Tour Vũng Tàu
                        Tour Bà Lụa
                THÀNH TÍCH
            2015 © All Rights Reserved. Công ty cổ phần xây dựng du lịch Hải Đăng
        Your browser doesn't support canvas. Please download IE9+ on
            IE Test Drive
            +
                Có thể bạn quan tâm ?
                                Tour du lịch Vũng Tàu, Long Hải, Suối nước nóng Bình Châu 2N1Đ
                                 789,000 đ
                                Tour Côn Đảo, Trọn Gói Vé Máy Bay 2N1Đ
                                 3,999,000 đ
                                Tour Đảo Phú Quý, Khám Phá Hòn Đảo Mang Vẻ Đẹp Hoang Sơ 3N3Đ
                                 2,250,000 đ
                                Tour Đảo Hòn Sơn Khám Phá Đỉnh Ma Thiên Lãnh 2N2Đ
                                 1,390,000 đ
                                Tour Ninh Chữ - Vĩnh Hy - Cổ Thạch đồng giá 2N2Đ
                                 999,000 đ
                                Tour Côn Đảo, Khám Phá Lịch Sử Văn Hóa Côn Sơn 2N1Đ
                                 4,590,000 đ
                                Tour Ninh Chữ - Vĩnh Hy Khám Phá Bãi Đá Bảy Màu Resort 3sao 2N2Đ
                                 1,250,000 đ
                                Tour Đà Lạt Phototrip Khám Phá Những Cung Đường Hoa 3N3Đ
                                 1,250,000 đ
                                Tour Ninh Chữ, Vĩnh Hy Hang Rái Siêu Tiết Kiệm 2n2d
                                 850,000 đ
                                Tour Đảo Bình Hưng, Hang Rái, Vĩnh Hy 2n2d
                                 1,111,000 đ
                        ×
