url:http://haidangtravel.com/Tour-Nha-Trang-Du-Ngoan-Dao-Dong-Gia-2N3D
Tittle :Tour Nha Trang Du Ngoạn Đảo Đồng Giá 2N3Đ
content :Toggle navigation
                             Trang Chủ
                              Tour Du Lịch
                         Tour Trong Nước Tour Nước Ngoài
                              Tổ Chức Sự Kiện
                             Thuê Xe Du Lịch
                         Thuê Xe 4 Chổ Thuê Xe 7 Chổ Thuê Xe 16 Chổ Thuê Xe 29 Chổ Thuê Xe 35 Chổ Thuê Xe 45 Chổ
                             Khách Sạn
                              Cẩm nang du lịch
                              Tin tức du lịch
                              Bảng Giá Tour
                     1900 2011
                    08.3849.3838 - 0948.99.1080
                    Đăng Ký
                                            ×
                                            ĐĂNG KÝ
                                                        Tên đăng nhập (bắt buộc)
                                                        Nhập số điện thoại ( bắt buôt )
                                                        Nhập họ tên của bạn
                                                        Nhập mail của bạn
                                                        Nhập mật khẩu ( bắt buột )
                                                        Nhập lại mật khẩu ( bắt buột )
                                                        NamNữKhác
                                                        Địa chỉ nhà bạn
                                                        Ngày sinh của bạn
                                                 Nhận mail từ Hải Đăng Travel
                                                Đăng Ký
                        Đăng nhập
                                            ×
                                            ĐĂNG NHẬP
                                        Quên mật khẩu ?
                                        Đăng Ký
                                                Ghi nhớ mật khẩu
                                                Đăng nhập
                    Trang chủ
                 ›
                    Tour trong nước
                 ›
                    Tour Nha Trang Du Ngoạn Đảo Đồng Giá 2N3Đ
                 Photo
                                Hổ Trợ Trực Tuyến
                             SKYPE YAHOO0947368118
                             Tour Nha Trang Du Ngoạn Đảo Đồng Giá 2N3Đ
                                     2 ngày 3 đêm
                                      Ô Tô 
                                      2 sao 
                                     999,000 đ
                                            Giá gốc: 1,999,000 đ
                                                 Lịch khởi hành
                                                                                                        25/11/201609/12/2016
                                 DỊCH VỤ ĐÍNH KÈM
                                  Vé tham quan  Hướng dẫn viên  Ăn uống  Phương tiện   Bảo hiểm  Khách sạn
                                 Cơ hội nhân quà hấp khi đăng ký tour tại www.haidangtravel.com xem quà tặng tại đây 
                                 MUA TOUR
                                 GIỚI THIỆU Tour Nha Trang Du Ngoạn Đảo Đồng Giá 2N3Đ
                                         Đánh Giá Tour
                                    0.0
                                                                                                                                    Đăng nhập để đánh giá hay điền các thông tin sau :
                                                        Họ tên (bắt buộc)
                                                        Nhập mail của bạn (bắt buộc)
                                                    Nhập nhận xét của bạn (bắt buộc)
                                                     Đánh giá :
                                                                           Rất Tốt  Tốt  khá  Trung Bình  Bình Thường
                                                Rất Tốt 0
                                                Tốt  0
                                                Khá 0
                                                Tạm Được  0
                                                Bình Thường  0
                                            Nhận xét (0)
                                                                                                                                                                                Hết
                        LỊCH TRÌNH TOUR
                                 NGÀY 1 : TP. HỒ CHÍ MINH  – NHA TRANG         
                                    20h00: Xe và hướng dẫn viên công ty Hai Dang Travel đón đoàn tại điểm hẹn trong thành phố, sau đó khởi hành đi Nha Trang
Nghỉ đêm trên xe.
TẮM BIỂN BÃI DÀI - THAM QUAN NHÀ YẾN – VINPEARLAND  
07:30 Qúy khách dung điểm tâm tại nhà hàng
08:00 Đoàn tham quan tắm biển Bãi Dài,quý khách sẽ bị chinh phục ngay bởi một bãi cát dài mịn màng dưới chân kèm với đó là một nét hoang sơ còn chưa được con người khai phá. Biển cạn, nước chỉ khoảng tới đầu gối, bạn có thể nô đùa cùng sóng biển hay thả mình trong làn nước trong xanh, cảm giác thật thú vị và vô cùng dễ chịu. Các dịch vụ vui chơi cũng đã có mặt như đi cano trên biêtn hay lướt sóng và môtô nước sẽ đem đến cho du khách thêm phần thú vị.  Một điều vô cùng kỳ thú ở Bãi Dài, du khách chỉ cần xúc vài xẻng cát ở bờ biển, đào một cái hố nhỏ là đã có thể tìm thấy nước ngọt, trong veo và tươi mát không kém gì nước suối, quả thực kỳ lạ.
11:00 Đoàn khởi hành về Nha Trang, đến nhà hàng dùng cơm trưa.
11:30 Trở về  khách sạn nhận phòng và nghỉ ngơi.
15h30: Quý khách tham quan mua sắm Yến sào Nha Trang tốt nhất, giá cả rẻ nhất ; được dùng trà Yến miễn phí và nếm vị Yến sào Nha Trang chính hiệu. Kế đến, Quý khách sẽ tận mắt nhìn thấy các quy trình sơ chế tổ Yến, được phổ biển tỉ mỉ kỹ thuật xây dựng nhà chim và nghệ thuật dẫn dụ chim Yến vào nhà. Quý khách sẽ được nghe thuyết minh sâu sắc vòng đời chim Yến... Và, hấp dẫnnhất là được vào  bên trong nhà chim, được sờ thấy những chiếc tổ Yến và nhìn thấy chim Yến “cư ngụ” trong môi trường nhà phố.
16h00: Quý khách tham quan Khu Du Lịch 5 Sao Vinpearland bằng hệ thống cáp treo vượt biển (nếu có nhu cầu)
Quý khách tự do tham gia tất cả các trò chơi trong nhà, ngoài trời:
Hệ thống làn trượt đầu tiên trên đảo tại Châu Á: Alpine Coaster
Trò chơi bật nhảy Bungee
Hay thử sức“bay” trên biển với các trò chơi cảm giác mạnh như: đu quay 3 chiều, đu quay văng dây, đu quay thú nhún, đu quay voi con, tàu hải tặc, tàu lượn cao tốc.
Khám phá hệ thống các trò chơi trong nhà như: đấu bò tót, xe đụng, vườn cổ tích, thiên đường trẻ em, siêu thị game, hát karaoke & và trải nghiệm cảm giác mới lạ  trong rạp chiếu phim 4D hiện đại.
Thám hiểm thế giới đại dương với hàng trăm ngàn sinh vật biển qua Thủy Cung Vinpearl lớn nhất Đông Nam Á bằng hệ thống cầu thang cuốn trong một đường hầm dài 90m dưới đáy biển được thiết kế rất công phu tạo cảm giác hấp dẫn, kỳ bí.
Trải nghiệm đa cảm giác tại khu vực Công Viên Nước với các trò chơi cảm giác mạnh: đường trượt 6 làn, hố đen vũ trụ, cảm tử quân, rơi tự do, sóng thần, phao bay & phao vượt tốc. Thỏa thích trong không gian của bé tại khu vực trò chơi dành cho gia đình: hồ bơi trẻ em, hồ tạo sóng, máng trượt thân người, máng trượt nhóm gia đình…
Dạo bộ dọc những dãy phố mua sắm rộng hơn 6000 m2 với những gian hàng thiết kế độc đáo
Tham quan Trúc Lâm Tịnh Viện để tìm về một không gian tâm linh, thành kính và hướng thiện của đức Phật
18h00: Quý khách tự túc dung fastfood tại Vinpearland
Quý khách không đi Vinpearland, tự do khám phá ẩm thực Nha Trang về đêm với các món hải sản nơi phố biển.
                                 NGÀY 2 : DU NGOẠN ĐẢO- CON SẺ TRE-TẮM BÙN KHOÁNG THÁP BÀ - CHÙA LONG SƠN - NHÀ THỜ ĐÁ- CHỢ ĐẦM
                                    07:00 Xe đón đoàn dung điểm tâm sang tại nhà hàng.
Quý khách lên tàu, du ngoạn một vòng đảo sau đó di chuyển đến Con Sẻ Tre. Từ một hòn đảo đá, “ Con Sẻ Tre “ được xây dựng thành một khu du lịch thơ mộng nhất hiện nay tại Nha Trang .
Bạn sẽ tìm thấy tại “ Con Sẻ Tre” những cảnh vật làng quê xưa cũ mà đã một hoặc nhiều lần xuất hiện trong giấc mơ hôm nay hay thời niên thiếu của bạn.
Bạn có được tại " Con Sẻ Tre":một không gian thanh bình, một bờ biển trong sạch, một khung cảnh thi ca, những sinh hoạt đậm đà tính dân gian.
Đến với Con Sẻ Tre,bạn sẽ cảm nhận được sự hào phóng của gió biển nguyên chất, nước biển xanh nồng nàn, tiếng sóng vỗ dịu êm làm cho tâm hồn bạn thư thái và khoan khoái. Bạn thỏa sức hít căng lồng ngực không khí trong lành, tinh khiết nơi đây và quên đi bao âu lo, căng thẳng đời thường. Con Sẻ Tre rất phù hợp với việc nghỉ ngơi thư giãn, tắm biển, lặn biển, câu cá, cưỡi hon-đa nước, leo núi...
12h00: Quý khách dung bữa trưa tại Nhà Hàng
Buổi chiều:
13h00: Đoàn tham quan tắm khoáng tháp Bà để thư giãn bằng hơi nước và nước khoáng thiên nhiên, và là nơi phục hồi sức khỏe bằng phương pháp trị liệu với nước khoáng mang lại tinh thần thư thái cho con người.
15h00: Xe đưa đoàn tham quan chùa Long Sơn, Chùa còn được gọi là chùa Phật Trắng hoặc Đăng Long tự. Đây là điểm đến hành hương, vãn cảnh yêu thích của người địa phương cũng như khách thập phương và là ngôi chùa nổi tiếng nhất thành phố Nha Trang bởi lịch sử lâu đời với bức tượng Kim Thân Phật tổ nằm trên đỉnh núi.
Xây dựng từ năm 1963, đã đưa ngôi chùa vào danh sách kỷ lục Việt Nam: “Ngôi chùa có tượng Phật ngoài trời lớn nhất Việt Nam”.
16h00 : Đoàn tham quan Nhà Thờ Đá, một công trình kiến trúc độc đáo của Nha Trang.
16h30 : Đoàn tham quan  và mua sắm ở Chợ Đầm
18:00  Quý khách dung buổi tối tại Nhà Hàng
19h00 Đoàn khởi hành  về lại TP HCM, quý khách nghỉ đêm trên xe
05h00 Đến HCM, kết thúc chương trình chia tay quý khách và hẹn gặp lại
                    G.Thiệu
                                        Ngày 1
                                        Ngày 2
                     ĐỊA ĐIỂM ĐÓN KHÁCH
                                                QUÝ KHÁCH ĐI TOUR KHỞI HÀNH BẰNG Ô TÔ VỚI NHỮNG ĐIỂM ĐÓN SAU :
Đón khách tại Công ty Du lịch Hải Đăng, 225 Bàu Cát, P12, Quận Tân Bình
Đón khách tại Nhà Văn Hóa Thanh Niên, 04 Phạm Ngọc Thạch, Quận 1
Đón khách tại Cây xăng Comeco, Ngã 4 Hàng Xanh, Quận Bình Thạnh
Đón khách tại Ngã 4 Thủ Đức, Quận 9
Đón khách tại Siêu thị Lotte Mart, Ngã 4 Amata, Biên Hòa, Đồng Nai
QUÝ KHÁCH ĐI TOUR TUYẾN MIỀN TÂY NHỮNG ĐIỂM ĐÓN SAU :
Đón khách tại Công viên Bàu Cát, 141 Đồng Đen, P11, Quận Tân Bình
Đón khách tại Nhà Văn Hóa Thanh Niên, 04 Phạm Ngọc Thạch, Quận 1
Bến xe miền tây , Q 6 ( bệnh viện Triều An )
QUÝ KHÁCH ĐI TOUR KHỞI HÀNH BẰNG MÁY BAY VỚI NHỮNG ĐIỂM ĐÓN SAU :
Quý khách vui lòng tập trung tại nhà ga đối với những khách đi tour khởi hành bằng tàu
Quý khách vui lòng tập trung tại sân bay hoặc các phòng chờ của các hãng bay đối với những khách đi tour khởi hành bằng máy bay
                         QUY ĐỊNH TOUR
                                             GIÁ TOUR BAO GỒM 
                                                  Lưu Trú
                                                Khách sạn 2 sao: Cường Long, Phương Nhung …..
Máy lạnh, tivi, hoặc khách sạn tương đương,phòng 2-4 khách.
Phòng đôi (chỉ ưu tiên cho những cặp vợ chồng)
Phụ thu phòng đơn: 1 phòng 1 khách: 400.000 đ/khách/1 đêm dịp lễ, 150.000 đ/khách/1 đêm ngày thường
Trường hợp có khách đi lẻ, Hải Đăng ghép cho khách và khách không phải đóng phụ thu.
. *** Nếu quý khách có nhu cầu ở khách sạn 3-4-5 sao vui lòng liên hệ HAIDANGTRAVEL để được sắp xếp.
                                                 Vé Tham Quan
                                                    Vé vào cổng:Tàu tham quan KDL Đảo Con Sẻ Tre
                                                  Ăn Uống
                                                Điểm tâm: 2 buổi
1 set Menu: 40.000 đ/suất (1tô bún, phở, hủ tiếu + 1 ly nước ngọt, sữa, café)
Ăn chính: 3 buổi
3 buổi: 80.000đ/suất
                                                   Nón Nước - Khăn Lạnh
                                                Nước suối: 1 chai 500ml/ngày/khách
Khăn lạnh: 1 cái/ngày/khách
Nón du lịch: 1 nón HAIDANGTRAVEL/khách
                                                 Phương Tiện
                                                Xe đời mới máy lạnh 45 Chỗ, đón khách theo chương trình
Mỗi đợt khởi hành tối thiểu 25 khách cho xe 30 chỗ.Trường hợp không đủ slk thì được dời sang lịch khởi hành tiếp theo.
                                             GIÁ TOUR KHÔNG BAO GỒM 
                                                   Chi Phí Cá Nhân
                                                Chi phí cá nhân:Giặt ủi, điện thoại,ăn uống ngoài chương trình …..Điểm tham quan:Vinpearland, Tắm bùn khoáng tại Tháp Bà, tắm nước ngọt tại Bãi Dài và chi phí cá nhân ngoài chương trình....Thuế VAT 10% Khách nào có nhu cầu xuất hóa đơn thì đóng thêm 10% giá tour.
                                                  Thuế VAT
                                                 10% thuế VAT
                                             QUY ĐỊNH TRẺ EM 
                                                1.Trẻ em dưới 05 tuổi, cao dưới 1m: miễn phí – cha mẹ lo toàn bộ chi phí cho bé nếu có phát sinh. 02 người lớn chỉ được kèm 01 trẻ em. Trường hợp 02 người lớn kèm 02 trẻ em dưới 05 tuổi. Trẻ em thứ 1 được miễn phí, trẻ em thứ 2 áp dụng mức phí: 50%/mức phí người lớn :  Phụ thu ghế ngồi trên xe: 40%/ giá vé của người lớn( Nếu ba mẹ có yêu cầu)
2.Trẻ em từ 05 – 10 tuổi, cao từ 1m – 1.4m: 75%/mức phí người lớn – bao gồm tất cả các chi phí & ghế ngồi riêng trên xe, ngủ chung giường với bố mẹ. 02 người lớn chỉ được kèm 01 trẻ em. Trường hợp 02 người lớn đi kèm 02 trẻ em, trẻ em thứ 2 phải áp dụng mức phí của người lớn.  
3.Trẻ em từ 05 – 10 tuổi, cao trên 1m4: 85%/mức phí người lớn – bao gồm tất cả các chi phí & ghế ngồi riêng trên xe, ngủ chung giường với bố mẹ. 02 người lớn chỉ được kèm 01 trẻ em. Trường hợp 02 người lớn đi kèm 02 trẻ em, trẻ em thứ 2 phải áp dụng mức phí của người lớn.
4.Trẻ em từ 11 tuổi: 100% giá tour - như người lớn.
                                             QUY ĐỊNH MUA VÀ HỦY TOUR 
                                                Sau khi đăng ký, thanh toán ít nhất 50% tiền cọc và đóng hết 100% trước khởi hành 7 ngày.
Dời ngày khởi hành trước 10 ngày không mất phí, sau 8 ngày mất 20%.( Không tính ngày lễ và chủ nhật), chỉ được dời 1 lần.
Sau khi đăng ký huỷ tour mất 10% giá tour
Từ 10 đến trước 8 ngày trước ngày khởi hành chịu phí 30% giá tour.( Không tính ngày lễ và chủ nhật)
Từ 8 đến 6 ngày trước ngày khởi hành chịu phí 50% giá tour.( Không tính ngày lễ và chủ nhật)
Từ 3-5 ngày trước ngày khởi hành chịu phí 70% giá tour.( Không tính ngày lễ và chủ nhật)
Từ 2 ngày trước ngày khởi hành chịu phí 100% giá tour.( Không tính ngày lễ và chủ nhật)
Các quy định trên không áp dụng cho các dịp lễ và tết.
Các ngày lễ tết việc dời ngày và hủy tour trước 15 ngày khởi hành mất 50% giá tour. Sau 15 ngày so với ngày khởi hành mất 100% giá tour.(Không tính ngày chủ nhật.)
Sau khi hủy tour, du khách vui lòng đến công ty nhận tiền trong vòng 2 tuần kể từ ngày đăng ký tour. Chúng tôi chỉ thanh toán trong thời gian 14 ngày nói trên.
Trường hợp hủy tour do sự cố khách quan như thiên tai, dịch bệnh hoặc do tàu thủy, xe lửa, máy bay hoãn/hủy chuyến, Hải Đăng Travel sẽ không chịu trách nhiệm bồi thường thêm bất kỳ chi phí nào khác ngoài việc hoàn trả chi phí những dịch vụ chưa được sử dụng của tour đó.
                                             HÌNH THỨC THANH TOÁN 
                                                Thanh toán bằng tiền mặt tại Trụ sở chính, chi nhánh của Hải Đăng Travel hoặc công ty hỗ trợ thu tận nơi ( nếu khách có yêu cầu)
Chuyển khoản qua số tài khoản
Số tài khoản: 711A00686521.
Chủ tài khoản: Dương Phan Quốc Văn – Vietinbank TP.HCM.
Nội dung: Tour D9GPB2016-Nha Trang 2N3D Ngày khởi hành:…, Tên khách:…, Số lượng:…
Sử dụng Voucher, cung cấp mã số Voucher, đóng thêm phụ thu (nếu có). Quý khách giữ Voucher và nộp lại cho công ty.
Thanh toán bằng thẻ Visa ( thẻ từ, thẻ chip,…)
Thẻ giảm giá, thẻ ưu đãi xuất trình khi đăng ký tour.
                     ĐIỂM THAM QUAN 
                                                  Kiểm Tra Giá & Lịch Khởi Hành 
                                                                                            KS 2 Sao
                            Khởi Hành
                                                                                                                                                                    25/11/201609/12/2016
                            = 
                            Người lớn
                            = 
                            Trẻ em
                            = 
                            Tổng cộng
                                = 
                         Mua Tour
                TOUR LIÊN QUAN
                                                                                                                                                                                                                                                                                                                                                                                                                                                                                                                                                                                                                                                                                                                                                                                                                                                                                                                                                                                                                                                                                                                                                                                                                                                                                                                                                                                                                                                                                                                                                                                                                                                                                                                                                                                                                                                                                                                                                                                                                                                                                                                                                                                                                                                                                                                                                                                                                                                                                                                                                                                                                                                                                                                                                                                                                                                                                                                                                                                                                                                                                                                                                                                                                                                                                                                                                                                                                                                                                                                                                                                                                                                                                                                                                                                                                                                                                                                                                                                                                                                                                                                                                                                                                                                                                                                                                                                                                                                                                                                                                                                                                                                                                                                                                                                                                                                                                                                                                                                                                                                                                                                                                                                                                                                                                                                                                                                                                                                                                                                                                                                                                                                                                                                                                                                                                                                                                                                                                                                                                                                                                                                                                                                                                                                                                                                                                                                                                                                                                                                                                                                                                                                                                                                                                                                                                                                                                                                                                                                                                                                                                                                                                                                                                                                                                                                                                                                                                                                                                    New
                                              3 ngày 2 đêm |  Máy Bay Trọn Gói |  5 sao
                                            Xem
                                    Tour Đà Nẵng, Khám Phá Furama Resort Đà Nẵng 
                                         9,900,000 đ
                                                Giá gốc: 10,900,000 đ
                                                     Lịch khởi hành
                                                        20/11/201621/11/201622/11/201623/11/201624/11/201625/11/201626/11/201627/11/201628/11/201629/11/201630/11/2016
                                                                                                                                                                                                                                                                                                                                                                                                                                                                                                                                                                                                                                                                                                                                                                                                                                                                                                                                                                                                                                                                                                                                                                                                                                                                                                                                                                                                                                                                                                                                                                                                                                                                                                                                                                                                                                                                                                                                                                                                                                                                                                                                                                                                                                                                                                                                                                                                                                                                                                                                                                                                                                                                                                                                                                                                                                                                                                                                                                                                                                                                                                                                                                                                                                                                                                                                                                                                                                                                                                                                                                                                                                                                                                                                                                                                                                                                                                                                                                                                                                                                                                                                                                                                                                                                                                                                                                                                                                                                                                                                                                                                                                                                                                                                                                                                                                                                                                                                                                                                                                                                                                                                                                                                                                                                                                                                                                                                                                                                                                                                                                                                                                                                                                                                                                                                                                                                                                                                                                                                                                                                                                                                                                                                                                                                                                                                                                                                                                                                                                                                                                                                                                                                                                                                                                                                                                                                                                                                                                                                                                                                                                                                                                                                                                                New
                                              1 ngày 1 đêm |  Ô TÔ |  2 sao
                                            Xem
                                    Tour Rừng Tràm Trà Sư, Châu Đốc 1N1Đ
                                         590,000 đ
                                                Giá gốc: 1,000,000 đ
                                                     Lịch khởi hành
                                                        25/11/201625/11/201625/11/201602/12/201602/12/201602/12/201609/12/201609/12/201609/12/201616/12/201616/12/201616/12/2016
                                                                                                                                                                                                                                                                                                                                                                                                                                                                                                                                                                                                                                                                                                                                                                                                                                                                                                                                                                                                                                                                                                                                                                                                                                                                                                                                                                                                                                                                                                                                                                                                                                                                                                                                                                                                                                                                                                                                                                                                                                                                                                                                                                                                                                                                                                                                                                                                                                                                                                                                                                                                                                                                                                                                                                                                                                                                                                                                                                                                                                                                                                                                                                                                                                                                                                                                                                                                                                                                                                                                                                                                                                                                                                                                                                                                                                                                                                                                                                                                                                                                                                                                                                                                                                                                                                                                                                                                                                                                                                                                                                                                                                                                                                                                                                                                                                                                                                                                                                                                                                                                                                                                                                                                                                                                                                                                                                                                                                                                                                                                                                                                                                                                                                                                                                                                                                                                                                                                                                                                                                                                                                                                                                                                                                                                                                                                                                                                                                                                                                                                                                                                                                                                                                                                                                                                                                                                                                                                                                                                                                                                                                                                                                                                                                                                                                                            New
                                              3 ngày 3 đêm |  Ô Tô |  2 sao
                                            Xem
                                    Tour Đà Lạt, Ẩm Thực Đà Lạt, Buffet Rau Không Giới Hạn 3N3Đ
                                         1,190,000 đ
                                                Giá gốc: 1,820,000 đ
                                                     Lịch khởi hành
                                                        24/11/201601/12/201608/12/201615/12/2016
                                                                                                                                                                                                                                                                                                                                                                                                                                                                                                                                                                                                                                                                                                                                                                                                                                                                                                                                                                                                                                                                                                                                                                                                                                                                                                                                                                                                                                                                                                                                                                                                                                                                                                                                                                                                                                                                                                                                                                                                                                                                                                                                                                                                                                                                                                                                                                                                                                                                                                                                                                                                                                                                                                                                                                                                                                                                                                                                                                                                                                                                                                                                                                                                                                                                                                                                                                                                                                                                                                                                                                                                                                                                                                                                                                                                                                                                                                                                                                                                                                                                                                                                                                                                                                                                                                                                                                                                                                                                                                                                                                                                                                                                                                                                                                                                                                                                                                                                                                                                                                                                                                                                                                                                                                                                                                                                                                                                                                                                                                                                                                                                                                                                                                                                                                                                                                                                                                                                                                                                                                                                                                                                                                                                                                                                                                                                                                                                                                                                                                                                                                                                                                                                                                                                                                                                                                                                                                                                                                                                                                                                                                                                                                                                                                                                                                                                                                                                        New
                                              2 ngày 2 đêm |  Máy Bay Trọn Gói |  5 sao
                                            Xem
                                    Tour Nghỉ Dưỡng, An Lâm Ninh Van Bay Lillas, Trọn gói Vé Máy Bay 2N2Đ
                                         13,300,000 đ
                                                Giá gốc: 16,100,000 đ
                                                     Lịch khởi hành
                                                        20/11/201621/11/201622/11/201623/11/201624/11/201625/11/201626/11/201627/11/201628/11/201629/11/201630/11/2016
                                                                                                                                                                                                                                                                                                                                                                                                                                                                                                                                                                                                                                                                                                                                                                                                                                                                                                                                                                                                                                                                                                                                                                                                                                                                                                                                                                                                                                                                                                                                                                                                                                                                                                                                                                                                                                                                                                                                                                                                                                                                                                                                                                                                                                                                                                                                                                                                                                                                                                                                                                                                                                                                                                                                                                                                                                                                                                                                                                                                                                                                                                                                                                                                                                                                                                                                                                                                                                                                                                                                                                                                                                                                                                                                                                                                                                                                                                                                                                                                                                                                                                                                                                                                                                                                                                                                                                                                                                                                                                                                                                                                                                                                                                                                                                                                                                                                                                                                                                                                                                                                                                                                                                                                                                                                                                                                                                                                                                                                                                                                                                                                                                                                                                                                                                                                                                                                                                                                                                                                                                                                                                                                                                                                                                                                                                                                                                                                                                                                                                                                                                                                                                                                                                                                                                                                                                                                                                                                                                                                                                                                                                                                                                                                                                                                                                                                                                                                                                                                                                                                                                New
                                              2 ngày 2 đêm |  Ô Tô |  0 sao
                                            Xem
                                    Tour Đảo Bình Ba, Tiệc BBQ Xe Giường Nằm 2N2Đ
                                         1,090,000 đ
                                                Giá gốc: 2,260,000 đ
                                                     Lịch khởi hành
                                                        25/11/201602/12/201609/12/201616/12/201623/12/2016
                                                                                                                                                                                                                                                                                                                                                                                                                                                                                                                                                                                                                                                                                                                                                                                                                                                                                                                                                                                                                                                                                                                                                                                                                                                                                                                                                                                                                                                                                                                                                                                                                                                                                                                                                                                                                                                                                                                                                                                                                                                                                                                                                                                                                                                                                                                                                                                                                                                                                                                                                                                                                                                                                                                                                                                                                                                                                                                                                                                                                                                                                                                                                                                                                                                                                                                                                                                                                                                                                                                                                                                                                                                                                                                                                                                                                                                                                                                                                                                                                                                                                                                                                                                                                                                                                                                                                                                                                                                                                                                                                                                                                                                                                                                                                                                                                                                                                                                                                                                                                                                                                                                                                                                                                                                                                                                                                                                                                                                                                                                                                                                                                                                                                                                                                                                                                                                                                                                                                                                                                                                                                                                                                                                                                                                                                                                                                                                                                                                                                                                                                                                                                                                                                                                                                                                                                                                                                                                                                                                                                                                                                                                                                                                                                                                                                                                                                                                                                                                                                                                                                                                                                                            New
                                              3 ngày 2 đêm |  máy bay |  2 sao
                                            Xem
                                    Tour Phú Quốc,Bao Vé Máy Bay Vinpearland, Câu Cá, Ngắm San Hô Nam Đảo 3N2Đ
                                         2,990,000 đ
                                                Giá gốc: 2,200,000 đ
                                                     Lịch khởi hành
                                                        20/11/201621/11/201622/11/201623/11/201624/11/201625/11/201626/11/201627/11/201628/11/201629/11/201630/11/2016
                    TRỤ SỞ CHÍNH
                         225 Bàu Cát, P12, Q.Tân Bình, HCM
                         19002011 - 08 3849 3838 
                        08 3849 2999   
                          www.haidangtravel.com  
                         info@haidangtravel.com 
                        CSKH: 0948.99.1080
                    CHI NHÁNH
                         Quận 1 : Lầu 7, Tòa Nhà Viễn Đông, 14 Phan Tôn
                        19002011(Ext-107) -  0838204589  
                         Quận 12 : 256 TX25, Thạnh Xuân, Q12 
                        19002011(Ext-111)
                         Biên Hòa : 51A2, KP11, P.Tân Phong 
                        19002011(Ext-108) -  0613999392  
                    TRỢ GIÚP
                    Liên hệ & giới thiệuĐiều khoản chungHình thức thanh toánHướng dẫn mua tourChính sách bảo mật
                        GIỜ LÀM VIỆC
                            Thứ 2 đến 6
                                Sáng: 08:00-12:00Chiều:13:30-17:30
                            Thứ 7 Sáng: 08:00-12:00Nghỉ chủ nhật, lễ, tết
                    Được tìm kiếm nhiều
                        Tour Nha Trang
                        Tour Đà Lạt
                        Tour Cà Mau
                        Tour Phú Yên
                        Tour Ninh Chữ
                        Tour Côn Đảo
                        Tour Miền Bắc
                        Tour Phú Quốc
                        Tour Đà Nẵng
                        Tour Phan Thiết
                        Tour Bình Ba
                        Tour Nam Du
                        Tour Vũng Tàu
                        Tour Bà Lụa
                THÀNH TÍCH
            2015 © All Rights Reserved. Công ty cổ phần xây dựng du lịch Hải Đăng
        Your browser doesn't support canvas. Please download IE9+ on
            IE Test Drive
            +
                Có thể bạn quan tâm ?
                                Tour Đà Lạt Phototrip Khám Phá Những Cung Đường Hoa 3N3Đ
                                 1,250,000 đ
                                Tour du lịch Vũng Tàu, Long Hải, Suối nước nóng Bình Châu 2N1Đ
                                 789,000 đ
                                Tour Côn Đảo, Khám Phá Lịch Sử Văn Hóa Côn Sơn 2N1Đ
                                 4,590,000 đ
                                Tour Đảo Bình Hưng, Hang Rái, Vĩnh Hy 2n2d
                                 1,111,000 đ
                                Tour Ninh Chữ - Vĩnh Hy - Cổ Thạch đồng giá 2N2Đ
                                 999,000 đ
                                Tour Ninh Chữ, Vĩnh Hy Hang Rái Siêu Tiết Kiệm 2n2d
                                 850,000 đ
                                Tour Đảo Phú Quý, Khám Phá Hòn Đảo Mang Vẻ Đẹp Hoang Sơ 3N3Đ
                                 2,250,000 đ
                                Tour Côn Đảo, Trọn Gói Vé Máy Bay 2N1Đ
                                 3,999,000 đ
                                Tour Đảo Hòn Sơn Khám Phá Đỉnh Ma Thiên Lãnh 2N2Đ
                                 1,390,000 đ
                                Tour Ninh Chữ - Vĩnh Hy Khám Phá Bãi Đá Bảy Màu Resort 3sao 2N2Đ
                                 1,250,000 đ
                        ×
