url:http://haidangtravel.com/Tour-Phan-Thiet-Mui-Ne-Sealink-Tieu-Chuan-5-Sao
Tittle :Tour Phan Thiết, Mũi Né Sealink Tiêu Chuẩn 5 Sao
content :Toggle navigation
                             Trang Chủ
                              Tour Du Lịch
                         Tour Trong Nước Tour Nước Ngoài
                              Tổ Chức Sự Kiện
                             Thuê Xe Du Lịch
                         Thuê Xe 4 Chổ Thuê Xe 7 Chổ Thuê Xe 16 Chổ Thuê Xe 29 Chổ Thuê Xe 35 Chổ Thuê Xe 45 Chổ
                             Khách Sạn
                              Cẩm nang du lịch
                              Tin tức du lịch
                              Bảng Giá Tour
                     1900 2011
                    08.3849.3838 - 0948.99.1080
                    Đăng Ký
                                            ×
                                            ĐĂNG KÝ
                                                        Tên đăng nhập (bắt buộc)
                                                        Nhập số điện thoại ( bắt buôt )
                                                        Nhập họ tên của bạn
                                                        Nhập mail của bạn
                                                        Nhập mật khẩu ( bắt buột )
                                                        Nhập lại mật khẩu ( bắt buột )
                                                        NamNữKhác
                                                        Địa chỉ nhà bạn
                                                        Ngày sinh của bạn
                                                 Nhận mail từ Hải Đăng Travel
                                                Đăng Ký
                        Đăng nhập
                                            ×
                                            ĐĂNG NHẬP
                                        Quên mật khẩu ?
                                        Đăng Ký
                                                Ghi nhớ mật khẩu
                                                Đăng nhập
                    Trang chủ
                 ›
                    Tour trong nước
                 ›
                    Tour Phan Thiết, Mũi Né Sealink Tiêu Chuẩn 5 Sao
                 Photo
                                Hổ Trợ Trực Tuyến
                             SKYPE YAHOO0947368118
                             Tour Phan Thiết, Mũi Né Sealink Tiêu Chuẩn 5 Sao
                                     2 ngày 1 đêm
                                      Ô Tô 
                                      5 sao 
                                     Tạm dừng
                                            Giá gốc: 2,000,000 đ
                                                 Lịch khởi hành
                                 DỊCH VỤ ĐÍNH KÈM
                                  Vé tham quan  Hướng dẫn viên  Ăn uống  Phương tiện   Bảo hiểm  Khách sạn
                                 Cơ hội nhân quà hấp khi đăng ký tour tại www.haidangtravel.com xem quà tặng tại đây 
                                 MUA TOUR
                                 GIỚI THIỆU Tour Phan Thiết, Mũi Né Sealink Tiêu Chuẩn 5 Sao
                                         Đánh Giá Tour
                                    0.0
                                                                                                                                    Đăng nhập để đánh giá hay điền các thông tin sau :
                                                        Họ tên (bắt buộc)
                                                        Nhập mail của bạn (bắt buộc)
                                                    Nhập nhận xét của bạn (bắt buộc)
                                                     Đánh giá :
                                                                           Rất Tốt  Tốt  khá  Trung Bình  Bình Thường
                                                Rất Tốt 0
                                                Tốt  0
                                                Khá 0
                                                Tạm Được  0
                                                Bình Thường  0
                                            Nhận xét (0)
                                                                                                                                                                                Hết
                        LỊCH TRÌNH TOUR
                                 NGÀY 1 : TP. HCM – KDL GIANG ĐIỀN - TÀ KU- MŨI NÉ- LÂU ĐÀI RƯỢU VANG
                                    05h30 Xe của HaiĐangTravel đón khách tại điểm hẹn, khởi hành đi Phan Thiết.
07h30 Ăn điểm tâm sáng tại KDL GIANG ĐIỀN. Đến với Khu du lịch sinh thái Thác Giang Điền, quý khách sẽ được tận hưởng được những cảm giác thú vị. Từ cảnh quan sông nước hùng vĩ của Thác Giang Điền, đến cảnh quan êm đềm thơ mộng bên những bải cỏ dọc bờ sông Buông, triền đồi lượn sóng, với cảnh quan, cây xanh bóng mát, cỏ hoa đua nhau khoe sắc và khí hậu dịu mát trong lành.
Tiếp tục cuộc hành trình đến Phan Thiết, trên đường quý khách sẽ được ngắm nhìn núi Chứa Chan và nghe Hướng Dẫn Viên kể những truyền thuyết về ngôi chùa trên Núi.
10h30 Đến Phan Thiết, Quý khách tham quan KDL Tà Ku - nơi có tượng Phật nằm dài 49m lớn nhất Việt Nam, với hệ thống cáp treo đưa du khách lên tới đỉnh núi, Qúy khách có thể ngắm nhìn một phần tỉnh Bình Thuận và biển Hàm Thuận Nam, chiêm ngưỡng tượng Phật và thắp nhang cầu phúc. (Chi phí cáp treo tự túc)
11h00 Quý khách dùng bữa trưa tại Nhà hàng.
Tiếp tục khởi hành đến Resort nhận phòng nghỉ ngơi.
Buổi Chiều:   Quý khách tắm biển tự do.
15h00 Xe đưa đoàn khởi hành tham Đồi Cát Bay, thỏa thích với trò chơi trượt cát vui nhộn.
Xe đưa đoàn đến tham quan RD Wine Castle nằm trong quần thể nghỉ dưỡng Sea Links City. RD Wine Castle sẽ đưa du khách trở về thời trung cổ của châu Âu với khu quảng trường rộng lớn, mái vòm cổ kính nhưng không kém phần trang nhã, sang trọng, những tháp canh cao vút trải tầm nhìn ra không gian tươi xanh của Sea Links City. Tất cả hình ảnh tưởng chừng chỉ tồn tại ở những quốc gia Âu Mỹ xa xôi được tái hiện tại RD Wine Castle.
Hương vị vang hảo hạng của vùng Napa Valley nước Mỹ được giữ vẹn nguyên trong từng giọt rượu, dành để đón tiếp những vị khách sành điệu và đầy đam mê. Du khách có thể lắc đều ly rượu để vang ngấm với khí và tỏa hương thơm, vị giác hội tụ đủ vị ngọt, chua, mặn và béo của những dòng Chardonnay, Sauvignon, Cabernet Sauvignon. Hãy tưởng tượng, giữa một buổi tiệc, mọi người cùng nâng cao ly vang trong không khí đầy tình hữu nghị giao lưu giữa những người bạn đến từ bốn phương  (phí tự túc).
18h00 Tự túc khám phá hải sản Mũi Né về đêm.
                                 NGÀY 2 : MŨI NÉ - PHAN THIẾT – TP. HCM 
                                    07h00 Đoàn dùng điểm tâm tại Nhà hàng.
Sau đó, Quý khách tắm biển tự do. Thả mình dưới dòng nước mát lạnh trong những ngày oi bức.
10h00 Trả phòng, sau đó đoàn tham quan Di tích Lầu Ông Hoàng và tháp chàm PoShaNu.
11h30 Quý khách dùng buổi trưa
 13h00 Quý khách trở về HCM, trên đường ghé mua đặc sản của Bình Thuận như: Thanh Long, nước mắm, mực khô….về làm quà cho người thân.
Buổi chiều : 
17h30 Đến Tp. HCM chia tay và hẹn gặp lại quý khách.
                    G.Thiệu
                                        Ngày 1
                                        Ngày 2
                     ĐỊA ĐIỂM ĐÓN KHÁCH
                                                QUÝ KHÁCH ĐI TOUR KHỞI HÀNH BẰNG Ô TÔ VỚI NHỮNG ĐIỂM ĐÓN SAU :
Đón khách tại Công ty Du lịch Hải Đăng, 225 Bàu Cát, P12, Quận Tân Bình
Đón khách tại Nhà Văn Hóa Thanh Niên, 04 Phạm Ngọc Thạch, Quận 1
Đón khách tại Cây xăng Comeco, Ngã 4 Hàng Xanh, Quận Bình Thạnh
Đón khách tại Ngã 4 Thủ Đức, Quận 9
Đón khách tại Siêu thị Lotte Mart, Ngã 4 Amata, Biên Hòa, Đồng Nai
QUÝ KHÁCH ĐI TOUR TUYẾN MIỀN TÂY NHỮNG ĐIỂM ĐÓN SAU :
Đón khách tại Công viên Bàu Cát, 141 Đồng Đen, P11, Quận Tân Bình
Đón khách tại Nhà Văn Hóa Thanh Niên, 04 Phạm Ngọc Thạch, Quận 1
Bến xe miền tây , Q 6 ( bệnh viện Triều An )
QUÝ KHÁCH ĐI TOUR KHỞI HÀNH BẰNG MÁY BAY VỚI NHỮNG ĐIỂM ĐÓN SAU :
Quý khách vui lòng tập trung tại nhà ga đối với những khách đi tour khởi hành bằng tàu
Quý khách vui lòng tập trung tại sân bay hoặc các phòng chờ của các hãng bay đối với những khách đi tour khởi hành bằng máy bay
                         QUY ĐỊNH TOUR
                                             GIÁ TOUR BAO GỒM 
                                                  Lưu Trú
                                                - Resort 5 sao: Sea Links City - Ocean Vista: http://www.sealinkscity.com - căn hộ cao cấp.
   + Loại 1: Diện tích: 110 – 125 m2. Bao gồm: 01 phòng khách + 01 phòng bếp + 02 phòng ngủ. Tiêu chuẩn: 02 khách/phòng
   + Loại 2: Diện tích: 140 – 155 m2. Bao gồm: 01 phòng khách + 01 phòng bếp + 03 phòng ngủ. Tiêu chuẩn: 02 khách/phòng
- Nếu Qúy khách có nhu cầu ở riêng 2 người/căn hộ 1 phòng ngủ - phụ thu: 150.000đ/người.
- Quý khách được sử dụng dịch vụ xông hơi khô, ướt trong khu vực Spa.
- Sử dụng sân tennis, sân bóng đá (6h – 17h).
- Sử dụng bàn bida, bóng bàn, phòng tập gym.
- Câu lạc bộ trẻ em.
- Miễn phí xe điện chở khách tham quan hội quán Ocean Vista / khách sạn Sea Links/ Cầu vượt biển.
Phụ thu phòng đơn( nếu quý khách đi 1 mình: 600.000 đ/khách)
Trường hợp trong đợt khởi hành có khách lẻ ghép, Hải Đăng sẽ ghép cho khách và không phải đóng phụ thu.
Lưu ý: Áp dụng tối thiểu 25 khách cho mỗi đợt khởi hành.
​
 
 
 
                                                 Vé Tham Quan
                                                    Vé vào cổng : Poshanu, KDL Tà Ku
                                                  Ăn Uống
                                                1 Điểm tâm: 50.000 đ/suất/khách tại thác Giang Điền + 1 điểm tâm tại Resort
2 Ăn chính: 80.000đ/suất/khách 
                                                   Nón Nước - Khăn Lạnh
                                                Nước suối: 1 chai 500ml/ngày/khách
Khăn lạnh: 1 cái/ngày/khách
Nón du lịch: 1 nón HAIDANGTRAVEL/khách
                                                 Phương Tiện
                                                Xe đời mới máy lạnh 45 Chỗ (40 khách - 45 khách), đón khách theo chương trình. 
Lưu ý: Áp dụng tối thiểu 25 khách cho mỗi đợt khởi hành (xe 29, 30 chỗ)
                                             GIÁ TOUR KHÔNG BAO GỒM 
                                                   Chi Phí Cá Nhân
                                                Chi phí cá nhân: Giặt ủi, điện thoại,ăn uống ngoài chương trình ….Điểm tham quan: Cáp treo Tà Ku, Lâu đài rượu vang.
Thuế VAT	Quý khách muốn xuất hóa đơn VAT cộng thêm 10%
                                                  Thuế VAT
                                                 10% thuế VAT
                                             QUY ĐỊNH TRẺ EM 
                                                Trẻ em dưới 5 tuổi
Cha, mẹ hoặc người thân đi kèm tự lo các chi phí ăn, ngủ, tham quan (nếu có) cho bé. Hai người lớn chỉ kèm 1 trẻ em dưới 5 tuổi, em thứ 2 trở lên phải mua ½ vé tour.
Từ 6-10 tuổi
60% vé tour: ngủ chung bố mẹ, 1 chỗ ngồi trên xe, ăn uống theo chương trình
Trên 10 tuổi
Vé người lớn, tiêu chuẩn như người lớn
                                             QUY ĐỊNH MUA VÀ HỦY TOUR 
                                             HÌNH THỨC THANH TOÁN 
                                                Thanh toán bằng tiền mặt tại Trụ sở chính, chi nhánh của Hải Đăng Travel hoặc công ty hỗ trợ thu tận nơi (nếu khách có yêu cầu)
Chuyển khoản qua số tài khoản
Số tài khoản: 711A00686521.
Chủ tài khoản: Dương Phan Quốc Văn – Vietinbank, CN 1,  TP. HCM
Nội dung: Tour  Mũi Né – Sealink 5 sao.
Ngày khởi hành:…, Tên khách:…, Số lượng:…
Sử dụng Voucher, cung cấp mã số Voucher, đóng thêm phụ thu (nếu có). Du khách giữ Voucher và nộp lại cho công ty.
Thanh toán bằng thẻ Visa ( thẻ từ, thẻ chip,…)
Thẻ giảm giá, thẻ ưu đãi xuất trình khi đăng ký tour.
                     ĐIỂM THAM QUAN 
                                                  Kiểm Tra Giá & Lịch Khởi Hành 
                                                                                                                                                                                                                                                                                                                                                                                                                                    RS 5 Sao
                            Khởi Hành
                            = 
                            Người lớn
                            = 
                            Trẻ em
                            = 
                            Tổng cộng
                                = 
                         Mua Tour
                TOUR LIÊN QUAN
                                                                                                                                                                                                                                                                                                                                                                                                                                                                                                                                                                                                                                                                                                                                                                                                                                                                                                                                                                                                                                                                                                                                                                                                                                                                                                                                                                                                                                                                                                                                                                                                                                                                                                                                                                                                                                                                                                                                                                                                                                                                                                                                                                                                                                                                                                                                                                                                                                                                                                                                                                                                                                                                                                                                                                                                                                                                                                                                                                                                                                                                                                                                                                                                                                                                                                                                                                                                                                                                                                                                                                                                                                                                                                                                                                                                                                                                                                                                                                                                                                                                                                                                                                                                                                                                                                                                                                                                                                                                                                                                                                                                                                                                                                                                                                                                                                                                                                                                                                                                                                                                                                                                                                                                                                                                                                                                                                                                                                                                                                                                                                                                                                                                                                                                                                                                                                                                                                                                                                                                                                                                                                                                                                                                                                                                                                                                                                                                                                                                                                                                                                                                                                                                                                                                                                                                                                                                                                                                                                                                                                                                                                                                                                                                                                                                                                                                                                                                                                                                                    New
                                              3 ngày 2 đêm |  Máy Bay Trọn Gói |  5 sao
                                            Xem
                                    Tour Đà Nẵng, Khám Phá Furama Resort Đà Nẵng 
                                         9,900,000 đ
                                                Giá gốc: 10,900,000 đ
                                                     Lịch khởi hành
                                                        20/11/201621/11/201622/11/201623/11/201624/11/201625/11/201626/11/201627/11/201628/11/201629/11/201630/11/2016
                                                                                                                                                                                                                                                                                                                                                                                                                                                                                                                                                                                                                                                                                                                                                                                                                                                                                                                                                                                                                                                                                                                                                                                                                                                                                                                                                                                                                                                                                                                                                                                                                                                                                                                                                                                                                                                                                                                                                                                                                                                                                                                                                                                                                                                                                                                                                                                                                                                                                                                                                                                                                                                                                                                                                                                                                                                                                                                                                                                                                                                                                                                                                                                                                                                                                                                                                                                                                                                                                                                                                                                                                                                                                                                                                                                                                                                                                                                                                                                                                                                                                                                                                                                                                                                                                                                                                                                                                                                                                                                                                                                                                                                                                                                                                                                                                                                                                                                                                                                                                                                                                                                                                                                                                                                                                                                                                                                                                                                                                                                                                                                                                                                                                                                                                                                                                                                                                                                                                                                                                                                                                                                                                                                                                                                                                                                                                                                                                                                                                                                                                                                                                                                                                                                                                                                                                                                                                                                                                                                                                                                                                                                                                                                                                                                New
                                              1 ngày 1 đêm |  Ô TÔ |  2 sao
                                            Xem
                                    Tour Rừng Tràm Trà Sư, Châu Đốc 1N1Đ
                                         590,000 đ
                                                Giá gốc: 1,000,000 đ
                                                     Lịch khởi hành
                                                        25/11/201625/11/201625/11/201602/12/201602/12/201602/12/201609/12/201609/12/201609/12/201616/12/201616/12/201616/12/2016
                                                                                                                                                                                                                                                                                                                                                                                                                                                                                                                                                                                                                                                                                                                                                                                                                                                                                                                                                                                                                                                                                                                                                                                                                                                                                                                                                                                                                                                                                                                                                                                                                                                                                                                                                                                                                                                                                                                                                                                                                                                                                                                                                                                                                                                                                                                                                                                                                                                                                                                                                                                                                                                                                                                                                                                                                                                                                                                                                                                                                                                                                                                                                                                                                                                                                                                                                                                                                                                                                                                                                                                                                                                                                                                                                                                                                                                                                                                                                                                                                                                                                                                                                                                                                                                                                                                                                                                                                                                                                                                                                                                                                                                                                                                                                                                                                                                                                                                                                                                                                                                                                                                                                                                                                                                                                                                                                                                                                                                                                                                                                                                                                                                                                                                                                                                                                                                                                                                                                                                                                                                                                                                                                                                                                                                                                                                                                                                                                                                                                                                                                                                                                                                                                                                                                                                                                                                                                                                                                                                                                                                                                                                                                                                                                                                                                                                            New
                                              3 ngày 3 đêm |  Ô Tô |  2 sao
                                            Xem
                                    Tour Đà Lạt, Ẩm Thực Đà Lạt, Buffet Rau Không Giới Hạn 3N3Đ
                                         1,190,000 đ
                                                Giá gốc: 1,820,000 đ
                                                     Lịch khởi hành
                                                        24/11/201601/12/201608/12/201615/12/2016
                                                                                                                                                                                                                                                                                                                                                                                                                                                                                                                                                                                                                                                                                                                                                                                                                                                                                                                                                                                                                                                                                                                                                                                                                                                                                                                                                                                                                                                                                                                                                                                                                                                                                                                                                                                                                                                                                                                                                                                                                                                                                                                                                                                                                                                                                                                                                                                                                                                                                                                                                                                                                                                                                                                                                                                                                                                                                                                                                                                                                                                                                                                                                                                                                                                                                                                                                                                                                                                                                                                                                                                                                                                                                                                                                                                                                                                                                                                                                                                                                                                                                                                                                                                                                                                                                                                                                                                                                                                                                                                                                                                                                                                                                                                                                                                                                                                                                                                                                                                                                                                                                                                                                                                                                                                                                                                                                                                                                                                                                                                                                                                                                                                                                                                                                                                                                                                                                                                                                                                                                                                                                                                                                                                                                                                                                                                                                                                                                                                                                                                                                                                                                                                                                                                                                                                                                                                                                                                                                                                                                                                                                                                                                                                                                                                                                                                                                                                                        New
                                              2 ngày 2 đêm |  Máy Bay Trọn Gói |  5 sao
                                            Xem
                                    Tour Nghỉ Dưỡng, An Lâm Ninh Van Bay Lillas, Trọn gói Vé Máy Bay 2N2Đ
                                         13,300,000 đ
                                                Giá gốc: 16,100,000 đ
                                                     Lịch khởi hành
                                                        20/11/201621/11/201622/11/201623/11/201624/11/201625/11/201626/11/201627/11/201628/11/201629/11/201630/11/2016
                                                                                                                                                                                                                                                                                                                                                                                                                                                                                                                                                                                                                                                                                                                                                                                                                                                                                                                                                                                                                                                                                                                                                                                                                                                                                                                                                                                                                                                                                                                                                                                                                                                                                                                                                                                                                                                                                                                                                                                                                                                                                                                                                                                                                                                                                                                                                                                                                                                                                                                                                                                                                                                                                                                                                                                                                                                                                                                                                                                                                                                                                                                                                                                                                                                                                                                                                                                                                                                                                                                                                                                                                                                                                                                                                                                                                                                                                                                                                                                                                                                                                                                                                                                                                                                                                                                                                                                                                                                                                                                                                                                                                                                                                                                                                                                                                                                                                                                                                                                                                                                                                                                                                                                                                                                                                                                                                                                                                                                                                                                                                                                                                                                                                                                                                                                                                                                                                                                                                                                                                                                                                                                                                                                                                                                                                                                                                                                                                                                                                                                                                                                                                                                                                                                                                                                                                                                                                                                                                                                                                                                                                                                                                                                                                                                                                                                                                                                                                                                                                                                                                                New
                                              2 ngày 2 đêm |  Ô Tô |  0 sao
                                            Xem
                                    Tour Đảo Bình Ba, Tiệc BBQ Xe Giường Nằm 2N2Đ
                                         1,090,000 đ
                                                Giá gốc: 2,260,000 đ
                                                     Lịch khởi hành
                                                        25/11/201602/12/201609/12/201616/12/201623/12/2016
                                                                                                                                                                                                                                                                                                                                                                                                                                                                                                                                                                                                                                                                                                                                                                                                                                                                                                                                                                                                                                                                                                                                                                                                                                                                                                                                                                                                                                                                                                                                                                                                                                                                                                                                                                                                                                                                                                                                                                                                                                                                                                                                                                                                                                                                                                                                                                                                                                                                                                                                                                                                                                                                                                                                                                                                                                                                                                                                                                                                                                                                                                                                                                                                                                                                                                                                                                                                                                                                                                                                                                                                                                                                                                                                                                                                                                                                                                                                                                                                                                                                                                                                                                                                                                                                                                                                                                                                                                                                                                                                                                                                                                                                                                                                                                                                                                                                                                                                                                                                                                                                                                                                                                                                                                                                                                                                                                                                                                                                                                                                                                                                                                                                                                                                                                                                                                                                                                                                                                                                                                                                                                                                                                                                                                                                                                                                                                                                                                                                                                                                                                                                                                                                                                                                                                                                                                                                                                                                                                                                                                                                                                                                                                                                                                                                                                                                                                                                                                                                                                                                                                                                                                            New
                                              3 ngày 2 đêm |  máy bay |  2 sao
                                            Xem
                                    Tour Phú Quốc,Bao Vé Máy Bay Vinpearland, Câu Cá, Ngắm San Hô Nam Đảo 3N2Đ
                                         2,990,000 đ
                                                Giá gốc: 2,200,000 đ
                                                     Lịch khởi hành
                                                        20/11/201621/11/201622/11/201623/11/201624/11/201625/11/201626/11/201627/11/201628/11/201629/11/201630/11/2016
                    TRỤ SỞ CHÍNH
                         225 Bàu Cát, P12, Q.Tân Bình, HCM
                         19002011 - 08 3849 3838 
                        08 3849 2999   
                          www.haidangtravel.com  
                         info@haidangtravel.com 
                        CSKH: 0948.99.1080
                    CHI NHÁNH
                         Quận 1 : Lầu 7, Tòa Nhà Viễn Đông, 14 Phan Tôn
                        19002011(Ext-107) -  0838204589  
                         Quận 12 : 256 TX25, Thạnh Xuân, Q12 
                        19002011(Ext-111)
                         Biên Hòa : 51A2, KP11, P.Tân Phong 
                        19002011(Ext-108) -  0613999392  
                    TRỢ GIÚP
                    Liên hệ & giới thiệuĐiều khoản chungHình thức thanh toánHướng dẫn mua tourChính sách bảo mật
                        GIỜ LÀM VIỆC
                            Thứ 2 đến 6
                                Sáng: 08:00-12:00Chiều:13:30-17:30
                            Thứ 7 Sáng: 08:00-12:00Nghỉ chủ nhật, lễ, tết
                    Được tìm kiếm nhiều
                        Tour Nha Trang
                        Tour Đà Lạt
                        Tour Cà Mau
                        Tour Phú Yên
                        Tour Ninh Chữ
                        Tour Côn Đảo
                        Tour Miền Bắc
                        Tour Phú Quốc
                        Tour Đà Nẵng
                        Tour Phan Thiết
                        Tour Bình Ba
                        Tour Nam Du
                        Tour Vũng Tàu
                        Tour Bà Lụa
                THÀNH TÍCH
            2015 © All Rights Reserved. Công ty cổ phần xây dựng du lịch Hải Đăng
        Your browser doesn't support canvas. Please download IE9+ on
            IE Test Drive
            +
                Có thể bạn quan tâm ?
                                Tour Đảo Phú Quý, Khám Phá Hòn Đảo Mang Vẻ Đẹp Hoang Sơ 3N3Đ
                                 2,250,000 đ
                                Tour du lịch Vũng Tàu, Long Hải, Suối nước nóng Bình Châu 2N1Đ
                                 789,000 đ
                                Tour Ninh Chữ, Vĩnh Hy Hang Rái Siêu Tiết Kiệm 2n2d
                                 850,000 đ
                                Tour Côn Đảo, Trọn Gói Vé Máy Bay 2N1Đ
                                 3,999,000 đ
                                Tour Đà Lạt Phototrip Khám Phá Những Cung Đường Hoa 3N3Đ
                                 1,250,000 đ
                                Tour Ninh Chữ - Vĩnh Hy Khám Phá Bãi Đá Bảy Màu Resort 3sao 2N2Đ
                                 1,250,000 đ
                                Tour Đảo Bình Hưng, Hang Rái, Vĩnh Hy 2n2d
                                 1,111,000 đ
                                Tour Ninh Chữ - Vĩnh Hy - Cổ Thạch đồng giá 2N2Đ
                                 999,000 đ
                                Tour Côn Đảo, Khám Phá Lịch Sử Văn Hóa Côn Sơn 2N1Đ
                                 4,590,000 đ
                                Tour Đảo Hòn Sơn Khám Phá Đỉnh Ma Thiên Lãnh 2N2Đ
                                 1,390,000 đ
                        ×
