url:http://haidangtravel.com/tin-tuc/Chuyen-la
Tittle :Chuyện lạ
content :Toggle navigation
                             Trang Chủ
                              Tour Du Lịch
                         Tour Trong Nước Tour Nước Ngoài
                              Tổ Chức Sự Kiện
                             Thuê Xe Du Lịch
                         Thuê Xe 4 Chổ Thuê Xe 7 Chổ Thuê Xe 16 Chổ Thuê Xe 29 Chổ Thuê Xe 35 Chổ Thuê Xe 45 Chổ
                             Khách Sạn
                              Cẩm nang du lịch
                              Tin tức du lịch
                              Bảng Giá Tour
                     1900 2011
                    08.3849.3838 - 0948.99.1080
                    Đăng Ký
                                            ×
                                            ĐĂNG KÝ
                                                        Tên đăng nhập (bắt buộc)
                                                        Nhập số điện thoại ( bắt buôt )
                                                        Nhập họ tên của bạn
                                                        Nhập mail của bạn
                                                        Nhập mật khẩu ( bắt buột )
                                                        Nhập lại mật khẩu ( bắt buột )
                                                        NamNữKhác
                                                        Địa chỉ nhà bạn
                                                        Ngày sinh của bạn
                                                 Nhận mail từ Hải Đăng Travel
                                                Đăng Ký
                        Đăng nhập
                                            ×
                                            ĐĂNG NHẬP
                                        Quên mật khẩu ?
                                        Đăng Ký
                                                Ghi nhớ mật khẩu
                                                Đăng nhập
                    Trang chủ
                 ›
                    Cẩm nang du lịch
                 ›
                    Thư giản
                 ›
                    Chuyện lạ
        Chuyện lạ
                                    Go
                                                                                    10 nơi bỏ hoang nổi tiếng âm u đến rợn da gà
                                    26/08/2015
                                    Khu rừng 102 năm tuổi ở gần Sydney, Australia. Khi địa điểm này bị đóng cửa sau Thế chiến thứ 2, một số con thuyền vẫn còn giữ...
                                                                                    XEM NGAY
                                                                                    Những tục lệ tán tỉnh kỳ quặc Những tục lệ tán tỉnh kỳ quặc
                                    26/08/2015
                                    Bắt cóc, ngủ cùng giường, thi sắc đẹp, khắc thìa gỗ, dùng cây gai quật vào nhau… là những truyền thống các...
                                                                                    XEM NGAY
                                                                                    Khách sạn có tiếp viên hoàn toàn bằng robot
                                    26/08/2015
                                    Khách sạn Henn-na ở Nawasaki, Nhật có đội ngũ tiếp viên phục vụ hoàn toàn bằng robot với mức giá mềm hơn hẳn so với các...
                                                                                    XEM NGAY
                                                                                    Chuyệt ít biết về phượt thủ nhỏ bé nhất Việt Nam
                                    26/08/2015
                                    Dù chỉ cao có 1,2 m, Cao Ngọc Cảnh đã có hành trình đi phượt hơn 7 năm, qua hàng trăm điểm trong và ngoài nước,...
                                                                                    XEM NGAY
        Đọc Nhiều Nhát
                Kỷ Niệm Đà Lạt 
                Chương trình khuyến mãi tour du lịch tết 2016
                Bảng Giá Tour Lễ 30 Tháng 4 Và Giỗ Tổ
        Bài viết mới nhất
                    Biển Của Người Xứ Nẫu
                    Quy Nhơn Thiên Đường Của Biển
                    Ôi Nha Trang
        Cẩm Nang Du Lịch
         Cẩm nang Ninh Chữ Cẩm nang Nha Trang Cẩm nang Đà Lạt Cẩm nang Phú Yên Cẩm nang Phú Quốc Cẩm nang Quảng Ngãi Cẩm nang Quảng Nam Cẩm nang Phú Thọ Cẩm nang Phan Thiết Cẩm nang Quảng Bình Cẩm nang Ninh Bình Cẩm nang Lạng Sơn
        Kinh nghiệmThư giản
                    Du lịch trong nướcDu lịch nước ngoàiKinh Nghiệm Đi Biển Đảo
                    Phượt viếtHình chếChuyện lạ
                    Ảnh đẹpTop du lịchTruyện cười
    Ảnh Khách Hàng
                    TRỤ SỞ CHÍNH
                         225 Bàu Cát, P12, Q.Tân Bình, HCM
                         19002011 - 08 3849 3838 
                        08 3849 2999   
                          www.haidangtravel.com  
                         info@haidangtravel.com 
                        CSKH: 0948.99.1080
                    CHI NHÁNH
                         Quận 1 : Lầu 7, Tòa Nhà Viễn Đông, 14 Phan Tôn
                        19002011(Ext-107) -  0838204589  
                         Quận 12 : 256 TX25, Thạnh Xuân, Q12 
                        19002011(Ext-111)
                         Biên Hòa : 51A2, KP11, P.Tân Phong 
                        19002011(Ext-108) -  0613999392  
                    TRỢ GIÚP
                    Liên hệ & giới thiệuĐiều khoản chungHình thức thanh toánHướng dẫn mua tourChính sách bảo mật
                        GIỜ LÀM VIỆC
                            Thứ 2 đến 6
                                Sáng: 08:00-12:00Chiều:13:30-17:30
                            Thứ 7 Sáng: 08:00-12:00Nghỉ chủ nhật, lễ, tết
                    Được tìm kiếm nhiều
                        Tour Nha Trang
                        Tour Đà Lạt
                        Tour Cà Mau
                        Tour Phú Yên
                        Tour Ninh Chữ
                        Tour Côn Đảo
                        Tour Miền Bắc
                        Tour Phú Quốc
                        Tour Đà Nẵng
                        Tour Phan Thiết
                        Tour Bình Ba
                        Tour Nam Du
                        Tour Vũng Tàu
                        Tour Bà Lụa
                THÀNH TÍCH
            2015 © All Rights Reserved. Công ty cổ phần xây dựng du lịch Hải Đăng
        Your browser doesn't support canvas. Please download IE9+ on
            IE Test Drive
            +
                Có thể bạn quan tâm ?
                                Tour du lịch Vũng Tàu, Long Hải, Suối nước nóng Bình Châu 2N1Đ
                                 789,000 đ
                                Tour Ninh Chữ - Vĩnh Hy - Cổ Thạch đồng giá 2N2Đ
                                 999,000 đ
                                Tour Ninh Chữ, Vĩnh Hy Hang Rái Siêu Tiết Kiệm 2n2d
                                 850,000 đ
                                Tour Đà Lạt Phototrip Khám Phá Những Cung Đường Hoa 3N3Đ
                                 1,250,000 đ
                                Tour Côn Đảo, Trọn Gói Vé Máy Bay 2N1Đ
                                 3,999,000 đ
                                Tour Ninh Chữ - Vĩnh Hy Khám Phá Bãi Đá Bảy Màu Resort 3sao 2N2Đ
                                 1,250,000 đ
                                Tour Đảo Bình Hưng, Hang Rái, Vĩnh Hy 2n2d
                                 1,111,000 đ
                                Tour Đảo Hòn Sơn Khám Phá Đỉnh Ma Thiên Lãnh 2N2Đ
                                 1,390,000 đ
                                Tour Đảo Phú Quý, Khám Phá Hòn Đảo Mang Vẻ Đẹp Hoang Sơ 3N3Đ
                                 2,250,000 đ
                                Tour Côn Đảo, Khám Phá Lịch Sử Văn Hóa Côn Sơn 2N1Đ
                                 4,590,000 đ
