url:http://haidangtravel.com/Tour-Nha-Trang-Vinh-Van-Phong-Bien-Bai-Dai-3N3D
Tittle :Tour Nha Trang, Vịnh Vân Phong, Biển Bãi Dài 3N3Đ
content :Toggle navigation
                             Trang Chủ
                              Tour Du Lịch
                         Tour Trong Nước Tour Nước Ngoài
                              Tổ Chức Sự Kiện
                             Thuê Xe Du Lịch
                         Thuê Xe 4 Chổ Thuê Xe 7 Chổ Thuê Xe 16 Chổ Thuê Xe 29 Chổ Thuê Xe 35 Chổ Thuê Xe 45 Chổ
                             Khách Sạn
                              Cẩm nang du lịch
                              Tin tức du lịch
                              Bảng Giá Tour
                     1900 2011
                    08.3849.3838 - 0948.99.1080
                    Đăng Ký
                                            ×
                                            ĐĂNG KÝ
                                                        Tên đăng nhập (bắt buộc)
                                                        Nhập số điện thoại ( bắt buôt )
                                                        Nhập họ tên của bạn
                                                        Nhập mail của bạn
                                                        Nhập mật khẩu ( bắt buột )
                                                        Nhập lại mật khẩu ( bắt buột )
                                                        NamNữKhác
                                                        Địa chỉ nhà bạn
                                                        Ngày sinh của bạn
                                                 Nhận mail từ Hải Đăng Travel
                                                Đăng Ký
                        Đăng nhập
                                            ×
                                            ĐĂNG NHẬP
                                        Quên mật khẩu ?
                                        Đăng Ký
                                                Ghi nhớ mật khẩu
                                                Đăng nhập
                    Trang chủ
                 ›
                    Tour trong nước
                 ›
                    Tour Nha Trang, Vịnh Vân Phong, Biển Bãi Dài 3N3Đ
                 Photo
                                Hổ Trợ Trực Tuyến
                             SKYPE YAHOO0947368118
                             Tour Nha Trang, Vịnh Vân Phong, Biển Bãi Dài 3N3Đ
                                     3 ngày 3 đêm
                                      Ô Tô 
                                      2 sao 
                                     1,900,000 đ
                                            Giá gốc: 2,890,000 đ
                                                 Lịch khởi hành
                                                                                                        24/11/201608/12/2016
                                 DỊCH VỤ ĐÍNH KÈM
                                  Vé tham quan  Hướng dẫn viên  Ăn uống  Phương tiện   Bảo hiểm  Khách sạn
                                 Cơ hội nhân quà hấp khi đăng ký tour tại www.haidangtravel.com xem quà tặng tại đây 
                                 MUA TOUR
                                 GIỚI THIỆU Tour Nha Trang, Vịnh Vân Phong, Biển Bãi Dài 3N3Đ
                                Ai một lần đến Xuân Đừng (Khánh Hòa) cũng phải thốt lên, “đẹp quá!” để rồi quẩn quanh ở chốn này suốt cả ngày mà vẫn chưa muốn rời xa. Mọi thứ đều hoang sơ đến hồn nhiên. Cát trắng mịn màng và làn nước trong xanh màu ngọc bích, những rặng san hô sặc sỡ… như níu chân du khách.
                                         Đánh Giá Tour
                                    0.0
                                                                                                                                    Đăng nhập để đánh giá hay điền các thông tin sau :
                                                        Họ tên (bắt buộc)
                                                        Nhập mail của bạn (bắt buộc)
                                                    Nhập nhận xét của bạn (bắt buộc)
                                                     Đánh giá :
                                                                           Rất Tốt  Tốt  khá  Trung Bình  Bình Thường
                                                Rất Tốt 0
                                                Tốt  0
                                                Khá 0
                                                Tạm Được  0
                                                Bình Thường  0
                                            Nhận xét (0)
                                                                                                                                                                                Hết
                        LỊCH TRÌNH TOUR
                                 NGÀY 1 : TP. HỒ CHÍ MINH  – TP. NHA TRANG        
                                    21h30: Đoàn rời thành phố Hồ Chí Minh, bắt đầu hành trình đến với vịnh Nha Trang để được hòa mình trong làn gió biển phóng khoáng đang tràn ngập trên thành phố biển.
Nghỉ đêm trên xe.
TẮM BIỂN BÃI DÀI –DU NGOẠN ĐẢO – VINPEARLAND 
07:30 Qúy khách dung điểm tâm tại nhà hàng
08:00 Đoàn tham quan tắm biển Bãi Dài,quý khách sẽ bị chinh phục ngay bởi một bãi cát dài mịn màng dưới chân kèm với đó là một nét hoang sơ còn chưa được con người khai phá. Biển cạn, nước chỉ khoảng tới đầu gối, bạn có thể nô đùa cùng sóng biển hay thả mình trong làn nước trong xanh, cảm giác thật thú vị và vô cùng dễ chịu. Các dịch vụ vui chơi cũng đã có mặt như đi cano trên biêtn hay lướt sóng và môtô nước sẽ đem đến cho du khách thêm phần thú vị.  Một điều vô cùng kỳ thú ở Bãi Dài, du khách chỉ cần xúc vài xẻng cát ở bờ biển, đào một cái hố nhỏ là đã có thể tìm thấy nước ngọt, trong veo và tươi mát không kém gì nước suối, quả thực kỳ lạ.
11:00 Đoàn khởi hành về Nha Trang, đến nhà hàng dùng cơm trưa.
11:30 Trở về  khách sạn nhận phòng và nghỉ ngơi.
Buổi chiều:
16h00: Xe đoàn đi du ngoạn Đảo,sau đó đưa đoàn sang Vinpearland, khám phá và chơi tất cả các trò chơi tại Vinpearland miễn phí.
Hệ thống làn trượt đầu tiên trên đảo tại Châu Á: Alpine Coaster
Thưởng thức những màn biễu diễn nhạc nước độc đáo tại sân khấu có sức chứa trên 5.000 chỗ
Thưởng thức ẩm thực phong phú, hấp dẫn từ mọi miền tại các nhà hàng trong làng ẩm thực
Trò chơi bật nhảy Bungee
Hay thử sức“bay” trên biển với các trò chơi cảm giác mạnh như: đu quay 3 chiều, đu quay văng dây, đu quay thú nhún, đu quay voi con, tàu hải tặc, tàu lượn cao tốc.
Khám phá hệ thống các trò chơi trong nhà như: đấu bò tót, xe đụng, vườn cổ tích, thiên đường trẻ em, siêu thị game, hát karaoke &và trải nghiệm cảm giác mới lạ  trong rạp chiếu phim 4D hiện đại.
Thám hiểm thế giới đại dương với hàng trăm ngàn sinh vật biển qua Thủy Cung Vinpearl lớn nhất Đông Nam Á bằng hệ thống cầu thang cuốn trong một đường hầm dài 90m dưới đáy biển được thiết kế rất công phu tạo cảm giác hấp dẫn, kỳ bí.
Dạo bộ dọc nhữngdãy phố mua sắmrộng hơn 6000 m2 với những gian hàng thiết kế độc đáo
Trãi nghiệm cảm giác thú vị trên tuyến cáp treo vượt biển dài nhất thế giới với độ dài 3.320m
21:00 : Quý khách vượt biển bằng hệ thống cáp treo hiện đại bậc nhất về đất liền.
Xe đón quý khách về khách sạn nghỉ ngơi tự do
 
                                 NGÀY 2 : KHÁM PHÁ VỊNH VÂN PHONG- BÃI BIỂN XUÂN ĐỪNG- ĂN HẢI SẢN
                                    07:00 Dùng điểm tâm sáng tại nhà hàng.
08:00 Đoàn khởi hành đi Vịnh Vân Phong- được ví như nàng công chúa ngủ quên trên biển cả mênh mông, Vịnh Vân Phong kiêu sa, kiều diễm ru hồn du khách bởi bãi cát trắng trải dài mênh mông, làn nước biển xanh trong và lòng đại dương rực rỡ sắc màu của đa dạng các loài san hô hay sinh vật biển. Vịnh Vân Phong là một trong những vịnh đẹp nhất thế giới, là một kỳ quan thiên nhiên với khí hậu ôn hoà, bãi biển đẹp, cát mịn, núi đồi hùng vĩ bao quanh….
10h00: Tàu đưa quý khách tham quan Vịnh,quý khách có thể lặn ngắm san hô, hoặc thử tài câu cá….
Tàu cập bãi Xuân Đừng- (quý khách di chuyển vào bờ bằng bè nổi- một cảm giác rất lạ và thú vị) –Bãi Xuân Đừng mang đậm nét hoang sơ, với cát trắng mịn màng và làn nước trong xanh màu ngọc bích, không hề có sóng, mặt nước êm như mặt hồ. Ở độ sâu vài ba mét, vẫn có thể nhìn thấy đáy.
Một điều rất thú vị ở bãi biển Xuân Đừng là bạn có thể lấy nước ngọt ngay trên bãi cát, sát mép biển. Chỉ cần đào cát lên, cách ranh nước mặn khoảng 1m.
Quý khách tự do tắm biển,
12h00: Quý khách dung cơm tại Nhà hàng với các món Hải Sản như:
Tôm nướng, Mực nướng, Cá nướng, Lẩu Hải sản + bún , cơm chiên, trái cây trà đá trang miệng.
13h30: Quý khách trở về Nha Trang trên con đường trải nhựa phẳng phiu như một tấm vải lụa tuyền vắt ngang những đồi cát trắng, cảnh đẹp tuyệt vời, quý khách có thể thỏa thích ngắm cảnh và chụp hình.
15h30: Về khách sạn, quý khách nghỉ ngơi và tự do khám phá Nha Trang
18h00: Xe đưa đoàn dung cơm tối tại Nhà Hàng
                                 NGÀY 3 : CHỢ ĐẦM  – TP. NHA TRANG – TP. HỒ CHÍ MINH  
07:00 Làm thủ tục trả phòng khách sạn.
07:30 Dùng điếm tâm sáng tại nhà hàng.
08:00 Tự do mua sắm tại Trung Tâm Thương Mại chợ Đầmvới kiến trúc chợ hình tròn lồng duy nhất ở Việt Nam. Qua đó khám phá nét đẹp văn hóa, đời sống thường ngày của người dân xứ sở Trầm Hương.
09:00 Tạm biệt thành phố biển, đoàn khởi hành về lại Tp.Hồ Chí Minh. Trên đường về, Quý khách cùng thư giãn với các trò chơi tập thể vui nhộn trên xe & nghe hướng dẫn viên thuyết minh về những thắng cảnh trên dải đất Mẹ miền Trung quanh năm rì rào gió biển.
11:00 Dùng cơm trưa tại Cà Ná
Dừng chân tại  Phan Rang, thưởng thức rượu nho & các loại trái cây đặc sản của vùng.
20:00 Đoàn có mặt tại Tp.Hồ Chí Minh.
Kết thúc chương trình, chia tay & hẹn gặp lại.
 
                    G.Thiệu
                                        Ngày 1
                                        Ngày 2
                                        Ngày 3
                     ĐỊA ĐIỂM ĐÓN KHÁCH
                                                    QUÝ KHÁCH ĐI TOUR KHỞI HÀNH BẰNG Ô TÔ VỚI NHỮNG ĐIỂM ĐÓN SAU :
                             Đón khách tại Công ty Du lịch Hải Đăng, 225 Bàu Cát, P12, Quận Tân Bình
                             Đón khách tại Nhà Văn Hóa Thanh Niên, 04 Phạm Ngọc Thạch, Quận 1
                             Đón khách tại Cây xăng Comeco, Ngã 4 Hàng Xanh, Quận Bình Thạnh
                             Đón khách tại Ngã 4 Thủ Đức, Quận 9
                             Đón khách tại Siêu thị Lotte Mart, Ngã 4 Amata, Biên Hòa, Đồng Nai
                            QUÝ KHÁCH ĐI TOUR TUYẾN MIỀN TÂY NHỮNG ĐIỂM ĐÓN SAU :
                             Đón khách tại Công viên Bàu Cát, 141 Đồng Đen, P11, Quận Tân Bình 
                             Đón khách tại Nhà Văn Hóa Thanh Niên, 04 Phạm Ngọc Thạch, Quận 1
                             Bến xe miền tây , Q 6 ( bệnh viện Triều An )
                            QUÝ KHÁCH ĐI TOUR KHỞI HÀNH BẰNG MÁY BAY VỚI NHỮNG ĐIỂM ĐÓN SAU :
                             Quý khách vui lòng tập trung tại nhà ga đối với những khách đi tour khởi hành bằng tàu
                             Quý khách vui lòng tập trung tại sân bay hoặc các phòng chờ của các hãng bay đối với những khách đi tour khởi hành bằng máy bay
                         QUY ĐỊNH TOUR
                                             GIÁ TOUR BAO GỒM 
                                                  Lưu Trú
                                                Khách sạn 2 sao: Cường Long, Phương Nhung …..
Máy lạnh, tivi, hoặc khách sạn tương đương,phòng 3-4 khách.
Phụ thu phòng đơn: 1 phòng 1 khách: 600.000 đ/khách/2 đêm dịp lễ, 400.000 đ/khách/2 đêm ngày thường
Phụ thu phòng đôi:   75.000 đ/Khách/đêm, ngày thường
Phụ thu phòng đôi: 125.000 đ/Khách/đêm, ngày lễ.
Trường hợp có khách đi lẻ, Hải Đăng ghép cho khách và khách không phải đóng phụ thu.
. *** Nếu quý khách có nhu cầu ở khách sạn 3-4-5 sao vui lòng liên hệ HAIDANGTRAVEL để được sắp xếp.
                                                 Vé Tham Quan
                                                    Vé vào cổng: Ghế dù tại Bãi Dài,Tàu đi Vịnh Vân Phong, ghế dù tại bãi Xuân Đừng, Vé Vinpearland trọn gói
                                                  Ăn Uống
                                                Điểm tâm: 3 buổi 
1 set Menu: 40.000 đ/suất (1tô bún, phở, hủ tiếu + 1 ly nước ngọt, sữa, café)
Ăn chính: 4 buổi
3 buổi: 80.000đ/suất
1 buổi: 180.000 đ/suất (Ăn Hải Sản)
                                                   Nón Nước - Khăn Lạnh
                                                Nước suối: 1 chai 500ml/ngày/khách
Khăn lạnh: 1 cái/ngày/khách
Nón du lịch: 1 nón HAIDANGTRAVEL/khách
                                                 Phương Tiện
                                                Xe đời mới máy lạnh 45 Chỗ, đón khách theo chương trình
Mỗi đợt tối thiểu 40 khách/ đoàn. Trường hợp không đủ slk thì được dời sang lịch khởi hành tiếp theo.
                                             GIÁ TOUR KHÔNG BAO GỒM 
                                                   Chi Phí Cá Nhân
                                                Chi phí cá nhân, Giặt ủi, điện thoại,ăn uống ngoài chương trình …..Điểm tham quan,Tắm nước ngọt tại Bãi dài và Xuân Đừng, chi phí cá nhân ngoài chương trình....Thuế VAT 10%,Khách nào có nhu cầu xuất hóa đơn thì đóng thêm 10% giá tour.
                                                  Thuế VAT
                                                 10% thuế VAT
                                             QUY ĐỊNH TRẺ EM 
                                                1.Trẻ em dưới 05 tuổi, cao dưới 1m: miễn phí – cha mẹ lo toàn bộ chi phí cho bé nếu có phát sinh. 02 người lớn chỉ được kèm 01 trẻ em. Trường hợp 02 người lớn kèm 02 trẻ em dưới 05 tuổi. Trẻ em thứ 1 được miễn phí, trẻ em thứ 2 áp dụng mức phí: 50%/mức phí người lớn : Phụ thu ghế ngồi trên xe: 40%/ giá vé của người lớn( Nếu ba mẹ có yêu cầu)
2.Trẻ em từ 05 – 10 tuổi, cao từ 1m – 1.4m: 75%/mức phí người lớn– bao gồm tất cả các chi phí & ghế ngồi riêng trên xe, ngủ chung giường với bố mẹ. 02 người lớn chỉ được kèm 01 trẻ em. Trường hợp 02 người lớn đi kèm 02 trẻ em, trẻ em thứ 2 phải áp dụng mức phí của người lớn.  
3.Trẻ em từ 05 – 10 tuổi, cao trên 1m4: 85%/mức phí người lớn – bao gồm tất cả các chi phí & ghế ngồi riêng trên xe, ngủ chung giường với bố mẹ. 02 người lớn chỉ được kèm 01 trẻ em. Trường hợp 02 người lớn đi kèm 02 trẻ em, trẻ em thứ 2 phải áp dụng mức phí của người lớn.
4.Trẻ em từ 11 tuổi: 100% giá tour - như người lớn.
                                             QUY ĐỊNH MUA VÀ HỦY TOUR 
                                                Sau khi đăng ký, thanh toán ít nhất 50% tiền cọc và đóng hết 100% trước khởi hành 7 ngày.
Dời ngày khởi hành trước 10 ngày không mất phí, sau 8 ngày mất 20%.( Không tính ngày lễ và chủ nhật), chỉ được dời 1 lần.
Sau khi đăng ký huỷ tour mất 10% giá tour
Từ 10 đến trước 8 ngày trước ngày khởi hành chịu phí 30% giá tour.( Không tính ngày lễ và chủ nhật)
Từ 8 đến 6 ngày trước ngày khởi hành chịu phí 50% giá tour.( Không tính ngày lễ và chủ nhật)
Từ 3-5 ngày trước ngày khởi hành chịu phí 70% giá tour.( Không tính ngày lễ và chủ nhật)
Từ 2 ngày trước ngày khởi hành chịu phí 100% giá tour.( Không tính ngày lễ và chủ nhật)
Các quy định trên không áp dụng cho các dịp lễ và tết.
Các ngày lễ tết việc dời ngày và hủy tour trước 15 ngày khởi hành mất 50% giá tour. Sau 15 ngày so với ngày khởi hành mất 100% giá tour.(Không tính ngày chủ nhật.)
Sau khi hủy tour, du khách vui lòng đến công ty nhận tiền trong vòng 2 tuần kể từ ngày đăng ký tour. Chúng tôi chỉ thanh toán trong thời gian 14 ngày nói trên.
Trường hợp hủy tour do sự cố khách quan như thiên tai, dịch bệnh hoặc do tàu thủy, xe lửa, máy bay hoãn/hủy chuyến, Hải Đăng Travel sẽ không chịu trách nhiệm bồi thường thêm bất kỳ chi phí nào khác ngoài việc hoàn trả chi phí những dịch vụ chưa được sử dụng của tour đó.
                                             HÌNH THỨC THANH TOÁN 
                                                Thanh toán bằng tiền mặt tại Trụ sở chính, chi nhánh của Hải Đăng Travel hoặc công ty hỗ trợ thu tận nơi ( nếu khách có yêu cầu)
Chuyển khoản qua số tài khoản
Số tài khoản: 711A00686521.
Chủ tài khoản: Dương Phan Quốc Văn – Vietinbank TP.HCM.
Nội dung: Tour Nha Trang -Vịnh Vân Phong –Vinpearland 3n3d. Ngày khởi hành:…, Tên khách:…, Số lượng:…
Sử dụng Voucher, cung cấp mã số Voucher, đóng thêm phụ thu (nếu có). Quý khách giữ Voucher và nộp lại cho công ty.
Thanh toán bằng thẻ Visa ( thẻ từ, thẻ chip,…)
Thẻ giảm giá, thẻ ưu đãi xuất trình khi đăng ký tour.
                     ĐIỂM THAM QUAN 
                                                  Kiểm Tra Giá & Lịch Khởi Hành 
                                                                                            KS 2 Sao
                            Khởi Hành
                                                                                                                                                                    24/11/201608/12/2016
                            = 
                            Người lớn
                            = 
                            Trẻ em
                            = 
                            Tổng cộng
                                = 
                         Mua Tour
                TOUR LIÊN QUAN
                                                                                                                                                                                                                                                                                                                                                                                                                                                                                                                                                                                                                                                                                                                                                                                                                                                                                                                                                                                                                                                                                                                                                                                                                                                                                                                                                                                                                                                                                                                                                                                                                                                                                                                                                                                                                                                                                                                                                                                                                                                                                                                                                                                                                                                                                                                                                                                                                                                                                                                                                                                                                                                                                                                                                                                                                                                                                                                                                                                                                                                                                                                                                                                                                                                                                                                                                                                                                                                                                                                                                                                                                                                                                                                                                                                                                                                                                                                                                                                                                                                                                                                                                                                                                                                                                                                                                                                                                                                                                                                                                                                                                                                                                                                                                                                                                                                                                                                                                                                                                                                                                                                                                                                                                                                                                                                                                                                                                                                                                                                                                                                                                                                                                                                                                                                                                                                                                                                                                                                                                                                                                                                                                                                                                                                                                                                                                                                                                                                                                                                                                                                                                                                                                                                                                                                                                                                                                                                                                                                                                                                                                                                                                                                                                                                                                                                                                                                                                                                                                    New
                                              3 ngày 2 đêm |  Máy Bay Trọn Gói |  5 sao
                                            Xem
                                    Tour Đà Nẵng, Khám Phá Furama Resort Đà Nẵng 
                                         9,900,000 đ
                                                Giá gốc: 10,900,000 đ
                                                     Lịch khởi hành
                                                        20/11/201621/11/201622/11/201623/11/201624/11/201625/11/201626/11/201627/11/201628/11/201629/11/201630/11/2016
                                                                                                                                                                                                                                                                                                                                                                                                                                                                                                                                                                                                                                                                                                                                                                                                                                                                                                                                                                                                                                                                                                                                                                                                                                                                                                                                                                                                                                                                                                                                                                                                                                                                                                                                                                                                                                                                                                                                                                                                                                                                                                                                                                                                                                                                                                                                                                                                                                                                                                                                                                                                                                                                                                                                                                                                                                                                                                                                                                                                                                                                                                                                                                                                                                                                                                                                                                                                                                                                                                                                                                                                                                                                                                                                                                                                                                                                                                                                                                                                                                                                                                                                                                                                                                                                                                                                                                                                                                                                                                                                                                                                                                                                                                                                                                                                                                                                                                                                                                                                                                                                                                                                                                                                                                                                                                                                                                                                                                                                                                                                                                                                                                                                                                                                                                                                                                                                                                                                                                                                                                                                                                                                                                                                                                                                                                                                                                                                                                                                                                                                                                                                                                                                                                                                                                                                                                                                                                                                                                                                                                                                                                                                                                                                                                                New
                                              1 ngày 1 đêm |  Ô TÔ |  2 sao
                                            Xem
                                    Tour Rừng Tràm Trà Sư, Châu Đốc 1N1Đ
                                         590,000 đ
                                                Giá gốc: 1,000,000 đ
                                                     Lịch khởi hành
                                                        25/11/201625/11/201625/11/201602/12/201602/12/201602/12/201609/12/201609/12/201609/12/201616/12/201616/12/201616/12/2016
                                                                                                                                                                                                                                                                                                                                                                                                                                                                                                                                                                                                                                                                                                                                                                                                                                                                                                                                                                                                                                                                                                                                                                                                                                                                                                                                                                                                                                                                                                                                                                                                                                                                                                                                                                                                                                                                                                                                                                                                                                                                                                                                                                                                                                                                                                                                                                                                                                                                                                                                                                                                                                                                                                                                                                                                                                                                                                                                                                                                                                                                                                                                                                                                                                                                                                                                                                                                                                                                                                                                                                                                                                                                                                                                                                                                                                                                                                                                                                                                                                                                                                                                                                                                                                                                                                                                                                                                                                                                                                                                                                                                                                                                                                                                                                                                                                                                                                                                                                                                                                                                                                                                                                                                                                                                                                                                                                                                                                                                                                                                                                                                                                                                                                                                                                                                                                                                                                                                                                                                                                                                                                                                                                                                                                                                                                                                                                                                                                                                                                                                                                                                                                                                                                                                                                                                                                                                                                                                                                                                                                                                                                                                                                                                                                                                                                                            New
                                              3 ngày 3 đêm |  Ô Tô |  2 sao
                                            Xem
                                    Tour Đà Lạt, Ẩm Thực Đà Lạt, Buffet Rau Không Giới Hạn 3N3Đ
                                         1,190,000 đ
                                                Giá gốc: 1,820,000 đ
                                                     Lịch khởi hành
                                                        24/11/201601/12/201608/12/201615/12/2016
                                                                                                                                                                                                                                                                                                                                                                                                                                                                                                                                                                                                                                                                                                                                                                                                                                                                                                                                                                                                                                                                                                                                                                                                                                                                                                                                                                                                                                                                                                                                                                                                                                                                                                                                                                                                                                                                                                                                                                                                                                                                                                                                                                                                                                                                                                                                                                                                                                                                                                                                                                                                                                                                                                                                                                                                                                                                                                                                                                                                                                                                                                                                                                                                                                                                                                                                                                                                                                                                                                                                                                                                                                                                                                                                                                                                                                                                                                                                                                                                                                                                                                                                                                                                                                                                                                                                                                                                                                                                                                                                                                                                                                                                                                                                                                                                                                                                                                                                                                                                                                                                                                                                                                                                                                                                                                                                                                                                                                                                                                                                                                                                                                                                                                                                                                                                                                                                                                                                                                                                                                                                                                                                                                                                                                                                                                                                                                                                                                                                                                                                                                                                                                                                                                                                                                                                                                                                                                                                                                                                                                                                                                                                                                                                                                                                                                                                                                                                        New
                                              2 ngày 2 đêm |  Máy Bay Trọn Gói |  5 sao
                                            Xem
                                    Tour Nghỉ Dưỡng, An Lâm Ninh Van Bay Lillas, Trọn gói Vé Máy Bay 2N2Đ
                                         13,300,000 đ
                                                Giá gốc: 16,100,000 đ
                                                     Lịch khởi hành
                                                        20/11/201621/11/201622/11/201623/11/201624/11/201625/11/201626/11/201627/11/201628/11/201629/11/201630/11/2016
                                                                                                                                                                                                                                                                                                                                                                                                                                                                                                                                                                                                                                                                                                                                                                                                                                                                                                                                                                                                                                                                                                                                                                                                                                                                                                                                                                                                                                                                                                                                                                                                                                                                                                                                                                                                                                                                                                                                                                                                                                                                                                                                                                                                                                                                                                                                                                                                                                                                                                                                                                                                                                                                                                                                                                                                                                                                                                                                                                                                                                                                                                                                                                                                                                                                                                                                                                                                                                                                                                                                                                                                                                                                                                                                                                                                                                                                                                                                                                                                                                                                                                                                                                                                                                                                                                                                                                                                                                                                                                                                                                                                                                                                                                                                                                                                                                                                                                                                                                                                                                                                                                                                                                                                                                                                                                                                                                                                                                                                                                                                                                                                                                                                                                                                                                                                                                                                                                                                                                                                                                                                                                                                                                                                                                                                                                                                                                                                                                                                                                                                                                                                                                                                                                                                                                                                                                                                                                                                                                                                                                                                                                                                                                                                                                                                                                                                                                                                                                                                                                                                                                New
                                              2 ngày 2 đêm |  Ô Tô |  0 sao
                                            Xem
                                    Tour Đảo Bình Ba, Tiệc BBQ Xe Giường Nằm 2N2Đ
                                         1,090,000 đ
                                                Giá gốc: 2,260,000 đ
                                                     Lịch khởi hành
                                                        25/11/201602/12/201609/12/201616/12/201623/12/2016
                                                                                                                                                                                                                                                                                                                                                                                                                                                                                                                                                                                                                                                                                                                                                                                                                                                                                                                                                                                                                                                                                                                                                                                                                                                                                                                                                                                                                                                                                                                                                                                                                                                                                                                                                                                                                                                                                                                                                                                                                                                                                                                                                                                                                                                                                                                                                                                                                                                                                                                                                                                                                                                                                                                                                                                                                                                                                                                                                                                                                                                                                                                                                                                                                                                                                                                                                                                                                                                                                                                                                                                                                                                                                                                                                                                                                                                                                                                                                                                                                                                                                                                                                                                                                                                                                                                                                                                                                                                                                                                                                                                                                                                                                                                                                                                                                                                                                                                                                                                                                                                                                                                                                                                                                                                                                                                                                                                                                                                                                                                                                                                                                                                                                                                                                                                                                                                                                                                                                                                                                                                                                                                                                                                                                                                                                                                                                                                                                                                                                                                                                                                                                                                                                                                                                                                                                                                                                                                                                                                                                                                                                                                                                                                                                                                                                                                                                                                                                                                                                                                                                                                                                                            New
                                              3 ngày 2 đêm |  máy bay |  2 sao
                                            Xem
                                    Tour Phú Quốc,Bao Vé Máy Bay Vinpearland, Câu Cá, Ngắm San Hô Nam Đảo 3N2Đ
                                         2,990,000 đ
                                                Giá gốc: 2,200,000 đ
                                                     Lịch khởi hành
                                                        20/11/201621/11/201622/11/201623/11/201624/11/201625/11/201626/11/201627/11/201628/11/201629/11/201630/11/2016
                    TRỤ SỞ CHÍNH
                         225 Bàu Cát, P12, Q.Tân Bình, HCM
                         19002011 - 08 3849 3838 
                        08 3849 2999   
                          www.haidangtravel.com  
                         info@haidangtravel.com 
                        CSKH: 0948.99.1080
                    CHI NHÁNH
                         Quận 1 : Lầu 7, Tòa Nhà Viễn Đông, 14 Phan Tôn
                        19002011(Ext-107) -  0838204589  
                         Quận 12 : 256 TX25, Thạnh Xuân, Q12 
                        19002011(Ext-111)
                         Biên Hòa : 51A2, KP11, P.Tân Phong 
                        19002011(Ext-108) -  0613999392  
                    TRỢ GIÚP
                    Liên hệ & giới thiệuĐiều khoản chungHình thức thanh toánHướng dẫn mua tourChính sách bảo mật
                        GIỜ LÀM VIỆC
                            Thứ 2 đến 6
                                Sáng: 08:00-12:00Chiều:13:30-17:30
                            Thứ 7 Sáng: 08:00-12:00Nghỉ chủ nhật, lễ, tết
                    Được tìm kiếm nhiều
                        Tour Nha Trang
                        Tour Đà Lạt
                        Tour Cà Mau
                        Tour Phú Yên
                        Tour Ninh Chữ
                        Tour Côn Đảo
                        Tour Miền Bắc
                        Tour Phú Quốc
                        Tour Đà Nẵng
                        Tour Phan Thiết
                        Tour Bình Ba
                        Tour Nam Du
                        Tour Vũng Tàu
                        Tour Bà Lụa
                THÀNH TÍCH
            2015 © All Rights Reserved. Công ty cổ phần xây dựng du lịch Hải Đăng
        Your browser doesn't support canvas. Please download IE9+ on
            IE Test Drive
            +
                Có thể bạn quan tâm ?
                                Tour Côn Đảo, Khám Phá Lịch Sử Văn Hóa Côn Sơn 2N1Đ
                                 4,590,000 đ
                                Tour du lịch Vũng Tàu, Long Hải, Suối nước nóng Bình Châu 2N1Đ
                                 789,000 đ
                                Tour Đảo Phú Quý, Khám Phá Hòn Đảo Mang Vẻ Đẹp Hoang Sơ 3N3Đ
                                 2,250,000 đ
                                Tour Đà Lạt Phototrip Khám Phá Những Cung Đường Hoa 3N3Đ
                                 1,250,000 đ
                                Tour Ninh Chữ, Vĩnh Hy Hang Rái Siêu Tiết Kiệm 2n2d
                                 850,000 đ
                                Tour Đảo Bình Hưng, Hang Rái, Vĩnh Hy 2n2d
                                 1,111,000 đ
                                Tour Ninh Chữ - Vĩnh Hy - Cổ Thạch đồng giá 2N2Đ
                                 999,000 đ
                                Tour Côn Đảo, Trọn Gói Vé Máy Bay 2N1Đ
                                 3,999,000 đ
                                Tour Đảo Hòn Sơn Khám Phá Đỉnh Ma Thiên Lãnh 2N2Đ
                                 1,390,000 đ
                                Tour Ninh Chữ - Vĩnh Hy Khám Phá Bãi Đá Bảy Màu Resort 3sao 2N2Đ
                                 1,250,000 đ
                        ×
