url:http://haidangtravel.com/Tour-Binh-Ba-Nha-Trang-Bien-Doc-Let-Don-Giang-Sinh
Tittle :Tour Bình Ba Nha Trang, Biển Dốc Lết, Đón Giáng Sinh
content :Toggle navigation
                             Trang Chủ
                              Tour Du Lịch
                         Tour Trong Nước Tour Nước Ngoài
                              Tổ Chức Sự Kiện
                             Thuê Xe Du Lịch
                         Thuê Xe 4 Chổ Thuê Xe 7 Chổ Thuê Xe 16 Chổ Thuê Xe 29 Chổ Thuê Xe 35 Chổ Thuê Xe 45 Chổ
                             Khách Sạn
                              Cẩm nang du lịch
                              Tin tức du lịch
                              Bảng Giá Tour
                     1900 2011
                    08.3849.3838 - 0948.99.1080
                    Đăng Ký
                                            ×
                                            ĐĂNG KÝ
                                                        Tên đăng nhập (bắt buộc)
                                                        Nhập số điện thoại ( bắt buôt )
                                                        Nhập họ tên của bạn
                                                        Nhập mail của bạn
                                                        Nhập mật khẩu ( bắt buột )
                                                        Nhập lại mật khẩu ( bắt buột )
                                                        NamNữKhác
                                                        Địa chỉ nhà bạn
                                                        Ngày sinh của bạn
                                                 Nhận mail từ Hải Đăng Travel
                                                Đăng Ký
                        Đăng nhập
                                            ×
                                            ĐĂNG NHẬP
                                        Quên mật khẩu ?
                                        Đăng Ký
                                                Ghi nhớ mật khẩu
                                                Đăng nhập
                    Trang chủ
                 ›
                    Tour trong nước
                 ›
                    Tour Bình Ba Nha Trang, Biển Dốc Lết, Đón Giáng Sinh
                 Photo
                                Hổ Trợ Trực Tuyến
                             SKYPE YAHOO0947368118
                             Tour Bình Ba Nha Trang, Biển Dốc Lết, Đón Giáng Sinh
                                     3 ngày 3 đêm
                                      Ô Tô 
                                      2 sao 
                                     1,590,000 đ
                                            Giá gốc: 3,240,000 đ
                                                 Lịch khởi hành
                                                                                                        22/12/2016
                                 DỊCH VỤ ĐÍNH KÈM
                                  Vé tham quan  Hướng dẫn viên  Ăn uống  Phương tiện   Bảo hiểm  Khách sạn
                                 Cơ hội nhân quà hấp khi đăng ký tour tại www.haidangtravel.com xem quà tặng tại đây 
                                 MUA TOUR
                                 GIỚI THIỆU Tour Bình Ba Nha Trang, Biển Dốc Lết, Đón Giáng Sinh
                                         Đánh Giá Tour
                                    0.0
                                                                                                                                    Đăng nhập để đánh giá hay điền các thông tin sau :
                                                        Họ tên (bắt buộc)
                                                        Nhập mail của bạn (bắt buộc)
                                                    Nhập nhận xét của bạn (bắt buộc)
                                                     Đánh giá :
                                                                           Rất Tốt  Tốt  khá  Trung Bình  Bình Thường
                                                Rất Tốt 0
                                                Tốt  0
                                                Khá 0
                                                Tạm Được  0
                                                Bình Thường  0
                                            Nhận xét (0)
                                                                                                                                                                                Hết
                        LỊCH TRÌNH TOUR
                                 NGÀY 1 : TP. HỒ CHÍ MINH  – CAM RANH
                                    20h00: Xe và hướng dẫn viên công ty Hai Dang Travel đón đoàn tại điểm hẹn trong thành phố, sau đó khởi hành đi Cam Ranh.
Nghỉ đêm trên xe.
KHÁM PHÁ ĐẢO BÌNH BA- CHƯƠNG TRÌNH BAR TRÊN BIỂN- BUỔI TIỆC BBQ HẢI SẢN
Buổi sáng:
06h00: Sáng đến với Tp Cam Ranh, đoàn dừng chân nghỉ ngơi vệ sinh tại trung tâm Yến Sào Khánh Hoà nghỉ ngơi, dùng điểm tâm sáng tại Nhà Hàng.
08h00 : Lên tàu khởi hành từ Cảng Ba Ngòi (Đá Bạc), Sau hơn 1 giờ lênh đênh ngắm cảnh mặt trời mọc cũng như cảnh đẹp bình minh của Vịnh Cam Ranh, nghe thuyết minh về một trong những địa điểm hoàn toàn mới lạ với du khách.
09h15: Đến với đảo Tôm Hùm, tàu đưa du ngoạn cảnh tại Vịnh Cam Ranh, và đến những bãi tắm hoang sơ nhất chưa có tên trên bản đồ du lịch khu vực miền Trung:
+     Bãi Bồ Đề: một trong những nơi quý khách có thể ngâm mình trong làng nước trong xanh tuyệt đẹp.
+     Bãi Nhà Cũ: là một trong những nơi du khách có thể lặn ngắm những rặng san hô tuyệt đẹp, bơi tung tăng với những đàn cá 7 màu tuyệt đẹp hoặc có thể bắt những con ốc đủ màu sắc.
+     Bãi Me: Nơi quý khách sẽ được hướng dẫn bắt và câu những chú Cá Mú đá cũng như chỉ dẫn cách câu những loài cá khác.
+     Tàu sẽ neo lại 1 trong 4 bãi để tham dự chương trình: Bar nổi trên biển với nhiều vũ điệu sôi động, thưởng thức rượu vang giữa biển.
12h00 :Quý khách thưởng thức bửa tiệc hải sản với các món : Tôm Nướng, cá nướng, Mực nướng, các loại ốc nướng...kèm cơm chiên Dương Châu và món cháo Tôm Hùm, đoàn giao lưu dancing tại bè nổi trên biển.
Quý khách tự do câu cá hoặc tắm biển tại Bình Ba.
15h00 : Tàu đón đoàn về lại Cam Ranh, đoàn tiếp tục khởi hành đi Nha trang.
17h30 : Đến Nha Trang, đoàn thưởng thức bữa tối tại thành phố biển với đặc sản nem nướng Ninh Hòa. Ngoài hương vị giòn, thơm của món nem Nướng, Quý khách còn có cơ hội thưởng thức món Bún thịt nướng mang hương vị của miền Trung, món nem chua – chả lụa mang đặc trưng của thị xã Ninh Hòa – Khánh Hòa, sau đó trờ về khách sạn nhận phòng khách sạn nghỉ ngơi.
Buổi tối : Tự do khám phá thành phố biển về đêm
                                 NGÀY 2 : BIỂN DỐC LẾT-  CHÙA LONG SƠN – NHÀ THỜ NÚI – VINPEARLAND
                                    07:00 Xe đón đoàn dung điểm tâm sang tại nhà hàng.
08:00 Xe đón đoàn tham quan KDL Dốc Lết-với cồn cát trắng và hàng dương bao bọc bãi biển cát trắng mịn…Bãi biển Dốc Lết dài khoảng 10km, nước xanh với những con sóng nhẹ như một sự tiếp đón nồng nhiệt đến với quý khách. Biển với nước ấm quanh năm, dốc nhẹ không sâu và không có sóng lớn, biển Dốc Lết là một nơi lý tưởng cho tất cả mọi người đặc biệt là trẻ em. Đến với khu nghỉ mát Dốc Lết, bạn có thể tham gia các trò chơi trên biển như mô tô nước, xuồng chèo, trượt nước , thúng chai, bóng chuyền bãi biển…và đi các tour đảo.
Sau những giờ vui đùa trên biển, bạn có thể nghỉ ngơi dưới những dù bằng gỗ và thưởng thức hải sản tươi giá rẻ: Tôm, ghẹ, mực, ốc….. đầy thú vị. (chi phí tự túc)
11:00 Đoàn dung cơm trưa tại nhà hàng.
11:30 Trở về  khách sạn nghỉ ngơi.
Buổi chiều:
15h00: Xe đưa đoàn tham quan chùa Long Sơn, Chùa còn được gọi là chùa Phật Trắng hoặc Đăng Long tự. Đây là điểm đến hành hương, vãn cảnh yêu thích của người địa phương cũng như khách thập phương và là ngôi chùa nổi tiếng nhất thành phố Nha Trang bởi lịch sử lâu đời với bức tượng Kim Thân Phật tổ nằm trên đỉnh núi.
Xây dựng từ năm 1963, đã đưa ngôi chùa vào danh sách kỷ lục Việt Nam: “Ngôi chùa có tượng Phật ngoài trời lớn nhất Việt Nam”.
16h00 : Đoàn tham quan Nhà Thờ Đá, một công trình kiến trúc độc đáo của Nha Trang.
16h30: Xe đưa đoàn tham quan Khu Du Lịch 5 Sao Vinpearland.
Quý khách tự do tham gia tất cả các trò chơi trong nhà, ngoài trời:
Hệ thống làn trượt đầu tiên trên đảo tại Châu Á: Alpine CoasterTrò chơi bật nhảy BungeeHay thử sức“bay” trên biển với các trò chơi cảm giác mạnh như: đu quay 3 chiều, đu quay văng dây, đu quay thú nhún, đu quay voi con, tàu hải tặc, tàu lượn cao tốc.Khám phá hệ thống các trò chơi trong nhà như: đấu bò tót, xe đụng, vườn cổ tích, thiên đường trẻ em, siêu thị game, hát karaoke & và trải nghiệm cảm giác mới lạ  trong rạp chiếu phim 4D hiện đại.Thám hiểm thế giới đại dương với hàng trăm ngàn sinh vật biển qua Thủy Cung Vinpearl lớn nhất Đông Nam Á bằng hệ thống cầu thang cuốn trong một đường hầm dài 90m dưới đáy biển được thiết kế rất công phu tạo cảm giác hấp dẫn, kỳ bí.Trải nghiệm đa cảm giác tại khu vực Công Viên Nước với các trò chơi cảm giác mạnh: đường trượt 6 làn, hố đen vũ trụ, cảm tử quân, rơi tự do, sóng thần, phao bay & phao vượt tốc. Thỏa thích trong không gian của bé tại khu vực trò chơi dành cho gia đình: hồ bơi trẻ em, hồ tạo sóng, máng trượt thân người, máng trượt nhóm gia đình…Dạo bộ dọc những dãy phố mua sắm rộng hơn 6000 m2 với những gian hàng thiết kế độc đáoTham quan Trúc Lâm Tịnh Viện để tìm về một không gian tâm linh, thành kính và hướng thiện của đức Phật
Dùng buổi tối fastfood tự túc tại Vinpearland
 
21h00: Đoàn về lại Nha Trang
Buổi tối. Tự do khám phá thành phố Nha Trang, nghỉ đêm tại Nha Trang
                                 NGÀY 3 : CHỢ ĐẦM  – TP. NHA TRANG – TP. HỒ CHÍ MINH  
07:00 Làm thủ tục trả phòng khách sạn.
07:30 Dùng điểm tâm sáng tại nhà hàng.
08:00 Tự do mua sắm tại Trung Tâm Thương Mại chợ Đầm với kiến trúc chợ hình tròn lồng duy nhất ở Việt Nam. Qua đó khám phá nét đẹp văn hóa, đời sống thường ngày của người dân xứ sở Trầm Hương.
09:00 Tạm biệt thành phố biển, đoàn khởi hành về lại Tp.Hồ Chí Minh. Trên đường về, Quý khách cùng thư giãn với các trò chơi tập thể vui nhộn trên xe & nghe hướng dẫn viên thuyết minh về những thắng cảnh trên dải đất Mẹ miền Trung quanh năm rì rào gió biển.
11:00 Dùng cơm trưa tại Cà Ná
Dừng chân tại  Phan Rang, thưởng thức rượu nho & các loại trái cây đặc sản của vùng.
20:00 Đoàn có mặt tại Tp.Hồ Chí Minh.
Kết thúc chương trình, chia tay & hẹn gặp lại.
                    G.Thiệu
                                        Ngày 1
                                        Ngày 2
                                        Ngày 3
                     ĐỊA ĐIỂM ĐÓN KHÁCH
                                                QUÝ KHÁCH ĐI TOUR KHỞI HÀNH BẰNG Ô TÔ VỚI NHỮNG ĐIỂM ĐÓN SAU :
Đón khách tại Công ty Du lịch Hải Đăng, 225 Bàu Cát, P12, Quận Tân Bình
Đón khách tại Nhà Văn Hóa Thanh Niên, 04 Phạm Ngọc Thạch, Quận 1
Đón khách tại Cây xăng Comeco, Ngã 4 Hàng Xanh, Quận Bình Thạnh
Đón khách tại Ngã 4 Thủ Đức, Quận 9
Đón khách tại Siêu thị Lotte Mart, Ngã 4 Amata, Biên Hòa, Đồng Nai
QUÝ KHÁCH ĐI TOUR TUYẾN MIỀN TÂY NHỮNG ĐIỂM ĐÓN SAU :
Đón khách tại Công viên Bàu Cát, 141 Đồng Đen, P11, Quận Tân Bình
Đón khách tại Nhà Văn Hóa Thanh Niên, 04 Phạm Ngọc Thạch, Quận 1
Bến xe miền tây , Q 6 ( bệnh viện Triều An )
QUÝ KHÁCH ĐI TOUR KHỞI HÀNH BẰNG MÁY BAY VỚI NHỮNG ĐIỂM ĐÓN SAU :
Quý khách vui lòng tập trung tại nhà ga đối với những khách đi tour khởi hành bằng tàu
Quý khách vui lòng tập trung tại sân bay hoặc các phòng chờ của các hãng bay đối với những khách đi tour khởi hành bằng máy bay
                         QUY ĐỊNH TOUR
                                             GIÁ TOUR BAO GỒM 
                                                  Lưu Trú
                                                Khách sạn 2 sao: Cường Long, Phương Nhung …..
Máy lạnh, tivi, hoặc khách sạn tương đương,phòng 3-4 khách.
Phụ thu phòng đơn: 1 phòng 1 khách: 600.000 đ/khách/2 đêm dịp lễ, 400.000 đ/khách/2 đêm ngày thường
Phụ thu phòng đôi:   75.000 đ/Khách/đêm
Phụ thu phòng đôi: 125.000 đ/Khách/đêm
Trường hợp có khách đi lẻ, Hải Đăng ghép cho khách và khách không phải đóng phụ thu.
. *** Nếu quý khách có nhu cầu ở khách sạn 3-4-5 sao vui lòng liên hệ HAIDANGTRAVEL để được sắp xếp.
                                                 Vé Tham Quan
                                                    Vé vào cổng: Bao trọn gói: vé tham quan KDL Dốc Lết, ghế dù,bãi biển, tắm nước ngọt, Tàu ra đảo Bình Ba, Chi phí chơi Bar trên biển..
                                                  Ăn Uống
                                                Điểm tâm: 3 buổi
1 set Menu: 40.000 đ/suất (1tô bún, phở, hủ tiếu + 1 ly nước ngọt, sữa, café)
Ăn chính: 4 buổi
3 buổi: 80.000đ/suất
1 bửa BBQ : 250.000đ/suất
                                                   Nón Nước - Khăn Lạnh
                                                Nước suối: 1 chai 500ml/ngày/khách
Khăn lạnh: 1 cái/ngày/khách
Nón du lịch: 1 nón HAIDANGTRAVEL/khách
                                                 Phương Tiện
                                                Xe đời mới máy lạnh 45 Chỗ, đón khách theo chương trình
Mỗi đợt khởi hành tối thiểu 40 khách
                                             GIÁ TOUR KHÔNG BAO GỒM 
                                                   Chi Phí Cá Nhân
                                                Chi phí cá nhân : Giặt ủi, điện thoại,ăn uống ngoài chương trình …..Điểm tham quan : Vinpearl chi phí cá nhân ngoài chương trình , Thuế VAT 10% : Khách nào có nhu cầu xuất hóa đơn thì đóng thêm 10% giá tour.
                                                  Thuế VAT
                                                 10% thuế VAT
                                             QUY ĐỊNH TRẺ EM 
                                                1.Trẻ em dưới 05 tuổi, cao dưới 1m: miễn phí – cha mẹ lo toàn bộ chi phí cho bé nếu có phát sinh. 02 người lớn chỉ được kèm 01 trẻ em. Trường hợp 02 người lớn kèm 02 trẻ em dưới 05 tuổi. Trẻ em thứ 1 được miễn phí, trẻ em thứ 2 áp dụng mức phí: 50%/mức phí người lớn :  Phụ thu ghế ngồi trên xe: 40% giá tour ( Nếu ba mẹ có yêu cầu)
2.Trẻ em từ 05 – 10 tuổi, cao từ 1m – 1.4m: 75%/mức phí người lớn – bao gồm tất cả các chi phí & ghế ngồi riêng trên xe, ngủ chung giường với bố mẹ. 02 người lớn chỉ được kèm 01 trẻ em. Trường hợp 02 người lớn đi kèm 02 trẻ em, trẻ em thứ 2 phải áp dụng mức phí của người lớn.  
3.Trẻ em từ 05 – 10 tuổi, cao trên 1m4: 85%/mức phí người lớn – bao gồm tất cả các chi phí & ghế ngồi riêng trên xe, ngủ chung giường với bố mẹ. 02 người lớn chỉ được kèm 01 trẻ em. Trường hợp 02 người lớn đi kèm 02 trẻ em, trẻ em thứ 2 phải áp dụng mức phí của người lớn. 
4.Trẻ em từ 11 tuổi: 100% giá tour - như người lớn.
                                             QUY ĐỊNH MUA VÀ HỦY TOUR 
                                                Sau khi đăng ký, thanh toán ít nhất 50% tiền cọc và đóng hết 100% trước khởi hành 7 ngày.
Dời ngày khởi hành trước 10 ngày không mất phí, sau 8 ngày mất 20%.( Không tính ngày lễ và chủ nhật), chỉ được dời 1 lần.
Sau khi đăng ký huỷ tour mất 10% giá tour
Từ 10 đến trước 8 ngày trước ngày khởi hành chịu phí 30% giá tour.( Không tính ngày lễ và chủ nhật)
Từ 8 đến 6 ngày trước ngày khởi hành chịu phí 50% giá tour.( Không tính ngày lễ và chủ nhật)
Từ 3-5 ngày trước ngày khởi hành chịu phí 70% giá tour.( Không tính ngày lễ và chủ nhật)
Từ 2 ngày trước ngày khởi hành chịu phí 100% giá tour.( Không tính ngày lễ và chủ nhật)
Các quy định trên không áp dụng cho các dịp lễ và tết.
Các ngày lễ tết việc dời ngày và hủy tour trước 15 ngày khởi hành mất 50% giá tour. Sau 15 ngày so với ngày khởi hành mất 100% giá tour.(Không tính ngày chủ nhật.)
Sau khi hủy tour, du khách vui lòng đến công ty nhận tiền trong vòng 2 tuần kể từ ngày đăng ký tour. Chúng tôi chỉ thanh toán trong thời gian 14 ngày nói trên.
Trường hợp hủy tour do sự cố khách quan như thiên tai, dịch bệnh hoặc do tàu thủy, xe lửa, máy bay hoãn/hủy chuyến, Hải Đăng Travel sẽ không chịu trách nhiệm bồi thường thêm bất kỳ chi phí nào khác ngoài việc hoàn trả chi phí những dịch vụ chưa được sử dụng của tour đó.
                                             HÌNH THỨC THANH TOÁN 
                                                Thanh toán bằng tiền mặt tại Trụ sở chính, chi nhánh của Hải Đăng Travel hoặc công ty hỗ trợ thu tận nơi ( nếu khách có yêu cầu)
Chuyển khoản qua số tài khoản
Số tài khoản: 711A00686521.
Chủ tài khoản: Dương Phan Quốc Văn – Vietinbank TP.HCM.
Nội dung: Tour Bình Ba-Nha Trang 3n3d. Ngày khởi hành:…, Tên khách:…, Số lượng:…
Sử dụng Voucher, cung cấp mã số Voucher, đóng thêm phụ thu (nếu có). Quý khách giữ Voucher và nộp lại cho công ty.
Thanh toán bằng thẻ Visa ( thẻ từ, thẻ chip,…)
Thẻ giảm giá, thẻ ưu đãi xuất trình khi đăng ký tour.
                     ĐIỂM THAM QUAN 
                                                  Kiểm Tra Giá & Lịch Khởi Hành 
                                                                                            KS 2 Sao
                            Khởi Hành
                                                                                                                                                                    22/12/2016
                            = 
                            Người lớn
                            = 
                            Trẻ em
                            = 
                            Tổng cộng
                                = 
                         Mua Tour
                TOUR LIÊN QUAN
                                              4 ngày 4 đêm |  Ô Tô |  2 sao
                                            Xem
                                    Tour Ninh Chữ, Đà Lạt,Đón Giáng Sinh
                                         1,890,000 đ
                                                Giá gốc: 2,900,000 đ
                                                     Lịch khởi hành
                                                        21/12/2016
                                              4 ngày 4 đêm |  Ô Tô |  2 sao
                                            Xem
                                    Tour Nha Trang, Đà Lạt, Đón Giáng Sinh
                                         1,890,000 đ
                                                Giá gốc: 2,340,000 đ
                                                     Lịch khởi hành
                                                        21/12/2016
                                              3 ngày 3 đêm |  Ô Tô |  4 sao
                                            Xem
                                    Tour Đà Lạt,Tham Quan Vườn Hoa Lavender 4 sao, Đón Giáng Sinh
                                         1,890,000 đ
                                                Giá gốc: 1,920,000 đ
                                                     Lịch khởi hành
                                                        22/12/2016
                                              3 ngày 3 đêm |  Ô Tô |  2 sao
                                            Xem
                                    Tour Nha Trang Tiệc Buffet, Bãi Tắm Nhũ Tiên,Đón Giáng Sinh
                                         1,290,000 đ
                                                Giá gốc: 1,690,000 đ
                                                     Lịch khởi hành
                                                        22/12/2016
                                              3 ngày 3 đêm |  Ô Tô |  2 sao
                                            Xem
                                    Tour Nha Trang, Bar Trên Biển,Đón Giáng Sinh
                                         1,190,000 đ
                                                Giá gốc: 1,890,000 đ
                                                     Lịch khởi hành
                                                        22/12/2016
                                              2 ngày 3 đêm |  Ô Tô |  2 sao
                                            Xem
                                    Tour Nha Trang, Du Ngoạn Đảo 2N3Đ Đón Giáng Sinh
                                         999,000 đ
                                                Giá gốc: 1,690,000 đ
                                                     Lịch khởi hành
                                                        23/12/201624/12/2016
                    TRỤ SỞ CHÍNH
                         225 Bàu Cát, P12, Q.Tân Bình, HCM
                         19002011 - 08 3849 3838 
                        08 3849 2999   
                          www.haidangtravel.com  
                         info@haidangtravel.com 
                        CSKH: 0948.99.1080
                    CHI NHÁNH
                         Quận 1 : Lầu 7, Tòa Nhà Viễn Đông, 14 Phan Tôn
                        19002011(Ext-107) -  0838204589  
                         Quận 12 : 256 TX25, Thạnh Xuân, Q12 
                        19002011(Ext-111)
                         Biên Hòa : 51A2, KP11, P.Tân Phong 
                        19002011(Ext-108) -  0613999392  
                    TRỢ GIÚP
                    Liên hệ & giới thiệuĐiều khoản chungHình thức thanh toánHướng dẫn mua tourChính sách bảo mật
                        GIỜ LÀM VIỆC
                            Thứ 2 đến 6
                                Sáng: 08:00-12:00Chiều:13:30-17:30
                            Thứ 7 Sáng: 08:00-12:00Nghỉ chủ nhật, lễ, tết
                    Được tìm kiếm nhiều
                        Tour Nha Trang
                        Tour Đà Lạt
                        Tour Cà Mau
                        Tour Phú Yên
                        Tour Ninh Chữ
                        Tour Côn Đảo
                        Tour Miền Bắc
                        Tour Phú Quốc
                        Tour Đà Nẵng
                        Tour Phan Thiết
                        Tour Bình Ba
                        Tour Nam Du
                        Tour Vũng Tàu
                        Tour Bà Lụa
                THÀNH TÍCH
            2015 © All Rights Reserved. Công ty cổ phần xây dựng du lịch Hải Đăng
        Your browser doesn't support canvas. Please download IE9+ on
            IE Test Drive
            +
                Có thể bạn quan tâm ?
                                Tour Ninh Chữ, Vĩnh Hy Hang Rái Siêu Tiết Kiệm 2n2d
                                 850,000 đ
                                Tour Ninh Chữ - Vĩnh Hy Khám Phá Bãi Đá Bảy Màu Resort 3sao 2N2Đ
                                 1,250,000 đ
                                Tour Đảo Hòn Sơn Khám Phá Đỉnh Ma Thiên Lãnh 2N2Đ
                                 1,390,000 đ
                                Tour Đảo Bình Hưng, Hang Rái, Vĩnh Hy 2n2d
                                 1,111,000 đ
                                Tour Đà Lạt Phototrip Khám Phá Những Cung Đường Hoa 3N3Đ
                                 1,250,000 đ
                                Tour Ninh Chữ - Vĩnh Hy - Cổ Thạch đồng giá 2N2Đ
                                 999,000 đ
                                Tour Đảo Phú Quý, Khám Phá Hòn Đảo Mang Vẻ Đẹp Hoang Sơ 3N3Đ
                                 2,250,000 đ
                                Tour Côn Đảo, Khám Phá Lịch Sử Văn Hóa Côn Sơn 2N1Đ
                                 4,590,000 đ
                                Tour du lịch Vũng Tàu, Long Hải, Suối nước nóng Bình Châu 2N1Đ
                                 789,000 đ
                                Tour Côn Đảo, Trọn Gói Vé Máy Bay 2N1Đ
                                 3,999,000 đ
                        ×
