url:http://haidangtravel.com/chum-tour-dao-2016.html
Tittle :Chùm Tour Biển Đảo
content :Toggle navigation
                TRANG CHỦTOUR TRONG NƯỚCTOUR ĐỒNG GIÁ
                Giới Thiệu
                Quý khách đã khám phá hết Biển Đảo của Việt Nam chưa???
                    Bắt đầu năm 2016, Du Lịch Hải Đăng, gởi đến Quý khách gói sẩm phẩm MỚI LẠ-ĐỘC ĐÁO đem đến cho quý khách những ưu đãi tuyệt vời nhất, “ CHÙM TOUR ĐẢO- MUA ĐẢO TẶNG ĐẢO”.Sản phẩm ra đời và phục vụ quý khách xuyên suốt 2 năm 2016 -2017.Trọn vẹn 2 năm để quý khách có thời gian khám phá toàn bộ đảo Việt và sử dụng hết ƯU ĐÃI của Hải Đăng.
            ƯU ĐÃI ĐẶC BIỆT
            Đặc biệt khi tham gia chum tour này “ CHÙM TOUR ĐẢO-MUA ĐẢO TẶNG ĐẢO”, Qúy khách được hưởng các ƯU ĐÃI cực kì hấp dẫn như:
                        Đi 5 đảo được giảm 50% giá tour cho đảo bất kì nằm trong chùm tour (cho đảo thứ 6) hoặc
                        Đi 10 đảo được tặng 1 đảo miễn phí bất kì nằm trong chùm tour (đảo MULTI IS A CREATIVE HTML TEMPLATE 11)
                        Giảm tiếp 50% giá tour cho đảo thứ 15 bất kì nằm trong " Chùm Tour Đảo " tại www.haidangtravel.com
                        Tặng Voucher giảm giá 100.000 đ cho khách hàng đăng kí tour trái tuyến tại www.haidangtravel.com
                        Tham dự cuộc thi “ Ảnh đẹp Biển Đảo Việt Nam” do Hải Đăng Travel tổ chức.(tham khảo web: www.haidangtravel.com)
            THAM GIA CHƯƠNG TRÌNH THI ẢNH BIỂN ĐẢO
            Với vẻ đẹp hoang sơ mà hùng vĩ của biển đảo quê hương, du khách không chỉ ghi lại những khoảng khắc tuyệt đẹp của thiên nhiên mà sẽ cùng Hải Đăng tôn vinh những khoảng khắc ấy với cuộc thi “Ảnh Đẹp Biển Đảo Việt Nam” năm 2016.
            XEM CHI TIẾT
            KHÁM PHÁ 15 ĐẢO ĐẸP NHẤT VIỆT NAM
                                     XEM TOUR
                                      2 ngày 2 đêm |  Xe Giường Nằm |  Nhà nghỉ
                                                     Khởi Hành
                        Tour Đảo Hòn Sơn Khám Phá Đỉnh Ma Thiên Lãnh 2N2Đ
                                : Tạm dừng
                                     XEM TOUR
                                      3 ngày 3 đêm |  Xe Giường Nằm |  Nhà nghỉ
                                                     Khởi Hành
                        Tour Đảo Phú Quý, Khám Phá Hòn Đảo Mang Vẻ Đẹp Hoang Sơ 3N3Đ
                                : Tạm dừng
                                     XEM TOUR
                                      3 ngày 3 đêm |  Xe Giường Nằm |  2 sao
                                                     Khởi Hành
                                                                                                                                                                                                    30/12/2016
                        Tour Đảo Phú Quốc, Khám Phá Đảo Ngọc Thiên Đường 3N3Đ 
                                : 2,090,000 đ
                                     XEM TOUR
                                      2 ngày 2 đêm |  Xe Giường Nằm |  2 sao
                                                     Khởi Hành
                                                                                                                                                                                                    25/11/201622/12/201630/12/2016
                        Tour Đảo Điệp Sơn,Biển Dốc Lết Thưởng Thức Hải sản 2N2Đ 
                                : 1,490,000 đ
                                     XEM TOUR
                                      3 ngày 3 đêm |  Tàu và Xe |  2 sao
                                                     Khởi Hành
                                                                                                                                                                                                    24/11/2016
                        Tour Côn Đảo Khám Phá Văn Hóa Lịch Sử Vùng Đất Thiêng 3N3Đ 
                                : 2,390,000 đ
                                     XEM TOUR
                                      2 ngày 2 đêm |  Ô Tô |  Nhà nghỉ
                                                     Khởi Hành
                                                                                                                                                                                                    25/11/201625/11/201602/12/201602/12/201609/12/201609/12/201616/12/201616/12/201623/12/201623/12/2016
                        Tour Đảo Bình Ba Vượt Biển Bằng Ca Nô Siêu Tốc 2N2Đ
                                : 1,490,000 đ
                                     XEM TOUR
                                      2 ngày 2 đêm |  Ô Tô |  Nhà nghỉ
                                                     Khởi Hành
                                                                                                                                                                                                    16/12/2016
                        Tour Đảo Nam Du , Hạ Long Phương Nam 2N2Đ
                                : 1,590,000 đ
                                     XEM TOUR
                                      2 ngày 2 đêm |  Ô Tô |  2 sao
                                                     Khởi Hành
                                                                                                                                                                                                    25/11/201609/12/201623/12/2016
                        Tour Đảo Hòn Tre, Hà Tiên, Rừng Tràm Trà Sư 2N2Đ
                                : 1,390,000 đ
                                     XEM TOUR
                                      2 ngày 2 đêm |  Ô Tô |  2 sao
                                                     Khởi Hành
                                                                                                                                                                                                    25/11/201602/12/201623/12/201630/12/2016
                        Tour Đảo Bình Lập, Khám Phá Biển Bình Hưng Villa Hoa Vàng 2N2Đ 
                                : 1,290,000 đ
                                     XEM TOUR
                                      3 ngày 3 đêm |  Ô Tô |  2 sao
                                                     Khởi Hành
                                                                                                                                                                                                    24/11/201622/12/201626/12/201629/12/2016
                        Tour Đảo Hòn Đá Bạc, Rừng U Minh, Cà Mau 3N3Đ 
                                : 1,790,000 đ
                                     XEM TOUR
                                      2 ngày 2 đêm |  Ô Tô |  3 sao
                                                     Khởi Hành
                                                                                                                                                                                                    25/11/201602/12/201609/12/201616/12/201623/12/201630/12/2016
                        Tour Đảo Bình Hưng, Ngắm San Hô Từ Tàu Đấy Kính Resort 3 sao 2N2Đ
                                : 1,290,000 đ
                                     XEM TOUR
                                      3 ngày 3 đêm |  Ô Tô |  Nhà nghỉ
                                                     Khởi Hành
                        Tour Đảo Lý  Sơn Hoang Sơ Thăm Vương Quốc Tỏi 4N4Đ
                                : Tạm dừng
                                     XEM TOUR
                                      2 ngày 2 đêm |  Ô Tô |  2 sao
                                                     Khởi Hành
                                                                                                                                                                                                    25/11/201609/12/201623/12/2016
                        Tour Đảo Hải Tặc, Biển Hà Tiên 2N2Đ
                                : 1,250,000 đ
                                     XEM TOUR
                                      2 ngày 2 đêm |  Ô TÔ |  2 sao
                                                     Khởi Hành
                                                                                                                                                                                                    25/11/2016
                        Tour Đảo Bà Lụa, Rừng Tràm Trà Sư 2N2Đ
                                : 1,180,000 đ
                                     XEM TOUR
                                      2 ngày 2 đêm |  Ô tô |  2 sao
                                                     Khởi Hành
                                                                                                                                                                                                    25/11/201609/12/201623/12/2016
                        Tour Đảo Cù Lao Câu, Khám Phá Biển Cổ Thạch 2N2Đ
                                : 1,250,000 đ
            Thêm tour tại đây
            Kinh Nghiệm Đi Biển Đảo
            Tổng hợp cách bài viết kinh nghiệm đi tour biển đảo, giúp quý khách bỏ sung thêm kiến thức khám phá các quần đảo đẹp nhất Việt Nam
                            06/10/2015
                            Kinh nghiệm đi tour đảo Bình Hưng
                            Đảo Bình Hưng thuộc địa phận xã Cam Bình, thành phố Cam Ranh, nằm ẩn mình dưới chân đèo của cung đường biển Bình...
                            Xem ngay
                                20/08/2015
                                kinh nghiệm đi đảo Nam Du
                                Nam Du là quần đảo xa nhất của huyện Kiên Hải (Kiên Giang), cách TP Rạch Giá 83 km đường biển. Nam Du là nơi còn rất hoang sơ,...
                                Xem ngay
                                20/08/2015
                                kinh nghiệm đi đảo Bà Lụa
                                Giới thiệu
                                Xem ngay
                Hotline : 1900 2011 | (08) 3849 3838
 q
