url:http://haidangtravel.com/Tour-Con-Dao-Kham-Pha-Vung-Dat-Thieng-Tet-Am-Lich-2017
Tittle :Tour Côn Đảo, Khám Phá Vùng Đất Thiêng Tết Âm Lịch 2017
content :Toggle navigation
                             Trang Chủ
                              Tour Du Lịch
                         Tour Trong Nước Tour Nước Ngoài
                              Tổ Chức Sự Kiện
                             Thuê Xe Du Lịch
                         Thuê Xe 4 Chổ Thuê Xe 7 Chổ Thuê Xe 16 Chổ Thuê Xe 29 Chổ Thuê Xe 35 Chổ Thuê Xe 45 Chổ
                             Khách Sạn
                              Cẩm nang du lịch
                              Tin tức du lịch
                              Bảng Giá Tour
                     1900 2011
                    08.3849.3838 - 0948.99.1080
                    Đăng Ký
                                            ×
                                            ĐĂNG KÝ
                                                        Tên đăng nhập (bắt buộc)
                                                        Nhập số điện thoại ( bắt buôt )
                                                        Nhập họ tên của bạn
                                                        Nhập mail của bạn
                                                        Nhập mật khẩu ( bắt buột )
                                                        Nhập lại mật khẩu ( bắt buột )
                                                        NamNữKhác
                                                        Địa chỉ nhà bạn
                                                        Ngày sinh của bạn
                                                 Nhận mail từ Hải Đăng Travel
                                                Đăng Ký
                        Đăng nhập
                                            ×
                                            ĐĂNG NHẬP
                                        Quên mật khẩu ?
                                        Đăng Ký
                                                Ghi nhớ mật khẩu
                                                Đăng nhập
                    Trang chủ
                 ›
                    Tour trong nước
                 ›
                    Tour Côn Đảo, Khám Phá Vùng Đất Thiêng Tết Âm Lịch 2017
                 Photo
                                Hổ Trợ Trực Tuyến
                             SKYPE YAHOO0917770488
                             Tour Côn Đảo, Khám Phá Vùng Đất Thiêng Tết Âm Lịch 2017
                                     3 ngày 2 đêm
                                      Máy bay ( Bao Gồm ) 
                                      3 sao 
                                     6,250,000 đ
                                            Giá gốc: 6,000,000 đ
                                                 Lịch khởi hành
                                                                                                        27/01/201728/01/201729/01/201730/01/201731/01/201701/02/201702/02/201703/02/201704/02/201705/02/201706/02/2017
                                 DỊCH VỤ ĐÍNH KÈM
                                  Vé tham quan  Hướng dẫn viên  Ăn uống  Phương tiện   Bảo hiểm  Khách sạn
                                 Cơ hội nhân quà hấp khi đăng ký tour tại www.haidangtravel.com xem quà tặng tại đây 
                                 MUA TOUR
                                 GIỚI THIỆU Tour Côn Đảo, Khám Phá Vùng Đất Thiêng Tết Âm Lịch 2017
                                Hãy cùng du lịch Hải Đăng tham gia chương trình du lịch Côn Đảo 3 ngày 2 đêm, chương trình tour Côn Đảo sẽ đưa quý khách xuôi theo dòng lịch sử khám phá Địa Ngục Trần Gian - hệ thống nhà tù của bọn thực dân, đế quốc đã đày ải những người chiến sĩ cộng sản. Đến đây, du khách còn được chiêm ngưỡng vẻ đẹp hoang sơ,với những điểm tham quan đầy quyến rủ kỳ thú của Côn Đảo, những bãi biển xanh mát đầy sức sống ở nới này sé giúp quý khách giải tỏa mọi mệt mỏi sau những ngày làm việc.Chương trình đặc biệt, trải nghiệm cuộc sống đời thường của người dân địa phương và các hoạt động thú vị khác khi khám phá du lịch Côn Đảo.
                                         Đánh Giá Tour
                                    0.0
                                                                                                                                    Đăng nhập để đánh giá hay điền các thông tin sau :
                                                        Họ tên (bắt buộc)
                                                        Nhập mail của bạn (bắt buộc)
                                                    Nhập nhận xét của bạn (bắt buộc)
                                                     Đánh giá :
                                                                           Rất Tốt  Tốt  khá  Trung Bình  Bình Thường
                                                Rất Tốt 0
                                                Tốt  0
                                                Khá 0
                                                Tạm Được  0
                                                Bình Thường  0
                                            Nhận xét (0)
                                                                                                                                                                                Hết
                        LỊCH TRÌNH TOUR
                                 NGÀY 1 : HỒ CHÍ MINH – CÔN ĐẢO 
                                     
4h45: Hướng dẫn viên đón quý khách tại sân bay Tân Sơn Nhất, bay đi Côn Đảo lúc 5h55.
6h55: Đến sân bay Côn Sơn. Đưa về thị trấn. Trên đường qua các địa danh làng Cỏ Ống, Suối Ớt, Mũi Chim Chim, Đất Dốc … 
Tham quan :   
* Cầu tàu 914    * Di tích lịch sử Phú Hải  
* Di tích lịch sử Chuồng Cọp Pháp, Chuồng Cọp Mỹ 
* Viếng NT Hàng Dương
* Viếng Miếu Bà Phi Yến 
Dùng cơm trưa. Nhận phòng
Buổi chiều : 
- Xe và HDV đưa Quý khách về hướng Bắc đảo 12 km. Vào bãi biển Đầm Trầu. Trên đường viếng Miếu Cậu nơi thờ Hoàng tử Cải con chúa Nguyễn Ánh và bà Hoàng Phi Yến.
 - Quý khách tắm biển Bãi Đầm Trầu – một trong những bãi biển đẹp và hoang sơ của Côn Đảo. Tự do tắm biển. Quay về thị trấn
Buổi tối : 
Quí khách dùng cơm tối. Tự do khám phá Côn Đảo về đêm. Nghỉ ngơi. 
                                 NGÀY 2 : CÔN ĐẢO – LỊCH SỬ OAI HÙNG
                                     
Buổi sáng :
Qúi khách dùng điểm tâm
Vãn cảnh Núi Một – ngắm cảnh Thị Trấn Côn Đảo từ trên cao. Viếng Chùa Vân Sơn.    
Tham quan Bảo tàng Côn Đảo, viếng đền tưởng niệm cô Võ Thị Sáu
Tự do tham quan và mua sắm tại chợ Côn Đảo      
Quí khách dùng cơm trưa.
Buổi chiều :
Tự do nghỉ ngơi 
 Quí khách tự túc dùng cơm chiều. 
                                 NGÀY 3 : CÔN ĐẢO – HỒ CHÍ MINH 
                                    Quí khách dùng điểm tâm.
Tự do tắm biển trước khách sạn.
Trả phòng. Xe đưa quý khách ra sân bay trở về Tp.HCM.
Kết thúc chuyến tham quan.
* Ghi chú : Thứ tự các điểm tham quan có thể thay đổi nhưng bảo đảm đầy đủ các điểm trong chương trình.
                    G.Thiệu
                                        Ngày 1
                                        Ngày 2
                                        Ngày 3
                     ĐỊA ĐIỂM ĐÓN KHÁCH
                                                    QUÝ KHÁCH ĐI TOUR KHỞI HÀNH BẰNG Ô TÔ VỚI NHỮNG ĐIỂM ĐÓN SAU :
                             Đón khách tại Công ty Du lịch Hải Đăng, 225 Bàu Cát, P12, Quận Tân Bình
                             Đón khách tại Nhà Văn Hóa Thanh Niên, 04 Phạm Ngọc Thạch, Quận 1
                             Đón khách tại Cây xăng Comeco, Ngã 4 Hàng Xanh, Quận Bình Thạnh
                             Đón khách tại Ngã 4 Thủ Đức, Quận 9
                             Đón khách tại Siêu thị Lotte Mart, Ngã 4 Amata, Biên Hòa, Đồng Nai
                            QUÝ KHÁCH ĐI TOUR TUYẾN MIỀN TÂY NHỮNG ĐIỂM ĐÓN SAU :
                             Đón khách tại Công viên Bàu Cát, 141 Đồng Đen, P11, Quận Tân Bình 
                             Đón khách tại Nhà Văn Hóa Thanh Niên, 04 Phạm Ngọc Thạch, Quận 1
                             Bến xe miền tây , Q 6 ( bệnh viện Triều An )
                            QUÝ KHÁCH ĐI TOUR KHỞI HÀNH BẰNG MÁY BAY VỚI NHỮNG ĐIỂM ĐÓN SAU :
                             Quý khách vui lòng tập trung tại nhà ga đối với những khách đi tour khởi hành bằng tàu
                             Quý khách vui lòng tập trung tại sân bay hoặc các phòng chờ của các hãng bay đối với những khách đi tour khởi hành bằng máy bay
                         QUY ĐỊNH TOUR
                                             GIÁ TOUR BAO GỒM 
                                                  Lưu Trú
                                                Lưu trú: 02 đêm nghỉ theo tiêu chuẩn đăng ký. Phòng 2-3-4 khách.
Khách sạn tiêu chuẩn (Red, Quỳnh Anh, Anh Đào) hoặc khách sạn tương đương.
Khách sạn 3 sao 
Phụ thu phòng đơn : 1.800.000đ
                                                 Vé Tham Quan
                                                    Vé tham quan trong chương trình
                                                  Ăn Uống
                                                Các bữa ăn trong chương trình, thay đổi thực đơn theo ẩm thực của từng địa phương: 02 bữa sáng, 03 bữa chính
                                                   Nón Nước - Khăn Lạnh
                                                Nước suối: 1 chai 500ml/ngày/khách
Khăn lạnh: 1 cái/ngày/khách
Nón du lịch: 1 nón HAIDANGTRAVEL/khách
                                                 Phương Tiện
                                                Vé máy bay khứ hồi tuyến TP.HCM - Côn Đảo ( ĐÃ BAO GÒM VÉ MÁY BAY )
Xe đón tiễn sân bay Côn Đảo và phục vụ tham quan theo chương trình.
                                             GIÁ TOUR KHÔNG BAO GỒM 
                                                   Chi Phí Cá Nhân
                                                -	Điện thoại, giặt ủi, thức uống ngoài chương trình …
-	 Chi phí bồi dưỡng trong chuyến đi cho nhân viên phục vụ, hướng dẫn viên, tài xế.-
Điểm tham quan ngoài chương trình. Thuế VAT : 10%
                                                  Thuế VAT
                                                 10% thuế VAT
                                             QUY ĐỊNH TRẺ EM 
                                                Trẻ em dưới 5 tuổi                   Trẻ em dưới 02 tuổi: 10% giá vé máy bay ; miễn giá tour (cha mẹ tự lo cho bé).
                                                  Trẻ em từ 02 - 05 tuổi: 75% giá vé máy bay ; miễn giá tour (cha mẹ tự lo cho bé). Nhưng 02 người lớn chỉ kèm một trẻ dưới 05 tuổi, trẻ thứ hai trở lên, quý khách vui lòng mua thêm 50% giá tour (không bao gồm vé máy bay) để có tiêu chuẩn ăn uống, ghế ngồi trên xe, tham quan cho bé.
 
Từ 5-11 tuổi                              75% giá tour, bao gồm vé máy bay, các dịch vụ ăn uống, ghế ngồi trên xe nhưng bé ngủ chung với cha mẹ, không có giường riêng
Trẻ em 12 tuổi trở lên              100% giá tour như người lớn.
                                             QUY ĐỊNH MUA VÀ HỦY TOUR 
                                                Sau khi đăng ký, thanh toán ít nhất 50% tiền cọc và đóng hết 100% trước khởi hành 7 ngày.
Sau khi xác nhận và thanh toán 100 % đăng ký. Vé Máy Bay được xuất ngay sau khi quý khách đóng tiền và có xác nhận sự chính xác về họ, tên (đúng từng ký tự ghi trong hộ chiếu hoặc CMND), ngày-tháng-năm sinh … của hành khách theo yêu cầu của hãng vận chuyển. (vé không hoàn không đổi).
Quy định dời ngày khởi hành: 
Dời trước 07 ngày so với ngày khởi hành: phí dời 0%  tiền tour, phí dời vé máy bay theo qui định của hãng.
Dời trước 03 ngày so với ngày khởi hành: phí dời 30%  tiền tour, phí dời vé máy bay theo qui định của hãng.
Sau thời gian trên: phí dời 100%  tiền tour, phí dời vé máy bay theo qui định của hãng.
Ngay sau khi Quý khách đăng ký tour nếu hủy sẽ bị phạt tiền tour và vé máy bay như sau:
Hủy tour 15 ngày trước ngày khởi hành: phí hủy 0%  tiền tour, phí hủy vé máy bay theo qui định của hãng.
Hủy tour 10 ngày trước ngày khởi hành: phí hủy 30%  tiền tour, phí hủy vé máy bay theo qui định của hãng.
Hủy tour 05 ngày trước ngày khởi hành: phí hủy 50%  tiền tour, phí hủy vé máy bay theo qui định của hãng.
Hủy tour 03 ngày trước ngày khởi hành: phí hủy 100%  tiền tour, phí hủy vé máy bay theo qui định của hãng.
Tất cả trường hợp dời, hoãn, đổi tour sau 03 ngày sẽ không được chấp nhận.
Trong những trường hợp bất khả kháng như: khủng bố, bạo động, thiên tai, sự thay đổi lịch trình của hàng không, tàu hỏa, tàu thủy… công ty HAI DANG TRAVEL sẽ chủ động thay đổi lộ trình đi hoặc hủy tour vì sự thuận tiện và an toàn của Quý khách . HAIDANG TRAVEL sẽ hoàn lại một phần những chi phí chưa được sử dụng cho việc tổ chức dịch vụ và không bồi thường thêm bất kỳ khoản nào khác. Tuy nhiên, mỗi bên có trách nhiệm cố gắng tối đa, giúp đỡ bên bị thiệt hại nhằm giảm thiểu các tổn thất gây ra vì lý do bất khả kháng.
                                             HÌNH THỨC THANH TOÁN 
                                                Khi đăng ký tour, quý khách mang CMND, Giấy Khai Sinh (đối với trẻ em) hoặc Passport Photo. (Mang bảng chính để nhân viên Sales photo lại).
Quý khách có mặt trước giờ bay 1h30 phút, hành lý gọn nhẹ khi đi mang theo giấy tờ tùy thân bản chính (đối với khách Việt Nam là chứng minh nhân dân & Passport đối với Kiều bào & ngoại quốc).
Trẻ em (dưới 12 tuổi) khi đi du lịch mang theo giấy khai sinh (bản chính hoặc sao y có thị thực) để làm thủ tục hàng không .Trường hợp không có cha hoặc mẹ đi cùng phải có giấy ủy quyền của cha mẹ và có xác nhận của chính quyền địa phương.
Một số thứ tự, chi tiết trong chương trình; giờ bay; có thể thay đổi để phù hợp với tình hình thực tế của chuyến đi (thời tiết…).
Hành lý và tư trang du khách tự bảo quản trong quá trình du lịch.
Trong trường hợp cung cấp danh sách trễ, không còn vé máy bay giá rẻ, khi đó giá vé sẽ được điều chỉnh cho phù hợp.
Giá trên không áp dụng cho ngày lễ, tết.
                     ĐIỂM THAM QUAN 
                                                  Kiểm Tra Giá & Lịch Khởi Hành 
                                                                                                                                        KS 3 Sao
                            Khởi Hành
                                                                                                                                                                    27/01/201728/01/201729/01/201730/01/201731/01/201701/02/201702/02/201703/02/201704/02/201705/02/201706/02/2017
                            = 
                            Người lớn
                            = 
                            Trẻ em
                            = 
                            Tổng cộng
                                = 
                         Mua Tour
                TOUR LIÊN QUAN
                                              4 ngày 4 đêm |  Ô Tô |  2 sao
                                            Xem
                                    Tour Ninh Chữ, Đà Lạt,Tết Âm Lịch 2017
                                         2,890,000 đ
                                                Giá gốc: 2,900,000 đ
                                                     Lịch khởi hành
                                                        29/01/201730/01/2017
                                              4 ngày 4 đêm |  Ô Tô |  2 sao
                                            Xem
                                    Tour Nha Trang, Đà Lạt, Tết Âm Lịch 2017
                                         2,890,000 đ
                                                Giá gốc: 2,940,000 đ
                                                     Lịch khởi hành
                                                        29/01/201730/01/201731/01/2017
                                              3 ngày 3 đêm |  Ô Tô |  2 sao
                                            Xem
                                    Tour Nha Trang Tiệc Buffet, Bãi Tắm Nhũ Tiên,Tết Âm Lịch 2017
                                         2,090,000 đ
                                                Giá gốc: 2,290,000 đ
                                                     Lịch khởi hành
                                                        29/01/201730/01/201731/01/201702/02/2017
                                              3 ngày 3 đêm |  Ô Tô |  2 sao
                                            Xem
                                    Tour Nha Trang, Bar Trên Biển,Đón Tết Âm Lịch 2017
                                         1,990,000 đ
                                                Giá gốc: 1,890,000 đ
                                                     Lịch khởi hành
                                                        29/01/201730/01/201731/01/201702/02/2017
                                              2 ngày 2 đêm |  ô Tô |  3 sao
                                            Xem
                                    Tour Ninh Chữ - Vĩnh Hy Resort 3sao, Tết Âm Lịch 2017
                                         1,750,000 đ
                                                Giá gốc: 1,999,000 đ
                                                     Lịch khởi hành
                                                        29/01/201730/01/2017
                                              5 ngày 5 đêm |  Máy bay |  3 sao
                                            Xem
                                    Tour Đà Nẵng, Sơn Trà, Hội An , Huế,Quảng Bình, Tết Âm Lịch 2017
                                         3,750,000 đ
                                                Giá gốc: 4,189,999 đ
                                                     Lịch khởi hành
                                                        29/01/201730/01/201731/01/2017
                    TRỤ SỞ CHÍNH
                         225 Bàu Cát, P12, Q.Tân Bình, HCM
                         19002011 - 08 3849 3838 
                        08 3849 2999   
                          www.haidangtravel.com  
                         info@haidangtravel.com 
                        CSKH: 0948.99.1080
                    CHI NHÁNH
                         Quận 1 : Lầu 7, Tòa Nhà Viễn Đông, 14 Phan Tôn
                        19002011(Ext-107) -  0838204589  
                         Quận 12 : 256 TX25, Thạnh Xuân, Q12 
                        19002011(Ext-111)
                         Biên Hòa : 51A2, KP11, P.Tân Phong 
                        19002011(Ext-108) -  0613999392  
                    TRỢ GIÚP
                    Liên hệ & giới thiệuĐiều khoản chungHình thức thanh toánHướng dẫn mua tourChính sách bảo mật
                        GIỜ LÀM VIỆC
                            Thứ 2 đến 6
                                Sáng: 08:00-12:00Chiều:13:30-17:30
                            Thứ 7 Sáng: 08:00-12:00Nghỉ chủ nhật, lễ, tết
                    Được tìm kiếm nhiều
                        Tour Nha Trang
                        Tour Đà Lạt
                        Tour Cà Mau
                        Tour Phú Yên
                        Tour Ninh Chữ
                        Tour Côn Đảo
                        Tour Miền Bắc
                        Tour Phú Quốc
                        Tour Đà Nẵng
                        Tour Phan Thiết
                        Tour Bình Ba
                        Tour Nam Du
                        Tour Vũng Tàu
                        Tour Bà Lụa
                THÀNH TÍCH
            2015 © All Rights Reserved. Công ty cổ phần xây dựng du lịch Hải Đăng
        Your browser doesn't support canvas. Please download IE9+ on
            IE Test Drive
            +
                Có thể bạn quan tâm ?
                                Tour Ninh Chữ - Vĩnh Hy Khám Phá Bãi Đá Bảy Màu Resort 3sao 2N2Đ
                                 1,250,000 đ
                                Tour Đảo Phú Quý, Khám Phá Hòn Đảo Mang Vẻ Đẹp Hoang Sơ 3N3Đ
                                 2,250,000 đ
                                Tour Ninh Chữ - Vĩnh Hy - Cổ Thạch đồng giá 2N2Đ
                                 999,000 đ
                                Tour Đảo Bình Hưng, Hang Rái, Vĩnh Hy 2n2d
                                 1,111,000 đ
                                Tour Ninh Chữ, Vĩnh Hy Hang Rái Siêu Tiết Kiệm 2n2d
                                 850,000 đ
                                Tour Đà Lạt Phototrip Khám Phá Những Cung Đường Hoa 3N3Đ
                                 1,250,000 đ
                                Tour Côn Đảo, Trọn Gói Vé Máy Bay 2N1Đ
                                 3,999,000 đ
                                Tour Đảo Hòn Sơn Khám Phá Đỉnh Ma Thiên Lãnh 2N2Đ
                                 1,390,000 đ
                                Tour du lịch Vũng Tàu, Long Hải, Suối nước nóng Bình Châu 2N1Đ
                                 789,000 đ
                                Tour Côn Đảo, Khám Phá Lịch Sử Văn Hóa Côn Sơn 2N1Đ
                                 4,590,000 đ
                        ×
