url:http://haidangtravel.com/Tour-Phu-Yen-Dai-Lanh-Gala-Buffet-5-Sao-Tet-Am-Lich-2017
Tittle :Tour Phú Yên Đại Lãnh Gala Buffet 5 Sao, Tết Âm Lịch 2017
content :Toggle navigation
                             Trang Chủ
                              Tour Du Lịch
                         Tour Trong Nước Tour Nước Ngoài
                              Tổ Chức Sự Kiện
                             Thuê Xe Du Lịch
                         Thuê Xe 4 Chổ Thuê Xe 7 Chổ Thuê Xe 16 Chổ Thuê Xe 29 Chổ Thuê Xe 35 Chổ Thuê Xe 45 Chổ
                             Khách Sạn
                              Cẩm nang du lịch
                              Tin tức du lịch
                              Bảng Giá Tour
                     1900 2011
                    08.3849.3838 - 0948.99.1080
                    Đăng Ký
                                            ×
                                            ĐĂNG KÝ
                                                        Tên đăng nhập (bắt buộc)
                                                        Nhập số điện thoại ( bắt buôt )
                                                        Nhập họ tên của bạn
                                                        Nhập mail của bạn
                                                        Nhập mật khẩu ( bắt buột )
                                                        Nhập lại mật khẩu ( bắt buột )
                                                        NamNữKhác
                                                        Địa chỉ nhà bạn
                                                        Ngày sinh của bạn
                                                 Nhận mail từ Hải Đăng Travel
                                                Đăng Ký
                        Đăng nhập
                                            ×
                                            ĐĂNG NHẬP
                                        Quên mật khẩu ?
                                        Đăng Ký
                                                Ghi nhớ mật khẩu
                                                Đăng nhập
                    Trang chủ
                 ›
                    Tour trong nước
                 ›
                    Tour Phú Yên Đại Lãnh Gala Buffet 5 Sao, Tết Âm Lịch 2017
                 Photo
                                Hổ Trợ Trực Tuyến
                             SKYPE YAHOO0945073767
                             Tour Phú Yên Đại Lãnh Gala Buffet 5 Sao, Tết Âm Lịch 2017
                                     3 ngày 3 đêm
                                      Ô Tô 
                                      5 sao 
                                     3,150,000 đ
                                            Giá gốc: 3,500,000 đ
                                                 Lịch khởi hành
                                                                                                        29/01/201731/01/2017
                                 DỊCH VỤ ĐÍNH KÈM
                                  Vé tham quan  Hướng dẫn viên  Ăn uống  Phương tiện   Bảo hiểm  Khách sạn
                                 Cơ hội nhân quà hấp khi đăng ký tour tại www.haidangtravel.com xem quà tặng tại đây 
                                 MUA TOUR
                                 GIỚI THIỆU Tour Phú Yên Đại Lãnh Gala Buffet 5 Sao, Tết Âm Lịch 2017
                                         Đánh Giá Tour
                                    0.0
                                                                                                                                    Đăng nhập để đánh giá hay điền các thông tin sau :
                                                        Họ tên (bắt buộc)
                                                        Nhập mail của bạn (bắt buộc)
                                                    Nhập nhận xét của bạn (bắt buộc)
                                                     Đánh giá :
                                                                           Rất Tốt  Tốt  khá  Trung Bình  Bình Thường
                                                Rất Tốt 0
                                                Tốt  0
                                                Khá 0
                                                Tạm Được  0
                                                Bình Thường  0
                                            Nhận xét (0)
                                                                                                                                                                                Hết
                        LỊCH TRÌNH TOUR
                                 NGÀY 1 : TP.HCM – ĐẠI LÃNH
                                    19h00:  Xe và hướng dẫn viên HAIDANG TRAVEL đón khách tại điểm hẹn, bắt đầu cuộc hành trình. Quý khách tham gia những trò chơi vui nhộn và cùng với hướng dẫn viên tìm hiểu về văn hóa lịch sử tỉnh Phú Yên. Quý khách nghỉ đêm trên xe (Xe tiện nghi cao cấp, ghế ngã,giúp quý khách nghỉ ngơi thỏa mái ).
ĐẠI LÃNH - HẢI ĐĂNG MŨI ĐIỆN – BIỂN LONG THUỶ
Buổi sáng:
07h30:  Đến Đại Lãnh, một trong những bãi biển nổi tiếng của dãi đất miền Trung, đoàn dừng chân dùng điểm tâm sáng với lẩu cháo mực tươi, đặc sản xứ biển. Nghỉ ngơi, vệ sinh cá nhân và tắm biển tại Khu du lịch biển Đại Lãnh, thưởng thức đặc sản miền biển.
10h30:  Đoàn khởi hành về Tuy Hòa, chinh phục Đèo Cả, đoàn dừng chân chụp hình và nhìn ngắm Vịnh Vũng Rô, nghe hướng dẫn viên kể lại hành trình Tàu Không Số và sự kiện Vịnh Vũng Rô tại khu di tích Đường Mòn Hồ Chí Minh Trên Biển, đoàn tìm hiểu về cách thức nuôi tôm hùm và cuộc sống bình yên của ngư dân vùng biển. Quý du khách tản bộ xuyên qua bãi Môn, bối cảnh trong phim “ Tôi thấy hoa vàng trên cỏ xanh”, tham quan Mũi Điện - Cap Varella, cực đông đất liền của Việt Nam, ngọn hải đăng được người Pháp xây dựng năm 1890. quý du khách chụp hình lưu niệm với cột mốc Cực Đông và ngắm nhìn toàn cảnh biển Phú Yên với những bãi cát trắng dài tít tấp.
 Đoàn dùng cơm trưa tại nhà hàng với menu:
1.Gỏi sứa
2.Mực hấp
3.Nghêu hấp
4.Chào hàu
5.Cơm chiên cá mặn + gà xé
6.Lẩu Hải Sản+bún
7.Cơm trắng, trái cây, trà đá.
 Về khách sạn nhận phòng nghỉ ngơi, tự do nghỉ dưỡng tại khách sạn 5 sao, tắm hồ bơi thư giản.
15h30:  Xe đưa đoàn tham quan Chùa Bảo Lâm- ngôi chùa nổi tiếng của tình Phú Yên.
16h00:  Đoàn về TP. Tuy Hòa. Quý khách tham quan  tham quan Tháp Nhạn, một trong những công trình kiến trúc cổ nhất của người Chăm, nơi gắn với nhiều truyền thuyết về sự hình thành và phát triển của vùng đất Phú Yên. Về khách sạn nghỉ ngơi, tự do tắm hồ bơi hoặc tham quan mua sắm tại chợ Tuy Hòa với nhiều đặc sản nổi tiếng: bánh tráng Hòa Đa, cá ngừ đại dương, mực ngào đường…
18h00: Đoàn dung buổi tối gala với chủ đề “ Phú Yên –Hội Ngộ phố biển”. Xem màn biểu diễn “ca bài chòi”- mang đậm bản sắc riêng của Phú Yên, hoặc nghe nhạc Saxophone,Ghi Ta, Nhảy Hip Hop…. (Tùy vào mỗi tuần sẽ có những màn biểu diễn khác nhau phù hợp với đối tượng khách và chủ đề).
Chương trình BBQ HẢI SẢN –THỊT RỪNG PHÚ YÊN và gala áp dụng cho mỗi đợt khởi hành 40 khách trở lên
Quý khách dung buổi tiệc BBQ với menu hấp dẫn sau:
1.Sò huyết nướng
2.Cá đuối nướng
3.Tôm sú nướng
4.Mực lá nướng
5.Hàu nướng mỡ hành
6.Gà rừng nướng
7.Bò rừng nướng
8.Heo rừng nướng
9.Chim rừng nướng
10.Cơm chiên muối ớt
11.Lẩu Phú Yên+bún
12.Cơm trắng
13.Trái cây
14.Khăn lạnh-trà đá
21h00: Quý khách nghỉ ngơi.
 
                                 NGÀY 2 : GÀNH ĐÁ DĨA - ĐẦM Ô LOAN - NHÀ THỜ MẰNG LĂNG – ĐẬP TAM GIANG
                                    07h00:  Du khách dùng buffet sáng tại khách sạn. Đoàn khởi hành tham quan phía Bắc của tỉnh Phú Yên. Xe qua đèo Quán Cau, đoàn ngoạn cảnh Đầm Ô Loan với hình ảnh chim phượng hoàng tung cánh, phóng tầm nhìn đến Cánh đồng Tuy An mênh mông. Đoàn dừng chân chụp hình với Đập Tam Giang, con đập gắn liền với sự phát triển của tỉnh Phú Yên, tiếp tục tham quan Nhà thờ Mằng Lăng có lối kiến trúc theo phong cách Gothic,được xây dựng từ năm 1892, nghe kể về câu chuyện cuộc đời và phương cách truyền đạo của Á Thánh Andrê Phú Yên, ngắm nhìn quyển sách chữ quốc ngữ đầu tiên của Việt Nam, tham gia chương trình thiện nguyện tại Cô nhi viện Mằng, một khu nhà nhỏ nằm bên trong khuôn viên nhà thờ, du khách có thể  nghe các sơ kể về những câu chuyện cảm động, tìm hiểu cuộc sống hiện tại của từng bé, giao lưu và giúp đỡ những em bé mồ côi tại đây với những phần quà thiết thực.
10h30: Đoàn tham quan thắng cảnh quốc gia Gành Đá Dĩa, nơi có mỏm đá nhô ra biển với cấu tạo đặc biệt, đá ở đây được dựng đứng theo từng cột liền khít nhau, đều tăm tắp, các cột đá có tiết diện hình lục giác hoặc hình tròn giống như cái đĩa. Du khách hòa mình và làn nước biển trong xanh cùng bãi cát dài thoai thoải, đây sẽ là trải nghiệm thú vị dành cho du khách.
11h00:  Đoàn ghé Đầm Ô Loan, tham quan, vui chơi và thưởng thức bữa trưa với món Sò Ô Loan rất nổi tiếng cùng với các hải sản nướng tại chỗ:
1.                  Cháo hàu
2.                  Cá hấp – Bánh tráng
3.                  Mực nướng
4.                  Tôm hấp
5.                  Sò huyết Ô Loan
6.                  Tráng miệng
15h00: Đoàn dừng chân tại Bãi Xép. Quý khách có thể tận hưởng cảm giác một mình trên bãi biển và chiêm ngưỡng những kỳ quan từ đá và nước biển. Đặc biệt, trên đỉnh gành đá là đồng cỏ rộng mênh mông mà từ đó, quý khách có thể phóng tầm mắt nhìn ngắm.
19h00:  Tự do khám phá ẩm thực Phú Yên như: Mắt cá ngừ đại Dương, bò một nắng 2 sương, bún cá…..
 
                                 NGÀY 3 : TUY HÒA - THÀNH PHỐ HỒ CHÍ MINH
 
6h00:  Quý khách dùng điểm tâm sáng, trả phòng khách sạn, xe đưa đoàn rời Tuy Hòa khởi hành về TP. HCM.
10h00:  Dừng chân tại Phan Rang, thưởng thức đặc sản rượu nho nổi tiếng của vùng đất Ninh Thuận.
Ăn trưa tại Cà Ná.
1.Lẩu chua cá
2.Heo rừng xào lăn
3.Mực trứng hấp gừng
4.Thịt kho trứng cút
5.Rau xào thập cẩm
6.Cà pháo mắm tôm
7.Cơm trắng- tráng miệng trà đá
14h00: Trên đường về đoàn dừng chân tại Phan Thiết, tham quan một cơ sở sản xuất nước mắm. Hướng dẫn viên tổ chức bốc thăm trúng thưởng với nhiều phần quà hấp dẫn.
20h00: Về TP.HCM, hướng dẫn viên Công ty HAIDANG TRAVEL chào tạm biệt và hẹn gặp lại.
                    G.Thiệu
                                        Ngày 1
                                        Ngày 2
                                        Ngày 3
                     ĐỊA ĐIỂM ĐÓN KHÁCH
                                                    QUÝ KHÁCH ĐI TOUR KHỞI HÀNH BẰNG Ô TÔ VỚI NHỮNG ĐIỂM ĐÓN SAU :
                             Đón khách tại Công ty Du lịch Hải Đăng, 225 Bàu Cát, P12, Quận Tân Bình
                             Đón khách tại Nhà Văn Hóa Thanh Niên, 04 Phạm Ngọc Thạch, Quận 1
                             Đón khách tại Cây xăng Comeco, Ngã 4 Hàng Xanh, Quận Bình Thạnh
                             Đón khách tại Ngã 4 Thủ Đức, Quận 9
                             Đón khách tại Siêu thị Lotte Mart, Ngã 4 Amata, Biên Hòa, Đồng Nai
                            QUÝ KHÁCH ĐI TOUR TUYẾN MIỀN TÂY NHỮNG ĐIỂM ĐÓN SAU :
                             Đón khách tại Công viên Bàu Cát, 141 Đồng Đen, P11, Quận Tân Bình 
                             Đón khách tại Nhà Văn Hóa Thanh Niên, 04 Phạm Ngọc Thạch, Quận 1
                             Bến xe miền tây , Q 6 ( bệnh viện Triều An )
                            QUÝ KHÁCH ĐI TOUR KHỞI HÀNH BẰNG MÁY BAY VỚI NHỮNG ĐIỂM ĐÓN SAU :
                             Quý khách vui lòng tập trung tại nhà ga đối với những khách đi tour khởi hành bằng tàu
                             Quý khách vui lòng tập trung tại sân bay hoặc các phòng chờ của các hãng bay đối với những khách đi tour khởi hành bằng máy bay
                         QUY ĐỊNH TOUR
                                             GIÁ TOUR BAO GỒM 
                                                  Lưu Trú
                                                Khách sạn 5 sao :Cendeluxe
Phòng: 2 khách/phòng.
Trường hợp quý khách đi 01 người, vui lòng đóng thêm phụ thu phòng đơn: 1,500.000 đ/khách/đêm (dịp lễ) . Trường hợp trong đợt khởi hành có khách lẻ ghép, Hải Đăng sẽ ghép cho khách và không phải đóng phụ thu.
                                                 Vé Tham Quan
                                                    Vé vào cổng: Hải đăng Mũi Điện , Gành Đá Đĩa, Tháp Nhạn
                                                  Ăn Uống
                                                Điểm tâm: 3 buổi 
1 điểm tâm sáng tại Đại Lãnh
2 Buffet tại khách sạn 5 sao
Ăn chính: 4 buổi
1 buổi: 80.000đ/suất
2 buổi tiệc hải sản: 150.000đ/suất
1 buổi tiệc BUFFET : 250.000đ/suất
                                                   Nón Nước - Khăn Lạnh
                                                Nước suối: 1 chai 500ml/ngày/khách
Khăn lạnh: 1 cái/ngày/khách
Nón du lịch: 1 nón HAIDANGTRAVEL/khách
                                                 Phương Tiện
                                                Xe đời mới máy lạnh, đón khách theo chương trình
Mỗi đợt khởi hành tối thiểu 40 khách.
                                             GIÁ TOUR KHÔNG BAO GỒM 
                                                   Chi Phí Cá Nhân
                                                ​Chi phí cá nhân :Giặt ủi, điện thoại,ăn uống ngoài chương trình …..Điểm tham quan : Cáp treo RôBin, Xe reep, cồng chiêng T ây Nguyên ,Máng trượt, vé xe lửa từ Ga đến Trại Mát (nếu khách có nhu cầu)và các điểm ngoài chương trình …..Thuế VAT : 10%
                                                  Thuế VAT
                                                 10% thuế VAT
                                             QUY ĐỊNH TRẺ EM 
                                                Trẻ em dưới 5 tuổi
Cha, mẹ hoặc người thân đi kèm tự lo các chi phí ăn, ngủ, tham quan (nếu có) cho bé. Hai người lớn chỉ kèm 1 trẻ em dưới 5 tuổi, em thứ 2 trở lên phải mua ½ vé tour. Phụ thu ghế ngồi trên xe: 40% giá tour ( Nếu ba mẹ có yêu cầu)
Từ 6-10 tuổi : 
60% vé tour, Bao gồm các dịch vụ ăn uống, ghế ngồi trên xe và ngủ chung với gia đình. Hai người lớn chỉ được kèm 1 trẻ em từ 5 đến dưới 10 tuổi, em thứ 2 trở lên phải mua suất người lớn.
Trẻ em 11 tuổi
Vé người lớn, tiêu chuẩn như người lớn
                                             QUY ĐỊNH MUA VÀ HỦY TOUR 
                                                Sau khi đăng ký, thanh toán ít nhất 50% tiền cọc và đóng hết 100% trước khởi hành 7 ngày.
Dời ngày khởi hành trước 10 ngày không mất phí, sau 8 ngày mất 20%.( Không tính ngày lễ và chủ nhật), chỉ được dời 1 lần.
Sau khi đăng ký huỷ tour mất 10% giá tour
Từ 10 đến trước 8 ngày trước ngày khởi hành chịu phí 30% giá tour.( Không tính ngày lễ và chủ nhật)
Từ 8 đến 6 ngày trước ngày khởi hành chịu phí 50% giá tour.( Không tính ngày lễ và chủ nhật)
Từ 3-5 ngày trước ngày khởi hành chịu phí 70% giá tour.( Không tính ngày lễ và chủ nhật)
Từ 2 ngày trước ngày khởi hành chịu phí 100% giá tour.( Không tính ngày lễ và chủ nhật)
Các quy định trên không áp dụng cho các dịp lễ và tết.
Các ngày lễ tết việc dời ngày và hủy tour trước 15 ngày khởi hành mất 50% giá tour. Sau 15 ngày so với ngày khởi hành mất 100% giá tour.(Không tính ngày chủ nhật.)
Sau khi hủy tour, du khách vui lòng đến công ty nhận tiền trong vòng 2 tuần kể từ ngày đăng ký tour. Chúng tôi chỉ thanh toán trong thời gian 14 ngày nói trên.
Trường hợp hủy tour do sự cố khách quan như thiên tai, dịch bệnh hoặc do tàu thủy, xe lửa, máy bay hoãn/hủy chuyến, Hải Đăng Travel sẽ không chịu trách nhiệm bồi thường thêm bất kỳ chi phí nào khác ngoài việc hoàn trả chi phí những dịch vụ chưa được sử dụng của tour đó.
                                             HÌNH THỨC THANH TOÁN 
                                                Thanh toán bằng tiền mặt tại Trụ sở chính, chi nhánh của Hải Đăng Travel hoặc công ty hỗ trợ thu tận nơi ( nếu khách có yêu cầu)
Chuyển khoản qua số tài khoản
Số tài khoản: 711A00686521.
Chủ tài khoản: Dương Phan Quốc Văn – Vietinbank TP.HCM.
Nội dung: Tour Đảo Điệp Sơn-Phú Yên. Ngày khởi hành:…, Tên khách:…, Số lượng:…
Sử dụng Voucher, cung cấp mã số Voucher, đóng thêm phụ thu (nếu có). Du khách giữ Voucher và nộp lại cho công ty.
Thanh toán bằng thẻ Visa ( thẻ từ, thẻ chip,…)
Thẻ giảm giá, thẻ ưu đãi xuất trình khi đăng ký tour.
                     ĐIỂM THAM QUAN 
                                                  Kiểm Tra Giá & Lịch Khởi Hành 
                                                                                                                                                                                                                                KS 5 Sao
                            Khởi Hành
                                                                                                                                                                    29/01/201731/01/2017
                            = 
                            Người lớn
                            = 
                            Trẻ em
                            = 
                            Tổng cộng
                                = 
                         Mua Tour
                TOUR LIÊN QUAN
                                              4 ngày 4 đêm |  Ô Tô |  2 sao
                                            Xem
                                    Tour Ninh Chữ, Đà Lạt,Tết Âm Lịch 2017
                                         2,890,000 đ
                                                Giá gốc: 2,900,000 đ
                                                     Lịch khởi hành
                                                        29/01/201730/01/2017
                                              4 ngày 4 đêm |  Ô Tô |  2 sao
                                            Xem
                                    Tour Nha Trang, Đà Lạt, Tết Âm Lịch 2017
                                         2,890,000 đ
                                                Giá gốc: 2,940,000 đ
                                                     Lịch khởi hành
                                                        29/01/201730/01/201731/01/2017
                                              3 ngày 3 đêm |  Ô Tô |  2 sao
                                            Xem
                                    Tour Nha Trang Tiệc Buffet, Bãi Tắm Nhũ Tiên,Tết Âm Lịch 2017
                                         2,090,000 đ
                                                Giá gốc: 2,290,000 đ
                                                     Lịch khởi hành
                                                        29/01/201730/01/201731/01/201702/02/2017
                                              3 ngày 3 đêm |  Ô Tô |  2 sao
                                            Xem
                                    Tour Nha Trang, Bar Trên Biển,Đón Tết Âm Lịch 2017
                                         1,990,000 đ
                                                Giá gốc: 1,890,000 đ
                                                     Lịch khởi hành
                                                        29/01/201730/01/201731/01/201702/02/2017
                                              2 ngày 2 đêm |  ô Tô |  3 sao
                                            Xem
                                    Tour Ninh Chữ - Vĩnh Hy Resort 3sao, Tết Âm Lịch 2017
                                         1,750,000 đ
                                                Giá gốc: 1,999,000 đ
                                                     Lịch khởi hành
                                                        29/01/201730/01/2017
                                              5 ngày 5 đêm |  Máy bay |  3 sao
                                            Xem
                                    Tour Đà Nẵng, Sơn Trà, Hội An , Huế,Quảng Bình, Tết Âm Lịch 2017
                                         3,750,000 đ
                                                Giá gốc: 4,189,999 đ
                                                     Lịch khởi hành
                                                        29/01/201730/01/201731/01/2017
                    TRỤ SỞ CHÍNH
                         225 Bàu Cát, P12, Q.Tân Bình, HCM
                         19002011 - 08 3849 3838 
                        08 3849 2999   
                          www.haidangtravel.com  
                         info@haidangtravel.com 
                        CSKH: 0948.99.1080
                    CHI NHÁNH
                         Quận 1 : Lầu 7, Tòa Nhà Viễn Đông, 14 Phan Tôn
                        19002011(Ext-107) -  0838204589  
                         Quận 12 : 256 TX25, Thạnh Xuân, Q12 
                        19002011(Ext-111)
                         Biên Hòa : 51A2, KP11, P.Tân Phong 
                        19002011(Ext-108) -  0613999392  
                    TRỢ GIÚP
                    Liên hệ & giới thiệuĐiều khoản chungHình thức thanh toánHướng dẫn mua tourChính sách bảo mật
                        GIỜ LÀM VIỆC
                            Thứ 2 đến 6
                                Sáng: 08:00-12:00Chiều:13:30-17:30
                            Thứ 7 Sáng: 08:00-12:00Nghỉ chủ nhật, lễ, tết
                    Được tìm kiếm nhiều
                        Tour Nha Trang
                        Tour Đà Lạt
                        Tour Cà Mau
                        Tour Phú Yên
                        Tour Ninh Chữ
                        Tour Côn Đảo
                        Tour Miền Bắc
                        Tour Phú Quốc
                        Tour Đà Nẵng
                        Tour Phan Thiết
                        Tour Bình Ba
                        Tour Nam Du
                        Tour Vũng Tàu
                        Tour Bà Lụa
                THÀNH TÍCH
            2015 © All Rights Reserved. Công ty cổ phần xây dựng du lịch Hải Đăng
        Your browser doesn't support canvas. Please download IE9+ on
            IE Test Drive
            +
                Có thể bạn quan tâm ?
                                Tour Ninh Chữ - Vĩnh Hy Khám Phá Bãi Đá Bảy Màu Resort 3sao 2N2Đ
                                 1,250,000 đ
                                Tour Côn Đảo, Trọn Gói Vé Máy Bay 2N1Đ
                                 3,999,000 đ
                                Tour Ninh Chữ - Vĩnh Hy - Cổ Thạch đồng giá 2N2Đ
                                 999,000 đ
                                Tour du lịch Vũng Tàu, Long Hải, Suối nước nóng Bình Châu 2N1Đ
                                 789,000 đ
                                Tour Côn Đảo, Khám Phá Lịch Sử Văn Hóa Côn Sơn 2N1Đ
                                 4,590,000 đ
                                Tour Đảo Hòn Sơn Khám Phá Đỉnh Ma Thiên Lãnh 2N2Đ
                                 1,390,000 đ
                                Tour Đà Lạt Phototrip Khám Phá Những Cung Đường Hoa 3N3Đ
                                 1,250,000 đ
                                Tour Đảo Bình Hưng, Hang Rái, Vĩnh Hy 2n2d
                                 1,111,000 đ
                                Tour Đảo Phú Quý, Khám Phá Hòn Đảo Mang Vẻ Đẹp Hoang Sơ 3N3Đ
                                 2,250,000 đ
                                Tour Ninh Chữ, Vĩnh Hy Hang Rái Siêu Tiết Kiệm 2n2d
                                 850,000 đ
                        ×
