url:http://haidangtravel.com/Tour-Binh-Lap-Binh-Hung-BINH-TIEN-dong-gia-2N2D
Tittle :Tour Bình Lập - Bình Hưng - BÌNH TIÊN đồng giá 2N2Đ
content :Toggle navigation
                             Trang Chủ
                              Tour Du Lịch
                         Tour Trong Nước Tour Nước Ngoài
                              Tổ Chức Sự Kiện
                             Thuê Xe Du Lịch
                         Thuê Xe 4 Chổ Thuê Xe 7 Chổ Thuê Xe 16 Chổ Thuê Xe 29 Chổ Thuê Xe 35 Chổ Thuê Xe 45 Chổ
                             Khách Sạn
                              Cẩm nang du lịch
                              Tin tức du lịch
                              Bảng Giá Tour
                     1900 2011
                    08.3849.3838 - 0948.99.1080
                    Đăng Ký
                                            ×
                                            ĐĂNG KÝ
                                                        Tên đăng nhập (bắt buộc)
                                                        Nhập số điện thoại ( bắt buôt )
                                                        Nhập họ tên của bạn
                                                        Nhập mail của bạn
                                                        Nhập mật khẩu ( bắt buột )
                                                        Nhập lại mật khẩu ( bắt buột )
                                                        NamNữKhác
                                                        Địa chỉ nhà bạn
                                                        Ngày sinh của bạn
                                                 Nhận mail từ Hải Đăng Travel
                                                Đăng Ký
                        Đăng nhập
                                            ×
                                            ĐĂNG NHẬP
                                        Quên mật khẩu ?
                                        Đăng Ký
                                                Ghi nhớ mật khẩu
                                                Đăng nhập
                    Trang chủ
                 ›
                    Tour trong nước
                 ›
                    Tour Bình Lập - Bình Hưng - BÌNH TIÊN đồng giá 2N2Đ
                 Photo
                                Hổ Trợ Trực Tuyến
                             SKYPE YAHOO0947368118
                             Tour Bình Lập - Bình Hưng - BÌNH TIÊN đồng giá 2N2Đ
                                     2 ngày 2 đêm
                                      Ô Tô 
                                      2 sao 
                                     999,000 đ
                                            Giá gốc: 1,999,000 đ
                                                 Lịch khởi hành
                                                                                                        25/11/201609/12/2016
                                 DỊCH VỤ ĐÍNH KÈM
                                  Vé tham quan  Hướng dẫn viên  Ăn uống  Phương tiện   Bảo hiểm  Khách sạn
                                 Cơ hội nhân quà hấp khi đăng ký tour tại www.haidangtravel.com xem quà tặng tại đây 
                                 MUA TOUR
                                 GIỚI THIỆU Tour Bình Lập - Bình Hưng - BÌNH TIÊN đồng giá 2N2Đ
                                         Đánh Giá Tour
                                    0.0
                                                                                                                                    Đăng nhập để đánh giá hay điền các thông tin sau :
                                                        Họ tên (bắt buộc)
                                                        Nhập mail của bạn (bắt buộc)
                                                    Nhập nhận xét của bạn (bắt buộc)
                                                     Đánh giá :
                                                                           Rất Tốt  Tốt  khá  Trung Bình  Bình Thường
                                                Rất Tốt 0
                                                Tốt  0
                                                Khá 0
                                                Tạm Được  0
                                                Bình Thường  0
                                            Nhận xét (0)
                                                                                                                                                                                Hết
                        LỊCH TRÌNH TOUR
                                 NGÀY 1 : HCM - Bình Lập- Bình Tiên- Bình Hưng 
                                    21:00 Xe và hướng dẫn viên công ty đón đoàn tại điểm hẹn trong thành phố, sau đó khởi hành đi Cam Ranh.
Quý khách nghỉ đêm trên xe.
Đoàn theo cung đường dọc biển Ninh Chữ – Vĩnh Hy – Tam Bình.
Quý khách dừng chân ngắm mặt trời mọc, cùng chiêm ngưỡng cảnh đẹp hoang sơ mà thiên nhiên đã ban tặng cho nơi đây.
07:00 Dùng điểm tâm sáng tại nhà hàng
8h30: Đến Bình Lập, quý khách tham quan và khám phá những bãi biển hoang sơ của Bình Lập như Bãi Ngang hoặc Bãi Lao là những bãi biển còn rất hoang sơ, đẹp đến mê ly
Đoàn tham quan Resort Ngọc Sương, nơi có phong cảnh tuyệt đẹp  và hoang sơ, là phim trường với những cảnh quay cực đẹp của các bộ phim nổi tiếng :Mỹ nhân kế và  những nụ hôn rực rỡ.
10h30: Xe đưa đón đến Khu Du Lịch Sao Biển dung buổi trưa, nghỉ ngơi tận hưởng không khí trong lành của gió biển
11h30: Tạm biệt Bình Lập, xe đưa đoàn đến với Bình Tiên và Bình Hưng 
Đến Bãi Biển Bình Tiên, quý khách dừng lại ngắm cảnh chụp hình lưu niệm. Một bãi biển biển khá bình yên, thỉnh thoảng là những bãi đá có hình dạng kỳ thú làm cho bãi biển Bình Tiên đẹp lạ thường, dễ khiến du khách phải say mê. Trong quanh cảnh thiên nhiên khoáng đạt và thanh vắng, bãi biển Bình Tiên như chốn thiên đường mang lại cho bất cứ ai một không gian tuyệt vời nhất mà không phải nơi nào cũng có được.
12:30 Xe đưa đoàn đi Bình Hưng.
Đến đảo, xe điện đưa đoàn tham quan 1 vòng xung quanh đảo, tham quan ngọn hải đăng Hòn Chút - đã trên 100 năm tuổi và là "cây" đèn biển của vịnh Cam Ranh. 
14:00 Tạm Biệt Bình Hưng, Xe đưa đoàn về Ninh Chữ, đến Resort quý khách nhận phòng nghỉ ngơi sau 1 chặng đường dài.
Quý khách tắm biển tự do, thư giãn tại Hồ Bơi của Resort
18h00: Đoàn tự do khám phá đặc sản Ninh Thuận,  nghỉ đêm tại resort.
                                 NGÀY 2 : NINH CHỮ – TP. HCM 
                                    07:30 Quý khách dùng bữa sáng tại nhà hàng .
Quý khách tự do tắm biển nghỉ ngơi.
09:00 Làm thủ tục trả phòng, khởi hành về lại TP.HCM.
Xe đưa du khách tham quan làng Gốm Bàu Trúc, làng Dệt Mỹ Nghiệp là những làng nghề thủ công truyền thống của dân tộc chăm,Tiếp tục khởi hành về TP.HCM ghé tham quan vườn Nho mua đặc sản Phan Rang.
Tiếp tục lộ trình đến Cà Ná, đoàn dừng chân dùng cơm trưa tại nhà hàng và tham quan thắng cảnh
17h30 Về đến TP. HCM,xe và hướng dẫn đưa du khách về lại địa điểm hẹn .Chào Tạm Biệt Và Hẹn Gặp Lại quý khách. 
 
                    G.Thiệu
                                        Ngày 1
                                        Ngày 2
                     ĐỊA ĐIỂM ĐÓN KHÁCH
                                                QUÝ KHÁCH ĐI TOUR KHỞI HÀNH BẰNG Ô TÔ VỚI NHỮNG ĐIỂM ĐÓN SAU :
Đón khách tại Công ty Du lịch Hải Đăng, 225 Bàu Cát, P12, Quận Tân Bình
Đón khách tại Nhà Văn Hóa Thanh Niên, 04 Phạm Ngọc Thạch, Quận 1
Đón khách tại Cây xăng Comeco, Ngã 4 Hàng Xanh, Quận Bình Thạnh
Đón khách tại Ngã 4 Thủ Đức, Quận 9
Đón khách tại Siêu thị Lotte Mart, Ngã 4 Amata, Biên Hòa, Đồng Nai
QUÝ KHÁCH ĐI TOUR TUYẾN MIỀN TÂY NHỮNG ĐIỂM ĐÓN SAU :
Đón khách tại Công viên Bàu Cát, 141 Đồng Đen, P11, Quận Tân Bình
Đón khách tại Nhà Văn Hóa Thanh Niên, 04 Phạm Ngọc Thạch, Quận 1
Bến xe miền tây , Q 6 ( bệnh viện Triều An )
QUÝ KHÁCH ĐI TOUR KHỞI HÀNH BẰNG MÁY BAY VỚI NHỮNG ĐIỂM ĐÓN SAU :
Quý khách vui lòng tập trung tại nhà ga đối với những khách đi tour khởi hành bằng tàu
Quý khách vui lòng tập trung tại sân bay hoặc các phòng chờ của các hãng bay đối với những khách đi tour khởi hành bằng máy bay
                         QUY ĐỊNH TOUR
                                             GIÁ TOUR BAO GỒM 
                                                  Lưu Trú
                                                - Resort 2 sao tại Ninh Chữ: 2 – 4 khách/ phòng
Phòng 2: phụ thu 75,000đ/ khách/ ngày thường; 100,000đ/ khách/ ngày lễ. (nếu cặp vợ chồng không phụ thu).
Phụ thu phòng đơn (nếu quý khách đi 1 mình: 200.000đ/khách/ngày thường; 300,000đ/ khách/ ngày lễ).
Trường hợp trong đợt khởi hành có khách lẻ ghép, Hải Đăng sẽ ghép cho khách và không phải đóng phụ thu.
Phụ thu khách nước ngoài: 200,000đ/ khách
- Resort 3 sao: phụ thu 150.000 đ/khách
Phụ thu phòng đơn (nếu quý khách đi 1 mình: 300.000đ/khách/ngày thường; 500,000đ/ khách/ ngày lễ).
                                                 Vé Tham Quan
                                                    Vé vào cổng:Tham quan làng Gốm Bàu Trúc, làng Dệt Mỹ Nghiệp,Tham quan ngọn hải đăng Hòn Chút 
Resort Ngọc Sương
                                                  Ăn Uống
                                                Điểm tâm: 2 buổi 
2 set Menu: 40.000 đ/suất (1tô bún, phở, hủ tiếu + 1 ly nước ngọt, sữa, café)
Ăn chính: 2 buổi
1 buổi: 90.000đ/suất, 1 buổi:  100.000 đ/suất 
                                                   Nón Nước - Khăn Lạnh
                                                Nước suối: 1 chai 500ml/ngày/khách
Khăn lạnh: 1 cái/ngày/khách
Nón du lịch: 1 nón HAIDANGTRAVEL/khách
                                                 Phương Tiện
                                                Xe đời mới máy lạnh 45 Chỗ (40 khách - 45 khách), đón khách theo chương trình. 
Lưu ý: Áp dụng tối thiểu 25 khách cho mỗi đợt khởi hành (xe 29, 30 chỗ)
                                             GIÁ TOUR KHÔNG BAO GỒM 
                                                   Chi Phí Cá Nhân
                                                Chi phí cá nhân: Giặt ủi, điện thoại,ăn uống ngoài chương trình …..Điểm tham quan	Xe điện, các dịch vụ tắm nước ngọt và  các điểm ngoài chương trình..Thuế VAT:Quý khách có nhu cầy xuất hóa hơn VAT vui lòng đóng thêm 10%
                                                  Thuế VAT
                                                 10% thuế VAT
                                             QUY ĐỊNH TRẺ EM 
                                                Trẻ em dưới 5 tuổi
Cha, mẹ hoặc người thân đi kèm tự lo các chi phí ăn, ngủ, tham quan (nếu có) cho bé. Hai người lớn chỉ kèm 1 trẻ em dưới 5 tuổi, em thứ 2 trở lên phải mua ½ vé tour.
Từ 6-10 tuổi
60% vé tour: Bao gồm các dịch vụ ăn uống, ghế ngồi trên xe và ngủ chung với gia đình. Hai người lớn chỉ được kèm 1 trẻ em từ 5 đến 10 tuổi, em thứ 2 trở lên phải mua suất người lớn.
Trẻ em trên 10 tuổi
Vé người lớn, tiêu chuẩn như người lớn
                                             QUY ĐỊNH MUA VÀ HỦY TOUR 
                                                Sau khi đăng ký, thanh toán ít nhất 50% tiền cọc và đóng hết 100% trước khởi hành 7 ngày.
Dời ngày khởi hành trước 10 ngày không mất phí, sau 8 ngày mất 20%.( Không tính ngày lễ và chủ nhật), chỉ được dời 1 lần.
Sau khi đăng ký huỷ tour mất 10% giá tour
Từ 10 đến trước 8 ngày trước ngày khởi hành chịu phí 30% giá tour.( Không tính ngày lễ và chủ nhật)
Từ 8 đến 6 ngày trước ngày khởi hành chịu phí 50% giá tour.( Không tính ngày lễ và chủ nhật)
Từ 3-5 ngày trước ngày khởi hành chịu phí 70% giá tour.( Không tính ngày lễ và chủ nhật)
Từ 2 ngày trước ngày khởi hành chịu phí 100% giá tour.( Không tính ngày lễ và chủ nhật)
Các quy định trên không áp dụng cho các dịp lễ và tết.
Các ngày lễ tết việc dời ngày và hủy tour trước 15 ngày khởi hành mất 50% giá tour. Sau 15 ngày so với ngày khởi hành mất 100% giá tour.(Không tính ngày chủ nhật.)
Sau khi hủy tour, du khách vui lòng đến công ty nhận tiền trong vòng 2 tuần kể từ ngày đăng ký tour. Chúng tôi chỉ thanh toán trong thời gian 14 ngày nói trên.
Trường hợp hủy tour do sự cố khách quan như thiên tai, dịch bệnh hoặc do tàu thủy, xe lửa, máy bay hoãn/hủy chuyến, Hải Đăng Travel sẽ không chịu trách nhiệm bồi thường thêm bất kỳ chi phí nào khác ngoài việc hoàn trả chi phí những dịch vụ chưa được sử dụng của tour đó.
                                             HÌNH THỨC THANH TOÁN 
                                                Thanh toán bằng tiền mặt tại Trụ sở chính, chi nhánh của Hải Đăng Travel hoặc công ty hỗ trợ thu tận nơi ( nếu khách có yêu cầu)
Chuyển khoản qua số tài khoản
Số tài khoản: 711A00686521.
Chủ tài khoản: Dương Phan Quốc Văn – Vietinbank TP.HCM.
Nội dung: Tour ĐGPB 2016-Tam Bình 02. Ngày khởi hành:…, Tên khách:…, Số lượng:…
Sử dụng Voucher, cung cấp mã số Voucher, đóng thêm phụ thu (nếu có). Du khách giữ Voucher và nộp lại cho công ty.
Thanh toán bằng thẻ Visa ( thẻ từ, thẻ chip,…)
Thẻ giảm giá, thẻ ưu đãi xuất trình khi đăng ký tour.
                     ĐIỂM THAM QUAN 
                                                  Kiểm Tra Giá & Lịch Khởi Hành 
                                                                                            KS 2 Sao
                            Khởi Hành
                                                                                                                                                                    25/11/201609/12/2016
                            = 
                            Người lớn
                            = 
                            Trẻ em
                            = 
                            Tổng cộng
                                = 
                         Mua Tour
                TOUR LIÊN QUAN
                                                                                                                                                                                                                                                                                                                                                                                                                                                                                                                                                                                                                                                                                                                                                                                                                                                                                                                                                                                                                                                                                                                                                                                                                                                                                                                                                                                                                                                                                                                                                                                                                                                                                                                                                                                                                                                                                                                                                                                                                                                                                                                                                                                                                                                                                                                                                                                                                                                                                                                                                                                                                                                                                                                                                                                                                                                                                                                                                                                                                                                                                                                                                                                                                                                                                                                                                                                                                                                                                                                                                                                                                                                                                                                                                                                                                                                                                                                                                                                                                                                                                                                                                                                                                                                                                                                                                                                                                                                                                                                                                                                                                                                                                                                                                                                                                                                                                                                                                                                                                                                                                                                                                                                                                                                                                                                                                                                                                                                                                                                                                                                                                                                                                                                                                                                                                                                                                                                                                                                                                                                                                                                                                                                                                                                                                                                                                                                                                                                                                                                                                                                                                                                                                                                                                                                                                                                                                                                                                                                                                                                                                                                                                                                                                                                                                                                                                                                                                                                                                    New
                                              3 ngày 2 đêm |  Máy Bay Trọn Gói |  5 sao
                                            Xem
                                    Tour Đà Nẵng, Khám Phá Furama Resort Đà Nẵng 
                                         9,900,000 đ
                                                Giá gốc: 10,900,000 đ
                                                     Lịch khởi hành
                                                        20/11/201621/11/201622/11/201623/11/201624/11/201625/11/201626/11/201627/11/201628/11/201629/11/201630/11/2016
                                                                                                                                                                                                                                                                                                                                                                                                                                                                                                                                                                                                                                                                                                                                                                                                                                                                                                                                                                                                                                                                                                                                                                                                                                                                                                                                                                                                                                                                                                                                                                                                                                                                                                                                                                                                                                                                                                                                                                                                                                                                                                                                                                                                                                                                                                                                                                                                                                                                                                                                                                                                                                                                                                                                                                                                                                                                                                                                                                                                                                                                                                                                                                                                                                                                                                                                                                                                                                                                                                                                                                                                                                                                                                                                                                                                                                                                                                                                                                                                                                                                                                                                                                                                                                                                                                                                                                                                                                                                                                                                                                                                                                                                                                                                                                                                                                                                                                                                                                                                                                                                                                                                                                                                                                                                                                                                                                                                                                                                                                                                                                                                                                                                                                                                                                                                                                                                                                                                                                                                                                                                                                                                                                                                                                                                                                                                                                                                                                                                                                                                                                                                                                                                                                                                                                                                                                                                                                                                                                                                                                                                                                                                                                                                                                                New
                                              1 ngày 1 đêm |  Ô TÔ |  2 sao
                                            Xem
                                    Tour Rừng Tràm Trà Sư, Châu Đốc 1N1Đ
                                         590,000 đ
                                                Giá gốc: 1,000,000 đ
                                                     Lịch khởi hành
                                                        25/11/201625/11/201625/11/201602/12/201602/12/201602/12/201609/12/201609/12/201609/12/201616/12/201616/12/201616/12/2016
                                                                                                                                                                                                                                                                                                                                                                                                                                                                                                                                                                                                                                                                                                                                                                                                                                                                                                                                                                                                                                                                                                                                                                                                                                                                                                                                                                                                                                                                                                                                                                                                                                                                                                                                                                                                                                                                                                                                                                                                                                                                                                                                                                                                                                                                                                                                                                                                                                                                                                                                                                                                                                                                                                                                                                                                                                                                                                                                                                                                                                                                                                                                                                                                                                                                                                                                                                                                                                                                                                                                                                                                                                                                                                                                                                                                                                                                                                                                                                                                                                                                                                                                                                                                                                                                                                                                                                                                                                                                                                                                                                                                                                                                                                                                                                                                                                                                                                                                                                                                                                                                                                                                                                                                                                                                                                                                                                                                                                                                                                                                                                                                                                                                                                                                                                                                                                                                                                                                                                                                                                                                                                                                                                                                                                                                                                                                                                                                                                                                                                                                                                                                                                                                                                                                                                                                                                                                                                                                                                                                                                                                                                                                                                                                                                                                                                                            New
                                              3 ngày 3 đêm |  Ô Tô |  2 sao
                                            Xem
                                    Tour Đà Lạt, Ẩm Thực Đà Lạt, Buffet Rau Không Giới Hạn 3N3Đ
                                         1,190,000 đ
                                                Giá gốc: 1,820,000 đ
                                                     Lịch khởi hành
                                                        24/11/201601/12/201608/12/201615/12/2016
                                                                                                                                                                                                                                                                                                                                                                                                                                                                                                                                                                                                                                                                                                                                                                                                                                                                                                                                                                                                                                                                                                                                                                                                                                                                                                                                                                                                                                                                                                                                                                                                                                                                                                                                                                                                                                                                                                                                                                                                                                                                                                                                                                                                                                                                                                                                                                                                                                                                                                                                                                                                                                                                                                                                                                                                                                                                                                                                                                                                                                                                                                                                                                                                                                                                                                                                                                                                                                                                                                                                                                                                                                                                                                                                                                                                                                                                                                                                                                                                                                                                                                                                                                                                                                                                                                                                                                                                                                                                                                                                                                                                                                                                                                                                                                                                                                                                                                                                                                                                                                                                                                                                                                                                                                                                                                                                                                                                                                                                                                                                                                                                                                                                                                                                                                                                                                                                                                                                                                                                                                                                                                                                                                                                                                                                                                                                                                                                                                                                                                                                                                                                                                                                                                                                                                                                                                                                                                                                                                                                                                                                                                                                                                                                                                                                                                                                                                                                        New
                                              2 ngày 2 đêm |  Máy Bay Trọn Gói |  5 sao
                                            Xem
                                    Tour Nghỉ Dưỡng, An Lâm Ninh Van Bay Lillas, Trọn gói Vé Máy Bay 2N2Đ
                                         13,300,000 đ
                                                Giá gốc: 16,100,000 đ
                                                     Lịch khởi hành
                                                        20/11/201621/11/201622/11/201623/11/201624/11/201625/11/201626/11/201627/11/201628/11/201629/11/201630/11/2016
                                                                                                                                                                                                                                                                                                                                                                                                                                                                                                                                                                                                                                                                                                                                                                                                                                                                                                                                                                                                                                                                                                                                                                                                                                                                                                                                                                                                                                                                                                                                                                                                                                                                                                                                                                                                                                                                                                                                                                                                                                                                                                                                                                                                                                                                                                                                                                                                                                                                                                                                                                                                                                                                                                                                                                                                                                                                                                                                                                                                                                                                                                                                                                                                                                                                                                                                                                                                                                                                                                                                                                                                                                                                                                                                                                                                                                                                                                                                                                                                                                                                                                                                                                                                                                                                                                                                                                                                                                                                                                                                                                                                                                                                                                                                                                                                                                                                                                                                                                                                                                                                                                                                                                                                                                                                                                                                                                                                                                                                                                                                                                                                                                                                                                                                                                                                                                                                                                                                                                                                                                                                                                                                                                                                                                                                                                                                                                                                                                                                                                                                                                                                                                                                                                                                                                                                                                                                                                                                                                                                                                                                                                                                                                                                                                                                                                                                                                                                                                                                                                                                                                New
                                              2 ngày 2 đêm |  Ô Tô |  0 sao
                                            Xem
                                    Tour Đảo Bình Ba, Tiệc BBQ Xe Giường Nằm 2N2Đ
                                         1,090,000 đ
                                                Giá gốc: 2,260,000 đ
                                                     Lịch khởi hành
                                                        25/11/201602/12/201609/12/201616/12/201623/12/2016
                                                                                                                                                                                                                                                                                                                                                                                                                                                                                                                                                                                                                                                                                                                                                                                                                                                                                                                                                                                                                                                                                                                                                                                                                                                                                                                                                                                                                                                                                                                                                                                                                                                                                                                                                                                                                                                                                                                                                                                                                                                                                                                                                                                                                                                                                                                                                                                                                                                                                                                                                                                                                                                                                                                                                                                                                                                                                                                                                                                                                                                                                                                                                                                                                                                                                                                                                                                                                                                                                                                                                                                                                                                                                                                                                                                                                                                                                                                                                                                                                                                                                                                                                                                                                                                                                                                                                                                                                                                                                                                                                                                                                                                                                                                                                                                                                                                                                                                                                                                                                                                                                                                                                                                                                                                                                                                                                                                                                                                                                                                                                                                                                                                                                                                                                                                                                                                                                                                                                                                                                                                                                                                                                                                                                                                                                                                                                                                                                                                                                                                                                                                                                                                                                                                                                                                                                                                                                                                                                                                                                                                                                                                                                                                                                                                                                                                                                                                                                                                                                                                                                                                                                                            New
                                              3 ngày 2 đêm |  máy bay |  2 sao
                                            Xem
                                    Tour Phú Quốc,Bao Vé Máy Bay Vinpearland, Câu Cá, Ngắm San Hô Nam Đảo 3N2Đ
                                         2,990,000 đ
                                                Giá gốc: 2,200,000 đ
                                                     Lịch khởi hành
                                                        20/11/201621/11/201622/11/201623/11/201624/11/201625/11/201626/11/201627/11/201628/11/201629/11/201630/11/2016
                    TRỤ SỞ CHÍNH
                         225 Bàu Cát, P12, Q.Tân Bình, HCM
                         19002011 - 08 3849 3838 
                        08 3849 2999   
                          www.haidangtravel.com  
                         info@haidangtravel.com 
                        CSKH: 0948.99.1080
                    CHI NHÁNH
                         Quận 1 : Lầu 7, Tòa Nhà Viễn Đông, 14 Phan Tôn
                        19002011(Ext-107) -  0838204589  
                         Quận 12 : 256 TX25, Thạnh Xuân, Q12 
                        19002011(Ext-111)
                         Biên Hòa : 51A2, KP11, P.Tân Phong 
                        19002011(Ext-108) -  0613999392  
                    TRỢ GIÚP
                    Liên hệ & giới thiệuĐiều khoản chungHình thức thanh toánHướng dẫn mua tourChính sách bảo mật
                        GIỜ LÀM VIỆC
                            Thứ 2 đến 6
                                Sáng: 08:00-12:00Chiều:13:30-17:30
                            Thứ 7 Sáng: 08:00-12:00Nghỉ chủ nhật, lễ, tết
                    Được tìm kiếm nhiều
                        Tour Nha Trang
                        Tour Đà Lạt
                        Tour Cà Mau
                        Tour Phú Yên
                        Tour Ninh Chữ
                        Tour Côn Đảo
                        Tour Miền Bắc
                        Tour Phú Quốc
                        Tour Đà Nẵng
                        Tour Phan Thiết
                        Tour Bình Ba
                        Tour Nam Du
                        Tour Vũng Tàu
                        Tour Bà Lụa
                THÀNH TÍCH
            2015 © All Rights Reserved. Công ty cổ phần xây dựng du lịch Hải Đăng
        Your browser doesn't support canvas. Please download IE9+ on
            IE Test Drive
            +
                Có thể bạn quan tâm ?
                                Tour Đảo Phú Quý, Khám Phá Hòn Đảo Mang Vẻ Đẹp Hoang Sơ 3N3Đ
                                 2,250,000 đ
                                Tour Ninh Chữ, Vĩnh Hy Hang Rái Siêu Tiết Kiệm 2n2d
                                 850,000 đ
                                Tour Côn Đảo, Khám Phá Lịch Sử Văn Hóa Côn Sơn 2N1Đ
                                 4,590,000 đ
                                Tour Ninh Chữ - Vĩnh Hy Khám Phá Bãi Đá Bảy Màu Resort 3sao 2N2Đ
                                 1,250,000 đ
                                Tour du lịch Vũng Tàu, Long Hải, Suối nước nóng Bình Châu 2N1Đ
                                 789,000 đ
                                Tour Côn Đảo, Trọn Gói Vé Máy Bay 2N1Đ
                                 3,999,000 đ
                                Tour Đảo Hòn Sơn Khám Phá Đỉnh Ma Thiên Lãnh 2N2Đ
                                 1,390,000 đ
                                Tour Đà Lạt Phototrip Khám Phá Những Cung Đường Hoa 3N3Đ
                                 1,250,000 đ
                                Tour Ninh Chữ - Vĩnh Hy - Cổ Thạch đồng giá 2N2Đ
                                 999,000 đ
                                Tour Đảo Bình Hưng, Hang Rái, Vĩnh Hy 2n2d
                                 1,111,000 đ
                        ×
