url:http://haidangtravel.com/Tour-Long-Hai-Binh-Chau-Ho-Coc-La-Gi-dong-gia-2N1D
Tittle :Tour Long Hải - Bình Châu - Hồ Cốc - La Gi đồng giá 2N1Đ
content :Toggle navigation
                             Trang Chủ
                              Tour Du Lịch
                         Tour Trong Nước Tour Nước Ngoài
                              Tổ Chức Sự Kiện
                             Thuê Xe Du Lịch
                         Thuê Xe 4 Chổ Thuê Xe 7 Chổ Thuê Xe 16 Chổ Thuê Xe 29 Chổ Thuê Xe 35 Chổ Thuê Xe 45 Chổ
                             Khách Sạn
                              Cẩm nang du lịch
                              Tin tức du lịch
                              Bảng Giá Tour
                     1900 2011
                    08.3849.3838 - 0948.99.1080
                    Đăng Ký
                                            ×
                                            ĐĂNG KÝ
                                                        Tên đăng nhập (bắt buộc)
                                                        Nhập số điện thoại ( bắt buôt )
                                                        Nhập họ tên của bạn
                                                        Nhập mail của bạn
                                                        Nhập mật khẩu ( bắt buột )
                                                        Nhập lại mật khẩu ( bắt buột )
                                                        NamNữKhác
                                                        Địa chỉ nhà bạn
                                                        Ngày sinh của bạn
                                                 Nhận mail từ Hải Đăng Travel
                                                Đăng Ký
                        Đăng nhập
                                            ×
                                            ĐĂNG NHẬP
                                        Quên mật khẩu ?
                                        Đăng Ký
                                                Ghi nhớ mật khẩu
                                                Đăng nhập
                    Trang chủ
                 ›
                    Tour trong nước
                 ›
                    Tour Long Hải - Bình Châu - Hồ Cốc - La Gi đồng giá 2N1Đ 
                 Photo
                                Hổ Trợ Trực Tuyến
                             SKYPE YAHOO01226901995
                             Tour Long Hải - Bình Châu - Hồ Cốc - La Gi đồng giá 2N1Đ 
                                     2 ngày 1 đêm
                                      Ô Tô 
                                      4 sao 
                                     999,000 đ
                                            Giá gốc: 1,999,000 đ
                                                 Lịch khởi hành
                                                                                                        26/11/201610/12/2016
                                 DỊCH VỤ ĐÍNH KÈM
                                  Vé tham quan  Hướng dẫn viên  Ăn uống  Phương tiện   Bảo hiểm  Khách sạn
                                 Cơ hội nhân quà hấp khi đăng ký tour tại www.haidangtravel.com xem quà tặng tại đây 
                                 MUA TOUR
                                 GIỚI THIỆU Tour Long Hải - Bình Châu - Hồ Cốc - La Gi đồng giá 2N1Đ 
                                         Đánh Giá Tour
                                    0.0
                                                                                                                                    Đăng nhập để đánh giá hay điền các thông tin sau :
                                                        Họ tên (bắt buộc)
                                                        Nhập mail của bạn (bắt buộc)
                                                    Nhập nhận xét của bạn (bắt buộc)
                                                     Đánh giá :
                                                                           Rất Tốt  Tốt  khá  Trung Bình  Bình Thường
                                                Rất Tốt 0
                                                Tốt  0
                                                Khá 0
                                                Tạm Được  0
                                                Bình Thường  0
                                            Nhận xét (0)
                                                                                                                                                                                Hết
                        LỊCH TRÌNH TOUR
                                 NGÀY 1 : TP.HCM – HỒ CỐC – BÌNH CHÂU – LA GI 
                                    5h30 Xe của HaiĐangTravel  đón khách tại điểm hẹn, khởi hành theo dọc đường ven biển đến với  Hàm Thuận Nam.
7h00 Ăn điểm tâm sáng tại NHÀ HÀNG và tiếp tục cuộc hành trình.Quý khách đi qua con đường ven biển của Long Hải, ngắm nhìn The Grand - Hồ Tràm Strip - cụm du lịch và khu nghỉ dưỡng phức hợp quy mô lớn nhất Việt Nam ở  Phước Thuận, huyện Xuyên Mộc, Bà Rịa - Vũng Tàu
 
Quý khách mở rộng tầm nhìn ngắm cảnh biển  Long Hải, Hồ Cốc – nơi có bãi biển còn mang nét hoang sơ, đang đón ánh nắng ban mai trãi dài
9h30: Đến Bình Châu, Quý khách đi tham quan một vòng Khu du lịch sinh thái Bình Châu.
Đến hồ Suối Mơ, hồ Quê Hương, Quý khách tắm nước khoáng nóng ,và tắm tinh bùn khoáng
Đến suối Hà Nội - Huế - Sài Gòn, Quý khách ngâm chân dưới dòng nước khoáng nóng 370C, có tác dụng làm mịn da, giảm các bệnh về hệ thần kinh, ngoài da, phong thấp, đổ mồ hôi tay chân.
Đoàn ghé tham quan khu Giếng Trời, Quý khách tự luộc trứng gà bằng nước khoáng 820C, dùng trứng chín lòng đào, thơm ngon, bổ dưỡng.
Sau đó, xe đưa đoàn tiếp tục cuộc hành trình đến với Biển Hàm Thuận Nam
12h00: Quý khách dung bữa trưa tại nhà hàng.
12h30: Đến Resort 4 sao , nhận phòng nghỉ ngơi.
Buổi Chiều:   Quý khách tắm biển tự do.
15h00 Xe đưa đoàn khởi hành tham quan Mũi Kê Gà, quý khách thưởng ngoạn cảnh biển, chụp hình.
Đoàn tham quan Ngọn Hải Đăng bằng thuyền thúng hoặc Cano- tận mắt chiêm ngưỡng công trình kiến trúc đỉnh cao được xây bằng từng khối đá chạm khắc tỉ mỉ. Bên trong Hải Đăng có 184 bậc thang xoáy trôn ốc dẫn đến đỉnh đèn. (phí tự túc).
Quý khách nghỉ ngơi, thưởng thức ăn hải sản tự túc thay buổi cơm chiều- với các hải sản như: Tôm, ghẹ, sò, ốc…….
18h00: Trở về Resort nghỉ ngơi 
                                 NGÀY 2 : LA GI – PHAN THIẾT – HỒ CHÍ MINH 
                                    7h00 Đoàn dùng điểm tâm tại Nhà Hàng
Sau đó, Quý khách tắm biển tự do.Thả mình dưới dòng nước mát lạnh, du khách sẽ được tận hưởng cảm giác lâng lâng, choáng ngợp khi phóng tầm mắt nhìn ngắm toàn cảnh mênh mông biển trời và gió lộng của vùng đất Phan Thiết.
11h00 Trả phòng, Quý khách dùng buổi trưa tại Phan Thiết.
13h00 Quý khách trở về HCM, trên đường ghé mua đặc sản của Bình Thuận như: Thanh Long, nước mắm, mực khô….. về làm quà cho người thân.
Buổi chiều : 
17h30 Đến Tp.HCM chia tay và hẹn gặp lại quý khách
                    G.Thiệu
                                        Ngày 1
                                        Ngày 2
                     ĐỊA ĐIỂM ĐÓN KHÁCH
                                                QUÝ KHÁCH ĐI TOUR KHỞI HÀNH BẰNG Ô TÔ VỚI NHỮNG ĐIỂM ĐÓN SAU :
Đón khách tại Công ty Du lịch Hải Đăng, 225 Bàu Cát, P12, Quận Tân Bình
Đón khách tại Nhà Văn Hóa Thanh Niên, 04 Phạm Ngọc Thạch, Quận 1
Đón khách tại Cây xăng Comeco, Ngã 4 Hàng Xanh, Quận Bình Thạnh
Đón khách tại Ngã 4 Thủ Đức, Quận 9
Đón khách tại Siêu thị Lotte Mart, Ngã 4 Amata, Biên Hòa, Đồng Nai
QUÝ KHÁCH ĐI TOUR TUYẾN MIỀN TÂY NHỮNG ĐIỂM ĐÓN SAU :
Đón khách tại Công viên Bàu Cát, 141 Đồng Đen, P11, Quận Tân Bình
Đón khách tại Nhà Văn Hóa Thanh Niên, 04 Phạm Ngọc Thạch, Quận 1
Bến xe miền tây , Q 6 ( bệnh viện Triều An )
QUÝ KHÁCH ĐI TOUR KHỞI HÀNH BẰNG MÁY BAY VỚI NHỮNG ĐIỂM ĐÓN SAU :
Quý khách vui lòng tập trung tại nhà ga đối với những khách đi tour khởi hành bằng tàu
Quý khách vui lòng tập trung tại sân bay hoặc các phòng chờ của các hãng bay đối với những khách đi tour khởi hành bằng máy bay
                         QUY ĐỊNH TOUR
                                             GIÁ TOUR BAO GỒM 
                                                  Lưu Trú
                                                Resort 4 sao: Sài Gòn –Suối Nhum hoặc KS tương đương 2 khách/phòng
Lưu ý: Áp dụng tối thiểu 40 khách cho mỗi đợt khởi hành.
Phụ thu phòng đơn( nếu quý khách đi 1 mình: 400.000 đ/khách)
Trường hợp trong đợt khởi hành có khách lẻ ghép, Hải Đăng sẽ ghép cho khách và không phải đóng phụ thu.
                                                 Vé Tham Quan
                                                    Vé vào cổng: KDL Suối khoáng nóng Bình Châu 
                                                  Ăn Uống
                                                1 Điểm tâm: 40.000 đ/suất/khách.+ 1 điểm tâm Buffet tại resort
2 Ăn chính: 90.000đ/suất/khách.
                                                   Nón Nước - Khăn Lạnh
                                                Nước suối: 1 chai 500ml/ngày/khách
Khăn lạnh: 1 cái/ngày/khách
Nón du lịch: 1 nón HAIDANGTRAVEL/khách
                                                 Phương Tiện
                                                Xe đời mới máy lạnh 45 Chỗ, đón khách theo chương trình
                                             GIÁ TOUR KHÔNG BAO GỒM 
                                                   Chi Phí Cá Nhân
                                                Chi phí cá nhân:Giặt ủi, điện thoại,ăn uống ngoài chương trình …..Điểm tham quan:Ngâm chân, tắm khoáng, luộc trứng tại Bình Châu...Chi phí thuyền thúng hoặc cano qua Hải Đăng...Thuế VAT Quý khách muốn xuất hóa đơn VAT cộng thêm 10%
                                                  Thuế VAT
                                                 10% thuế VAT
                                             QUY ĐỊNH TRẺ EM 
                                                Trẻ em dưới 5 tuổi
 Cha, mẹ hoặc người thân đi kèm tự lo các chi phí ăn, ngủ, tham quan (nếu có) cho bé. Hai người lớn chỉ kèm 1 trẻ em dưới 5 tuổi, em thứ 2 trở lên phải mua ½ vé tour.
Từ 6-10 tuổi
75% vé tour,ngủ chung bố mẹ, 1 chỗ ngồi trên xe, ăn uống theo chương trình
Trên 10 tuổi
Vé người lớn ,tiêu chuẩn như người lớn
                                             QUY ĐỊNH MUA VÀ HỦY TOUR 
                                                Sau khi đăng ký, thanh toán ít nhất 50% tiền cọc và đóng hết 100% trước khởi hành 7 ngày.
Dời ngày khởi hành trước 10 ngày không mất phí, sau 8 ngày mất 20%.( Không tính ngày lễ và chủ nhật), chỉ được dời 1 lần.
Sau khi đăng ký huỷ tour mất 10% giá tour
Từ 10 đến trước 8 ngày trước ngày khởi hành chịu phí 30% giá tour.( Không tính ngày lễ và chủ nhật)
Từ 8 đến 6 ngày trước ngày khởi hành chịu phí 50% giá tour.( Không tính ngày lễ và chủ nhật)
Từ 3-5 ngày trước ngày khởi hành chịu phí 70% giá tour.( Không tính ngày lễ và chủ nhật)
Từ 2 ngày trước ngày khởi hành chịu phí 100% giá tour.( Không tính ngày lễ và chủ nhật)
Các quy định trên không áp dụng cho các dịp lễ và tết.
Các ngày lễ tết việc dời ngày và hủy tour trước 15 ngày khởi hành mất 50% giá tour. Sau 15 ngày so với ngày khởi hành mất 100% giá tour.(Không tính ngày chủ nhật.)
Sau khi hủy tour, du khách vui lòng đến công ty nhận tiền trong vòng 2 tuần kể từ ngày đăng ký tour. Chúng tôi chỉ thanh toán trong thời gian 14 ngày nói trên.
Trường hợp hủy tour do sự cố khách quan như thiên tai, dịch bệnh hoặc do tàu thủy, xe lửa, máy bay hoãn/hủy chuyến, Hải Đăng Travel sẽ không chịu trách nhiệm bồi thường thêm bất kỳ chi phí nào khác ngoài việc hoàn trả chi phí những dịch vụ chưa được sử dụng của tour đó.
                                             HÌNH THỨC THANH TOÁN 
                                                Thanh toán bằng tiền mặt tại Trụ sở chính, chi nhánh của Hải Đăng Travel hoặc công ty hỗ trợ thu tận nơi ( nếu khách có yêu cầu)
Chuyển khoản qua số tài khoản
Số tài khoản: 711A00686521.
Chủ tài khoản: Dương Phan Quốc Văn – Vietinbank TP.HCM.
Nội dung: Tour ĐG-Hàm Thuận Nam . Ngày khởi hành:…, Tên khách:…, Số lượng:…
Sử dụng Voucher, cung cấp mã số Voucher, đóng thêm phụ thu (nếu có). Du khách giữ Voucher và nộp lại cho công ty.
Thanh toán bằng thẻ Visa ( thẻ từ, thẻ chip,…)
Thẻ giảm giá, thẻ ưu đãi xuất trình khi đăng ký tour.
                     ĐIỂM THAM QUAN 
                                                  Kiểm Tra Giá & Lịch Khởi Hành 
                                                                                                                                                                                                                                                                                                                                                                                    RS 4 Sao
                            Khởi Hành
                                                                                                                                                                    26/11/201610/12/2016
                            = 
                            Người lớn
                            = 
                            Trẻ em
                            = 
                            Tổng cộng
                                = 
                         Mua Tour
                TOUR LIÊN QUAN
                                                                                                                                                                                                                                                                                                                                                                                                                                                                                                                                                                                                                                                                                                                                                                                                                                                                                                                                                                                                                                                                                                                                                                                                                                                                                                                                                                                                                                                                                                                                                                                                                                                                                                                                                                                                                                                                                                                                                                                                                                                                                                                                                                                                                                                                                                                                                                                                                                                                                                                                                                                                                                                                                                                                                                                                                                                                                                                                                                                                                                                                                                                                                                                                                                                                                                                                                                                                                                                                                                                                                                                                                                                                                                                                                                                                                                                                                                                                                                                                                                                                                                                                                                                                                                                                                                                                                                                                                                                                                                                                                                                                                                                                                                                                                                                                                                                                                                                                                                                                                                                                                                                                                                                                                                                                                                                                                                                                                                                                                                                                                                                                                                                                                                                                                                                                                                                                                                                                                                                                                                                                                                                                                                                                                                                                                                                                                                                                                                                                                                                                                                                                                                                                                                                                                                                                                                                                                                                                                                                                                                                                                                                                                                                                                                                                                                                                                                                                                                                                                    New
                                              3 ngày 2 đêm |  Máy Bay Trọn Gói |  5 sao
                                            Xem
                                    Tour Đà Nẵng, Khám Phá Furama Resort Đà Nẵng 
                                         9,900,000 đ
                                                Giá gốc: 10,900,000 đ
                                                     Lịch khởi hành
                                                        20/11/201621/11/201622/11/201623/11/201624/11/201625/11/201626/11/201627/11/201628/11/201629/11/201630/11/2016
                                                                                                                                                                                                                                                                                                                                                                                                                                                                                                                                                                                                                                                                                                                                                                                                                                                                                                                                                                                                                                                                                                                                                                                                                                                                                                                                                                                                                                                                                                                                                                                                                                                                                                                                                                                                                                                                                                                                                                                                                                                                                                                                                                                                                                                                                                                                                                                                                                                                                                                                                                                                                                                                                                                                                                                                                                                                                                                                                                                                                                                                                                                                                                                                                                                                                                                                                                                                                                                                                                                                                                                                                                                                                                                                                                                                                                                                                                                                                                                                                                                                                                                                                                                                                                                                                                                                                                                                                                                                                                                                                                                                                                                                                                                                                                                                                                                                                                                                                                                                                                                                                                                                                                                                                                                                                                                                                                                                                                                                                                                                                                                                                                                                                                                                                                                                                                                                                                                                                                                                                                                                                                                                                                                                                                                                                                                                                                                                                                                                                                                                                                                                                                                                                                                                                                                                                                                                                                                                                                                                                                                                                                                                                                                                                                                New
                                              1 ngày 1 đêm |  Ô TÔ |  2 sao
                                            Xem
                                    Tour Rừng Tràm Trà Sư, Châu Đốc 1N1Đ
                                         590,000 đ
                                                Giá gốc: 1,000,000 đ
                                                     Lịch khởi hành
                                                        25/11/201625/11/201625/11/201602/12/201602/12/201602/12/201609/12/201609/12/201609/12/201616/12/201616/12/201616/12/2016
                                                                                                                                                                                                                                                                                                                                                                                                                                                                                                                                                                                                                                                                                                                                                                                                                                                                                                                                                                                                                                                                                                                                                                                                                                                                                                                                                                                                                                                                                                                                                                                                                                                                                                                                                                                                                                                                                                                                                                                                                                                                                                                                                                                                                                                                                                                                                                                                                                                                                                                                                                                                                                                                                                                                                                                                                                                                                                                                                                                                                                                                                                                                                                                                                                                                                                                                                                                                                                                                                                                                                                                                                                                                                                                                                                                                                                                                                                                                                                                                                                                                                                                                                                                                                                                                                                                                                                                                                                                                                                                                                                                                                                                                                                                                                                                                                                                                                                                                                                                                                                                                                                                                                                                                                                                                                                                                                                                                                                                                                                                                                                                                                                                                                                                                                                                                                                                                                                                                                                                                                                                                                                                                                                                                                                                                                                                                                                                                                                                                                                                                                                                                                                                                                                                                                                                                                                                                                                                                                                                                                                                                                                                                                                                                                                                                                                                            New
                                              3 ngày 3 đêm |  Ô Tô |  2 sao
                                            Xem
                                    Tour Đà Lạt, Ẩm Thực Đà Lạt, Buffet Rau Không Giới Hạn 3N3Đ
                                         1,190,000 đ
                                                Giá gốc: 1,820,000 đ
                                                     Lịch khởi hành
                                                        24/11/201601/12/201608/12/201615/12/2016
                                                                                                                                                                                                                                                                                                                                                                                                                                                                                                                                                                                                                                                                                                                                                                                                                                                                                                                                                                                                                                                                                                                                                                                                                                                                                                                                                                                                                                                                                                                                                                                                                                                                                                                                                                                                                                                                                                                                                                                                                                                                                                                                                                                                                                                                                                                                                                                                                                                                                                                                                                                                                                                                                                                                                                                                                                                                                                                                                                                                                                                                                                                                                                                                                                                                                                                                                                                                                                                                                                                                                                                                                                                                                                                                                                                                                                                                                                                                                                                                                                                                                                                                                                                                                                                                                                                                                                                                                                                                                                                                                                                                                                                                                                                                                                                                                                                                                                                                                                                                                                                                                                                                                                                                                                                                                                                                                                                                                                                                                                                                                                                                                                                                                                                                                                                                                                                                                                                                                                                                                                                                                                                                                                                                                                                                                                                                                                                                                                                                                                                                                                                                                                                                                                                                                                                                                                                                                                                                                                                                                                                                                                                                                                                                                                                                                                                                                                                                        New
                                              2 ngày 2 đêm |  Máy Bay Trọn Gói |  5 sao
                                            Xem
                                    Tour Nghỉ Dưỡng, An Lâm Ninh Van Bay Lillas, Trọn gói Vé Máy Bay 2N2Đ
                                         13,300,000 đ
                                                Giá gốc: 16,100,000 đ
                                                     Lịch khởi hành
                                                        20/11/201621/11/201622/11/201623/11/201624/11/201625/11/201626/11/201627/11/201628/11/201629/11/201630/11/2016
                                                                                                                                                                                                                                                                                                                                                                                                                                                                                                                                                                                                                                                                                                                                                                                                                                                                                                                                                                                                                                                                                                                                                                                                                                                                                                                                                                                                                                                                                                                                                                                                                                                                                                                                                                                                                                                                                                                                                                                                                                                                                                                                                                                                                                                                                                                                                                                                                                                                                                                                                                                                                                                                                                                                                                                                                                                                                                                                                                                                                                                                                                                                                                                                                                                                                                                                                                                                                                                                                                                                                                                                                                                                                                                                                                                                                                                                                                                                                                                                                                                                                                                                                                                                                                                                                                                                                                                                                                                                                                                                                                                                                                                                                                                                                                                                                                                                                                                                                                                                                                                                                                                                                                                                                                                                                                                                                                                                                                                                                                                                                                                                                                                                                                                                                                                                                                                                                                                                                                                                                                                                                                                                                                                                                                                                                                                                                                                                                                                                                                                                                                                                                                                                                                                                                                                                                                                                                                                                                                                                                                                                                                                                                                                                                                                                                                                                                                                                                                                                                                                                                                New
                                              2 ngày 2 đêm |  Ô Tô |  0 sao
                                            Xem
                                    Tour Đảo Bình Ba, Tiệc BBQ Xe Giường Nằm 2N2Đ
                                         1,090,000 đ
                                                Giá gốc: 2,260,000 đ
                                                     Lịch khởi hành
                                                        25/11/201602/12/201609/12/201616/12/201623/12/2016
                                                                                                                                                                                                                                                                                                                                                                                                                                                                                                                                                                                                                                                                                                                                                                                                                                                                                                                                                                                                                                                                                                                                                                                                                                                                                                                                                                                                                                                                                                                                                                                                                                                                                                                                                                                                                                                                                                                                                                                                                                                                                                                                                                                                                                                                                                                                                                                                                                                                                                                                                                                                                                                                                                                                                                                                                                                                                                                                                                                                                                                                                                                                                                                                                                                                                                                                                                                                                                                                                                                                                                                                                                                                                                                                                                                                                                                                                                                                                                                                                                                                                                                                                                                                                                                                                                                                                                                                                                                                                                                                                                                                                                                                                                                                                                                                                                                                                                                                                                                                                                                                                                                                                                                                                                                                                                                                                                                                                                                                                                                                                                                                                                                                                                                                                                                                                                                                                                                                                                                                                                                                                                                                                                                                                                                                                                                                                                                                                                                                                                                                                                                                                                                                                                                                                                                                                                                                                                                                                                                                                                                                                                                                                                                                                                                                                                                                                                                                                                                                                                                                                                                                                                            New
                                              3 ngày 2 đêm |  máy bay |  2 sao
                                            Xem
                                    Tour Phú Quốc,Bao Vé Máy Bay Vinpearland, Câu Cá, Ngắm San Hô Nam Đảo 3N2Đ
                                         2,990,000 đ
                                                Giá gốc: 2,200,000 đ
                                                     Lịch khởi hành
                                                        20/11/201621/11/201622/11/201623/11/201624/11/201625/11/201626/11/201627/11/201628/11/201629/11/201630/11/2016
                    TRỤ SỞ CHÍNH
                         225 Bàu Cát, P12, Q.Tân Bình, HCM
                         19002011 - 08 3849 3838 
                        08 3849 2999   
                          www.haidangtravel.com  
                         info@haidangtravel.com 
                        CSKH: 0948.99.1080
                    CHI NHÁNH
                         Quận 1 : Lầu 7, Tòa Nhà Viễn Đông, 14 Phan Tôn
                        19002011(Ext-107) -  0838204589  
                         Quận 12 : 256 TX25, Thạnh Xuân, Q12 
                        19002011(Ext-111)
                         Biên Hòa : 51A2, KP11, P.Tân Phong 
                        19002011(Ext-108) -  0613999392  
                    TRỢ GIÚP
                    Liên hệ & giới thiệuĐiều khoản chungHình thức thanh toánHướng dẫn mua tourChính sách bảo mật
                        GIỜ LÀM VIỆC
                            Thứ 2 đến 6
                                Sáng: 08:00-12:00Chiều:13:30-17:30
                            Thứ 7 Sáng: 08:00-12:00Nghỉ chủ nhật, lễ, tết
                    Được tìm kiếm nhiều
                        Tour Nha Trang
                        Tour Đà Lạt
                        Tour Cà Mau
                        Tour Phú Yên
                        Tour Ninh Chữ
                        Tour Côn Đảo
                        Tour Miền Bắc
                        Tour Phú Quốc
                        Tour Đà Nẵng
                        Tour Phan Thiết
                        Tour Bình Ba
                        Tour Nam Du
                        Tour Vũng Tàu
                        Tour Bà Lụa
                THÀNH TÍCH
            2015 © All Rights Reserved. Công ty cổ phần xây dựng du lịch Hải Đăng
        Your browser doesn't support canvas. Please download IE9+ on
            IE Test Drive
            +
                Có thể bạn quan tâm ?
                                Tour Côn Đảo, Trọn Gói Vé Máy Bay 2N1Đ
                                 3,999,000 đ
                                Tour Ninh Chữ - Vĩnh Hy Khám Phá Bãi Đá Bảy Màu Resort 3sao 2N2Đ
                                 1,250,000 đ
                                Tour du lịch Vũng Tàu, Long Hải, Suối nước nóng Bình Châu 2N1Đ
                                 789,000 đ
                                Tour Côn Đảo, Khám Phá Lịch Sử Văn Hóa Côn Sơn 2N1Đ
                                 4,590,000 đ
                                Tour Đảo Hòn Sơn Khám Phá Đỉnh Ma Thiên Lãnh 2N2Đ
                                 1,390,000 đ
                                Tour Ninh Chữ, Vĩnh Hy Hang Rái Siêu Tiết Kiệm 2n2d
                                 850,000 đ
                                Tour Đảo Bình Hưng, Hang Rái, Vĩnh Hy 2n2d
                                 1,111,000 đ
                                Tour Đảo Phú Quý, Khám Phá Hòn Đảo Mang Vẻ Đẹp Hoang Sơ 3N3Đ
                                 2,250,000 đ
                                Tour Ninh Chữ - Vĩnh Hy - Cổ Thạch đồng giá 2N2Đ
                                 999,000 đ
                                Tour Đà Lạt Phototrip Khám Phá Những Cung Đường Hoa 3N3Đ
                                 1,250,000 đ
                        ×
