url:http://haidangtravel.com/Tour-Da-Lat-Thung-Lung-Vang-Thac-Pren-Tet-Am-Lich-2017
Tittle :Tour Đà Lạt Thung Lũng Vàng, Thác Pren , Tết Âm Lịch 2017
content :Toggle navigation
                             Trang Chủ
                              Tour Du Lịch
                         Tour Trong Nước Tour Nước Ngoài
                              Tổ Chức Sự Kiện
                             Thuê Xe Du Lịch
                         Thuê Xe 4 Chổ Thuê Xe 7 Chổ Thuê Xe 16 Chổ Thuê Xe 29 Chổ Thuê Xe 35 Chổ Thuê Xe 45 Chổ
                             Khách Sạn
                              Cẩm nang du lịch
                              Tin tức du lịch
                              Bảng Giá Tour
                     1900 2011
                    08.3849.3838 - 0948.99.1080
                    Đăng Ký
                                            ×
                                            ĐĂNG KÝ
                                                        Tên đăng nhập (bắt buộc)
                                                        Nhập số điện thoại ( bắt buôt )
                                                        Nhập họ tên của bạn
                                                        Nhập mail của bạn
                                                        Nhập mật khẩu ( bắt buột )
                                                        Nhập lại mật khẩu ( bắt buột )
                                                        NamNữKhác
                                                        Địa chỉ nhà bạn
                                                        Ngày sinh của bạn
                                                 Nhận mail từ Hải Đăng Travel
                                                Đăng Ký
                        Đăng nhập
                                            ×
                                            ĐĂNG NHẬP
                                        Quên mật khẩu ?
                                        Đăng Ký
                                                Ghi nhớ mật khẩu
                                                Đăng nhập
                    Trang chủ
                 ›
                    Tour trong nước
                 ›
                    Tour Đà Lạt Thung Lũng Vàng, Thác Pren , Tết Âm Lịch 2017
                 Photo
                                Hổ Trợ Trực Tuyến
                             SKYPE YAHOO0915110040
                             Tour Đà Lạt Thung Lũng Vàng, Thác Pren , Tết Âm Lịch 2017
                                     3 ngày 3 đêm
                                      Ô Tô 
                                      2 sao 
                                     2,190,000 đ
                                            Giá gốc: 2,200,000 đ
                                                 Lịch khởi hành
                                                                                                        29/01/201731/01/201731/01/2017
                                 DỊCH VỤ ĐÍNH KÈM
                                  Vé tham quan  Hướng dẫn viên  Ăn uống  Phương tiện   Bảo hiểm  Khách sạn
                                 Cơ hội nhân quà hấp khi đăng ký tour tại www.haidangtravel.com xem quà tặng tại đây 
                                 MUA TOUR
                                 GIỚI THIỆU Tour Đà Lạt Thung Lũng Vàng, Thác Pren , Tết Âm Lịch 2017
                                Đà Lạt là một tour phổ biến, là điểm du lịch khá quen thuộc trong lòng du khách, Những KDL nổi tiếng ở Đà Lạt, du khách đã không thể bỏ qua nếu như một lần đặt chân lên xứ sở Sương Mù này.Nhưng đến với tour du lịch này, quý khách sẽ tiếp tục có cơ hội khám phá những điểm độc đáo, “quen mà như lạ” và  thật thích thú vô cùng khi càng tìm hiểu càng thấy hay
                                         Đánh Giá Tour
                                    0.0
                                                                                                                                    Đăng nhập để đánh giá hay điền các thông tin sau :
                                                        Họ tên (bắt buộc)
                                                        Nhập mail của bạn (bắt buộc)
                                                    Nhập nhận xét của bạn (bắt buộc)
                                                     Đánh giá :
                                                                           Rất Tốt  Tốt  khá  Trung Bình  Bình Thường
                                                Rất Tốt 0
                                                Tốt  0
                                                Khá 0
                                                Tạm Được  0
                                                Bình Thường  0
                                            Nhận xét (0)
                                                                                                                                                                                Hết
                        LỊCH TRÌNH TOUR
                                 NGÀY 1 : TP.HCM – ĐÀ LẠT  
                                    21h00 : Xe và Hướng Dẫn Viên Hải Đăng Travel đón quý khách tại điểm hẹn, khởi hành rời Thành Phố đi Đà Lạt.Quý khách nghỉ đêm trên xe.
NHÀ THỜ CON GÀ-RỪNG HOA KHÔ- CHÙA THIÊN VƯƠNG CỔ SÁT THUNG LŨNG VÀNG
7h00 :  Đến Đà Lạt,Quý khách dùng điểm tâm tại Nhà hàng, sau đó khởi hành tham quan các thắng cảnh nổi tiếng nơi phố núi.
8h00 :   Đoàn tham quan Nhà Thờ Con Gà – Nhà thờ Con gà còn được gọi tên gọi khách là Nhà thờ Chánh Tòa là một trong những kiến trúc cổ xưa tiêu biểu còn xót lại từ thời Pháp thuộc. Đây là một trong những nhà thờ lớn nhất của Đà Lạt. Sở dĩ nhà thờ có tên gọi là con gà vì trên đỉnh tháp chuông có tượng một con gà lớn. Nhà thờ được bắt đầu xây dựng từ năm 1931 tới năm 1942 thì hoàn thành. Nhà thờ con gà có chiều dài 65m và chiều cao là 47m. Nếu quý khách có dịp leo lên tháp chuông thì có thể nhìn thấy một số cảnh đẹp trong thành phố. Phần phía trên cao của nhà thờ được lắp 70 tấm kính màu mang đậm phong cách của kiến trúc Châu âu thời trung cổ.
9h00:  Quý khách tham quan “ Rừng Hoa Khô” - showroom hoa tươi bảo quản nghệ thuật lớn nhất Việt Nam. Hàng chục loại hoa, lá được sấy khô và bảo quản theo công nghệ Nhật Bản, giúp lưu giữ hoa từ 3 đến 5 năm. Hoa sấy khô đa sắc màu được các nghệ nhân cắm và trưng bày theo nhiều phong cách đầy sáng tạo và ấn tượng, hoặc “biến hóa” thành những con búp bê hoa ngộ nghĩnh, xinh xắn. Những bức tranh phong cảnh Đà Lạt sống động được “vẽ” bằng hoa tươi sấy khô sẽ làm “mãn nhãn” du khách.
11h00 : Xe đưa đoàn đến Nhà Hàng dung cơm trưa, sau đó về khách sạn nhận phòng nghỉ ngơi.
15h00: Quý khách tham quan chùa Thiên Vương Cổ Sát – hay còn được gọi là chùa Phật Trầm hay chùa Tàu.Đến đây quý khách sẽ được chiêm ngưỡng ngôi chùa mang kiến trúc Trung Hoa với những bức tượng cao lớn như tượng Đức Phật Di Lặc cao 3m, được sơn son thiếp vàng; tượng Tứ Đại Thiên Vương cao 2,6m; tượng Tây Phương Tam Thánh nổi tiếng làm bằng gỗ trầm hương cao đến 4m, nặng 1.500kg được thỉnh từ Hồng Kông về. Ngoài ra phía sau chùa còn có Thích Ca Phật Đài cao 10m nổi bật giữa đồi thông lộng gió.
Đến đây du khách không thể không khám phá “ chiếc bàn xoay nổi tiếng kì diệu” chính là khả năng tự xoay bằng sự cảm ứng từ bàn tay người thường
15h30: Đến tham quan Thung Lũng Vàng, du khách sẽ có những trải nghiệm tuyệt vời cùng cơ hội khám phá vẻ đẹp của thiên nhiên với muôn sắc hoa lung linh dưới ánh nắng mai, rực rỡ giữa trưa hè tĩnh lặng và trong lành trong sương chiều bảng lảng, thích thú với âm thác của dòng thác chảy róc rách.
Xen lẫn giữa rừng thông bạt ngàn là những loài cây đặc hữu Đà Lạt như mimosa, mai anh đào, thông 5 lá… cùng hàng cây phong có nguồn gốc từ Canada và một số cây cổ thụ có tuổi từ 80 - 100 năm. Cạnh những khu vườn cây là vườn đá được sắp xếp theo một ý tưởng độc đáo mang ý nghĩa “giao hoà và thân thiện” với nhiều loại đá hiếm sưu tầm từ nhiều nơi trên Tây Nguyên.
Sau khi lang thang một vòng để ngắm nhìn các vườn cây, bãi đá, vườn bonsai hay các thác nước nhân tạo, nhiều du khách ngả lưng trên những thảm cỏ êm mượt bên những sườn đồi thoai thoải để vừa nghe thông reo vi vu, vừa ngửi mùi thơm quyến rũ từ những tán thông già mặc cho thời gian trôi. Bên dưới những đồi thông là những vạt rừng bằng phẳng và khá rộng để du khách có thể tổ chức sinh hoạt dã ngoại dưới tán lá rừng hoặc câu cá bên những hồ nước nhân tạo với những kiểu dáng mới lạ…
17h30: Xe đưa đoàn dùng cơm tối tại Nhà Hàng.
16h30: Quý khách chinh phục tham quan và chinh phục Langbiang – nơi nổi tiếng với chuyện tình lãng mạng và cảm động giữa chàng Lang và nàng Biang.
18h00 : Đoàn thưởng thức buổi tiệc các món ăn đặc sản của dân tộc Lạt. (Thịt nướng, cơm lam, rượu Langbiang đặc biệt sưởi ấm long người nơi xứ lạnh)
 
 
 
 
 
 
 
 
                                 NGÀY 2 : VƯỜN DÂU TÂY - THIỀN VIỆN TRÚC LÂM - CHỢ ĐÀ LẠT 
                                    07h30 : Quý khách dùng điểm tâm buffet tại Khách sạn.
08h00 : Đoàn viếng Thiền Viện Trúc Lâm (quý khách có thể đi cáp treo qua Đồi Rôbin ngắm toàn cảnh Hồ Tuyền Lâm, núi Voi và rừng thông bạt ngàn, khám phá cao nguyên Lâm Viên từ trên cao).
Hồ Tuyền Lâm được tạo thành bởi dòng suối Tía (hay còn gọi là Da Trea), thượng nguồn sông Đạ Tam. Tên hồ không biết có tự bao giờ và do ai đặt, nhưng có lẽ xuất phát từ thiên nhiên kỳ vĩ: Suối và rừng quấn chặt lấy nhau nên người ta đã đặt cho hồ cái tên thật thơ mộng: Tuyền Lâm. Tuyền là Suối, Lâm là Rừng. Tuyền Lâm là nơi gặp gỡ của sông suối và núi rừng và theo thuyết Ngũ hành tương sinh thì Tuyền Lâm là nơi bắt nguồn sự sống của vạn vật bởi lẽ: Thủy sinh Mộc. Mặt hồ quanh năm xanh biếc, hiếm khi có sóng lớn. Rừng thông ba lá phủ kín những ngọn núi, quả đồi quanh đó, trải ngút ngàn tầm mắt. Tất cả cùng hòa quyện, vẽ nên bức tranh thiên nhiên yên tĩnh, thanh bình và thơ mộng lạ kỳ.(Nếu có nhu cầu, quý khách có thể đăng kí tham gia “ du ngoạn Hồ Tuyền Lâm)
9h30: Đoàn tham quan vườn Dâu Tây, còn gì bằng khi được tận mắt chiêm ngưỡng và tự tay hái những quả dâu tây chín mọng. Thưởng thức ngay cái vị chua chua, ngọt ngọt của loại quả chỉ có ở xứ sở sương mù này… thật là một cảm giác thú vị!
11h30 : Qúy khách dùng buổi trưa tại Nhà Hàng
15h30 : Xe đưa đoàn tham quan và  mua sắm tại chợ Đà Lạt
17h30:  Qúy khách tự do khám phá “ Chợ Âm Phủ” , tự túc khám phá các món ăn đặc sản nơi phố núi. (Tham khảo Quán Lẩu Bò, Quán Ăn Nhí…)(nghỉ đêm tại Đà Lạt)
 
 
                                 NGÀY 3 : ĐÀ LẠT- THÁC PRENN - TP.HCM  
                                    07h00 : Quý khách trả phòng, dùng điểm tâm buffet tại nhà hàng
08h30 : Đoàn khởi hành, tham quan thác Prenn, Đến với Prenn quý khách sẽ được hòa mình vào thiên nhiên, chiêm ngưỡng một cảnh quan sinh động, hấp dẫn với các điểm tham quan, vui chơi, cắm trại dã ngoại,…
Điểm nổi bật  nhất của khu du lịch Prenn là cơ hội khám phá dòng thác Prenn hùng vĩ với độ cao hơn 20m. Khu du lịch thác Prenn rộng 160 ha, trong đó rừng thông và rừng nguyên sinh chiếm 90% diện tích.
Muốn vào thác du khách phải băng qua một chiếc cầu ngắn bắc ngang dòng suối, nước bắn  vào người như những hạt sương rơi, tạo một cảm giác mát lạnh và sản khoái. Khi xuống thác du khách sẽ bắt gặp những bậc đá ôm theo sườn đồi được bố trí rất đẹp mắt. Đứng dưới chân thác nhìn lên một màn thác trắng xóa như một tấm rèm tuôn nhẹ xuống như mái tóc của những nàng tiên
11h30 : Đến thị xã Bảo Lộc. Đoàn dùng bữa trưa, thưởng thức cà phê miễn phí tại nhà hàng Tâm Châu, Sau đó tiếp tục khởi hành về TP. HCM.
18h30 : Đoàn về đến HCM, xe đưa quý khách về điểm đón ban đầu, kết thúc chương trình tham quan, chia tay và hẹn gặp lại quý khách trong thời gian sớm nhất. 
 
                    G.Thiệu
                                        Ngày 1
                                        Ngày 2
                                        Ngày 3
                     ĐỊA ĐIỂM ĐÓN KHÁCH
                                                QUÝ KHÁCH ĐI TOUR KHỞI HÀNH BẰNG Ô TÔ VỚI NHỮNG ĐIỂM ĐÓN SAU :
Đón khách tại Công ty Du lịch Hải Đăng, 225 Bàu Cát, P12, Quận Tân Bình
Đón khách tại Nhà Văn Hóa Thanh Niên, 04 Phạm Ngọc Thạch, Quận 1
Đón khách tại Cây xăng Comeco, Ngã 4 Hàng Xanh, Quận Bình Thạnh
Đón khách tại Ngã 4 Thủ Đức, Quận 9
Đón khách tại Siêu thị Lotte Mart, Ngã 4 Amata, Biên Hòa, Đồng Nai
QUÝ KHÁCH ĐI TOUR TUYẾN MIỀN TÂY NHỮNG ĐIỂM ĐÓN SAU :
Đón khách tại Công viên Bàu Cát, 141 Đồng Đen, P11, Quận Tân Bình
Đón khách tại Nhà Văn Hóa Thanh Niên, 04 Phạm Ngọc Thạch, Quận 1
Bến xe miền tây , Q 6 ( bệnh viện Triều An )
QUÝ KHÁCH ĐI TOUR KHỞI HÀNH BẰNG MÁY BAY VỚI NHỮNG ĐIỂM ĐÓN SAU :
Quý khách vui lòng tập trung tại nhà ga đối với những khách đi tour khởi hành bằng tàu
Quý khách vui lòng tập trung tại sân bay hoặc các phòng chờ của các hãng bay đối với những khách đi tour khởi hành bằng máy bay
                         QUY ĐỊNH TOUR
                                             GIÁ TOUR BAO GỒM 
                                                  Lưu Trú
                                                Tiêu chuẩn 2 sao: Thắng Lợi, Ý Lan, ….hoặc các khách sạn khác tương đương….. Phòng 3,4  khách
Phụ thu phòng 2:75.000 đ/khách/1 đêm (ngày thường)
Phụ thu phòng 2:125.000 đ/khách/1 đêm (dịp lễ)
Phụ thu phòng đơn: 1 phòng 1 khách: 600.000 đ/khách/2 đêm (dịp lễ và 400.000 đ/khách/2 đêm (ngày thường)
Trường hợp có khách đi lẻ, Hải Đăng ghép cho khách và khách không phải đóng phụ thu.
. *** Nếu quý khách có nhu cầu ở khách sạn 3-4-5 sao vui lòng liên hệ HAIDANGTRAVEL để được sắp xếp.
 
                                                 Vé Tham Quan
                                                    Vé vào cổng: Thiền viện trúc lâm, Rừng hoa khô, Thác Prenn,Thung Lũng Vàng, Langbian,Vườn Dâu Tây
                                                  Ăn Uống
                                                Điểm tâm: 3 buổi 
1 set Menu: 40.000 đ/suất (1tô bún, phở, hủ tiếu + 1 ly nước ngọt, sữa, café)
2 Buffet sáng
Ăn chính: 4 buổi
3 buổi: 80.000đ/suất
1 buổi tiệc thịt rừng: 180.000 đ/suất.
                                                   Nón Nước - Khăn Lạnh
                                                Nước suối: 1 chai 500ml/ngày/khách
Khăn lạnh: 1 cái/ngày/khách
Nón du lịch: 1 nón HAIDANGTRAVEL/khách
                                                 Phương Tiện
                                                Xe đời mới máy lạnh, đón khách theo chương trình
Mỗi đợt khởi hành tối thiểu 40 khách.
                                             GIÁ TOUR KHÔNG BAO GỒM 
                                                   Chi Phí Cá Nhân
                                                Chi phí cá nhân: Giặt ủi, điện thoại,ăn uống ngoài chương trình …..Điểm tham quan: Cồng Chiêng tại  Langbiang và các điểm ngoài chương trình …..Thuế VAT : 10% 
                                                  Thuế VAT
                                                 10% thuế VAT
                                             QUY ĐỊNH TRẺ EM 
                                                Trẻ em dưới 5 tuổi
Cha, mẹ hoặc người thân đi kèm tự lo các chi phí ăn, ngủ, tham quan (nếu có) cho bé. Hai người lớn chỉ kèm 1 trẻ em dưới 5 tuổi, em thứ 2 trở lên phải mua 1/2 vé tour. Phụ thu ghế ngồi trên xe: 800.000đ/bé ( Nếu ba mẹ có yêu cầu)
Từ 6-10 tuổi
Khách sạn 2 sao: 60% vé tour.Bao gồm các dịch vụ ăn uống, ghế ngồi trên xe và ngủ chung với gia đình. Hai người lớn chỉ được kèm 1 trẻ em từ 5 đến dưới 12 tuổi, em thứ 2 trở lên phải mua suất người lớn
Trẻ em 11 tuổi
Vé người lớn, tiêu chuẩn như người lớn
                                             QUY ĐỊNH MUA VÀ HỦY TOUR 
                                                Sau khi đăng ký, thanh toán ít nhất 50% tiền cọc và đóng hết 100% trước khởi hành 7 ngày.
Dời ngày khởi hành trước 10 ngày không mất phí, sau 8 ngày mất 20%.( Không tính ngày lễ và chủ nhật), chỉ được dời 1 lần.
Sau khi đăng ký huỷ tour mất 10% giá tour
Từ 10 đến trước 8 ngày trước ngày khởi hành chịu phí 30% giá tour.( Không tính ngày lễ và chủ nhật)
Từ 8 đến 6 ngày trước ngày khởi hành chịu phí 50% giá tour.( Không tính ngày lễ và chủ nhật)
Từ 3-5 ngày trước ngày khởi hành chịu phí 70% giá tour.( Không tính ngày lễ và chủ nhật)
Từ 2 ngày trước ngày khởi hành chịu phí 100% giá tour.( Không tính ngày lễ và chủ nhật)
Các quy định trên không áp dụng cho các dịp lễ và tết.
Các ngày lễ tết việc dời ngày và hủy tour trước 15 ngày khởi hành mất 50% giá tour. Sau 15 ngày so với ngày khởi hành mất 100% giá tour.(Không tính ngày chủ nhật.)
Sau khi hủy tour, du khách vui lòng đến công ty nhận tiền trong vòng 2 tuần kể từ ngày đăng ký tour. Chúng tôi chỉ thanh toán trong thời gian 14 ngày nói trên.
Trường hợp hủy tour do sự cố khách quan như thiên tai, dịch bệnh hoặc do tàu thủy, xe lửa, máy bay hoãn/hủy chuyến, Hải Đăng Travel sẽ không chịu trách nhiệm bồi thường thêm bất kỳ chi phí nào khác ngoài việc hoàn trả chi phí những dịch vụ chưa được sử dụng của tour đó.
                                             HÌNH THỨC THANH TOÁN 
                                                Thanh toán bằng tiền mặt tại Trụ sở chính, chi nhánh của Hải Đăng Travel hoặc công ty hỗ trợ thu tận nơi ( nếu khách có yêu cầu)
Chuyển khoản qua số tài khoản
Số tài khoản: 711A00686521.
Chủ tài khoản: Dương Phan Quốc Văn – Vietinbank TP.HCM.
Nội dung:  Tour Đà Lạt –Hồ Tuyền Lâm+ Ngày khởi hành:…, Tên khách:…, Số lượng:…
Sử dụng Voucher, cung cấp mã số Voucher, đóng thêm phụ thu (nếu có). Du khách giữ Voucher và nộp lại cho công ty.
Thanh toán bằng thẻ Visa ( thẻ từ, thẻ chip,…)
Thẻ giảm giá, thẻ ưu đãi xuất trình khi đăng ký tour.
                     ĐIỂM THAM QUAN 
                                                  Kiểm Tra Giá & Lịch Khởi Hành 
                                                                                            KS 2 Sao
                            Khởi Hành
                                                                                                                                                                    29/01/201731/01/201731/01/2017
                            = 
                            Người lớn
                            = 
                            Trẻ em
                            = 
                            Tổng cộng
                                = 
                         Mua Tour
                TOUR LIÊN QUAN
                                              4 ngày 4 đêm |  Ô Tô |  2 sao
                                            Xem
                                    Tour Ninh Chữ, Đà Lạt,Tết Âm Lịch 2017
                                         2,890,000 đ
                                                Giá gốc: 2,900,000 đ
                                                     Lịch khởi hành
                                                        29/01/201730/01/2017
                                              4 ngày 4 đêm |  Ô Tô |  2 sao
                                            Xem
                                    Tour Nha Trang, Đà Lạt, Tết Âm Lịch 2017
                                         2,890,000 đ
                                                Giá gốc: 2,940,000 đ
                                                     Lịch khởi hành
                                                        29/01/201730/01/201731/01/2017
                                              3 ngày 3 đêm |  Ô Tô |  2 sao
                                            Xem
                                    Tour Nha Trang Tiệc Buffet, Bãi Tắm Nhũ Tiên,Tết Âm Lịch 2017
                                         2,090,000 đ
                                                Giá gốc: 2,290,000 đ
                                                     Lịch khởi hành
                                                        29/01/201730/01/201731/01/201702/02/2017
                                              3 ngày 3 đêm |  Ô Tô |  2 sao
                                            Xem
                                    Tour Nha Trang, Bar Trên Biển,Đón Tết Âm Lịch 2017
                                         1,990,000 đ
                                                Giá gốc: 1,890,000 đ
                                                     Lịch khởi hành
                                                        29/01/201730/01/201731/01/201702/02/2017
                                              2 ngày 2 đêm |  ô Tô |  3 sao
                                            Xem
                                    Tour Ninh Chữ - Vĩnh Hy Resort 3sao, Tết Âm Lịch 2017
                                         1,750,000 đ
                                                Giá gốc: 1,999,000 đ
                                                     Lịch khởi hành
                                                        29/01/201730/01/2017
                                              5 ngày 5 đêm |  Máy bay |  3 sao
                                            Xem
                                    Tour Đà Nẵng, Sơn Trà, Hội An , Huế,Quảng Bình, Tết Âm Lịch 2017
                                         3,750,000 đ
                                                Giá gốc: 4,189,999 đ
                                                     Lịch khởi hành
                                                        29/01/201730/01/201731/01/2017
                    TRỤ SỞ CHÍNH
                         225 Bàu Cát, P12, Q.Tân Bình, HCM
                         19002011 - 08 3849 3838 
                        08 3849 2999   
                          www.haidangtravel.com  
                         info@haidangtravel.com 
                        CSKH: 0948.99.1080
                    CHI NHÁNH
                         Quận 1 : Lầu 7, Tòa Nhà Viễn Đông, 14 Phan Tôn
                        19002011(Ext-107) -  0838204589  
                         Quận 12 : 256 TX25, Thạnh Xuân, Q12 
                        19002011(Ext-111)
                         Biên Hòa : 51A2, KP11, P.Tân Phong 
                        19002011(Ext-108) -  0613999392  
                    TRỢ GIÚP
                    Liên hệ & giới thiệuĐiều khoản chungHình thức thanh toánHướng dẫn mua tourChính sách bảo mật
                        GIỜ LÀM VIỆC
                            Thứ 2 đến 6
                                Sáng: 08:00-12:00Chiều:13:30-17:30
                            Thứ 7 Sáng: 08:00-12:00Nghỉ chủ nhật, lễ, tết
                    Được tìm kiếm nhiều
                        Tour Nha Trang
                        Tour Đà Lạt
                        Tour Cà Mau
                        Tour Phú Yên
                        Tour Ninh Chữ
                        Tour Côn Đảo
                        Tour Miền Bắc
                        Tour Phú Quốc
                        Tour Đà Nẵng
                        Tour Phan Thiết
                        Tour Bình Ba
                        Tour Nam Du
                        Tour Vũng Tàu
                        Tour Bà Lụa
                THÀNH TÍCH
            2015 © All Rights Reserved. Công ty cổ phần xây dựng du lịch Hải Đăng
        Your browser doesn't support canvas. Please download IE9+ on
            IE Test Drive
            +
                Có thể bạn quan tâm ?
                                Tour Côn Đảo, Trọn Gói Vé Máy Bay 2N1Đ
                                 3,999,000 đ
                                Tour Đảo Hòn Sơn Khám Phá Đỉnh Ma Thiên Lãnh 2N2Đ
                                 1,390,000 đ
                                Tour Ninh Chữ, Vĩnh Hy Hang Rái Siêu Tiết Kiệm 2n2d
                                 850,000 đ
                                Tour Côn Đảo, Khám Phá Lịch Sử Văn Hóa Côn Sơn 2N1Đ
                                 4,590,000 đ
                                Tour Đà Lạt Phototrip Khám Phá Những Cung Đường Hoa 3N3Đ
                                 1,250,000 đ
                                Tour Ninh Chữ - Vĩnh Hy - Cổ Thạch đồng giá 2N2Đ
                                 999,000 đ
                                Tour Ninh Chữ - Vĩnh Hy Khám Phá Bãi Đá Bảy Màu Resort 3sao 2N2Đ
                                 1,250,000 đ
                                Tour du lịch Vũng Tàu, Long Hải, Suối nước nóng Bình Châu 2N1Đ
                                 789,000 đ
                                Tour Đảo Phú Quý, Khám Phá Hòn Đảo Mang Vẻ Đẹp Hoang Sơ 3N3Đ
                                 2,250,000 đ
                                Tour Đảo Bình Hưng, Hang Rái, Vĩnh Hy 2n2d
                                 1,111,000 đ
                        ×
