url:http://haidangtravel.com/tin-tuc/Chum-tour-sieu-tiet-kiem.html
Tittle :Chùm tour siêu tiết kiệm
content :Toggle navigation
                             Trang Chủ
                              Tour Du Lịch
                         Tour Trong Nước Tour Nước Ngoài
                              Tổ Chức Sự Kiện
                             Thuê Xe Du Lịch
                         Thuê Xe 4 Chổ Thuê Xe 7 Chổ Thuê Xe 16 Chổ Thuê Xe 29 Chổ Thuê Xe 35 Chổ Thuê Xe 45 Chổ
                             Khách Sạn
                              Cẩm nang du lịch
                              Tin tức du lịch
                              Bảng Giá Tour
                     1900 2011
                    08.3849.3838 - 0948.99.1080
                    Đăng Ký
                                            ×
                                            ĐĂNG KÝ
                                                        Tên đăng nhập (bắt buộc)
                                                        Nhập số điện thoại ( bắt buôt )
                                                        Nhập họ tên của bạn
                                                        Nhập mail của bạn
                                                        Nhập mật khẩu ( bắt buột )
                                                        Nhập lại mật khẩu ( bắt buột )
                                                        NamNữKhác
                                                        Địa chỉ nhà bạn
                                                        Ngày sinh của bạn
                                                 Nhận mail từ Hải Đăng Travel
                                                Đăng Ký
                        Đăng nhập
                                            ×
                                            ĐĂNG NHẬP
                                        Quên mật khẩu ?
                                        Đăng Ký
                                                Ghi nhớ mật khẩu
                                                Đăng nhập
                    Trang chủ
                 ›
                    Chùm tour siêu tiết kiệm
        Tìm kiếm 
                                    Go
                                    Chùm tour siêu tiết kiệm
                                        19/11/2016Đà Lạt
Nhằm kích cầu du lịch năm 2015 và thu hút du khách đến với những điểm tham quan hấp dẫn trong năm.  Với tiết trời của mùa thu đông, biển hay cao nguyên luôn là sự lựa chọn hàng đầu cho những hành trình tham quan tránh nóng của du khách. Để đáp ứng nhu cầu này, du lịch Hải Đăng đang giới thiệu đến du khách rất nhiều đường tour hấp dẫn, đặc biệt, “Chùm tour siêu tiết kiệm” vừa được khởi động với nhiều điểm tham quan, vui chơi, giải trí nổi tiếng trong nước.
Trong “Chùm tour siêu tiết kiệm” đợt này, du khách sẽ được ghé thăm nhiều điểm đến lý tưởng của mùa thu đông như: tour đảo Bình Ba khám phá vẻ đẹp hoang sơ  tại đảo tôm hùm; hành trình chinh phục cao nguyên Đà Lạt thiên đường để nghỉ dưỡng tránh nóng cho các tín đồ du lịch; Tour Nha Trang với những bãi biển đẹp nhất Việt Nam; Tour làng hoa Cần Thơ quý khách sẽ được trãi nghiệm, chiêm  các loài hoa đặc sắc tại các làng hoa ở Cần Thơ; Đặc biệt Tour Đồng Tháp mùa nước nổi, giữa thiên nhiên hoang dã đặc trưng hệ sinh thái Đồng Tháp Mười với sen, súng, cỏ ống, trăn mốc, rái cá, rùa hộp... có thể nghe rõ tiếng mái dầm khuấy nước rào rạt, tiếng cá quẫy nước và tiếng gió thổi rì rào trên lá. Hít đầy không khí trong lành vô lồng ngực, cảm giác những bụi bặm chốn thành đô phút chốc như được gột sạch sẽ làm du khách thích thú khi tham gia  tour Đồng Tháp Mùa Nước Nổi. Với nhiều chương trình hấp dẫn còn đang chờ quý khách khám phá trong chương trình “ Chùm Tour Siêu Tiết Kiệm ”
Với hệ thống dịch vụ chất lượng và đi kèm mức giá rất ưu đãi, các sản phẩm du lịch “Chùm Tour Siêu Tiết Kiệm ” được xem như một khởi đầu mùa thu đông đầy ấn tượng của lữ hành du lịch Hải Đăng .Ngoài ra, còn nhiều hành trình mùa hấp dẫn với nhiều điểm đến mới lạ chỉ có tại công ty Du Lịch Hải Đăng.
THAM KHẢO CHÙM TOUR SIÊU TIẾT KIỆM
			TOUR ĐỒNG THÁP MÙA NƯỚC NỔI 2N1Đ
			 
			TOUR ĐẢO BÌNH BA SIÊU TIẾT KIỆM 2N2Đ
			 
			TOUR ĐÀ LẠT SIÊU TIẾT KIỆM 2N2Đ
			 
			TOUR ĐẢO BÌNH HƯNG TIỆC NƯỚNG 2N2Đ
			 
			 TOUR DU LỊCH NINH CHỮ, VĨNH HY 2N2Đ
			 
			TOUR NHA TRANG BAO VINPEAR SIÊU TIẾT KIỆM 2N3Đ
			 
			TOUR NHA TRANG CON SẼ TRE SIÊU TIẾT KIỆM
			 
			TOUR LÀNG HOA CẦN THƠ ,CHỢ NỔI CÁI RĂNG 2N1Đ
			 
Đô Râu 
 
        Đọc Nhiều Nhát
                Kỷ Niệm Đà Lạt 
                Chương trình khuyến mãi tour du lịch tết 2016
                Bảng Giá Tour Lễ 30 Tháng 4 Và Giỗ Tổ
        Bài viết mới nhất
                    Biển Của Người Xứ Nẫu
                    Quy Nhơn Thiên Đường Của Biển
                    Ôi Nha Trang
        Cẩm Nang Du Lịch
         Cẩm nang Ninh Chữ Cẩm nang Nha Trang Cẩm nang Đà Lạt Cẩm nang Phú Yên Cẩm nang Phú Quốc Cẩm nang Quảng Ngãi Cẩm nang Quảng Nam Cẩm nang Phú Thọ Cẩm nang Phan Thiết Cẩm nang Quảng Bình Cẩm nang Ninh Bình Cẩm nang Lạng Sơn
        Kinh nghiệmThư giản
                    Du lịch trong nướcDu lịch nước ngoàiKinh Nghiệm Đi Biển Đảo
                    Phượt viếtHình chếChuyện lạ
                    Ảnh đẹpTop du lịchTruyện cười
    Ảnh Khách Hàng
                    TRỤ SỞ CHÍNH
                         225 Bàu Cát, P12, Q.Tân Bình, HCM
                         19002011 - 08 3849 3838 
                        08 3849 2999   
                          www.haidangtravel.com  
                         info@haidangtravel.com 
                        CSKH: 0948.99.1080
                    CHI NHÁNH
                         Quận 1 : Lầu 7, Tòa Nhà Viễn Đông, 14 Phan Tôn
                        19002011(Ext-107) -  0838204589  
                         Quận 12 : 256 TX25, Thạnh Xuân, Q12 
                        19002011(Ext-111)
                         Biên Hòa : 51A2, KP11, P.Tân Phong 
                        19002011(Ext-108) -  0613999392  
                    TRỢ GIÚP
                    Liên hệ & giới thiệuĐiều khoản chungHình thức thanh toánHướng dẫn mua tourChính sách bảo mật
                        GIỜ LÀM VIỆC
                            Thứ 2 đến 6
                                Sáng: 08:00-12:00Chiều:13:30-17:30
                            Thứ 7 Sáng: 08:00-12:00Nghỉ chủ nhật, lễ, tết
                    Được tìm kiếm nhiều
                        Tour Nha Trang
                        Tour Đà Lạt
                        Tour Cà Mau
                        Tour Phú Yên
                        Tour Ninh Chữ
                        Tour Côn Đảo
                        Tour Miền Bắc
                        Tour Phú Quốc
                        Tour Đà Nẵng
                        Tour Phan Thiết
                        Tour Bình Ba
                        Tour Nam Du
                        Tour Vũng Tàu
                        Tour Bà Lụa
                THÀNH TÍCH
            2015 © All Rights Reserved. Công ty cổ phần xây dựng du lịch Hải Đăng
        Your browser doesn't support canvas. Please download IE9+ on
            IE Test Drive
            +
                Có thể bạn quan tâm ?
                                Tour Đảo Hòn Sơn Khám Phá Đỉnh Ma Thiên Lãnh 2N2Đ
                                 1,390,000 đ
                                Tour Côn Đảo, Trọn Gói Vé Máy Bay 2N1Đ
                                 3,999,000 đ
                                Tour Ninh Chữ, Vĩnh Hy Hang Rái Siêu Tiết Kiệm 2n2d
                                 850,000 đ
                                Tour Côn Đảo, Khám Phá Lịch Sử Văn Hóa Côn Sơn 2N1Đ
                                 4,590,000 đ
                                Tour Đà Lạt Phototrip Khám Phá Những Cung Đường Hoa 3N3Đ
                                 1,250,000 đ
                                Tour Đảo Bình Hưng, Hang Rái, Vĩnh Hy 2n2d
                                 1,111,000 đ
                                Tour Ninh Chữ - Vĩnh Hy Khám Phá Bãi Đá Bảy Màu Resort 3sao 2N2Đ
                                 1,250,000 đ
                                Tour du lịch Vũng Tàu, Long Hải, Suối nước nóng Bình Châu 2N1Đ
                                 789,000 đ
                                Tour Đảo Phú Quý, Khám Phá Hòn Đảo Mang Vẻ Đẹp Hoang Sơ 3N3Đ
                                 2,250,000 đ
                                Tour Ninh Chữ - Vĩnh Hy - Cổ Thạch đồng giá 2N2Đ
                                 999,000 đ
