url:http://haidangtravel.com/Tour-Ca-Mau-Bac-Lieu-Soc-Trang-Tet-Am-Lich-2017
Tittle :Tour Cà Mau, Bạc Liêu, Sóc Trăng,Tết Âm Lịch 2017
content :Toggle navigation
                             Trang Chủ
                              Tour Du Lịch
                         Tour Trong Nước Tour Nước Ngoài
                              Tổ Chức Sự Kiện
                             Thuê Xe Du Lịch
                         Thuê Xe 4 Chổ Thuê Xe 7 Chổ Thuê Xe 16 Chổ Thuê Xe 29 Chổ Thuê Xe 35 Chổ Thuê Xe 45 Chổ
                             Khách Sạn
                              Cẩm nang du lịch
                              Tin tức du lịch
                              Bảng Giá Tour
                     1900 2011
                    08.3849.3838 - 0948.99.1080
                    Đăng Ký
                                            ×
                                            ĐĂNG KÝ
                                                        Tên đăng nhập (bắt buộc)
                                                        Nhập số điện thoại ( bắt buôt )
                                                        Nhập họ tên của bạn
                                                        Nhập mail của bạn
                                                        Nhập mật khẩu ( bắt buột )
                                                        Nhập lại mật khẩu ( bắt buột )
                                                        NamNữKhác
                                                        Địa chỉ nhà bạn
                                                        Ngày sinh của bạn
                                                 Nhận mail từ Hải Đăng Travel
                                                Đăng Ký
                        Đăng nhập
                                            ×
                                            ĐĂNG NHẬP
                                        Quên mật khẩu ?
                                        Đăng Ký
                                                Ghi nhớ mật khẩu
                                                Đăng nhập
                    Trang chủ
                 ›
                    Tour trong nước
                 ›
                    Tour Cà Mau, Bạc Liêu, Sóc Trăng,Tết Âm Lịch 2017 
                 Photo
                                Hổ Trợ Trực Tuyến
                             SKYPE YAHOO0945073767
                             Tour Cà Mau, Bạc Liêu, Sóc Trăng,Tết Âm Lịch 2017 
                                     2 ngày 2 đêm
                                      Ô Tô 
                                      2 sao 
                                     1,750,000 đ
                                            Giá gốc: 2,100,000 đ
                                                 Lịch khởi hành
                                                                                                        29/01/201730/01/2017
                                 DỊCH VỤ ĐÍNH KÈM
                                  Vé tham quan  Hướng dẫn viên  Ăn uống  Phương tiện   Bảo hiểm  Khách sạn
                                 Cơ hội nhân quà hấp khi đăng ký tour tại www.haidangtravel.com xem quà tặng tại đây 
                                 MUA TOUR
                                 GIỚI THIỆU Tour Cà Mau, Bạc Liêu, Sóc Trăng,Tết Âm Lịch 2017 
                                         Đánh Giá Tour
                                    0.0
                                                                                                                                    Đăng nhập để đánh giá hay điền các thông tin sau :
                                                        Họ tên (bắt buộc)
                                                        Nhập mail của bạn (bắt buộc)
                                                    Nhập nhận xét của bạn (bắt buộc)
                                                     Đánh giá :
                                                                           Rất Tốt  Tốt  khá  Trung Bình  Bình Thường
                                                Rất Tốt 0
                                                Tốt  0
                                                Khá 0
                                                Tạm Được  0
                                                Bình Thường  0
                                            Nhận xét (0)
                                                                                                                                                                                Hết
                        LỊCH TRÌNH TOUR
                                 NGÀY 1 : THÀNH PHỐ HỒ CHÍ MINH – CÀ MAU
                                    21h00: Xe và Hướng Dẫn Viên Hải Đăng Travel đón quý khách tại điểm hẹn, khởi hành rời Tp.HCM đi Cà Mau, quý khách nghỉ đêm xe với nội thất và trang thiết bị tiện nghi, giúp quý khách có một giấc ngủ thật ngon. 
CHINH PHỤC CÀ MAU – NĂM CĂN – RỪNG NGẬP MẶN – ĐẤT MŨI 
Sáng: Đoàn đến Năm Căn, xe đưa quý khách dùng điểm tâm sáng và vệ sinh, nghỉ ngơi thư giản tại nhà hàng.
09h00: Tiếp tục xuống tàu cao tốc ( cano) tiếp tục hành trình chinh phục những cây số cuối cùng để đến Đất Mũi, Đoàn qua sông Cửa Lớn, Ông Trang, Rạch Tàu, tới mũi Cà Mau, Quý khách đặt chân lên mảnh đất cực nam của tổ quốc, ngắm mũi Cà Mau, khu rừng ngập mặn lớn thứ hai trên thế giới, Chợ Nổi Cà Mau, Bảo Tồn Đa Dạng Sinh Học – Hệ Sinh Thái Rừng Ngập Mặn – Vuông Tôm, Rừng Kháng Chiến. Đoàn chụp hình lưu niệm tại cột mốc tọa độ quốc gia và panô biểu tượng mũi Cà Mau.
11h30: Dùng cơm trưa tại Nhà Hàng Đất Mũi.
12h30: Trở về tham quan thị trấn Năm Căn, thị trấn cực nam của Tổ Quốc, quý khách tham quan tượng đài Phan Ngọc Hiển, chợ Năm Căn.
15h00: Đoàn về tới khách sạn, làm thủ tục nhận phòng. Quý khách tự do nghỉ ngơi, thư giãn tại khách sạn. 
17h00: Xe đưa đoàn dạo quanh một vòng tham quan, ngắm cảnh thành phố Cà Mau.
Tối: Quý khách dùng cơm tối tại nhà hàng tự do khám phá Tp. Cà Mau vào ban đêm, nghỉ đêm tại Cà Mau. 
                                 NGÀY 2 : CÀ MAU – BẠC LIÊU – SÓC TRĂNG – TP. HCM 
Sáng: Quý khách dùng điểm tâm tại khách sạn, làm thủ tục trả phòng. 
08h00: Khởi hành về Tp. Hồ Chí Minh. Trên đường đi xe đưa quý khách viếng nhà thờ Cha Diệp hay còn gọi là nhà thờ Tắc Sậy, tiếp tục hành trình về Bạc Liêu, xe đưa quý khách tham quan và chụp hình tại nhà công tử Bạc Liêu. Một trong những ngôi nhà lớn nhất miền tây nam bộ thời bấy giờ. Tiếp tục hành trình Quý khách viếng mộ cố Nhạc sĩ Cao Văn Lầu, người sáng tác ra bài Dạ Cổ Hoài Lang, tiền đề của nghệ thuật ca ra bộ, cải lương rất đặc sắc của Nam Bộ.
10h00 : Đoàn tiếp tục khởi hành đi Sóc Trăng, đến Sóc Trăng, đoàn viếng Chùa Mã Tộc (Chùa Dơi), Chùa Đất Sét, là những ngôi chùa cổ của người Khơme nổi tiếng tại Sóc Trăng. Đoàn dùng cơm trưa tại nhà hàng Ngọc Sương tiêu chuẩn 3 sao, nghỉ ngơi và thư giản trong khuôn viên nhà hàng với hồ cá tra nặng hơn 10kg mổi con.
13h30: Đoàn khởi hành về lại Tp. HCM theo trục Quốc Lộ 1. Tham quan chiêm ngưỡng cây cầu đẹp nhất miền Tây nối liền hai bờ sông Hậu – Cầu Cần Thơ. Trên đường về Quý khách mua đặc sản Miền Tây như Nem Lai Vung, trái cây miền sông nước … về làm quà cho người thân.  
17h30: Về đến TP. HCM. Xe đưa đoàn về điểm đón ban đầu, Kết thúc chương trình tham quan chia tay và hẹn gặp lại quý khách. 
                    G.Thiệu
                                        Ngày 1
                                        Ngày 2
                     ĐỊA ĐIỂM ĐÓN KHÁCH
                                                    QUÝ KHÁCH ĐI TOUR KHỞI HÀNH BẰNG Ô TÔ VỚI NHỮNG ĐIỂM ĐÓN SAU :
                             Đón khách tại Công ty Du lịch Hải Đăng, 225 Bàu Cát, P12, Quận Tân Bình
                             Đón khách tại Nhà Văn Hóa Thanh Niên, 04 Phạm Ngọc Thạch, Quận 1
                             Đón khách tại Cây xăng Comeco, Ngã 4 Hàng Xanh, Quận Bình Thạnh
                             Đón khách tại Ngã 4 Thủ Đức, Quận 9
                             Đón khách tại Siêu thị Lotte Mart, Ngã 4 Amata, Biên Hòa, Đồng Nai
                            QUÝ KHÁCH ĐI TOUR TUYẾN MIỀN TÂY NHỮNG ĐIỂM ĐÓN SAU :
                             Đón khách tại Công viên Bàu Cát, 141 Đồng Đen, P11, Quận Tân Bình 
                             Đón khách tại Nhà Văn Hóa Thanh Niên, 04 Phạm Ngọc Thạch, Quận 1
                             Bến xe miền tây , Q 6 ( bệnh viện Triều An )
                            QUÝ KHÁCH ĐI TOUR KHỞI HÀNH BẰNG MÁY BAY VỚI NHỮNG ĐIỂM ĐÓN SAU :
                             Quý khách vui lòng tập trung tại nhà ga đối với những khách đi tour khởi hành bằng tàu
                             Quý khách vui lòng tập trung tại sân bay hoặc các phòng chờ của các hãng bay đối với những khách đi tour khởi hành bằng máy bay
                         QUY ĐỊNH TOUR
                                             GIÁ TOUR BAO GỒM 
                                                  Lưu Trú
                                                Khách sạn 2 sao tại Cà Mau, Phòng: 3-4 khách/phòng
Phụ thu phòng 2: 100.000 đ/khách/đêm.
Phụ thu phòng đơn: 300.000đ/khách.
Trường hợp trong đợt khởi hành có khách lẻ ghép, Hải Đăng sẽ ghép cho khách và  không phải đóng phụ thu.
                                                 Vé Tham Quan
                                                    Vé vào cổng: Đất Mũi, Nhà công tử Bạc Liêu, Vé tàu ra Đất Mũi 
                                                  Ăn Uống
                                                Điểm tâm: 2 buổi :
2 set Menu: 40.000 đ/suất (1tô bún, phở, hủ tiếu + 1 ly nước ngọt, sữa, café)
Ăn chính: 3 buổi:
3 buổi: 100.000đ/suất
                                                   Nón Nước - Khăn Lạnh
                                                Nước suối: 1 chai 500ml/ngày/khách
Khăn lạnh: 1 cái/ngày/khách
Nón du lịch: 1 nón HAIDANGTRAVEL/khách
                                                 Phương Tiện
                                                Xe đời mới máy lạnh 30-45 Chỗ, đón khách theo chương trình
Mỗi đợt tối thiểu 25 khách/ đoàn. Trường hợp không đủ slk thì được dời sang lịch khởi hành tiếp theo.
                                             GIÁ TOUR KHÔNG BAO GỒM 
                                                   Chi Phí Cá Nhân
                                                Chi phí cá nhân: Giặt ủi, điện thoại,ăn uống ngoài chương trình …..Điểm tham quan: Các chi phí ngoài chương trình......Thuế VAT: Quý khách có nhu cầu xuất hóa đơn VAT cộng  thêm 10%
                                                  Thuế VAT
                                                 10% thuế VAT
                                             QUY ĐỊNH TRẺ EM 
                                                Trẻ em dưới 5 tuổi|:
Cha, mẹ hoặc người thân đi kèm tự lo các chi phí ăn, ngủ, tham quan (nếu có) cho bé. Hai người lớn chỉ kèm 1 trẻ em dưới 5 tuổi, em thứ 2 trở lên phải mua ½ vé tour
Từ 6-10 tuổi : 
Bao gồm các dịch vụ ăn uống, ghế ngồi trên xe và ngủ chung với gia đình. Hai người lớn chỉ được kèm 1 trẻ em từ 5 đến dưới 10 tuổi, em thứ 2 trở lên phải mua suất người lớn.
Trẻ em 11 tuổi
Vé người lớn, tiêu chuẩn như người lớn
                                             QUY ĐỊNH MUA VÀ HỦY TOUR 
                                                Sau khi đăng ký, thanh toán ít nhất 50% tiền cọc và đóng hết 100% trước khởi hành 7 ngày.
Dời ngày khởi hành trước 10 ngày không mất phí, sau 8 ngày mất 20%.( Không tính ngày lễ và chủ nhật), chỉ được dời 1 lần.
Sau khi đăng ký huỷ tour mất 10% giá tour
Từ 10 đến trước 8 ngày trước ngày khởi hành chịu phí 30% giá tour.( Không tính ngày lễ và chủ nhật)
Từ 8 đến 6 ngày trước ngày khởi hành chịu phí 50% giá tour.( Không tính ngày lễ và chủ nhật)
Từ 3-5 ngày trước ngày khởi hành chịu phí 70% giá tour.( Không tính ngày lễ và chủ nhật)
Từ 2 ngày trước ngày khởi hành chịu phí 100% giá tour.( Không tính ngày lễ và chủ nhật)
Các quy định trên không áp dụng cho các dịp lễ và tết.
Các ngày lễ tết việc dời ngày và hủy tour trước 15 ngày khởi hành mất 50% giá tour. Sau 15 ngày so với ngày khởi hành mất 100% giá tour.(Không tính ngày chủ nhật.)
Sau khi hủy tour, du khách vui lòng đến công ty nhận tiền trong vòng 2 tuần kể từ ngày đăng ký tour. Chúng tôi chỉ thanh toán trong thời gian 14 ngày nói trên.
Trường hợp hủy tour do sự cố khách quan như thiên tai, dịch bệnh hoặc do tàu thủy, xe lửa, máy bay hoãn/hủy chuyến, Hải Đăng Travel sẽ không chịu trách nhiệm bồi thường thêm bất kỳ chi phí nào khác ngoài việc hoàn trả chi phí những dịch vụ chưa được sử dụng của tour đó.
                                             HÌNH THỨC THANH TOÁN 
                                                Thanh toán bằng tiền mặt tại Trụ sở chính, chi nhánh của Hải Đăng Travel hoặc công ty hỗ trợ thu tận nơi ( nếu khách có yêu cầu)
Chuyển khoản qua số tài khoản
Số tài khoản: 711A00686521.
Chủ tài khoản: Dương Phan Quốc Văn – Vietinbank TP.HCM.
Nội dung: Tour Cà Mau. Ngày khởi hành:…, Tên khách:…, Số lượng:…
Sử dụng Voucher, cung cấp mã số Voucher, đóng thêm phụ thu (nếu có). Du khách giữ Voucher và nộp lại cho công ty.
Thanh toán bằng thẻ Visa ( thẻ từ, thẻ chip,…)
Thẻ giảm giá, thẻ ưu đãi xuất trình khi đăng ký tour.
                     ĐIỂM THAM QUAN 
                                                  Kiểm Tra Giá & Lịch Khởi Hành 
                                                                                            KS 2 Sao
                            Khởi Hành
                                                                                                                                                                    29/01/201730/01/2017
                            = 
                            Người lớn
                            = 
                            Trẻ em
                            = 
                            Tổng cộng
                                = 
                         Mua Tour
                TOUR LIÊN QUAN
                                              4 ngày 4 đêm |  Ô Tô |  2 sao
                                            Xem
                                    Tour Ninh Chữ, Đà Lạt,Tết Âm Lịch 2017
                                         2,890,000 đ
                                                Giá gốc: 2,900,000 đ
                                                     Lịch khởi hành
                                                        29/01/201730/01/2017
                                              4 ngày 4 đêm |  Ô Tô |  2 sao
                                            Xem
                                    Tour Nha Trang, Đà Lạt, Tết Âm Lịch 2017
                                         2,890,000 đ
                                                Giá gốc: 2,940,000 đ
                                                     Lịch khởi hành
                                                        29/01/201730/01/201731/01/2017
                                              3 ngày 3 đêm |  Ô Tô |  2 sao
                                            Xem
                                    Tour Nha Trang Tiệc Buffet, Bãi Tắm Nhũ Tiên,Tết Âm Lịch 2017
                                         2,090,000 đ
                                                Giá gốc: 2,290,000 đ
                                                     Lịch khởi hành
                                                        29/01/201730/01/201731/01/201702/02/2017
                                              3 ngày 3 đêm |  Ô Tô |  2 sao
                                            Xem
                                    Tour Nha Trang, Bar Trên Biển,Đón Tết Âm Lịch 2017
                                         1,990,000 đ
                                                Giá gốc: 1,890,000 đ
                                                     Lịch khởi hành
                                                        29/01/201730/01/201731/01/201702/02/2017
                                              2 ngày 2 đêm |  ô Tô |  3 sao
                                            Xem
                                    Tour Ninh Chữ - Vĩnh Hy Resort 3sao, Tết Âm Lịch 2017
                                         1,750,000 đ
                                                Giá gốc: 1,999,000 đ
                                                     Lịch khởi hành
                                                        29/01/201730/01/2017
                                              5 ngày 5 đêm |  Máy bay |  3 sao
                                            Xem
                                    Tour Đà Nẵng, Sơn Trà, Hội An , Huế,Quảng Bình, Tết Âm Lịch 2017
                                         3,750,000 đ
                                                Giá gốc: 4,189,999 đ
                                                     Lịch khởi hành
                                                        29/01/201730/01/201731/01/2017
                    TRỤ SỞ CHÍNH
                         225 Bàu Cát, P12, Q.Tân Bình, HCM
                         19002011 - 08 3849 3838 
                        08 3849 2999   
                          www.haidangtravel.com  
                         info@haidangtravel.com 
                        CSKH: 0948.99.1080
                    CHI NHÁNH
                         Quận 1 : Lầu 7, Tòa Nhà Viễn Đông, 14 Phan Tôn
                        19002011(Ext-107) -  0838204589  
                         Quận 12 : 256 TX25, Thạnh Xuân, Q12 
                        19002011(Ext-111)
                         Biên Hòa : 51A2, KP11, P.Tân Phong 
                        19002011(Ext-108) -  0613999392  
                    TRỢ GIÚP
                    Liên hệ & giới thiệuĐiều khoản chungHình thức thanh toánHướng dẫn mua tourChính sách bảo mật
                        GIỜ LÀM VIỆC
                            Thứ 2 đến 6
                                Sáng: 08:00-12:00Chiều:13:30-17:30
                            Thứ 7 Sáng: 08:00-12:00Nghỉ chủ nhật, lễ, tết
                    Được tìm kiếm nhiều
                        Tour Nha Trang
                        Tour Đà Lạt
                        Tour Cà Mau
                        Tour Phú Yên
                        Tour Ninh Chữ
                        Tour Côn Đảo
                        Tour Miền Bắc
                        Tour Phú Quốc
                        Tour Đà Nẵng
                        Tour Phan Thiết
                        Tour Bình Ba
                        Tour Nam Du
                        Tour Vũng Tàu
                        Tour Bà Lụa
                THÀNH TÍCH
            2015 © All Rights Reserved. Công ty cổ phần xây dựng du lịch Hải Đăng
        Your browser doesn't support canvas. Please download IE9+ on
            IE Test Drive
            +
                Có thể bạn quan tâm ?
                                Tour Đảo Hòn Sơn Khám Phá Đỉnh Ma Thiên Lãnh 2N2Đ
                                 1,390,000 đ
                                Tour Ninh Chữ - Vĩnh Hy - Cổ Thạch đồng giá 2N2Đ
                                 999,000 đ
                                Tour Đảo Bình Hưng, Hang Rái, Vĩnh Hy 2n2d
                                 1,111,000 đ
                                Tour Côn Đảo, Khám Phá Lịch Sử Văn Hóa Côn Sơn 2N1Đ
                                 4,590,000 đ
                                Tour Đà Lạt Phototrip Khám Phá Những Cung Đường Hoa 3N3Đ
                                 1,250,000 đ
                                Tour Côn Đảo, Trọn Gói Vé Máy Bay 2N1Đ
                                 3,999,000 đ
                                Tour Ninh Chữ - Vĩnh Hy Khám Phá Bãi Đá Bảy Màu Resort 3sao 2N2Đ
                                 1,250,000 đ
                                Tour Ninh Chữ, Vĩnh Hy Hang Rái Siêu Tiết Kiệm 2n2d
                                 850,000 đ
                                Tour du lịch Vũng Tàu, Long Hải, Suối nước nóng Bình Châu 2N1Đ
                                 789,000 đ
                                Tour Đảo Phú Quý, Khám Phá Hòn Đảo Mang Vẻ Đẹp Hoang Sơ 3N3Đ
                                 2,250,000 đ
                        ×
