url:http://haidangtravel.com/Tour-Ha-Noi-Bai-Dinh-Tam-Coc-Ha-Long-Yen-Tu-4N3D-Tet-Am-Lich
Tittle :Tour Hà Nội, Bái Đình, Tam Cốc, Hạ Long, Yên Tử 4N3Đ Tết Âm Lịch
content :Toggle navigation
                             Trang Chủ
                              Tour Du Lịch
                         Tour Trong Nước Tour Nước Ngoài
                              Tổ Chức Sự Kiện
                             Thuê Xe Du Lịch
                         Thuê Xe 4 Chổ Thuê Xe 7 Chổ Thuê Xe 16 Chổ Thuê Xe 29 Chổ Thuê Xe 35 Chổ Thuê Xe 45 Chổ
                             Khách Sạn
                              Cẩm nang du lịch
                              Tin tức du lịch
                              Bảng Giá Tour
                     1900 2011
                    08.3849.3838 - 0948.99.1080
                    Đăng Ký
                                            ×
                                            ĐĂNG KÝ
                                                        Tên đăng nhập (bắt buộc)
                                                        Nhập số điện thoại ( bắt buôt )
                                                        Nhập họ tên của bạn
                                                        Nhập mail của bạn
                                                        Nhập mật khẩu ( bắt buột )
                                                        Nhập lại mật khẩu ( bắt buột )
                                                        NamNữKhác
                                                        Địa chỉ nhà bạn
                                                        Ngày sinh của bạn
                                                 Nhận mail từ Hải Đăng Travel
                                                Đăng Ký
                        Đăng nhập
                                            ×
                                            ĐĂNG NHẬP
                                        Quên mật khẩu ?
                                        Đăng Ký
                                                Ghi nhớ mật khẩu
                                                Đăng nhập
                    Trang chủ
                 ›
                    Tour trong nước
                 ›
                    Tour Hà Nội, Bái Đình, Tam Cốc, Hạ Long, Yên Tử 4N3Đ Tết Âm Lịch
                 Photo
                                Hổ Trợ Trực Tuyến
                             SKYPE YAHOO914353773
                             Tour Hà Nội, Bái Đình, Tam Cốc, Hạ Long, Yên Tử 4N3Đ Tết Âm Lịch
                                     3 ngày 2 đêm
                                      Máy bay 
                                      3 sao 
                                     10,499,000 đ
                                            Giá gốc: 12,499,000 đ
                                                 Lịch khởi hành
                                                                                                        29/01/201730/01/201731/01/201702/02/2017
                                 DỊCH VỤ ĐÍNH KÈM
                                  Vé tham quan  Hướng dẫn viên  Ăn uống  Phương tiện   Bảo hiểm  Khách sạn
                                 Cơ hội nhân quà hấp khi đăng ký tour tại www.haidangtravel.com xem quà tặng tại đây 
                                 MUA TOUR
                                 GIỚI THIỆU Tour Hà Nội, Bái Đình, Tam Cốc, Hạ Long, Yên Tử 4N3Đ Tết Âm Lịch
                                         Đánh Giá Tour
                                    0.0
                                                                                                                                    Đăng nhập để đánh giá hay điền các thông tin sau :
                                                        Họ tên (bắt buộc)
                                                        Nhập mail của bạn (bắt buộc)
                                                    Nhập nhận xét của bạn (bắt buộc)
                                                     Đánh giá :
                                                                           Rất Tốt  Tốt  khá  Trung Bình  Bình Thường
                                                Rất Tốt 0
                                                Tốt  0
                                                Khá 0
                                                Tạm Được  0
                                                Bình Thường  0
                                            Nhận xét (0)
                                                                                                                                                                                Hết
                        LỊCH TRÌNH TOUR
                                 NGÀY 1 : ĐÓN SÂN BAY – HÀ NỘI
                                    Sáng:  HDV đón Quý khách tại sân bay Tân Sơn Nhất làm thủ tục cho đoàn đáp chuyến bay đi Hà Nội Xe và HDV đón quý khách tại sân bay Nội Bài, về Hà Nội nhận phòng, ăn trưa.
Chiều:  Đoàn tham quan Hồ Tây – Hồ lớn nhất Hà Nội, chùa Trấn Quốc, ngắm Hồ Gươm, thăm đền Ngọc Sơn, cầu Thê Húc, chụp hình tại Nhà Hát Lớn Thành Phố, Bảo Tàng Lịch Sử. Xem Show diễn đặc sắc giới thiệu về Di Sản Văn Hóa Phi Vật Thể “LONG THÀNH DIỄN XƯỚNG”.
Tối: Ăn tối tại nhà hàng. Quý khách tự do ngắm cảnh Hà Thành trong đêm. Nghỉ đêm tại Hà Nội.
                                 NGÀY 2 : HÀ NỘI – TAM CỐC – BÁI ĐÍNH – HẠ LONG
                                     
 
Sáng: Sau khi ăn sáng và trả phòng khách sạn, xe và HDV đón đòan Tham quan Ninh Bình, xuống thuyền tham quan Tam Cốc – Nơi được mệnh danh là “Hạ Long trên cạn”. Ăn trưa với đặc sản Cơm Cháy Dê Núi.
Chiều: Đoàn tham quan Chùa Bái Đính - ngôi chùa lớn nổi tiếng Miền Bắc ( Có xe điện đưa đón lên chùa ), làm lễ cầu phúc lành. 14h00 Quý khách rời Ninh Bình, theo Quốc Lộ 10 đi Hạ Long trên đường đi quý khách sẽ được cảm nhận cuộc sống, phong cảnh đặc trưng của Đồng Bằng Bắc Bộ với cảnh làng quê thanh bình qua các tỉnh Nam Định, Thái Bình, Hải Phòng. Đến Hạ Long, nhận phòng, ăn tối.
Tối:  Quý khách tự do đi dạo chợ đêm Hạ Long, ngắm cảnh thành phố về đêm. Nghỉ đêm tại Hạ Long
 
                                 NGÀY 3 : HẠ LONG – YÊN TỬ - HÀ NỘI - ẨM THỰC PHỐ CỔ   
                                    Sáng:  Tham quan vịnh Hạ Long – di sản thiên nhiên thế giới được UNESSCO công nhận, chiêm ngưỡng vẻ đẹp huyền bí của hàng ngàn đảo đá và các hang động kỳ thú. Thăm quan động Thiên Cung, ngắm cảnh Làng Chài, hòn Ấm, hòn Rùa, hòn Đỉnh Hương, hòn Chó Đá, hòn gà Chọi…Ăn trưa.
Chiều: Tham quan khu danh thắng đất Phật Yên Tử - đất tổ của Thiền Phái Trúc Lâm. Quý khách đi Cáp Treo, tham quan Vườn Tháp Tổ, Chùa Hoa Yên (Chi phí cáp treo tự túc ). Sau đó khởi hành về Hà Nội, trên đường dừng chân thưởng thức đặc sản bánh đậu xanh Hải Dương. Về Hà Nội ăn tối và nhận phòng nghỉ ngơi.          
Tối: Quý khách tự do tham quan Hà Nội 36 phố phường…. Nghỉ đêm tại Hà Nội.
 
                                 NGÀY 4 : HÀ NỘI – VINCOM MEGA MALL ROYAL CITY – TP.HCM
                                    Sáng:   Quý khách vào Viếng Lăng Bác, thăm Phủ Chủ Tịch, Nhà Sàn, Ao cá Bác Hồ, Chùa Một Cột, Văn Miếu- Quốc Tử Giám trường đại học đầu tiên của Việt Nam. Ăn trưa Buffet nhà hàng Buffet Vườn tại Vincom Mega Mall Royal City với mô hình vui chơi - giải trí - ẩm thực - mua sắm “tất cả trong một”, quy tụ của các thương hiệu uy tín hàng đầu và đem đến phong cách mua sắm mới. Nằm trong tổ hợp khu đô thị, có quy mô trong lòng đất lớn nhất châu Á và các hạng mục vui chơi độc đáo như: Công viên nước lớn nhất trong nhà Đông Nam Á; Sân băng thật trong nhà lớn nhất Việt Nam; Thác nước nhân tạo đầu tiên dưới hầm ngầm…
Chiều: Xe đưa quý khách đi Sân Bay Nội Bài. Chào tạm biệt, kết thúc chương trình.
 
                    G.Thiệu
                                        Ngày 1
                                        Ngày 2
                                        Ngày 3
                                        Ngày 4
                     ĐỊA ĐIỂM ĐÓN KHÁCH
                                                    QUÝ KHÁCH ĐI TOUR KHỞI HÀNH BẰNG Ô TÔ VỚI NHỮNG ĐIỂM ĐÓN SAU :
                             Đón khách tại Công ty Du lịch Hải Đăng, 225 Bàu Cát, P12, Quận Tân Bình
                             Đón khách tại Nhà Văn Hóa Thanh Niên, 04 Phạm Ngọc Thạch, Quận 1
                             Đón khách tại Cây xăng Comeco, Ngã 4 Hàng Xanh, Quận Bình Thạnh
                             Đón khách tại Ngã 4 Thủ Đức, Quận 9
                             Đón khách tại Siêu thị Lotte Mart, Ngã 4 Amata, Biên Hòa, Đồng Nai
                            QUÝ KHÁCH ĐI TOUR TUYẾN MIỀN TÂY NHỮNG ĐIỂM ĐÓN SAU :
                             Đón khách tại Công viên Bàu Cát, 141 Đồng Đen, P11, Quận Tân Bình 
                             Đón khách tại Nhà Văn Hóa Thanh Niên, 04 Phạm Ngọc Thạch, Quận 1
                             Bến xe miền tây , Q 6 ( bệnh viện Triều An )
                            QUÝ KHÁCH ĐI TOUR KHỞI HÀNH BẰNG MÁY BAY VỚI NHỮNG ĐIỂM ĐÓN SAU :
                             Quý khách vui lòng tập trung tại nhà ga đối với những khách đi tour khởi hành bằng tàu
                             Quý khách vui lòng tập trung tại sân bay hoặc các phòng chờ của các hãng bay đối với những khách đi tour khởi hành bằng máy bay
                         QUY ĐỊNH TOUR
                                             GIÁ TOUR BAO GỒM 
                                                  Lưu Trú
                                                + Tại Hạ Long:          Khách sạn Kenny Hạ Long, BMC, Bluesky, Điện Lực, … (3*)
+ Tại Hà Nội: Khách sạn Santa Barbara, First Eden , Demantoid, …(3*)
Phụ thu phòng đơn: 900.000 đ/khách
Phụ thu ngoại quốc: 450.000 đ/khách
                                                 Vé Tham Quan
                                                    Thuyền thăm quan vịnh Hạ Long, thuyền thăm KDL Tam Cốc, Vé vào cửa tham quan các điểm theo chương trình. Vé xem Long Thành Diễn Xướng, Xe điện đưa đón chùa Bái Đính
                                                  Ăn Uống
                                                + Ăn sáng buffet tại khách sạn
+ 06 bữa chính với các món đặc sản địa phương 130.000đ/xuất ( các bữa ăn ở Hà Nội   150.000đ/ xuất
+ 01 Bữa Buffet tại TTTM ROYAL CITY 
                                                   Nón Nước - Khăn Lạnh
                                                Nước suối: 1 chai 500ml/ngày/khách
Khăn lạnh: 1 cái/ngày/khách
                                                 Phương Tiện
                                                Vé máy bay khứ hồi Sài Gòn – Hà Nội – Sài Gòn ( Vietjetair/Jetstar)
Xe vận chuyển máy lạnh đời mới
Lưu ý:
Nếu quý khách tự túc vé máy bay, Công ty du lịch sẽ đón các chuyến bay hạ cánh từ 09h30 – 11h30 và tiễn các chuyến bay cất cánh từ 15h00 – 16h30 (Các chuyến bay khác giờ quý khách vui lòng tự túc phương tiện ra về Sân Bay hoặc đợi ghép cùng đoàn )
-        Nếu quý khách đáp chuyến bay ra muộn Ngày 1, có thể mất 1 số điểm city tour theo chương trình (Công ty du lịch sẽ cố gắng bố trí các điểm city tour tốt nhất có thể để bù lại cho quý khách)
                                             GIÁ TOUR KHÔNG BAO GỒM 
                                                   Chi Phí Cá Nhân
                                                Chi phí cá nhân: Tiền giặt ủi, điện thoại, đồ uống trong các bữa ăn, Thuế VAT...Khách yêu cầu HDV tiếng Anh hoặc tiếng Hoa phổ thông, phụ thu 300.000đ/ngày/group.Điểm tham quan-Ngoài chương trình-Vé cáp treo Yên Tử ( 200.000VND/khứ hồi/chặng Hoa Yên) Thuế VAT :  Quý khách muốn xuất hóa đơn VAT cộng thêm 10%
                                                  Thuế VAT
                                                 10% thuế VAT
                                             QUY ĐỊNH TRẺ EM 
                                                 
Trẻ em dưới 2 tuổi
Miễn phí tiền tour, vé máy bay theo quy định hàng không
Trẻ em từ 2 đến 5 tuổi 
Miễn phí tiền tour, vé máy bay theo quy định hàng không
Trẻ em từ 6 – 11 tuối
Tính ½ giá tour, vé máy bay theo quy định hàng không, được hưởng: 1 chỗ trên xe, thuyền, 1 xuất ăn như người lớn, vé tham quan và ngủ chung giường với ba mẹ
Trẻ em 12 tuổi trở lên
Tính vé người lớn
                                             QUY ĐỊNH MUA VÀ HỦY TOUR 
                                                Sau khi xác nhận và thanh toán 100 % đăng ký. Vé Máy Bay được xuất ngay sau khi quý khách đóng tiền và có xác nhận sự chính xác về họ, tên (đúng từng ký tự ghi trong hộ chiếu hoặc CMND), ngày-tháng-năm sinh … của hành khách theo yêu cầu của hãng vận chuyển. (vé không hoàn không đổi).
Quy định dời ngày khởi hành:
Dời trước 07 ngày so với ngày khởi hành: phí dời 0%  tiền tour, phí dời vé máy bay theo qui định của hãng.
Dời trước 03 ngày so với ngày khởi hành: phí dời 30%  tiền tour, phí dời vé máy bay theo qui định của hãng.
Sau thời gian trên: phí dời 100%  tiền tour, phí dời vé máy bay theo qui định của hãng.
Ngay sau khi Quý khách đăng ký tour nếu hủy sẽ bị phạt tiền tour và vé máy bay như sau:
Hủy tour 15 ngày trước ngày khởi hành: phí hủy 0%  tiền tour, phí hủy vé máy bay theo qui định của hãng ( Vietjet và Jetstar không hoàn không đổi)
Hủy tour 10 ngày trước ngày khởi hành: phí hủy 30%  tiền tour, phí hủy vé máy bay theo qui định của hãng ( Vietjet và Jetstar không hoàn không đổi)
Hủy tour 05 ngày trước ngày khởi hành: phí hủy 50%  tiền tour, phí hủy vé máy bay theo qui định của hãng ( Vietjet và Jetstar không hoàn không đổi)
Hủy tour 03 ngày trước ngày khởi hành: phí hủy 100%  tiền tour, phí hủy vé máy bay theo qui định của hãng ( Vietjet và Jetstar không hoàn không đổi)
Tất cả trường hợp dời, hoãn, đổi tour sau 03 ngày sẽ không được chấp nhận.
Trong những trường hợp bất khả kháng như: khủng bố, bạo động, thiên tai, sự thay đổi lịch trình của hàng không, tàu hỏa, tàu thủy… công ty HAI DANG TRAVEL sẽ chủ động thay đổi lộ trình đi hoặc hủy tour vì sự thuận tiện và an toàn của Quý khách . HAIDANG TRAVEL sẽ hoàn lại một phần những chi phí chưa được sử dụng cho việc tổ chức dịch vụ và không bồi thường thêm bất kỳ khoản nào khác. Tuy nhiên, mỗi bên có trách nhiệm cố gắng tối đa, giúp đỡ bên bị thiệt hại nhằm giảm thiểu các tổn thất gây ra vì lý do bất khả kháng.
                                             HÌNH THỨC THANH TOÁN 
                                                Thanh toán bằng tiền mặt tại Trụ sở chính, chi nhánh của Hải Đăng Travel hoặc công ty hỗ trợ thu tận nơi ( nếu khách có yêu cầu)
Chuyển khoản qua số tài khoản
Số tài khoản: 711A00686521.
Chủ tài khoản: Dương Phan Quốc Văn – Vietinbank TP.HCM.
Nội dung: Tour Ha Noi 4n3d. Ngày khởi hành:…, Tên khách:…, Số lượng:…
Thanh toán bằng thẻ Visa ( thẻ từ, thẻ chip,…)
Thẻ giảm giá, thẻ ưu đãi xuất trình khi đăng ký tour.
                     ĐIỂM THAM QUAN 
                                                  Kiểm Tra Giá & Lịch Khởi Hành 
                                                                                                                                        KS 3 Sao
                            Khởi Hành
                                                                                                                                                                    29/01/201730/01/201731/01/201702/02/2017
                            = 
                            Người lớn
                            = 
                            Trẻ em
                            = 
                            Tổng cộng
                                = 
                         Mua Tour
                TOUR LIÊN QUAN
                                              4 ngày 4 đêm |  Ô Tô |  2 sao
                                            Xem
                                    Tour Ninh Chữ, Đà Lạt,Tết Âm Lịch 2017
                                         2,890,000 đ
                                                Giá gốc: 2,900,000 đ
                                                     Lịch khởi hành
                                                        29/01/201730/01/2017
                                              4 ngày 4 đêm |  Ô Tô |  2 sao
                                            Xem
                                    Tour Nha Trang, Đà Lạt, Tết Âm Lịch 2017
                                         2,890,000 đ
                                                Giá gốc: 2,940,000 đ
                                                     Lịch khởi hành
                                                        29/01/201730/01/201731/01/2017
                                              3 ngày 3 đêm |  Ô Tô |  2 sao
                                            Xem
                                    Tour Nha Trang Tiệc Buffet, Bãi Tắm Nhũ Tiên,Tết Âm Lịch 2017
                                         2,090,000 đ
                                                Giá gốc: 2,290,000 đ
                                                     Lịch khởi hành
                                                        29/01/201730/01/201731/01/201702/02/2017
                                              3 ngày 3 đêm |  Ô Tô |  2 sao
                                            Xem
                                    Tour Nha Trang, Bar Trên Biển,Đón Tết Âm Lịch 2017
                                         1,990,000 đ
                                                Giá gốc: 1,890,000 đ
                                                     Lịch khởi hành
                                                        29/01/201730/01/201731/01/201702/02/2017
                                              2 ngày 2 đêm |  ô Tô |  3 sao
                                            Xem
                                    Tour Ninh Chữ - Vĩnh Hy Resort 3sao, Tết Âm Lịch 2017
                                         1,750,000 đ
                                                Giá gốc: 1,999,000 đ
                                                     Lịch khởi hành
                                                        29/01/201730/01/2017
                                              5 ngày 5 đêm |  Máy bay |  3 sao
                                            Xem
                                    Tour Đà Nẵng, Sơn Trà, Hội An , Huế,Quảng Bình, Tết Âm Lịch 2017
                                         3,750,000 đ
                                                Giá gốc: 4,189,999 đ
                                                     Lịch khởi hành
                                                        29/01/201730/01/201731/01/2017
                    TRỤ SỞ CHÍNH
                         225 Bàu Cát, P12, Q.Tân Bình, HCM
                         19002011 - 08 3849 3838 
                        08 3849 2999   
                          www.haidangtravel.com  
                         info@haidangtravel.com 
                        CSKH: 0948.99.1080
                    CHI NHÁNH
                         Quận 1 : Lầu 7, Tòa Nhà Viễn Đông, 14 Phan Tôn
                        19002011(Ext-107) -  0838204589  
                         Quận 12 : 256 TX25, Thạnh Xuân, Q12 
                        19002011(Ext-111)
                         Biên Hòa : 51A2, KP11, P.Tân Phong 
                        19002011(Ext-108) -  0613999392  
                    TRỢ GIÚP
                    Liên hệ & giới thiệuĐiều khoản chungHình thức thanh toánHướng dẫn mua tourChính sách bảo mật
                        GIỜ LÀM VIỆC
                            Thứ 2 đến 6
                                Sáng: 08:00-12:00Chiều:13:30-17:30
                            Thứ 7 Sáng: 08:00-12:00Nghỉ chủ nhật, lễ, tết
                    Được tìm kiếm nhiều
                        Tour Nha Trang
                        Tour Đà Lạt
                        Tour Cà Mau
                        Tour Phú Yên
                        Tour Ninh Chữ
                        Tour Côn Đảo
                        Tour Miền Bắc
                        Tour Phú Quốc
                        Tour Đà Nẵng
                        Tour Phan Thiết
                        Tour Bình Ba
                        Tour Nam Du
                        Tour Vũng Tàu
                        Tour Bà Lụa
                THÀNH TÍCH
            2015 © All Rights Reserved. Công ty cổ phần xây dựng du lịch Hải Đăng
        Your browser doesn't support canvas. Please download IE9+ on
            IE Test Drive
            +
                Có thể bạn quan tâm ?
                                Tour Đảo Phú Quý, Khám Phá Hòn Đảo Mang Vẻ Đẹp Hoang Sơ 3N3Đ
                                 2,250,000 đ
                                Tour Ninh Chữ, Vĩnh Hy Hang Rái Siêu Tiết Kiệm 2n2d
                                 850,000 đ
                                Tour Côn Đảo, Trọn Gói Vé Máy Bay 2N1Đ
                                 3,999,000 đ
                                Tour Đà Lạt Phototrip Khám Phá Những Cung Đường Hoa 3N3Đ
                                 1,250,000 đ
                                Tour Ninh Chữ - Vĩnh Hy Khám Phá Bãi Đá Bảy Màu Resort 3sao 2N2Đ
                                 1,250,000 đ
                                Tour Đảo Bình Hưng, Hang Rái, Vĩnh Hy 2n2d
                                 1,111,000 đ
                                Tour Côn Đảo, Khám Phá Lịch Sử Văn Hóa Côn Sơn 2N1Đ
                                 4,590,000 đ
                                Tour Đảo Hòn Sơn Khám Phá Đỉnh Ma Thiên Lãnh 2N2Đ
                                 1,390,000 đ
                                Tour Ninh Chữ - Vĩnh Hy - Cổ Thạch đồng giá 2N2Đ
                                 999,000 đ
                                Tour du lịch Vũng Tàu, Long Hải, Suối nước nóng Bình Châu 2N1Đ
                                 789,000 đ
                        ×
