url:http://haidangtravel.com/khach-san-Nha-Trang
Tittle :Du Lịch Hải Đăng | Haidang Travel | Du lich uy tin | Du lich gia re
content :Toggle navigation
                             Trang Chủ
                              Tour Du Lịch
                         Tour Trong Nước Tour Nước Ngoài
                              Tổ Chức Sự Kiện
                             Thuê Xe Du Lịch
                         Thuê Xe 4 Chổ Thuê Xe 7 Chổ Thuê Xe 16 Chổ Thuê Xe 29 Chổ Thuê Xe 35 Chổ Thuê Xe 45 Chổ
                             Khách Sạn
                              Cẩm nang du lịch
                              Tin tức du lịch
                              Bảng Giá Tour
                     1900 2011
                    08.3849.3838 - 0948.99.1080
                    Đăng Ký
                                            ×
                                            ĐĂNG KÝ
                                                        Tên đăng nhập (bắt buộc)
                                                        Nhập số điện thoại ( bắt buôt )
                                                        Nhập họ tên của bạn
                                                        Nhập mail của bạn
                                                        Nhập mật khẩu ( bắt buột )
                                                        Nhập lại mật khẩu ( bắt buột )
                                                        NamNữKhác
                                                        Địa chỉ nhà bạn
                                                        Ngày sinh của bạn
                                                 Nhận mail từ Hải Đăng Travel
                                                Đăng Ký
                        Đăng nhập
                                            ×
                                            ĐĂNG NHẬP
                                        Quên mật khẩu ?
                                        Đăng Ký
                                                Ghi nhớ mật khẩu
                                                Đăng nhập
                    Trang chủ
                 ›
                    Khách sạn
                 ›
                    Khách sạn Nha Trang
                TÌM KIẾN KHÁCH SẠN TẠI HAIDANGTRAVEL.COM
                        2 sao
                        3 sao
                        4 sao
                        5 sao
                     KHÁCH SẠN TẠI Nha Trang  
                    HOT
                            Tiêu chuẩn 4 sao 
                            Xem
                    KHÁCH SẠN THE LIGHT NHA TRANG
                    86B Tran Phu St, Nha Trang city, Khanh...
                    HOT
                            Tiêu chuẩn 4 sao 
                            Xem
                    KHÁCH SẠN MƯỜNG THANH NHA TRANG
                    Số 6 Dương Hiến Quyền, Vĩnh...
                    HOT
                            Tiêu chuẩn 4 sao 
                            Xem
                    KHÁCH SẠN VDB NHA TRANG
                    50 Phạm Văn Đồng, Tp. Nha Trang,...
                    HOT
                            Tiêu chuẩn 3 sao 
                            Xem
                    KHÁCH SẠN ANGELLA 
                    03 Trần Hưng Đạo, Tp Nha Trang,...
                    HOT
                            Tiêu chuẩn 3 sao 
                            Xem
                    KHÁCH SẠN VIỄN ĐÔNG
                    01 Trần Hưng Đạo – Nha Trang...
                    HOT
                            Tiêu chuẩn 3 sao 
                            Xem
                    KHÁCH SẠN GOLDEN RAIN (HOÀNG VŨ)
                    142 Hùng Vương, TP. Nha Trang,...
                                        XEM THÊM (19)
                        ĐIỀU CẦN BIẾT KHI CHỌN KHÁCH SẠN ONLINE
Tổng quan du lịch Đà Lạt
Đà Lạt là thủ phủ của tỉnh Lâm Đồng. Với độ cao 1500 mét trên mặt nước biển, Đà Lạt tiết trời mát lạnh và là nơi nghỉ dưỡng lý tưởng ở khu vực miền Nam. Từng một thời nổi tiếng với các điểm tham quan như Thung lũng Tình Yêu, Hồ Than Thở, Đồi Thông Hai Mộ, Thác Voi…, Đà Lạt ngày nay không còn giữ được vẻ hoang sơ như xưa. Các điểm tham qua chính hiện nay khi du lịch Đà Lạt gồm có Hồ Xuân Hương, Đỉnh Langbiang, Dinh Bảo Đại, Biệt Điện Trần Lệ Xuân, Thiền Viện Trúc Lâm, Hồ Tuyền Lâm và Nhà ga Đà Lạt (Nhà ga Trại Mát). Chỉ cách Sài Gòn chừng 300km, thành phố Đà Lạt là nơi nghỉ dưỡng tuyệt vời, giúp du khách thoát khỏi cái oi bức nóng nực của vùng đồng bằng Nam Bộ.
Cảnh nhìn từ đỉnh Lang Biang, điểm tham quan nổi tiếng của du lịch Đà Lạt
Di chuyển: Phương tiện, di chuyển khi du lịch Đà Lạt
Máy bay: Hiện có chuyến bay thẳng từ Hà Nội, Đà Nẵng hoặc TP.HCM tới sân bay Liên Khương (Đà Lạt) của Vietnam Airlines và Vietjetair. Giá vé trong khoảng từ 900.000đ đến 1.600.000đ, và thời gian bay từ 50 phút đến 1 tiếng 40 phút.
Lưu ý: Từ sân bay Liên Khương, bạn có thể bắt xe bus liên vận của sân bay về Đà Lạt (dừng ở khách sạn Hàng không trên phố Pasteur gần Hồ Xuân Hương) với giá 50.000VND; hoặc đi taxi khoảng 300.000VND/lượt.
Xe khách: Xe Phương Trang và xe Thành Bưởi có nhiều chuyến đi và về tuyến Sài Gòn – Đà Lạt, giá vé dao động từ 200.000đ (ghế ngồi) đến 240.000đ (giường nằm)/vé/chiều. Các chuyến xe chạy liên tục, mỗi chuyến cách nhau từ 30 phút đến 1 tiếng.
Số điện thoại xe khách đi du lịch Đà Lạt
Xe open bus: Các hãng xe Open Bus nổi tiếng là Phương Trang, Kim Travel, Hạnh Café, Sinh Tourist, T.M. Brother’s Café. Giá vé 1 chiều từ 130.000đ đến 160.000đ/người.
Số điện thoại open bus đi du lịch Đà Lạt
Phương tiện đi lại tại Đà Lạt:
Xe máy: giá từ 80.000 – 120.000 VND/ngày.
Xe đạp đôi: 20.000VND/giờ. Để thuê được xe đạp hay xe máy bạn cần đem theo CMND nhé
Thuê xe ôtô: Giá thuê trong ngày (từ 8h00 – 17h00) từ 1 triệu đồng trở lên, quá giờ tính 100.000 VND/giờ.
Xe bus: Các tuyến xe Bus từ bến xe tại trung tâm thành phố Đà Lạt theo các tuyến đường về các xã, huyện của Đà Lạt, Lâm
Đồng. Giá vé tính toàn tuyến hoặc theo từng chặng, từ 4.000 – 30.000 VND/người.
Tham quan: Di tích, núi rừng, điểm tham quan khác của du lịch Đà Lạt
KHU TRUNG TÂM ĐÀ LẠT – HỒ XUÂN HƯƠNG – CHỢ ĐÀ LẠT
Chợ Đà Lạt và chợ Âm Phủ: điểm đến không thể bỏ qua của du lịch Đà Lạt. Có bán các quần áo ấm second-hand rất đẹp, cùng với các loại đặc sản như nước cốt dâu tằm, trà atisô, thập cẩm sấy khô, các loại mứt và đậu ngự.
Hồ Xuân Hương: Biểu tượng của du lịch Đà Lạt. Sáng sớm, và hoàng hôn là thời điểm Hồ Xuân Hương đẹp nhất. Có các trò chơi đạp vịt, đi xuồng máy hay chèo thuyền cao su trên hồ.
Dinh Bảo Đại hay còn gọi là dinh III: dinh thự đẹp đẽ và trang nhã nằm trên ngọn đồi cao 1539m. Vị trí: Trên đường Triệu Việt Vương, cách trung tâm Đà Lạt 2,5 km về phía Nam.
Ga xe lửa Đà Lạt: số 1 Quang Trung, Đà Lạt, ga Đà Lạt. Đây là địa điểm chụp hình quen thuộc của du khách.
Vườn Hoa Đà Lạt: nằm ở số 2 Phù Đổng Thiên Vương, cách trung tâm thành phố 2km. Người đi du lịch Đà Lạt thường ghé thăm vườn hoa để được chiêm ngưỡng muôn hoa đua sắc và săn những bức hình đẹp.
Tham khảo:
Khách sạn Chợ Đà Lạt – Giá chỉ từ 84.000 VND
Khách sạn Trung Tâm Thành Phố – Giá chỉ từ 114.000 VND
Nhà thờ Con Gà, nơi chụp hình đẹp dành cho khách du lịch Đà Lạt
Nhà thờ chính tòa Đà Lạt (nhà thờ Con Gà): trên đỉnh tháp chuông có hình con gà lớn. Đây là nhà thờ lớn nhất Đà Lạt, một trong những công trình kiến trúc tiêu biểu và cổ xưa nhất của thành phố này do người Pháp để lại. Địa chỉ: trên đường Trần Phú (gần khách sạn Novotel).
Viện Sinh Học Tây Nguyên/Phân Viện Sinh học Đà Lạt: nằm trên đỉnh đồi Tùng Lâm cách trung tâm thành phố Đà Lạt gần 10km trên đường đi Suối Vàng. Ngoài khung cảnh đẹp, Phân Viện Sinh học còn là  một bảo tàng động vật và vườn thực vật.
Nhà thờ Domaine de Marie/Lãnh địa Đức Bà: còn gọi là Nhà thờ Mai Anh. Nằm trên đường Ngô Quyền cách trung tâm khoảng 1 km về phía tây nam. Nhà thờ được xây dựng theo phong cách châu Âu thế kỷ 17, có sự kết hợp hài hòa giữa kiến trúc phương Tây với kiến trúc của dân tộc thiểu số vùng Tây Nguyên.
Trường Cao Đẳng Sư Phạm Đà Lạt: được Hội Kiến trúc sư thế giới công nhận là một trong số 1.000 công trình xây dựng độc đáo của thế giới trong thế kỷ 20. Điểm nhấn của dãy nhà hình vòng cung là tháp chuông, gọi là “Nhà Cong”.
Thung lũng hoa đào Mười Lời: nằm trên đường Lê Hồng Phong, gần với Dinh III. Ngoài những cây hoa đào đẹp lunh linh, vườn đào nổi tiếng này còn là nơi hội tụ nhiều sản vật ngon và lạ.
Ga Trại Mát – chùa Linh Phước: Tại Trại Mát có các điểm tham quan du lịch như trại nghỉ mát của Vua Bảo Đại, chợ Trại Mát hay chùa Linh Phước. Chùa Linh Phước có kiến trúc khảm sành độc đáo, đặc biệt có tượng con rồng làm bằng 12000 vỏ chai bia nên chùa còn được gọi là chùa Ve Chai.
KHU PHÍA BẮC TRUNG TÂM ĐÀ LẠT
Thung lũng Tình Yêu: là địa danh thơ mộng và trữ tình nhất khi du lịch Đà Lạt, cách trung tâm thành phố khoảng 6km về hướng Đông Bắc. Du khách có thể men leo lên đồi Vọng Cảnh và ngắm nhìn toàn cảnh Thung lũng Tình Yêu.
Khách sạn Đà Lạt tốt nhất cho cặp đôi – Giá từ 309.000 VND
Thung lũng Suối Vàng / Hồ Suối Vàng: Từ trung tâm Đà Lạt theo hướng bắc đi Lạc Dương, đến km 7 Tùng Lâm rẽ trái, vượt qua đoạn đường dài khoảng 12km sẽ đến hồ Suối Vàng. Đường đi Suối Vàng đẹp mê li, nên mang theo đồ ăn và bạt trải, thích chỗ nào dừng lại picnic chỗ đó luôn.
Núi Lang Biang: Cách khu trung tâm 12 km về phía Bắc. Đến chân núi có hai cách lựa chọn: leo núi hoặc đi xe jeep. 1 xe jeep bao trọn là 180.000 nghìn , nếu đi lẻ thì phải chờ xe đủ 6 người mỗi người 50.000 nghìn tiền xe , đi hết chừng 15 phút là lên đỉnh. Nếu chọn leo núi (đi theo đường nhựa lên đỉnh) bạn phải đi khoảng 7 – 8 km, mất 1h30′ mới lên tới đỉnh. Đường lên đỉnh núi hai bên là thông và hoa dại. Trên đỉnh núi là cảnh đẹp mê hồn, và bạn cũng có thể thưởng thức các món nướng tại đây.
Làng Cù Lần: điểm tham quan mới toanh của du lịch Đà Lạt, là một ngôi làng nhỏ xinh đẹp, lãng mạn nằm lọt thỏm giữa hàng ngàn héc-ta rừng nguyên sinh hoang dã dưới chân đỉnh núi Lang Biang trải rộng,  cách khu du lịch Thung Lũng Vàng 9 km vào hướng Suối Vàng – Suối Bạc.
Làng Cù Lần, khám phá mới nhất của du lịch Đà Lạt
KHU PHÍA NAM TRUNG TÂM ĐÀ LẠT
Hồ Tuyền Lâm: nằm ở độ cao 1000 mét so với mực nước biển, cách trung tâm 5km về phía Nam, trên đoạn đường đèo Prenn.Tại đây bạn có thể thuê thuyền ra đảo. Một chiếc khứ hồi là 200.000 đồng, nên thuê chung với khách khác để tiết kiệm. Hoặc bạn cũng có thể đi vòng bờ hồ ( rẽ trái ) men theo con đường ra đảo. Ra đảo thì cứ tự nhiên thưởng thức thịt rừng. Nhớ mang theo tấm bạt trải ngồi cho vui. Cảnh đẹp, tha hồ tạo dáng. Trưa thuê võng 7.000 đồng/ giờ mắc giữa hai cây thông nằm ngủ.
Thiền viện Trúc Lâm: nằm trên núi Phụng Hoàng, phía trên Hồ Tuyền Lâm. Đây không chỉ là thiền viện lớn nhất Lâm Đồng mà còn là điểm tham quan hấp dẫn của du lịch Đà Lạt. Đối diện cổng thiền viện có trạm cáp treo. Đi cáp treo ngắm cảnh thành phố và rừng thông (50.000 đồng/ vé khứ hồi).
Thác Prenn: Toạ lạc ngay đầu đèo Prenn, trên quốc lộ 20 từ Sài Gòn lên Ðà Lạt, cách trung tâm 10 km về hướng nam. Đến với thác Prenn, ngoài việc ngắm dòng thác kì vĩ và những đồi thông bao la, du khách còn có dịp thưởng thức món cháo cá lóc đặc sản giá chỉ từ 160.000 – 200.000 VND cho 4 người ăn.
Thác Datanla: hấp dẫn du khách với dòng nước trong veo chảy qua 7 tầng núi đá rồi dội xuống những phiến đá lớn, tung bọt trắng xóa. Cách trung tâm 5km, nằm khoảng giữa đèo Prenn. Từ quốc lộ 20 rẽ xuống dốc khoảng 300m là tới một thung lũng nhỏ, du khách sẽ gặp thác Datanla với cảnh trí đầy hấp dẫn và đậm nét hoang sơ.
Làng Biệt thự Osaka Đà Lạt – Giá chỉ từ 639.000 VND
KHU VỰC XA TRUNG TÂM THÀNH PHỐ ĐÀ LẠT
Thôn chè Cầu Đất: với những cánh đồng chè xanh ngát và đặc biệt rợp một trời hoa dã quỳ vào những tháng cuối năm. Từ trung tâm thành phố, chỉ cần chạy thẳng theo đường Trần Hưng Đạo – Hùng Vương và xem chỉ dẫn đường lên Trại Mát, từ đó bạn hỏi bất cứ người dân ven đường nào để đến thôn Xuân Trường. Do ở độ cao trên 1.650m so với mặt nước biển, nên khí hậu ở đồi chè mát mẻ quanh năm. Đồi chè cho tham quan tự do, không thu tiền phí hay bất cứ một khoản thu nào khác. Khi thấy cổng chào của nhà máy chè Cầu Đất hãy mạnh dạn bước vào.
Thác Voi – chùa Linh Ẩn: nằm ở thị trấn Nam Ban, huyện Lâm Hà, cách thành phố Đà Lạt 25km về hướng Tây Nam. Thác Liêng Rơwoa hay còn gọi là Thác Voi là một trong những thác nước đẹp của Tây Nguyên với chiều cao hơn 30m, rộng chừng 15m. Phía sau dòng thác trắng xóa là những hang động sâu hun hút đầy bí ẩn như hang Dơi, hang Gió… Chùa Linh Ẩn nằm trong khu thắng cảnh Thác Voi. Trong khuôn viên chùa thờ rất nhiều tượng Phật kích thước lớn và được chạm trổ công phu.
Thị trấn D’ran: nằm dưới chân đèo D’ran trên đường lên du lịch Đà Lạt, thuộc huyện Đơn Dương. Thị trấn D’ran nổi tiếng với loài hoa dã quỳ màu vàng rực. Tại đây còn có món đặc sản nem nướng hương vị khó quên.
Thác Pongour: còn gọi là thác Bảy tầng toạ lạc tại huyện Đức Trọng, cách Đà Lạt 50 km. Thác cao 40m, trải dài 7 tầng và rộng gần 100m. Pongour là thác nước duy nhất của Lâm Đồng tổ chức ngày hội dân tộc Tây Nguyên hằng năm vào rằm tháng Giêng.
Thác Dambri: Ở vị trí cách khoảng 100km từ Đà Lạt đi xuống, 200km từ TP. HCM đi lên theo quốc lộ 20, thác Dambri (thuộc khu du lịch sinh thái Dambri) nằm cách thành phố Bảo Lộc khoảng 18 km theo hướng đông bắc. Đây là ngọn thác cao nhất Lâm Đồng với chiều cao trên 40m. tạo thành 2 dòng chảy cao thấp rất hùng vĩ.
Ăn: Quán ăn, ăn vặt, đặc sản của du lịch Đà Lạt
Du lịch Đà Lạt còn là dịp để bạn thưởng thức những đặc sản Đà Lạt gồm rượu vang và rượu cần, các loại trái cây (hồng tàu, hồng khía, hồng trứng; bơ, đào long, dâu tây, dâu tằm,…), các loại mứt, trà Bảo Lộc, trà Atiso, và các loại rau củ quả (cải bắp, cải thảo, bó xôi, súp lơ, atisô, cần tây, đậu Hà Lan, cà rốt, khoai tây, su su, cải ngọt)…
CÁC ĐỊA ĐIỂM ĂN UỐNG NỔI BẬT CỦA DU LỊCH ĐÀ LẠT
1. Bánh canh: Bánh canh Xuân An, số 15 Nhà Chung, nằm gần bưu điện TP. Đà Lạt. Quán chỉ bán buổi chiều, buổi sáng bán bún bò và mì Quảng, giá 25.000 – 30.000 VND/tô.
2. Bánh bèo: Bánh bèo số 4 chính hiệu bà Hường, nay đã chuyển về 228 đường Phan Đình Phùng gần cây xăng Hồng Hưng, phục vụ từ 11h00 đến 20h00 mỗi ngày, giá khoảng 20.000 VND/phần 4 cái.
3. Bún bò ấp Ánh Sáng: ấp Ánh Sáng là con đường bán bún bò Huế nổi tiếng nằm cạnh Hồ Xuân Hương. Món bún bò tại đây gần như giữ trọn vẹn hương vị truyền thống của món ăn. Giá từ 20.000 – 30.000 VND/tô.
4. Nem nướng: Nem nướng Bà Hùng 254 Phan Đình Phùng, Đà Lạt, chỉ bán buổi chiều đến tối, duy nhất món nem nướng, giá 35.000 VND/phần. Ngoài ra còn Nem nướng bà Nghĩa – số 4 Bùi Thị Xuân bán cả ngày.
5. Quán ăn Tài Ký: 1/A2 Bùi Thị Xuân, Đà Lạt, từ Hồ xuân Hương đi lên khoảng 900 mét. Nổi tiếng với các món tiềm như gà, bồ câu, gân bò, gân heo, óc heo, ngọc hành…. tiềm với sâm và thuốc bắc nằm. Giá từ 35.000 – 50.000 VND/món.
6. Quán nướng Cu Đức: 6A Nguyễn Lương Bằng – Phường 2 – Tp. Đà Lạt. Quán rất nổi tiếng về các món ăn đặc sản Tây Nguyên từ thịt rừng, gà, các món nướng…, giá từ: 59.000 – 119.000 VND, bán từ chiều tối đến khuya.
7. Hàng ăn chợ lầu Đà Lạt (chợ Lớn) đường Nguyễn Thị Minh Khai bán đủ thứ đồ ăn thức uống trên tầng 2 phía sau chợ, chỉ bán ban ngày, ngon rẻ.
8. Siêu thị bánh Liên Hoa: Đường 3/2, P1 TP. Đà Lạt – Nổi tiếng với những chiếc bánh ngọt nhỏ đẹp mắt, ngon miệng có giá từ 5.000 – 20.000 VND. Ở đây bán bánh mỳ xíu mại có vị ngon khác lạ so với những hàng bánh mỳ khác; và còn cả bánh mì chả, hủ tiếu bò kho, mì hoành thánh…, bán từ 7h00 sáng đến 11h30 đêm.
9. Bánh ướt lòng gà ở Trương Công Định nối liền Tăng Bạc Hổ (bên phải khu Hòa Bình, gần chợ Đà Lạt). Quán này nổi tiếng với cách chế biến nước mắm ngon, lạ miệng chỉ bán từ 2h chiều đến khoảng 7, 8h tối là hết.
10. Bánh tráng nướng – 112 Nguyễn Văn Trỗi. Quán ở bên tay trái, trước số nhà 61, bán từ 2h00 chiều đến 10h00 đêm. Ngoài ra còn có quán cóc ở cuối đường Hoàng Diệu, ngay ngã 3 Ma Trang Sơn.
11. Dâu Tây kem – 242D Phan Đình Phùng, Đà Lạt. Món kem độc đáo ở đây chính là món Dâu tây kem được làm từ dâu tây tươi hái tận vườn, sữa tươi, trứng và một số nguyên liệu khác., giá 8.000 VND/ly.
12. Dãy hàng đồ ăn tại khu chợ trung tâm thành phố Đà Lạt, hay còn gọi là khu phố Hòa Bình. Phố bán chủ yếu từ tối tới tận đêm khuya; các món ăn ở đây khá phong phú, từ bánh căn, bánh tráng quết trứng, súp cua tới bún bò Huế, mỳ Quảng, bún sườn, cơm tấm.. Giá cả các món ăn không quá cao, chỉ từ 6.000 VND mỗi bát súp, chiếc bánh tới 20.000 VND một bát bún, tô mỳ.
13. Bánh căn: ngon và nổi tiếng phải kể đến các quán nằm trên đường Tăng Bạt Hổ. Một cặp bánh có giá dao động từ 3.000 – 5.000 VND tuỳ thuộc vào nhân bánh. Thưởng thức món này ngon nhất là buổi sáng hoặc chiều tối.
14. Món xắp xắp ở bên bờ Hồ Xuân Hương (tương tự nộm bò khô ở Hà Nội và gỏi khô bò ở Sài Gòn), giá chỉ 10.000 – 15.000 VND/phần. Thành phần chính của món xắp xắp là đu đủ bào sợi, phổ bò hoặc gan heo rim kỹ, rau húng quế, nước mắm chua ngọt…
15. Mì quảng: Mì Quảng O Xí tọa lạc tại lô A29 , Đường Mạc Đỉnh Chi, Tp Đà Lạt. Mì quảng ở đây rất khác mùi vị mì quảng thông thường. Giờ mở cửa 14h – 17h hàng ngày16. Sữa Đậu Nành ( Khu Hòa Bình ): trên đường Trương Công Định, Đà Lạt. Bạn hãy tới để thưởng thức ly đậu nành nóng và nhâm nhi vài miếng bánh ngọt bạn sẽ hiểu vì sao quán thu hút được nhiều khách đến vậy . Bắt đầu bán tầm 6 giờ -7 giờ tối cho đến khuya. Giá từ: 5.000 VND/1 ly sữa
17. Cafe sáng và yogurt: nằm ở khu Hòa Bình, Cafe Tùng là quán khá nổi tiếng với giới văn sĩ gì đó. Ở đây có bán món yogurt “đặc sản” ngon tuyệt.
18. Kem bơ: viên kem không bị chảy nhão như kem bơ ở Sài Gòn. Ngon nhất là quán kem bơ / kem trái cây Thanh Thảo nằm trên đường Nguyễn Văn Trỗi.
19. Chè “xé áo”: Nếu có dịp đi qua góc đường Hùng Vương – Trần Quý Cáp, bạn sẽ được thưởng thức một món chè mang tên “xé áo”. Đó chỉ đơn giản là món chè đá giống với Phục Linh. “Xé áo” tức là “xáo é”, phát âm gần giống với “sáo é” – một cách chơi chữ rất độc đáo của học sinh phố núi về cái món chè sương sáo hột é. Ở đây còn có bán xắp xắp và mì khô, mỗi món 5000đ.
20. Bánh cuốn Thanh Trì: nằm trên đường Trần Quý Cáp. Bánh cuốn này ăn kèm chả lụa và thịt nướng. Giá 15000đ/đĩa.
 
                    TRỤ SỞ CHÍNH
                         225 Bàu Cát, P12, Q.Tân Bình, HCM
                         19002011 - 08 3849 3838 
                        08 3849 2999   
                          www.haidangtravel.com  
                         info@haidangtravel.com 
                        CSKH: 0948.99.1080
                    CHI NHÁNH
                         Quận 1 : Lầu 7, Tòa Nhà Viễn Đông, 14 Phan Tôn
                        19002011(Ext-107) -  0838204589  
                         Quận 12 : 256 TX25, Thạnh Xuân, Q12 
                        19002011(Ext-111)
                         Biên Hòa : 51A2, KP11, P.Tân Phong 
                        19002011(Ext-108) -  0613999392  
                    TRỢ GIÚP
                    Liên hệ & giới thiệuĐiều khoản chungHình thức thanh toánHướng dẫn mua tourChính sách bảo mật
                        GIỜ LÀM VIỆC
                            Thứ 2 đến 6
                                Sáng: 08:00-12:00Chiều:13:30-17:30
                            Thứ 7 Sáng: 08:00-12:00Nghỉ chủ nhật, lễ, tết
                    Được tìm kiếm nhiều
                        Tour Nha Trang
                        Tour Đà Lạt
                        Tour Cà Mau
                        Tour Phú Yên
                        Tour Ninh Chữ
                        Tour Côn Đảo
                        Tour Miền Bắc
                        Tour Phú Quốc
                        Tour Đà Nẵng
                        Tour Phan Thiết
                        Tour Bình Ba
                        Tour Nam Du
                        Tour Vũng Tàu
                        Tour Bà Lụa
                THÀNH TÍCH
            2015 © All Rights Reserved. Công ty cổ phần xây dựng du lịch Hải Đăng
        Your browser doesn't support canvas. Please download IE9+ on
            IE Test Drive
            +
                Có thể bạn quan tâm ?
                                Tour Đà Lạt Phototrip Khám Phá Những Cung Đường Hoa 3N3Đ
                                 1,250,000 đ
                                Tour Ninh Chữ - Vĩnh Hy Khám Phá Bãi Đá Bảy Màu Resort 3sao 2N2Đ
                                 1,250,000 đ
                                Tour Ninh Chữ, Vĩnh Hy Hang Rái Siêu Tiết Kiệm 2n2d
                                 850,000 đ
                                Tour Côn Đảo, Trọn Gói Vé Máy Bay 2N1Đ
                                 3,999,000 đ
                                Tour Đảo Phú Quý, Khám Phá Hòn Đảo Mang Vẻ Đẹp Hoang Sơ 3N3Đ
                                 2,250,000 đ
                                Tour Côn Đảo, Khám Phá Lịch Sử Văn Hóa Côn Sơn 2N1Đ
                                 4,590,000 đ
                                Tour Ninh Chữ - Vĩnh Hy - Cổ Thạch đồng giá 2N2Đ
                                 999,000 đ
                                Tour du lịch Vũng Tàu, Long Hải, Suối nước nóng Bình Châu 2N1Đ
                                 789,000 đ
                                Tour Đảo Hòn Sơn Khám Phá Đỉnh Ma Thiên Lãnh 2N2Đ
                                 1,390,000 đ
                                Tour Đảo Bình Hưng, Hang Rái, Vĩnh Hy 2n2d
                                 1,111,000 đ
