url:http://haidangtravel.com/Tour-Ninh-Chu-Da-Lat-Tet-Duong-Lich-2017
Tittle :Tour Ninh Chữ, Đà Lạt,Tết Dương Lịch 2017
content :Toggle navigation
                             Trang Chủ
                              Tour Du Lịch
                         Tour Trong Nước Tour Nước Ngoài
                              Tổ Chức Sự Kiện
                             Thuê Xe Du Lịch
                         Thuê Xe 4 Chổ Thuê Xe 7 Chổ Thuê Xe 16 Chổ Thuê Xe 29 Chổ Thuê Xe 35 Chổ Thuê Xe 45 Chổ
                             Khách Sạn
                              Cẩm nang du lịch
                              Tin tức du lịch
                              Bảng Giá Tour
                     1900 2011
                    08.3849.3838 - 0948.99.1080
                    Đăng Ký
                                            ×
                                            ĐĂNG KÝ
                                                        Tên đăng nhập (bắt buộc)
                                                        Nhập số điện thoại ( bắt buôt )
                                                        Nhập họ tên của bạn
                                                        Nhập mail của bạn
                                                        Nhập mật khẩu ( bắt buột )
                                                        Nhập lại mật khẩu ( bắt buột )
                                                        NamNữKhác
                                                        Địa chỉ nhà bạn
                                                        Ngày sinh của bạn
                                                 Nhận mail từ Hải Đăng Travel
                                                Đăng Ký
                        Đăng nhập
                                            ×
                                            ĐĂNG NHẬP
                                        Quên mật khẩu ?
                                        Đăng Ký
                                                Ghi nhớ mật khẩu
                                                Đăng nhập
                    Trang chủ
                 ›
                    Tour trong nước
                 ›
                    Tour Ninh Chữ, Đà Lạt,Tết Dương Lịch 2017
                 Photo
                                Hổ Trợ Trực Tuyến
                             SKYPE YAHOO0909467993
                             Tour Ninh Chữ, Đà Lạt,Tết Dương Lịch 2017
                                     4 ngày 4 đêm
                                      Ô Tô 
                                      2 sao 
                                     2,290,000 đ
                                            Giá gốc: 2,900,000 đ
                                                 Lịch khởi hành
                                                                                                        28/12/2016
                                 DỊCH VỤ ĐÍNH KÈM
                                  Vé tham quan  Hướng dẫn viên  Ăn uống  Phương tiện   Bảo hiểm  Khách sạn
                                 Cơ hội nhân quà hấp khi đăng ký tour tại www.haidangtravel.com xem quà tặng tại đây 
                                 MUA TOUR
                                 GIỚI THIỆU Tour Ninh Chữ, Đà Lạt,Tết Dương Lịch 2017
                                         Đánh Giá Tour
                                    0.0
                                                                                                                                    Đăng nhập để đánh giá hay điền các thông tin sau :
                                                        Họ tên (bắt buộc)
                                                        Nhập mail của bạn (bắt buộc)
                                                    Nhập nhận xét của bạn (bắt buộc)
                                                     Đánh giá :
                                                                           Rất Tốt  Tốt  khá  Trung Bình  Bình Thường
                                                Rất Tốt 0
                                                Tốt  0
                                                Khá 0
                                                Tạm Được  0
                                                Bình Thường  0
                                            Nhận xét (0)
                                                                                                                                                                                Hết
                        LỊCH TRÌNH TOUR
                                 NGÀY 1 : TP.HCM – NINH CHỮ 
                                    21h00 : Xe và Hướng Dẫn Viên HAIDANG TRAVEL đón đoàn tại điểm hẹn, khởi hành rời TP.HCM đi Ninh Chữ. Quý khách tham gia giao lưu cùng HDV và nghỉ đêm trên xe. 
BIỂN NINH CHỮ - VỊNH VĨNH HY- HANG RÁI
06h30: Đến Ninh Chữ, Xe đưa Quý khách về nhà hàng khu resort nghỉ ngơi, gửi hành lý. Sau đó đoàn dùng điểm tâm sáng và khởi hành tham quan Vịnh Vĩnh Hy.
Quý khách tham quan Hang Rái Là một trong những điểm nhấn khi du lịch Vĩnh Hy, Hang Rái mang lại cảm giác tuyệt hảo cho du khách khi được lạc vào xứ sở của câu chuyện cổ tích bởi vẻ đẹp gần như hoàn hảo. Từ những hòn đá nhiều hình thù xếp chồng lên nhau tạo ra vô số hang động lớn nhỏ đẹp mắt, bãi Hang Rái ẩn hiện trong làn nước xanh của biển thay đổi theo ánh mặt trời chính là cơ hội cho những ai yêu thích nghệ thuật được thỏa mãn niềm đam mê của mình.
Tiếp tục cuộc hành trình đến với Vịnh Vĩnh Hy tàu đáy kính sẽ đưa du khách tham quan Vịnh, ngắm san hô, tiếp tục tham quan bãi Cóc, bãi Bà Điên tắm biển và tự do thưởng thức hải sản tươi sống. 
11h00 :Tàu đưa du khách trở về đất liền.Xe đưa du khách về nhà hàng dùng cơm trưa và về resort nhận phòng khách sạn nghỉ ngơi.
Qúy khách sinh hoạt và tắm biển tự do tại bãi biễn Ninh Chữ,
Tối: Qúy khách dùng cơm tối tại Nhà Hàng,  du khách tự do dạo phố về đêm khám phá ẩm thực tại địa phương.
 
 
                                 NGÀY 2 : NINH CHỮ - ĐÀ LẠT 
                                    06h30: Quý Khách dùng điểm tâm, tự do tắm biển. 
08h30: Quý khách làm thủ tục trả phòng, đoàn tham quan làng Gốm Bàu Trúc và làng dệt Mỹ Nghiệp.
11h00: Đoàn dùng cơm trưa tại nhà hàng.
13h00: Đoàn khởi hành đi Đà Lạt, trên đường qúy khách thưởng thức và mua sắm đặc sản của vùng đất Phan Rang – Nho, Rượu Nho….
16h30: Tới Đà Lạt quý Khách nhận phòng nghỉ ngơi
Quý khách tự túc khám phá ẩm thực Đà Lạt về đêm. Dạo phố đêm Đà Lạt,bên Hồ Xuân Hương lãng mạn.
 
                                 NGÀY 3 : RỪNG HOA KHÔ ĐÀ LẠT-ĐƯỜNG HẦM ĐIÊU KHẮC ĐẤT SÉT- NHÀ THỜ DOMAIN - LANGBIANG 
                                    07h30 : Quý khách dùng điểm tâm tại Khách sạn.
Quý khách tham quan “ Rừng Hoa Khô” - showroom hoa tươi bảo quản nghệ thuật lớn nhất Việt Nam. Hàng chục loại hoa, lá được sấy khô và bảo quản theo công nghệ Nhật Bản, giúp lưu giữ hoa từ 3 đến 5 năm. Hoa sấy khô đa sắc màu được các nghệ nhân cắm và trưng bày theo nhiều phong cách đầy sáng tạo và ấn tượng, hoặc “biến hóa” thành những con búp bê hoa ngộ nghĩnh, xinh xắn. Những bức tranh phong cảnh Đà Lạt sống động được “vẽ” bằng hoa tươi sấy khô sẽ làm “mãn nhãn” du khách.
8h30 : Tham quam Đường hầm Đất Sét với chiều dài hơn 1km, đường hầm điêu khắc chủ yếu bằng chất liệu đất sét đã tái hiện lịch sử hình thành Đà Lạt, từ thuở hồng hoang đến một đô thị hiện đại. Ấn tượng và đặc trưng nhất có lẽ là những công trình kiến trúc cổ của Đà Lạt thu nhỏ như: Trường cao đẳng Sư phạm, ga xe lửa Đà Lạt, các nhà thờ, chùa chiền, biệt thự cổ. Bên cạnh đó là mô hình các vật dụng, phương tiện một thời gắn bó với người dân phố núi như: xe hơi cổ, vespa cổ, đầu xe lửa hơi nước, điện thoại cổ….
11h30 : Qúy khách dùng bữa trưa tại nhà hàng, trở về khách sạn nghỉ ngơi.
14h00 : Xe đưa đoàn tham quan Nhà Thờ Domain De Maria – hay còn gọi là nhà thờ Mai Anh – tọa lạc trên quả đồi Mai Anh. Trong nhà thờ có tượng Đức Mẹ đứng trên quả địa cầu tạc theo hình mẫu của phụ nữ Việt Nam, do Jonchère - một kiến trúc sư người Pháp thiết kế .
15h30 : Quý khách chinh phục tham quan và chinh phục Langbiang – nơi nổi tiếng với chuyện tình lãng mạn và cảm động giữa chàng Lang và nàng Biang.
18h00 : Đoàn thưởng thức buổi tiệc các món ăn đặc sản của dân tộc Lạt. (Thịt nướng, cơm lam, rượu Langbiang đặc biệt sưởi ấm long người nơi xứ lạnh)
Sau bữa tối đoàn tham gia chương trình Đêm Hội Cồng Chiêng : giao lưu với những người dân tộc bản xứ, thưởng thức rượu cần, thịt nướng và tham gia trò chơi truyền thống của người Tây Nguyên : Kén Rể... rất đặc sắc mà du khách không thể bỏ qua khi đến với buôn làng dưới chân núi.( tự túc)
 
                                 NGÀY 4 : ĐÀ LẠT – HỒ CHÍ MINH 
                                    07h00: Quý khách trả phòng, dùng điểm tâm tại nhà hàng và xe sẽ đưa đoàn đến tham quan và mua sắm tại chợ Đà Lạt, ngắm nhìn một lần nữa TP.Đà Lạt với muôn loài hoa khoe sắc rực rỡ….
08h30: Sau đó đoàn rời Đà Lạt trở về TP.HCM. đoàn viếng Thiền Viện Trúc Lâm (quý khách có thể đi cáp treo qua Đồi Rôbin ngắm toàn cảnh Hồ Tuyền Lâm, núi Voi và rừng thông bạt ngàn, khám phá cao nguyên Lâm Viên từ trên cao).
11h30: Đến thị xã Bảo Lộc. Đoàn dùng bữa trưa, thưởng thức cà phê miễn phí tại nhà hàng Tâm Châu, Sau đó tiếp tục khởi hành về TP. HCM.
18h30: Đoàn về đến HCM, xe đưa quý khách về điểm đón ban đầu, kết thúc chương trình tham quan, chia tay và hẹn gặp lại quý khách trong thời gian sớm nhất. 
                    G.Thiệu
                                        Ngày 1
                                        Ngày 2
                                        Ngày 3
                                        Ngày 4
                     ĐỊA ĐIỂM ĐÓN KHÁCH
                                                    QUÝ KHÁCH ĐI TOUR KHỞI HÀNH BẰNG Ô TÔ VỚI NHỮNG ĐIỂM ĐÓN SAU :
                             Đón khách tại Công ty Du lịch Hải Đăng, 225 Bàu Cát, P12, Quận Tân Bình
                             Đón khách tại Nhà Văn Hóa Thanh Niên, 04 Phạm Ngọc Thạch, Quận 1
                             Đón khách tại Cây xăng Comeco, Ngã 4 Hàng Xanh, Quận Bình Thạnh
                             Đón khách tại Ngã 4 Thủ Đức, Quận 9
                             Đón khách tại Siêu thị Lotte Mart, Ngã 4 Amata, Biên Hòa, Đồng Nai
                            QUÝ KHÁCH ĐI TOUR TUYẾN MIỀN TÂY NHỮNG ĐIỂM ĐÓN SAU :
                             Đón khách tại Công viên Bàu Cát, 141 Đồng Đen, P11, Quận Tân Bình 
                             Đón khách tại Nhà Văn Hóa Thanh Niên, 04 Phạm Ngọc Thạch, Quận 1
                             Bến xe miền tây , Q 6 ( bệnh viện Triều An )
                            QUÝ KHÁCH ĐI TOUR KHỞI HÀNH BẰNG MÁY BAY VỚI NHỮNG ĐIỂM ĐÓN SAU :
                             Quý khách vui lòng tập trung tại nhà ga đối với những khách đi tour khởi hành bằng tàu
                             Quý khách vui lòng tập trung tại sân bay hoặc các phòng chờ của các hãng bay đối với những khách đi tour khởi hành bằng máy bay
                         QUY ĐỊNH TOUR
                                             GIÁ TOUR BAO GỒM 
                                                  Lưu Trú
                                                Khách sạn, Resort 2 sao:
Tại Ninh Chữ: Hoàn Cầu …hoặc tương đương
Tại Đà Lạt: Thắng Lợi, Ý Lan….. hoặc tương đương
Phòng 3-4 khách
Phụ thu phòng 2: 75.000 đ/khách/1 đêm ngày thường
Phụ thu phòng 2: 100.000 đ/khách/đêm ngày lễ
*** Nếu quý khách có nhu cầu ở khách sân 3-4-5 sao vui lòng lien hệ HAIDANGTRAVEL để được sắp xếp.
Trường hợp quý khách đi 01 người, vui lòng đóng thêm phụ thu phòng đơn: 450.000đ/khách ngày thường. và 900.000 đ/khách cho dịp lễ Tết. Trường hợp trong đợt khởi hành có khách lẻ ghép, Hải Đăng sẽ ghép cho khách và không phải đóng phụ thu.
                                                 Vé Tham Quan
                                                    Vé vào cổng: Vé cổng tham quan Vịnh Vĩnh Hy, Tàu đáy kính ngắm san hô , Đường hầm điêu khắc đất sét, Thiền viện trúc lâm, Langbian, Khu vườn kì lạ
                                                  Ăn Uống
                                                Điểm tâm: 4 buổi
1 set Menu: 40.000 đ/suất (1tô bún, phở, hủ tiếu + 1 ly nước ngọt, sữa, café)
Ăn chính: 6 buổi
5 buổi: 80.000đ/suất + 1 buổi tiệc 100.000 đ/khách
                                                   Nón Nước - Khăn Lạnh
                                                Nước suối: 1 chai 500ml/ngày/khách
Khăn lạnh: 1 cái/ngày/khách
Nón du lịch: 1 nón HAIDANGTRAVEL/khách
                                                 Phương Tiện
                                                Xe đời mới máy lạnh 45 Chỗ, đón khách theo chương trình
                                             GIÁ TOUR KHÔNG BAO GỒM 
                                                   Chi Phí Cá Nhân
                                                Chi phí cá nhân	Giặt ủi, điện thoại,ăn uống ngoài chương trình …..
VAT 	10%
Điểm tham quan	Xe Reep, cáp treo
Cồng chiêng Tây Nguyên
                                                  Thuế VAT
                                                 10% thuế VAT
                                             QUY ĐỊNH TRẺ EM 
                                                Trẻ em dưới 5 tuổi
Miễn Phí, ngủ chung bố mẹ. Mỗi cặp vợ chồng chỉ được mang theo 1 bé miễn phí, trẻ thứ 2 được tính 50% vé người lớn.
Phụ thu ghế ngồi của bé nếu ba mẹ cho nhu cầu: 1.000.000 đ/bé.
Từ 6-11 tuổi
75% vé tour Bao gồm các dịch vụ ngủ chung bố mẹ, 1 chỗ ngồi trên xe, ăn uống theo chương trình. 1 Cặp vợ chồng chỉ được mang theo 1 bé  , trẻ thứ 2 được tính 1 vé người lớn.
 Trên 11 tuổi
Vé người lớn
                                             QUY ĐỊNH MUA VÀ HỦY TOUR 
                                                Sau khi đăng ký, thanh toán ít nhất 50% tiền cọc và đóng hết 100% trước khởi hành 7 ngày.
Dời ngày khởi hành trước 10 ngày không mất phí, sau 8 ngày mất 20%.( Không tính ngày lễ và chủ nhật), chỉ được dời 1 lần.
Sau khi đăng ký huỷ tour mất 10% giá tour
Từ 10 đến trước 8 ngày trước ngày khởi hành chịu phí 30% giá tour.( Không tính ngày lễ và chủ nhật)
Từ 8 đến 6 ngày trước ngày khởi hành chịu phí 50% giá tour.( Không tính ngày lễ và chủ nhật)
Từ 3-5 ngày trước ngày khởi hành chịu phí 70% giá tour.( Không tính ngày lễ và chủ nhật)
Từ 2 ngày trước ngày khởi hành chịu phí 100% giá tour.( Không tính ngày lễ và chủ nhật)
Các quy định trên không áp dụng cho các dịp lễ và tết.
Các ngày lễ tết việc dời ngày và hủy tour trước 15 ngày khởi hành mất 50% giá tour. Sau 15 ngày so với ngày khởi hành mất 100% giá tour.(Không tính ngày chủ nhật.)
Sau khi hủy tour, du khách vui lòng đến công ty nhận tiền trong vòng 2 tuần kể từ ngày đăng ký tour. Chúng tôi chỉ thanh toán trong thời gian 14 ngày nói trên.
Trường hợp hủy tour do sự cố khách quan như thiên tai, dịch bệnh hoặc do tàu thủy, xe lửa, máy bay hoãn/hủy chuyến, Hải Đăng Travel sẽ không chịu trách nhiệm bồi thường thêm bất kỳ chi phí nào khác ngoài việc hoàn trả chi phí những dịch vụ chưa được sử dụng của tour đó.
                                             HÌNH THỨC THANH TOÁN 
                                                Thanh toán bằng tiền mặt tại Trụ sở chính, chi nhánh của Hải Đăng Travel hoặc công ty hỗ trợ thu tận nơi ( nếu khách có yêu cầu)
Chuyển khoản qua số tài khoản
Số tài khoản: 711A00686521.
Chủ tài khoản: Dương Phan Quốc Văn – Vietinbank TP.HCM.
Nội dung: Tour Ninh Chữ - Đà Lạt. Ngày khởi hành:…, Tên khách:…, Số lượng:…
Sử dụng Voucher, cung cấp mã số Voucher, đóng thêm phụ thu (nếu có). Du khách giữ Voucher và nộp lại cho công ty.
Thanh toán bằng thẻ Visa ( thẻ từ, thẻ chip,…)
Thẻ giảm giá, thẻ ưu đãi xuất trình khi đăng ký tour.
                     ĐIỂM THAM QUAN 
                                    Xem +
                                    Hồ Xuân Hương
                                    Xem +
                                    Vịnh Vĩnh Hy
                                    Xem +
                                    Ga Đà Lạt
                                    Xem +
                                    Thác Datanla 
                                    Xem +
                                    Langbiang
                                    Xem +
                                    Làng Dệt Mỹ Nghiệp
                                    Xem +
                                    Làng Gốm Bàu Trúc
                                                  Kiểm Tra Giá & Lịch Khởi Hành 
                                                                                            KS 2 Sao
                            Khởi Hành
                                                                                                                                                                    28/12/2016
                            = 
                            Người lớn
                            = 
                            Trẻ em
                            = 
                            Tổng cộng
                                = 
                         Mua Tour
                TOUR LIÊN QUAN
                                              4 ngày 4 đêm |  Ô Tô |  2 sao
                                            Xem
                                    Tour Nha Trang, Đà Lạt, Tết Dương Lịch 2017
                                         2,290,000 đ
                                                Giá gốc: 2,340,000 đ
                                                     Lịch khởi hành
                                                        29/12/201630/12/2016
                                              3 ngày 3 đêm |  Ô Tô |  2 sao
                                            Xem
                                    Tour Nha Trang Tiệc Buffet, Bãi Tắm Nhũ Tiên,Tết Dương Lịch 2017
                                         1,790,000 đ
                                                Giá gốc: 1,890,000 đ
                                                     Lịch khởi hành
                                                        29/12/201630/12/2016
                                              3 ngày 3 đêm |  Ô Tô |  2 sao
                                            Xem
                                    Tour Nha Trang, Bar Trên Biển, Tết Dương Lịch 2017
                                         1,690,000 đ
                                                Giá gốc: 1,890,000 đ
                                                     Lịch khởi hành
                                                        29/12/201630/12/2016
                                              2 ngày 2 đêm |  ô Tô |  3 sao
                                            Xem
                                    Tour Ninh Chữ - Vĩnh Hy Resort 3sao, Tết Dương Lịch 2017
                                         1,550,000 đ
                                                Giá gốc: 1,999,000 đ
                                                     Lịch khởi hành
                                                        30/12/2016
                                              2 ngày 1 đêm |  Máy bay (Bao Gồm ) |  3 sao
                                            Xem
                                    Tour Côn Đảo, Trọn Gói Vé Máy Bay Tết Dương Lịch 2017
                                         5,250,000 đ
                                                Giá gốc: 5,890,000 đ
                                                     Lịch khởi hành
                                                        25/12/201626/12/201627/12/201628/12/201629/12/201630/12/201631/12/201601/01/201702/01/2017
                                              3 ngày 2 đêm |  Máy bay ( Bao Gồm ) |  3 sao
                                            Xem
                                    Tour Côn Đảo, Khám Phá Vùng Đất Thiêng Tết Dương Lịch 2017
                                         5,990,000 đ
                                                Giá gốc: 6,000,000 đ
                                                     Lịch khởi hành
                                                        25/12/201626/12/201627/12/201628/12/201629/12/201630/12/201631/12/2016
                    TRỤ SỞ CHÍNH
                         225 Bàu Cát, P12, Q.Tân Bình, HCM
                         19002011 - 08 3849 3838 
                        08 3849 2999   
                          www.haidangtravel.com  
                         info@haidangtravel.com 
                        CSKH: 0948.99.1080
                    CHI NHÁNH
                         Quận 1 : Lầu 7, Tòa Nhà Viễn Đông, 14 Phan Tôn
                        19002011(Ext-107) -  0838204589  
                         Quận 12 : 256 TX25, Thạnh Xuân, Q12 
                        19002011(Ext-111)
                         Biên Hòa : 51A2, KP11, P.Tân Phong 
                        19002011(Ext-108) -  0613999392  
                    TRỢ GIÚP
                    Liên hệ & giới thiệuĐiều khoản chungHình thức thanh toánHướng dẫn mua tourChính sách bảo mật
                        GIỜ LÀM VIỆC
                            Thứ 2 đến 6
                                Sáng: 08:00-12:00Chiều:13:30-17:30
                            Thứ 7 Sáng: 08:00-12:00Nghỉ chủ nhật, lễ, tết
                    Được tìm kiếm nhiều
                        Tour Nha Trang
                        Tour Đà Lạt
                        Tour Cà Mau
                        Tour Phú Yên
                        Tour Ninh Chữ
                        Tour Côn Đảo
                        Tour Miền Bắc
                        Tour Phú Quốc
                        Tour Đà Nẵng
                        Tour Phan Thiết
                        Tour Bình Ba
                        Tour Nam Du
                        Tour Vũng Tàu
                        Tour Bà Lụa
                THÀNH TÍCH
            2015 © All Rights Reserved. Công ty cổ phần xây dựng du lịch Hải Đăng
        Your browser doesn't support canvas. Please download IE9+ on
            IE Test Drive
            +
                Có thể bạn quan tâm ?
                                Tour Đảo Phú Quý, Khám Phá Hòn Đảo Mang Vẻ Đẹp Hoang Sơ 3N3Đ
                                 2,250,000 đ
                                Tour Côn Đảo, Trọn Gói Vé Máy Bay 2N1Đ
                                 3,999,000 đ
                                Tour Đảo Hòn Sơn Khám Phá Đỉnh Ma Thiên Lãnh 2N2Đ
                                 1,390,000 đ
                                Tour Ninh Chữ - Vĩnh Hy - Cổ Thạch đồng giá 2N2Đ
                                 999,000 đ
                                Tour Côn Đảo, Khám Phá Lịch Sử Văn Hóa Côn Sơn 2N1Đ
                                 4,590,000 đ
                                Tour Ninh Chữ - Vĩnh Hy Khám Phá Bãi Đá Bảy Màu Resort 3sao 2N2Đ
                                 1,250,000 đ
                                Tour Ninh Chữ, Vĩnh Hy Hang Rái Siêu Tiết Kiệm 2n2d
                                 850,000 đ
                                Tour du lịch Vũng Tàu, Long Hải, Suối nước nóng Bình Châu 2N1Đ
                                 789,000 đ
                                Tour Đà Lạt Phototrip Khám Phá Những Cung Đường Hoa 3N3Đ
                                 1,250,000 đ
                                Tour Đảo Bình Hưng, Hang Rái, Vĩnh Hy 2n2d
                                 1,111,000 đ
                        ×
