url:http://haidangtravel.com/Tour-Hot-Tour-Phu-Quoc-Kham-Pha-Nam-Dao-Dong-Dao-3N2D
Tittle :Tour Hot, Tour Phú Quốc, Khám Phá Nam Đảo, Đông Đảo 3N2Đ
content :Toggle navigation
                             Trang Chủ
                              Tour Du Lịch
                         Tour Trong Nước Tour Nước Ngoài
                              Tổ Chức Sự Kiện
                             Thuê Xe Du Lịch
                         Thuê Xe 4 Chổ Thuê Xe 7 Chổ Thuê Xe 16 Chổ Thuê Xe 29 Chổ Thuê Xe 35 Chổ Thuê Xe 45 Chổ
                             Khách Sạn
                              Cẩm nang du lịch
                              Tin tức du lịch
                              Bảng Giá Tour
                     1900 2011
                    08.3849.3838 - 0948.99.1080
                    Đăng Ký
                                            ×
                                            ĐĂNG KÝ
                                                        Tên đăng nhập (bắt buộc)
                                                        Nhập số điện thoại ( bắt buôt )
                                                        Nhập họ tên của bạn
                                                        Nhập mail của bạn
                                                        Nhập mật khẩu ( bắt buột )
                                                        Nhập lại mật khẩu ( bắt buột )
                                                        NamNữKhác
                                                        Địa chỉ nhà bạn
                                                        Ngày sinh của bạn
                                                 Nhận mail từ Hải Đăng Travel
                                                Đăng Ký
                        Đăng nhập
                                            ×
                                            ĐĂNG NHẬP
                                        Quên mật khẩu ?
                                        Đăng Ký
                                                Ghi nhớ mật khẩu
                                                Đăng nhập
                    Trang chủ
                 ›
                    Tour trong nước
                 ›
                    Tour Hot, Tour Phú Quốc, Khám Phá Nam Đảo, Đông Đảo 3N2Đ
                 Photo
                                Hổ Trợ Trực Tuyến
                             SKYPE YAHOO0917770488
                             Tour Hot, Tour Phú Quốc, Khám Phá Nam Đảo, Đông Đảo 3N2Đ
                                     3 ngày 2 đêm
                                      máy bay 
                                      2 sao 
                                     1,390,000 đ
                                            Giá gốc: 2,200,000 đ
                                                 Lịch khởi hành
                                                                                                        20/11/201621/11/201622/11/201623/11/201624/11/201625/11/201626/11/201627/11/201628/11/201629/11/201630/11/2016
                                 DỊCH VỤ ĐÍNH KÈM
                                  Vé tham quan  Hướng dẫn viên  Ăn uống  Phương tiện   Bảo hiểm  Khách sạn
                                 Cơ hội nhân quà hấp khi đăng ký tour tại www.haidangtravel.com xem quà tặng tại đây 
                                 MUA TOUR
                                 GIỚI THIỆU Tour Hot, Tour Phú Quốc, Khám Phá Nam Đảo, Đông Đảo 3N2Đ
                                Trực thuộc tỉnh Kiên Giang, Phú Quốc được mệnh danh là Đảo Ngọc. Với những bãi biển nước xanh trong vắt như Bãi Sao và Bãi Dài, Phú Quốc thực sự là thiên đường cho những người yêu biển. Thị trấn Dương Đông là nơi tập trung dân cư sầm uất nhất trên đảo Phú Quốc, đặc biệt là khu chợ đêm nằm gần Dinh Cậu. Ngoài ra, làng chài Hàm Ninh, Gành Dầu và quần đảo An Thới cũng là những địa điểm tham quan không thể bỏ qua khi du lịch Phú Quốc. Đặc sản của Phú Quốc không chỉ có các loại hải sản tươi sống mà còn có hồ tiêu Phú Quốc, được trồng dọc theo con đường đất đỏ đi đến Bắc Đảo, Gành Dầu.Hãy đến với Haidangtravel để cảm nhận thêm về Phú Quốc nhé.
                                         Đánh Giá Tour
                                    0.0
                                                                                                                                    Đăng nhập để đánh giá hay điền các thông tin sau :
                                                        Họ tên (bắt buộc)
                                                        Nhập mail của bạn (bắt buộc)
                                                    Nhập nhận xét của bạn (bắt buộc)
                                                     Đánh giá :
                                                                           Rất Tốt  Tốt  khá  Trung Bình  Bình Thường
                                                Rất Tốt 0
                                                Tốt  0
                                                Khá 0
                                                Tạm Được  0
                                                Bình Thường  0
                                            Nhận xét (0)
                                                                                                                                                                                Hết
                        LỊCH TRÌNH TOUR
                                 NGÀY 1 : PHÚ QUỐC -  ĐÔNG ĐẢO
                                    Sáng: Quý khách tập trung tại Sân Bay Tân Sơn Nhất, làm thủ tục bay đến Phú Quốc từ 07h00 đến 12h00
- Xe và hướng dẫn viên đón quý khách tại sân bay Phú Quốc.
11h30: Đưa đoàn đi ăn trưa với đặc sản Phú Quốc tại nhà hàng. Về Khách sạn nhận phòng.
Chiều: Khởi hành tham quan phía Đông đảo:
Xe đón đoàn đưa đi thăm quan Chùa Hùng Long Tự (Am Sư Muôn): Một ngôi chùa nằm giửa lưng chừng núi, nơi đây quý khách có thể nhìn thấy toàn cảnh thị trấn dương Đông hoặc Thiền Viện Trúc Lâm Hộ Quốc, nằm tựa lưng vào núi, hướng mặt ra biển. Đường lên Chùa tuyệt đẹp với một bên là rừng núi xanh tươi, một bên là đại dương mênh mông
Làng chài cổ Hàm Ninh: nơi đây nổi tiếng với nghề đánh bắt lưới ghẹ, cá ngựa, hải sâm, hái rong biển, thưởng thức hải sản tươi vừa đánh bắt với giá gốc ( chi phí tự túc)Leo núi tắm suối tranh: Một trong những dòng suối đẹp như bức tranh mà thiên nhiên đã vẽ và ban tặng cho Phú Quốc ( Suối chỉ có nước vào tháng 5 đến tháng 11)Cơ Sở sản xuất rượu sim:  Thưởng thức rượu Sim rừng miễn phí với hương vị đặc trưng thơm ngon chỉ có tại Phú Quốc.
Quý khách ăn tối tại Nhà Hàng.
Sau đó xe và HDV đưa quý khách về khách sạn nghỉ ngơi. Tự do dạo biển, thưởng thức không khí trong yên tĩnh tuyệt vời của huyện đảo.
 
 
 
                                 NGÀY 2 : PHÚ QUỐC NAM ĐẢO
                                     
Sau  khi dùng điểm tâm sáng
09h00: Xe và HDV đưa quý khách tham quan:
Nhà thùng nước mắm: với cách ủ truyền thống có lịch sử hơn 100 năm tại Phú Quốc, nơi cho ra đời thương hiệu «  Nước mắm Phú Quốc » được bảo hộ trên toàn thế giới.Vườn tiêu: với những nọc tiêu thẳng tắp, xanh mơn mỡn, nổi tiếng chắc hạt, thơm ngọn.Trại nuôi cấy ngọc trai: quý khách trực tiếp tham quan quy trình nuôi Trai lấy Ngọc, chiêm ngưỡng và mua sắm hàng ngọc trai chính hiệu tại cơ sở nuôi cấy ngọc trai.
​
Quý khách dùng cơm trưa tại Nhà Hàng.
Di tích lịch sử nhà tù Phú Quốc: Nơi một thời được mệnh danh là địa ngục trần gian trong hai cuộc kháng chiến chống Pháp - Mỹ.Bãi Sao: là một trong những bãi biển tuyệt đẹp của Phú Quốc với bãi cát trắng và nước trong xanh. Tại đây quý khách có thể tự do tắm biển và tham gia các trò chơi trên biển như: Jetski, Kayak, Cano, Phao kéo (chi phí tự túc).
18h30: HDV đưa khách ăn tối tại Nhà Hàng.
Xe đưa Quý khách về khách sạn, trên đường về sẽ ghé chợ đêm Dinh Cậu, Quý khách tự do dạo chợ, sau đó bách bộ về khách sạn
                                 NGÀY 3 : TẠM BIỆT PHÚ QUỐC 
                                    Sau bữa điểm tâm du khách, tắm biển, nghỉ ngơi cho đến khi trả phòng, tự do mua sắm tại chợ Dương Đông. Sau đó xe và HDV tiễn đoàn ra sân bay Phú Quốc, làm thủ tục lên máy bay. Chào tạm biệt và hẹn gặp lại.
Một số thứ tự, chi tiết trong chương trình; giờ bay; có thể thay đổi để phù hợp với tình hình thực tế của chuyến đi (thời tiết…).
Lưu Ý : Áp dụng cho 20 khách mỗi đợt khởi hành.Trường hợp đợt dưới 20 khách vui long liên hệ để được tư vấn
                    G.Thiệu
                                        Ngày 1
                                        Ngày 2
                                        Ngày 3
                     ĐỊA ĐIỂM ĐÓN KHÁCH
                                                QUÝ KHÁCH ĐI TOUR KHỞI HÀNH BẰNG Ô TÔ VỚI NHỮNG ĐIỂM ĐÓN SAU :
Đón khách tại Công ty Du lịch Hải Đăng, 225 Bàu Cát, P12, Quận Tân Bình
Đón khách tại Nhà Văn Hóa Thanh Niên, 04 Phạm Ngọc Thạch, Quận 1
Đón khách tại Cây xăng Comeco, Ngã 4 Hàng Xanh, Quận Bình Thạnh
Đón khách tại Ngã 4 Thủ Đức, Quận 9
Đón khách tại Siêu thị Lotte Mart, Ngã 4 Amata, Biên Hòa, Đồng Nai
QUÝ KHÁCH ĐI TOUR TUYẾN MIỀN TÂY NHỮNG ĐIỂM ĐÓN SAU :
Đón khách tại Công viên Bàu Cát, 141 Đồng Đen, P11, Quận Tân Bình
Đón khách tại Nhà Văn Hóa Thanh Niên, 04 Phạm Ngọc Thạch, Quận 1
Bến xe miền tây , Q 6 ( bệnh viện Triều An )
QUÝ KHÁCH ĐI TOUR KHỞI HÀNH BẰNG MÁY BAY VỚI NHỮNG ĐIỂM ĐÓN SAU :
Quý khách vui lòng tập trung tại nhà ga đối với những khách đi tour khởi hành bằng tàu
Quý khách vui lòng tập trung tại sân bay hoặc các phòng chờ của các hãng bay đối với những khách đi tour khởi hành bằng máy bay
                         QUY ĐỊNH TOUR
                                             GIÁ TOUR BAO GỒM 
                                                  Lưu Trú
                                                Khách sạn 2 sao,hoặc tương đương, tiêu chuẩn phòng 3-4 khách
Phụ thu phòng đôi: 100.000 đ/khách/đêm
Trường hợp trong đợt khởi hành có khách lẻ ghép, Hải Đăng sẽ ghép cho khách và không phải đóng phụ thu phòng đơn.
                                                 Vé Tham Quan
                                                    Vé vào cổng các điểm tham quan theo chương trình
                                                  Ăn Uống
                                                Điểm tâm: 2 buổi 
Tiêu chuẩn 2 sao: Set Menu 50.000 đ/suất
Ăn chính: 4 buổi
4 buổi : 120.000đ/suất
                                                   Nón Nước - Khăn Lạnh
                                                Nước suối: 1 chai 500ml/ngày/khách
Khăn lạnh: 1 cái/ngày/khách
Nón du lịch : 1 nón HAIDANGTRAVEL/khách
                                                 Phương Tiện
                                                Xe đời mới máy lạnh từ 07, 16, 29 chỗ, đón khách theo chương trình
                                             GIÁ TOUR KHÔNG BAO GỒM 
                                                   Chi Phí Cá Nhân
                                                Chi phí: Vé máy bay khứ hồi : SGN – PQC –SGN. Giá dao dộng  1.460.000đ – 3.450.000đ (VJ, Jet, VN)..Phụ phí phòng đơn...Giặt ủi, điện thoại, ăn uống ngoài chương trình …..Thuế VAT: Khách nào có nhu cầu xuất hóa đơn thì đóng thêm 10% giá tour
                                                  Thuế VAT
                                                 10% thuế VAT
                                             QUY ĐỊNH TRẺ EM 
                                                Dưới 2 tuổi
Đối với hãng Vietjet và Jetstar: Trẻ em dưới 2 tuổi miễn phí giá land, miễn phí vé máy bay.
Đối với hãng Vietnam Airline: Trẻ em dưới 2 tuổi miễn phí giá land, 10%vé máy bay.
Từ 2 - 5 tuổi
Đối với hãng Vietjet và Jetstar: Trẻ em dưới 5  tuổi miễn phí giá land, 100% vé máy bay. Ngủ chung cùng cha mẹ.
Đối với hãng Vietnam Airline: Trẻ em dưới 5  tuổi miễn phí giá land, 75% vé máy bay. Ngủ chung cùng cha mẹ.
Hai người lớn chỉ được kèm một trẻ em. Từ trẻ thứ 2 ở độ tuổi từ 2 đến 5 tuổi mua 50% vé tour. Tiêu chuẩn nửa vé bao gồm: Suất ăn, ghế ngồi và ngủ ghép chung với gia đình.
Từ 6-11 tuổi
Đối với hãng Vietjet và Jetstar: Trẻ em 60% vé tour, 100% vé máy bay. Ngủ chung cùng cha, mẹ.
Đối với hãng Vietnam Airline: Trẻ em 60% vé tour, 75% vé máy bay. Ngủ chung cùng cha, mẹ.
12 tuổi trở lên
Vé người lớn
                                             QUY ĐỊNH MUA VÀ HỦY TOUR 
                                                Sau khi xác nhận và thanh toán 100 % đăng ký. Vé Máy Bay được xuất ngay sau khi quý khách đóng tiền và có xác nhận sự chính xác về họ, tên (đúng từng ký tự ghi trong hộ chiếu hoặc CMND), ngày-tháng-năm sinh … của hành khách theo yêu cầu của hãng vận chuyển. (vé không hoàn không đổi).
Quy định dời ngày khởi hành: 
Dời trước 07 ngày so với ngày khởi hành: phí dời 0%  tiền tour, phí dời vé máy bay theo qui định của hãng.
Dời trước 03 ngày so với ngày khởi hành: phí dời 30%  tiền tour, phí dời vé máy bay theo qui định của hãng.
Sau thời gian trên: phí dời 100%  tiền tour, phí dời vé máy bay theo qui định của hãng.
Ngay sau khi Quý khách đăng ký tour nếu hủy sẽ bị phạt tiền tour và vé máy bay như sau:
Hủy tour 15 ngày trước ngày khởi hành: phí hủy 0%  tiền tour, phí hủy vé máy bay theo qui định của hãng ( Vietjet và Jetstar không hoàn không đổi)
Hủy tour 10 ngày trước ngày khởi hành: phí hủy 30%  tiền tour, phí hủy vé máy bay theo qui định của hãng ( Vietjet và Jetstar không hoàn không đổi)
Hủy tour 05 ngày trước ngày khởi hành: phí hủy 50%  tiền tour, phí hủy vé máy bay theo qui định của hãng ( Vietjet và Jetstar không hoàn không đổi)
Hủy tour 03 ngày trước ngày khởi hành: phí hủy 100%  tiền tour, phí hủy vé máy bay theo qui định của hãng ( Vietjet và Jetstar không hoàn không đổi)
Tất cả trường hợp dời, hoãn, đổi tour sau 03 ngày sẽ không được chấp nhận.
Trong những trường hợp bất khả kháng như: khủng bố, bạo động, thiên tai, sự thay đổi lịch trình của hàng không, tàu hỏa, tàu thủy… công ty HAI DANG TRAVEL sẽ chủ động thay đổi lộ trình đi hoặc hủy tour vì sự thuận tiện và an toàn của Quý khách . HAIDANG TRAVEL sẽ hoàn lại một phần những chi phí chưa được sử dụng cho việc tổ chức dịch vụ và không bồi thường thêm bất kỳ khoản nào khác. Tuy nhiên, mỗi bên có trách nhiệm cố gắng tối đa, giúp đỡ bên bị thiệt hại nhằm giảm thiểu các tổn thất gây ra vì lý do bất khả kháng.
                                             HÌNH THỨC THANH TOÁN 
                     ĐIỂM THAM QUAN 
                                                  Kiểm Tra Giá & Lịch Khởi Hành 
                                                                                            KS 2 Sao
                            Khởi Hành
                                                                                                                                                                    20/11/201621/11/201622/11/201623/11/201624/11/201625/11/201626/11/201627/11/201628/11/201629/11/201630/11/2016
                            = 
                            Người lớn
                            = 
                            Trẻ em
                            = 
                            Tổng cộng
                                = 
                         Mua Tour
                TOUR LIÊN QUAN
                                                                                                                                                                                                                                                                                                                                                                                                                                                                                                                                                                                                                                                                                                                                                                                                                                                                                                                                                                                                                                                                                                                                                                                                                                                                                                                                                                                                                                                                                                                                                                                                                                                                                                                                                                                                                                                                                                                                                                                                                                                                                                                                                                                                                                                                                                                                                                                                                                                                                                                                                                                                                                                                                                                                                                                                                                                                                                                                                                                                                                                                                                                                                                                                                                                                                                                                                                                                                                                                                                                                                                                                                                                                                                                                                                                                                                                                                                                                                                                                                                                                                                                                                                                                                                                                                                                                                                                                                                                                                                                                                                                                                                                                                                                                                                                                                                                                                                                                                                                                                                                                                                                                                                                                                                                                                                                                                                                                                                                                                                                                                                                                                                                                                                                                                                                                                                                                                                                                                                                                                                                                                                                                                                                                                                                                                                                                                                                                                                                                                                                                                                                                                                                                                                                                                                                                                                                                                                                                                                                                                                                                                                                                                                                                                                                                                                                                                                                                                                                                                    New
                                              3 ngày 2 đêm |  Máy Bay Trọn Gói |  5 sao
                                            Xem
                                    Tour Đà Nẵng, Khám Phá Furama Resort Đà Nẵng 
                                         9,900,000 đ
                                                Giá gốc: 10,900,000 đ
                                                     Lịch khởi hành
                                                        20/11/201621/11/201622/11/201623/11/201624/11/201625/11/201626/11/201627/11/201628/11/201629/11/201630/11/2016
                                                                                                                                                                                                                                                                                                                                                                                                                                                                                                                                                                                                                                                                                                                                                                                                                                                                                                                                                                                                                                                                                                                                                                                                                                                                                                                                                                                                                                                                                                                                                                                                                                                                                                                                                                                                                                                                                                                                                                                                                                                                                                                                                                                                                                                                                                                                                                                                                                                                                                                                                                                                                                                                                                                                                                                                                                                                                                                                                                                                                                                                                                                                                                                                                                                                                                                                                                                                                                                                                                                                                                                                                                                                                                                                                                                                                                                                                                                                                                                                                                                                                                                                                                                                                                                                                                                                                                                                                                                                                                                                                                                                                                                                                                                                                                                                                                                                                                                                                                                                                                                                                                                                                                                                                                                                                                                                                                                                                                                                                                                                                                                                                                                                                                                                                                                                                                                                                                                                                                                                                                                                                                                                                                                                                                                                                                                                                                                                                                                                                                                                                                                                                                                                                                                                                                                                                                                                                                                                                                                                                                                                                                                                                                                                                                                                                                                                                                                                                                                                                                                                                                                                                                            New
                                              3 ngày 2 đêm |  máy bay |  2 sao
                                            Xem
                                    Tour Phú Quốc,Bao Vé Máy Bay Vinpearland, Câu Cá, Ngắm San Hô Nam Đảo 3N2Đ
                                         2,990,000 đ
                                                Giá gốc: 2,200,000 đ
                                                     Lịch khởi hành
                                                        20/11/201621/11/201622/11/201623/11/201624/11/201625/11/201626/11/201627/11/201628/11/201629/11/201630/11/2016
                                                                                                                                                                                                                                                                                                                                                                                                                                                                                                                                                                                                                                                                                                                                                                                                                                                                                                                                                                                                                                                                                                                                                                                                                                                                                                                                                                                                                                                                                                                                                                                                                                                                                                                                                                                                                                                                                                                                                                                                                                                                                                                                                                                                                                                                                                                                                                                                                                                                                                                                                                                                                                                                                                                                                                                                                                                                                                                                                                                                                                                                                                                                                                                                                                                                                                                                                                                                                                                                                                                                                                                                                                                                                                                                                                                                                                                                                                                                                                                                                                                                                                                                                                                                                                                                                                                                                                                                                                                                                                                                                                                                                                                                                                                                                                                                                                                                                                                                                                                                                                                                                                                                                                                                                                                                                                                                                                                                                                                                                                                                                                                                                                                                                                                                                                                                                                                                                                                                                                                                                                                                                                                                                                                                                                                                                                                                                                                                                                                                                                                                                                                                                                                                                                                                                                                                                                                                                                                                                                                                                                                                                                                                                                                                                                                                                                                                                                                                                                                                                                                                                                                                                                                                                                                        New
                                              3 ngày 2 đêm |  máy bay |  2 sao
                                            Xem
                                    Tour Phú Quốc,Bao Vé Máy Bay Khám Phá Đông Đảo, Nam Đảo, Vinpearland,Safari 3N2Đ
                                         2,890,000 đ
                                                Giá gốc: 2,200,000 đ
                                                     Lịch khởi hành
                                                        20/11/201621/11/201622/11/201623/11/201624/11/201625/11/201626/11/201627/11/201628/11/201629/11/201630/11/2016
                                                                                                                                                                                                                                                                                                                                                                                                                                                                                                                                                                                                                                                                                                                                                                                                                                                                                                                                                                                                                                                                                                                                                                                                                                                                                                                                                                                                                                                                                                                                                                                                                                                                                                                                                                                                                                                                                                                                                                                                                                                                                                                                                                                                                                                                                                                                                                                                                                                                                                                                                                                                                                                                                                                                                                                                                                                                                                                                                                                                                                                                                                                                                                                                                                                                                                                                                                                                                                                                                                                                                                                                                                                                                                                                                                                                                                                                                                                                                                                                                                                                                                                                                                                                                                                                                                                                                                                                                                                                                                                                                                                                                                                                                                                                                                                                                                                                                                                                                                                                                                                                                                                                                                                                                                                                                                                                                                                                                                                                                                                                                                                                                                                                                                                                                                                                                                                                                                                                                                                                                                                                                                                                                                                                                                                                                                                                                                                                                                                                                                                                                                                                                                                                                                                                                                                                                                                                                                                                                                                                            New
                                              3 ngày 2 đêm |  máy bay |  2 sao
                                            Xem
                                    Tour Phú Quốc, Khám Phá Nam Đảo, Đông Đảo Trọn Gói VMB 3N2Đ
                                         2,950,000 đ
                                                Giá gốc: 2,200,000 đ
                                                     Lịch khởi hành
                                                        20/11/201621/11/201622/11/201623/11/201624/11/201625/11/201626/11/201627/11/201628/11/201629/11/201630/11/2016
                                                                                                                                                                                                                                                                                                                                                                                                                                                                                                                                                                                                                                                                                                                                                                                                                                                                                                                                                                                                                                                                                                                                                                                                                                                                                                                                                                                                                                                                                                                                                                                                                                                                                                                                                                                                                                                                                                                                                                                                                                                                                                                                                                                                                                                                                                                                                                                                                                                                                                                                                                                                                                                                                                                                                                                                                                                                                                                                                                                                                                                                                                                                                                                                                                                                                                                                                                                                                                                                                                                                                                                                                                                                                                                                                                                                                                                                                                                                                                                                                                                                                                                                                                                                                                                                                                                                                                                                                                                                                                                                                                                                                                                                                                                                                                                                                                                                                                                                                                                                                                                                                                                                                                                                                                                                                                                                                                                                                                                                                                                                                                                                                                                                                                                                                                                                                                                                                                                                                                                                                                                                                                                                                                                                                                                                                                                                                                                                                                                                                                                                                                                                                                                                                                                                                                                                                                                                                                                                                                                                                                                                                                                                                                    New
                                              3 ngày 3 đêm |  Ô Tô |  4 sao
                                            Xem
                                    Tour Đà Lạt, Khám Phá Vườn Hoa Lavender 3N3Đ
                                         1,490,000 đ
                                                Giá gốc: 2,000,000 đ
                                                     Lịch khởi hành
                                                        24/11/201608/12/201615/12/2016
                                                                                                                                                                                                                                                                                                                                                                                                                                                                                                                                                                                                                                                                                                                                                                                                                                                                                                                                                                                                                                                                                                                                                                                                                                                                                                                                                                                                                                                                                                                                                                                                                                                                                                                                                                                                                                                                                                                                                                                                                                                                                                                                                                                                                                                                                                                                                                                                                                                                                                                                                                                                                                                                                                                                                                                                                                                                                                                                                                                                                                                                                                                                                                                                                                                                                                                                                                                                                                                                                                                                                                                                                                                                                                                                                                                                                                                                                                                                                                                                                                                                                                                                                                                                                                                                                                                                                                                                                                                                                                                                                                                                                                                                                                                                                                                                                                                                                                                                                                                                                                                                                                                                                                                                                                                                                                                                                                                                                                                                                                                                                                                                                                                                                                                                                                                                                                                                                                                                                                                                                                                                                                                                                                                                                                                                                                                                                                                                                                                                                                                                    New
                                              2 ngày 2 đêm |  Ô Tô |  2 sao
                                            Xem
                                    Tour Đảo Điệp Sơn, Nha Trang Thưởng Thức Hải Sản Tại Đảo 2N2Đ 
                                         989,000 đ
                                                Giá gốc: 1,900,000 đ
                                                     Lịch khởi hành
                                                        25/11/201630/12/2016
                    TRỤ SỞ CHÍNH
                         225 Bàu Cát, P12, Q.Tân Bình, HCM
                         19002011 - 08 3849 3838 
                        08 3849 2999   
                          www.haidangtravel.com  
                         info@haidangtravel.com 
                        CSKH: 0948.99.1080
                    CHI NHÁNH
                         Quận 1 : Lầu 7, Tòa Nhà Viễn Đông, 14 Phan Tôn
                        19002011(Ext-107) -  0838204589  
                         Quận 12 : 256 TX25, Thạnh Xuân, Q12 
                        19002011(Ext-111)
                         Biên Hòa : 51A2, KP11, P.Tân Phong 
                        19002011(Ext-108) -  0613999392  
                    TRỢ GIÚP
                    Liên hệ & giới thiệuĐiều khoản chungHình thức thanh toánHướng dẫn mua tourChính sách bảo mật
                        GIỜ LÀM VIỆC
                            Thứ 2 đến 6
                                Sáng: 08:00-12:00Chiều:13:30-17:30
                            Thứ 7 Sáng: 08:00-12:00Nghỉ chủ nhật, lễ, tết
                    Được tìm kiếm nhiều
                        Tour Nha Trang
                        Tour Đà Lạt
                        Tour Cà Mau
                        Tour Phú Yên
                        Tour Ninh Chữ
                        Tour Côn Đảo
                        Tour Miền Bắc
                        Tour Phú Quốc
                        Tour Đà Nẵng
                        Tour Phan Thiết
                        Tour Bình Ba
                        Tour Nam Du
                        Tour Vũng Tàu
                        Tour Bà Lụa
                THÀNH TÍCH
            2015 © All Rights Reserved. Công ty cổ phần xây dựng du lịch Hải Đăng
        Your browser doesn't support canvas. Please download IE9+ on
            IE Test Drive
            +
                Có thể bạn quan tâm ?
                                Tour Ninh Chữ - Vĩnh Hy - Cổ Thạch đồng giá 2N2Đ
                                 999,000 đ
                                Tour Côn Đảo, Khám Phá Lịch Sử Văn Hóa Côn Sơn 2N1Đ
                                 4,590,000 đ
                                Tour Ninh Chữ - Vĩnh Hy Khám Phá Bãi Đá Bảy Màu Resort 3sao 2N2Đ
                                 1,250,000 đ
                                Tour Đảo Phú Quý, Khám Phá Hòn Đảo Mang Vẻ Đẹp Hoang Sơ 3N3Đ
                                 2,250,000 đ
                                Tour du lịch Vũng Tàu, Long Hải, Suối nước nóng Bình Châu 2N1Đ
                                 789,000 đ
                                Tour Côn Đảo, Trọn Gói Vé Máy Bay 2N1Đ
                                 3,999,000 đ
                                Tour Đảo Bình Hưng, Hang Rái, Vĩnh Hy 2n2d
                                 1,111,000 đ
                                Tour Ninh Chữ, Vĩnh Hy Hang Rái Siêu Tiết Kiệm 2n2d
                                 850,000 đ
                                Tour Đà Lạt Phototrip Khám Phá Những Cung Đường Hoa 3N3Đ
                                 1,250,000 đ
                                Tour Đảo Hòn Sơn Khám Phá Đỉnh Ma Thiên Lãnh 2N2Đ
                                 1,390,000 đ
                        ×
