url:http://haidangtravel.com/diem-den/Phan-Thiet
Tittle :Tour du lịch Phan Thiết
content :Toggle navigation
                             Trang Chủ
                              Tour Du Lịch
                         Tour Trong Nước Tour Nước Ngoài
                              Tổ Chức Sự Kiện
                             Thuê Xe Du Lịch
                         Thuê Xe 4 Chổ Thuê Xe 7 Chổ Thuê Xe 16 Chổ Thuê Xe 29 Chổ Thuê Xe 35 Chổ Thuê Xe 45 Chổ
                             Khách Sạn
                              Cẩm nang du lịch
                              Tin tức du lịch
                              Bảng Giá Tour
                     1900 2011
                    08.3849.3838 - 0948.99.1080
                    Đăng Ký
                                            ×
                                            ĐĂNG KÝ
                                                        Tên đăng nhập (bắt buộc)
                                                        Nhập số điện thoại ( bắt buôt )
                                                        Nhập họ tên của bạn
                                                        Nhập mail của bạn
                                                        Nhập mật khẩu ( bắt buột )
                                                        Nhập lại mật khẩu ( bắt buột )
                                                        NamNữKhác
                                                        Địa chỉ nhà bạn
                                                        Ngày sinh của bạn
                                                 Nhận mail từ Hải Đăng Travel
                                                Đăng Ký
                        Đăng nhập
                                            ×
                                            ĐĂNG NHẬP
                                        Quên mật khẩu ?
                                        Đăng Ký
                                                Ghi nhớ mật khẩu
                                                Đăng nhập
                    Trang chủ
                 ›
                    Tour trong nước
                 ›
                    Phan Thiết
                 Photo Video
                                 TOUR DU LỊCH Phan Thiết
                                phan thiết
                                                     2 sao
                                                     3 sao
                                                    4 sao
                                                    5 sao
                                                  2 ngày 2 đêm |  ô Tô |  3 sao
                                                Xem
                                        Tour Ninh Chữ - Vĩnh Hy Resort 3sao, Tết Âm Lịch 2017
                                             1,750,000 đ
                                                    Giá gốc: 1,999,000 đ
                                                         Lịch khởi hành
                                                                                                                                                                                                                                                                        29/01/201730/01/2017
                                                  2 ngày 2 đêm |  ô Tô |  3 sao
                                                Xem
                                        Tour Ninh Chữ - Vĩnh Hy Resort 3sao, Tết Dương Lịch 2017
                                             1,550,000 đ
                                                    Giá gốc: 1,999,000 đ
                                                         Lịch khởi hành
                                                                                                                                                                                                                                                                        30/12/2016
                                                                                                                                                                                                                                                                                                                                                                                                                                                                                                                                                                                                                                                                                                                                                                                                                                                                                                                                                                                                                                                                                                                                                                                                                                                                                                                                                                                                                                                                                                                                                                                                                                                                                                                                                                                                                                                                                                                                                                                                                                                                                                                                                                                                                                                                                                                                                                                                                                                                                                                                                                                                                                                                                                                                                                                                                                                                                                                                                                                                                                                                                                                                                                                                                                                                                                                                                                                                                                                                                                                                                                                                                                                                                                                                                                                                                                                                                                                                                                                                                                                                                                                                                                                                                                                                                                                                                                                                                                                                                                                                                                                                                                                                                                                                                                                                                                                                                                                                                                                                                                                                                                                                                                                                                                                                                                                                                                                                                                                                                                                                                                                                                                                                                                                                                                                                                                                                                                                                                                                                                                                                                                                                                                                                                                                                                                                                                                                                                                                                                                                                                                                                                                                                                                                                                                                                                                                                                                                                                                                                                                                                                                                                                                                                                                                                                                            New
                                                  2 ngày 1 đêm |  Ô Tô |  2 sao
                                                Xem
                                        Tour Phan Thiết, Viếng Núi Taku Đồi Cát Bay 2N1Đ
                                             699,000 đ
                                                    Giá gốc: 1,590,000 đ
                                                         Lịch khởi hành
                                                                                                                                                                                                                                                                        26/11/201610/12/201624/12/201631/12/2016
                                                                                                                                                                                                                                                                                                                                                                                                                                                                                                                                                                                                                                                                                                                                                                                                                                                                                                                                                                                                                                                                                                                                                                                                                                                                                                                                                                                                                                                                                                                                                                                                                                                                                                                                                                                                                                                                                                                                                                                                                                                                                                                                                                                                                                                                                                                                                                                                                                                                                                                                                                                                                                                                                                                                                                                                                                                                                                                                                                                                                                                                                                                                                                                                                                                                                                                                                                                                                                                                                                                                                                                                                                                                                                                                                                                                                                                                                                                                                                                                                                                                                                                                                                                                                                                                                                                                                                                                                                                                                                                                                                                                                                                                                                                                                                                                                                                                                                                                                                                                                                                                                                                                                                                                                                                                                                                                                                                                                                                                                                                                                                                                                                                                                                                                                                                                                                                                                                                                                                                                                                                                                                                                                                                                                                                                                                                                                                                                                                                                                                                                                                                                                                                                                                New
                                                  2 ngày 1 đêm |  Ô Tô |  4 sao
                                                Xem
                                        Tour Phan Thiết, Mũi Né Sailling Bay Resort 4 Sao
                                             1,000,000 đ
                                                    Giá gốc: 2,000,000 đ
                                                         Lịch khởi hành
                                                                                                                                                                                                                                                                                                                                                                                                                                                                                                                                                                                                                                                                                                                                                                                                                                                                                                                                                                                                                                                                                                                                                                                                                                                                                                                                                                                                                                                                                                                                                                                                                                                                                                                                                                                                                                                                                                                                                                                                                                                                                                                                                                                                                                                                                                                                                                                                                                                                                                                                                                                                                                                                                                                                                                                                                                                                                                                                                                                                                                                                                                                                                                                                                                                                                                                                                                                                                                                                                                                                                                                                                                                                                                                                                                                                                                                                                                                                                                                                                                                                                                                                                                                                                                                                                                                                                                                                                                                                                                                                                                                                                                                                                                                                                                                                                                                                                                                                                                                                                                                                                                                                                                                                                                                                                                                                                                                                                                                                                                                                                                                                                                                                                                                                                                                                                                                                                                                                                                                                                                                                                                                                                                                                                                                                                                                                                                                                                                                                                                                                                                                                                                                                                                                                                                                                                                                                                                                                                                                                                                                                                                                                                                                                                                                                                                                                                                                                                                                                                    New
                                                  2 ngày 1 đêm |  Ô Tô |  4 sao
                                                Xem
                                        Tour Phan Thiết, Mũi Né Bluebay, Lâu Đài Rượu Vang 2N1Đ
                                             799,000 đ
                                                    Giá gốc: 1,500,000 đ
                                                         Lịch khởi hành
                                                                                                                                                                                                                                                                        26/11/201610/12/2016
                                                                                                                                                                                                                                                                                                                                                                                                                                                                                                                                                                                                                                                                                                                                                                                                                                                                                                                                                                                                                                                                                                                                                                                                                                                                                                                                                                                                                                                                                                                                                                                                                                                                                                                                                                                                                                                                                                                                                                                                                                                                                                                                                                                                                                                                                                                                                                                                                                                                                                                                                                                                                                                                                                                                                                                                                                                                                                                                                                                                                                                                                                                                                                                                                                                                                                                                                                                                                                                                                                                                                                                                                                                                                                                                                                                                                                                                                                                                                                                                                                                                                                                                                                                                                                                                                                                                                                                                                                                                                                                                                                                                                                                                                                                                                                                                                                                                                                                                                                                                                                                                                                                                                                                                                                                                                                                                                                                                                                                                                                                                                                                                                                                                                                                                                                                                                                                                                                                                                                                                                                                                                                                                                                                                                                                                                                                                                                                                                                                                                                                                                                                                            New
                                                  2 ngày 1 đêm |  Ô Tô |  4 sao
                                                Xem
                                        Tour Mũi Né - Mường Thành 4 Sao 2N1Đ
                                             1,000,000 đ
                                                    Giá gốc: 1,999,000 đ
                                                         Lịch khởi hành
                                                                    XEM THÊM (19)
                 KHÁM PHÁ Phan Thiết
                Phan Thiết là một thành phố thuộc tỉnh Bình Thuận, nằm trên quốc lộ 1A cách TP Hồ Chí Minh 183km về hướng Đông Bắc. Từ lâu Phan Thiết đã là một địa điểm du lịch biển nổi tiếng ở Việt Nam với những bờ cát trắng trải dài, biển xanh và những hàng dừa cong vút.
Không chỉ sở hữu những khung cảnh thiên nhiên xinh đẹp, vùng đất này còn là một điểm đến du lịch văn hóa hấp dẫn với những cộng đồng dân cư đa dạng người Hoa, người Chăm… Du lịch Phan Thiết, bạn không chỉ được tham quan, ngắm cảnh mà được thưởng thức rất nhiều những món ăn ngon được chế biến từ hải sản tươi sống.
Lên lịch du lịch Phan Thiết
Bạn có thể du lịch Phan Thiết vào tất cả các tháng trong năm, khí hậu ở Phan Thiết nhiều gió, nhiều nắng và ít bão. Từ khoảng tháng 1 đến tháng 12 thời tiết mát hơn so với các tháng khác trong năm. Tháng 4 và tháng 5 là những tháng nóng nhất, nhiệt độ có khi lên đến 29 °C. Thời điểm thích hợp nhất để bạn đến Phan Thiết là vào tháng 6 và tháng 7.
Di chuyển đến Phan Thiết
Khởi hành từ TP. Hồ Chí Minh:
Các hãng xe chất lượng cao đi Phan Thiết:
Thời gian: 5h00, xuất phát tại xe Miền Đông hoặc đường Đề Thám, quận 1.
Giá vé giao động khoảng từ 90.000 – 130.000 đồng tùy hãng.
Các hãng xe bạn có thể tham khảo:
- Mai Linh ( Tel: 39 29 29 29 – 39 39 39 39, ĐC: Bến xe Miền Đông): trả khách tại bến xe TP. Phan Thiết, nếu muốn đi xuống Mũi Né thì phải thuê Taxi.
- Kumho (Tel: 35 112 112, ĐC: Bến Xe Miền Đông): trả khách tại bến xe TP. Phan Thiết, nếu muốn đi xuống Mũi Né thì phải thuê Taxi.
- Phương Trang (Tel: 38375570; ĐC: 274 – 276 Đề Thám, Q.1): trả khách tại Mũi Né, thuận tiện cho du khách muốn đi thẳng ra khu vực Mũi Né.
- Sinh Café (Tel: 38376 833 -38369 420, ĐC: 246 – 248 Đề Thám, Quận 1): trả khách tại Mũi Né, thuận tiện cho khách muốn du lịch Mũi Né.
Tàu hỏa đến Phan Thiết:
- Tàu bình thường giá từ 110.000 đổng /vé trở lên, ký hiệu SPT (đi buổi sáng) hoặc PT4 (đi buổi tối cuối tuần. Mua vé tại ga Sài Gòn – 01 Nguyễn Thông, Q.3.
- Tàu chất lượng cao Golden Train, giá từ 160.000 đồng/vé trở lên, khởi hành vào buổi sáng. Tel: 08.35261685 – 08.35262724.
Lời khuyên:
- Để đến Trung tâm Phan Thiết: nên chọn xe Mai Linh & Kumho, xe Mai Linh trả khách tại bến xe Phan Thiết và có xe trung chuyển đến các khách sạn, resort ở Phan Thiết.
- Để đến Mũi Né: nên chọn xe Phương Trang hoặc Sinh Café, bởi nhà xe sẽ đưa và đón khách ngay tận các resort ở Mũi Né.
- Để đến Mũi Kê Gà: Chọn xe Mai Linh đi đến bến xe Phan Thiết, nhờ xe trung chuyển của Mai Linh đưa đến Siêu Thị Coop mart, đón xe bus số 6 (cứ 30 phút có 1 chuyến) đi từ Phan Thiết xuống Mũi Kê Gà, dọc đường, nhờ xe Bus dừng tại resort của mình. Khi về, nhờ resort canh và bắt xe bus dùm mình và đi theo hướng ngược lại.
- Nếu đi tàu hỏa thì nên xuống ga Phan Thiết chứ đừng xuống ở ga Mương Mán sẽ cách xa Phan Thiết hơn. Trên tàu có bán vé xe bus đón từ ga đi đến các resort ở Mũi Né với giá 30.000đ/khách.
Khởi hành từ Hà Nội:
- Xe khách: Mai Linh Express (ĐT: 08 35117788): Khởi hành tại bến xe Nước Ngầm – Hà Nội, dừng tại trạm Mai Linh – Phan Thiết ngay đầu cửa ngõ vào thành phố, cách trung tâm TP Phan Thiết khoảng 2km. Giá vé: 700.000 – 800.000 VND/người.
- Máy bay: Khởi hành từ Hà Nội vào TP. HCM, sau đó đến Phan Thiết bằng xe khách hoặc tàu hỏa. Một cách khác là bạn bay từ Hà Nội đến Nha Trang, sau đó tiếp tục đi Phan Thiết.
Số điện thoại Taxi ở Phan Thiết:
- Taxi Mai Linh: (0623) 739 888
- Taxi Mũi Né: (0623) 84 88 48
- Taxi Phan Thiết: (0623).814 814
Những địa danh không thể bỏ qua khi du lịch Phan Thiết
Khu vực trung tâm thành phố Phan Thiết:
Trường Dục Thanh
Đây là ngôi trường do các sĩ phu yêu nước sáng lập vào năm 1907 để hưởng ứng phong trào Duy Tân tại Trung Kỳ. Ngôi trường Dục Thanh còn ghi dấu quãng thời gian chủ tịch Hồ Chí Minh dừng chân dạy học trước khi vào Sài Gòn. Ngày nay trong khu trường Dục Thanh còn giữ lại được gần như nguyên vẹn những kỷ vật cách đây gần ngót thế kỷ.
 
Dinh Vạn Thủy Tú
Trên đường Ngư Ông, phường Đức Thắng, TP. Phan Thiết có một ngôi đền thờ thần Nam Hải – tức Cá Ông (cá voi). Bộ cốt cá Ông được lưu giữ tại dinh Vạn Thủy Tú dài 22m, nặng 65 tấn, được đánh giá là lớn nhất Việt Nam và cả Đông Nam Á. Hàng năm tại Dinh đều diễn ra các kỳ tế lễ được tổ chức trang trọng vào các ngày âm lịch: 20/2 (Tế Xuân); 20/4 (Cầu ngư); 20/6 (Chính mùa); 20/7 (Chèo dọc) và 23/8 (Mãn mùa). Trong quá trình diễn ra nghi lễ còn có các hoạt động như hát bội, diễn bã trạo, hội đua ghe…
Lầu Ông Hoàng
Trên đường du lịch Mũi Né chắc chắn bạn sẽ tò mò muốn khám phá Lầu Ông Hoàng vì nó gắn với tên tuổi nhà thơ Hàn Mạc Tử. Lầu Ông Hoàng từng là nơi hẹn hò giữa Hàn Mạc Tử và Mộng Cầm – người tình của nhà thơ. Nhà thơ Hàn Mạc Tử có nhiều bài thơ nói về nơi có phong cảnh hữu tình này.
Tháp Chàm Poshanư
Tháp Poshanư nằm trên đồi Bà Nài, phường Phú Hải, cách trung tâm Phan Thiết 7 km về phía Đông Bắc. Tháp Chàm Poshanư là một nhóm di tích còn sót lại của Vương quốc Chăm Pa xưa. Tháp có phong cách kiến trúc Hòa Lai – một trong những phong cách nghệ thuật cổ của Chămpa. Tuy chỉ có kích thước vừa và nhỏ, nhưng chắt lọc được những tinh hoa kỹ thuật kiến trúc và nghệ thuật trang trí của người Chăm xưa tạo nên vẻ uy nghiêm và kỳ bí.
 
Bảo tàng Hồ Chí Minh
Bảo tàng Hồ Chí Minh – Chi nhánh Bình Thuận được thành lập vào ngày 19/5/1986, đây là nơi Chủ tịch Hồ Chí Minh đã ở và dạy học năm 1910 trước lúc Người vào Sài Gòn để ra đi tìm đường cứu nước.
Khu vực xung quanh Mũi Né
Bãi Rạng
Bãi Rạng hay biển Rạng là bãi tắm đẹp nhất của TP. Phan Thiết. Bãi Rạng cách trung tâm thành phố khoảng 15 km về phía Bắc, nằm dưới những rặng dừa dày đặc trông giống khu rừng dừa rất đẹp. Mùa hè về, bãi Rạng chiều nào cũng tấp nập khách đến tắm biển và thưởng thức món cá chuồn xanh nướng ngọt lịm.
Hòn Rơm
Hòn Rơm là tên một núi nhỏ vẫn còn hoang sơ nằm tại ấp Long Sơn, phường Mũi Né, TP. Phan Thiết. Tại đây, nước xanh trong vắt, sóng êm, không có đá ngầm. Vào mỗi buổi sáng hoặc buổi chiều, bạn có thể ngồi ngắm bình minh hay hoàng hôn; vào buổi tối nhìn trăng lên hay tổ chức lửa trại. Ở Hòn Rơm, cụm bãi tắm có rất nhiều khu như: Hòn Rơm 1, Hòn Rơm 2, Thùy Trang…
 
Hòn Ghềnh
Cách Mũi Né chưa đầy 1 km, Hòn Ghềnh hay Hòn Lao còn khá nguyên sơ. Để đến được Hòn Ghềnh, bạn có thể đi theo dịch vụ đưa đón khách từ khách sạn hoặc thuê ghe của ngư dân với giá khoảng 200.000 đồng/thuyền 10 người, bao gồm cả lượt đi và về. Sau chừng 10 phút lênh đênh trên biển bạn sẽ được đặt chân lên đảo. Ấn tượng đầu tiên là nước biển trong vắt, có thể nhìn thấy những tán san hô dưới đáy rất đẹp, những ghềnh đá lớn nhỏ chồng chất lên nhau. Ngắm cảnh Hòn Lao, đi vào buổi chiều là đẹp nhất, bởi bạn sẽ thấy được ráng chiều và hoàng hôn phủ dần trên biển. Sáng sớm là thời gian thích hợp cho những tay câu nghiệp dư.
Đồi Cát Bay ở Mũi Né
Ở gần khu vực Hòn Rơm, một trong những thắng cảnh từng làm mê mẩn bước chân các thi nhân, họa sĩ và nhiếp ảnh gia… là đồi cát Mũi Né (thuộc khu phố 5, phường Mũi Né). Ngoài hình dáng đẹp, màu sắc của cát cũng là điểm thu hút khá nhiều du khách (có đến 18 màu sắc khác nhau). Nếu đi bằng xe máy, du khách gửi xe tại các quán nước đối diện khu vực đồi Cát (nhớ khóa xe và nhắc chủ quán lưu ý dùm). Lên đồi cát, bạn có thể thuê ván để chơi trượt cát, chỉ khoảng 5.000VND một tấm. Chơi xong có thể thưởng thức dừa ba nhát, bánh bột lọc Phan Thiết…
 
Bàu Trắng – Bàu Sen
Bàu trắng – Bàu sen: Cách Hòn Rơm 18 km. Đây là hai hồ nước ngọt thiên nhiên nằm giữa những đồi cát trắng mênh mông. Bàu trắng còn có tên gọi khác là Bàu ông, đến nơi đây bạn sẽ được chiêm ngưỡng hoa sen nở rộ xen lẫn giữa đồi cát trắng vào mùa hè. Bàu sen có ten gọi khác là Bàu bà, nơi này là biển hồ rộng mênh mông, mặt nước xanh thẳm được bao bọc bởi những động cát đẹp thuần khiết với màu trắng tinh anh, mịn màng.
Suối Tiên
Suối Tiên là địa danh được khách du lịch Mũi Né ưu ái đặt tên là “Bồng lai tiên cảnh”. Suối Tiên là một khe nước nhỏ nằm bên cạnh Hòn Rơm, đây là suối đi bộ với thung lũng cát rất đẹp. Bên cạnh suối là những đồi nhũ đá tự nhiên có màu đỏ và trắng. Do sự bào mòn của thời gian nên tạo ra những nhũ đá có hình thù kỳ lạ tự nhiên.
Làng chài Mũi Né
Làng chài Mũi Né nằm khoảng 3 km về phía bắc thị trấn Mũi Né. Ngay tại lối vào làng bạn đã có thể chứng kiến cảnh hàng trăm tàu thuyền đánh cá đầy màu sắc sặc sỡ neo đậu trên mặt nước. Cách cảng không xa là một khu chợ nhỏ đầy màu sắc với vẻ đẹp yên bình của những hàng dừa bao quanh. Đi bộ dọc theo bãi biển phủ đầy vỏ sò biển trong quá trình đánh bắt đặc biệt là vùng bến tàu và phía nam thị trấn, bạn sẽ thấy cách các ngư dân phân loại đánh bắt như thế nào.
Những địa danh du lịch hấp dẫn khác
Đảo Hòn Bà
Hòn Bà là một hòn đảo nhỏ nằm cách bờ biển Lagi, huyện Hàm Tân gần 2 km về hướng Đông, cách Phan Thiết khoảng 70 km về hướng Đông Nam. Hòn Bà có hình dáng con Rùa khổng lồ đang ngẩng đầu vươn mình trên sóng biển. Trên đảo có đền thờ nữ Thần Thiên Ya Ana – vị thần thiêng liêng của Vương Quốc Chăm-pa cổ.
Hải đăng Kê Gà
Từ TP. Phan Thiết, bạn có thể đi xe bus tuyến số 6 (thời gian hoạt động: 5h30 – 18h00), chạy 30 km thì đến hải đăng Kê Gà (huyện Hàm Thuận Nam, Bình Thuận). Nếu tự đi xe máy, bạn chạy theo quốc lộ 1 hướng đi Phan Thiết từ Sài Gòn, đến gần trạm thu phí Sông Phan (xã Hàm Minh, huyện Hàm Thuận Nam) sẽ gặp một ngã ba nhỏ. Rẽ phải theo hướng này, đi thẳng sẽ tới khu vực suối Nhum, bạn quẹo phải đi về mũi Kê Gà. Ngọn hải đăng Kê Gà hùng vĩ đững giữa những bãi biển hoang sơ, nước trong vắt trên đảo Kê Gà. Để ra thăm hải đăng Kê Gà, các bạn có thể liên hệ với resort để thuê tàu hoặc thuê thuyền thúng hoặc tàu của dân địa phương. Thông thường thuyền thúng, tàu của người dân địa phương không trang bị áo phao. Bạn có thể mang theo hoặc liên hệ với resort để thuê.
Chùa núi Tà Cú
Khu du lịch Núi Tà Cú nằm sát quốc lộ 1A, ở thị trấn Thuận Nam (huyện Hàm Thuận Nam), cách TP. Phan Thiết 30km về phía Nam. Nếu ưa mạo hiểm và có sức khỏe tốt, bạn có thể chinh phục đỉnh núi sau hơn 1000 bậc thang. Cách thứ 2 nhanh hơn, bạn có thể đi cáp treo để lên đỉnh núi sau 15 phút, giá 90.000VND/2 chiều. Trên đỉnh núi có 2 ngôi chùa nổi tiếng là Linh Sơn Trường Thọ và chùa Long Đoàn, nổi tiếng nhất là bức tượng Đức Thích Ca nằm, dài 49 m. Đây là bức tượng Phật nằm lớn nhất Đông Nam Á. Kế đó, một số du khách tiếp tục hành trình khám phá hang núi với huyền thoại về người khai sáng đã tịnh độ ở đây, hang Tổ.
Biển và bãi đá Cổ Thạch
Trải dài trên một phần bãi biển của xã Bình Thạnh, huyện Tuy Phong, là bãi đá 7 màu nằm trong khu du lịch Cổ Thạch. Đá có nhiều kích thước, hình dạng lớn nhỏ khác nhau. Bãi đá này đã được Trung tâm Sách kỷ lục Việt Nam (Vietbook) công nhận là “Bãi đá có hình dạng, màu sắc nhiều nhất Việt Nam”. Giữa trùng dương trùng điệp và vùng cát trắng mênh mông, sự xuất hiện của bãi đá như điểm hồng tâm đã kéo chân ngày càng nhiều du khách tìm đến thưởng lãm. Bãi đá Cổ Thạch là một địa điểm tham quan thú vị khi đi du lịch Phan Thiết hay du lịch Bình Thuận.
 
Chùa Hang
Chùa Hang tên chữ là Cổ Thạch Tự, xây dựng từ nửa đầu thế kỷ XIX , toạ lạc trong hang động trên đồi núi Cổ Thạch ở độ cao trên 64 m, thuộc địa bàn xã Bình Thạnh, huyện Tuy Phong. Chùa được xây dựng trong hang đá lớn do thiền sư Bảo Tạng lập vào khoảng giữa thế kỷ 19. Du khách có thể kết hợp tham quan ngôi chùa cổ kính này cùng với bãi đá 7 màu ở trên.
Gành Son
Đến Cổ Thạch, rẽ phải qua khỏi làng cá Bình Thạnh men theo biển khoảng 5km, bạn hỏi thăm đường vào Ghềnh Son, thuộc xã Chí Công, huyện Tuy Phong. Vào buổi sáng tinh sương hay những buổi chiều êm ả, biển lặng, từ trên gành, có thể nhìn thấy toàn cảnh sinh hoạt ấm cúng, nhộn nhịp của làng chài. Màu đỏ của đá, màu xanh của biển như hoà lẫn vào nhau tạo nên một sắc thái hài hoà vừa gần, vừa xa, vừa hư lại vừa thực… Gành Son quả là một tặng vật của thiên tạo chưa được nhiều người biết đến.
Cù Lao Câu
Cù Lao Câu thuộc xã Phước Thể, huyện Tuy Phong, hiện lên như một chiến hạm lớn, xung quanh bao bọc bởi hàng vạn khối đá với màu sắc và hình thù khác nhau. Đây là một đảo vắng, nằm cách bờ biển khoảng 9km, đi tàu từ đất liền ra hết khoảng 1 giờ 30 phút. Trên đảo có hàng ngàn khối đá với hình thù rất độc đáo, xen kẽ là những thảm cỏ xanh mượt. Nơi đây được qui hoạch làm khu bảo tồn sinh vật biển và là điểm du lịch sinh thái biển rất hấp dẫn.
 
Đảo Phú Quý
Cách bờ biển Phan Thiết 100 km, trên đảo Phú Quý có những ngôi chùa khá lớn như chùa Linh Quang, chùa Cao Cát… được công nhận là di tích lịch sử văn hóa. Đảo có một thảm thực vật rạn san hô rất đa dạng, phong phú cùng nhiều bãi tắm như: vịnh Triều Dương, bãi Doi Dừa, bãi Nhỏ Gành Hang, bãi dọc cái doi Mô Thầy, bãi vịnh Triều Dương. Nếu có dịp đi ra mấy hòn đảo nhỏ xung quanh đảo Phú Quý như Hòn Tranh, Hòn Ðen, Hòn Trứng, chắc hẳn bạn sẽ thấy biển Phan Thiết thực hấp dẫn biết bao.
Ăn gì khi du lịch Phan Thiết?
1. Bánh tráng cuốn dẻo
Món này được bán cùng với các quán bánh tráng mắm ruốc nướng ở lề đường. Thành phần thì rất đơn giản: Bánh tráng dẻo + mắm ruốc + tóp mỡ + trứng cút. Mọi thứ được cuộn lại rất ngon và hấp dẫn.
Địa chỉ: Món ăn này thường được bán vào buổi chiều tối.
- Ngã tư Trần Hưng Đạo và Thủ Khoa Huân (Gần quán cà phê Hoa Nắng).
- Ngã ba Tam Biên, gần quán cà phê Tiếng Xưa.
2. Bánh canh
Bánh canh là món ăn đơn giản, bổ dưỡng. Bạn có thể dùng bánh mỳ để chấm với nước bánh canh, có nhiều kiểu như bánh canh chả cá, bánh canh chả hấp. Đặc biệt món này tại Phan Thiết hơi ngọt, có thể bạn sẽ không quen, nhưng hãy thưởng thức một lần xem sao! Ngoài bánh canh ra, các bạn cũng có thể ăn thêm món bánh mỳ chấm với xíu mại rất tuyệt vời.
Địa chỉ:
- Quán bánh canh Xíu: Địa điểm: Số 1 HA Đường Kim Đồng – Hẻm giữa Nhà sách Trần Quốc Toản và Cửa Hàng BiTi vào sâu 30 mét. Thời gian phục vụ từ : 14 giờ đến 22 giờ.
3. Gỏi hải sản
Món gỏi được xem là món ăn bạn nhất định phải thưởng thức khi du lịch Phan Thiết. Gỏi cá được chế biên từ cá mai cá suối hay cá đục tươi ngon ăn kèm với các loại rau sống, bún và một loại nước chấm đặc biệt. Gỏi ốc gai, gồm có thịt ốc gai thái chỉ, thịt heo, rau sống, hành phi, đậu phộng rang… ăn cùng nước mắn chua ngọt vô cùng ngon miệng.
Địa chỉ:
- Các quán nhậu ở khu vực bờ kè ven sông Cà Ty.
- Quán Việt Nam Home (125 Nguyễn Đình Chiểu – Mũi Né)
4. Mì quảng Phan Thiết
Một món ăn rất … đặc trưng của Phan Thiết, bạn hãy ăn thử 1 lần để thấy được sự khác biệt của mỳ xứ Quảng và Phan Thiết!
Địa chỉ 1: Số 129 Trần Phú . Chỗ này bán cả buổi sáng và buổi tối.
Địa chỉ 2: Quán Mỳ quảng gần trường Phan Bội Châu. Bạn có thể đi từ đường Lê Hồng Phong, đi qua cổng trường Phan Bội Châu khoảng 200 mét, rồi nhìn về phía tay trái sẽ thấy một quán bán cơm gà và mỳ quảng! Quán chỉ bán vào buổi sáng.
5. Bánh căn Phan Thiết
Không quá khó khăn để tìm thấy một quán bán món bánh căn trên đường phố Phan Thiết, món ăn này thường được bày bán vào chiều tối, với giá cả rất phải chăng.
Địa chỉ:
- Từ Cầu Lê Hồng Phong hướng về chợ Phan Thiết, bạn đi thẳng xuống sẽ thấy cửa hàng mắt kính Eden, vào buổi tối, nơi đây có một quán bánh căn vỉa hè cực ngon.
- Quán bánh căn số 8 đường Hải Thượng, không gian cũng khá lịch sự và thoải mái.
6. Bánh rế Phan Thiết
Đây là món bánh đặc sản của Phan Thiết, mùi vị và màu sắc rất hấp dẫn, có thể bảo quản lâu. Bạn có thể mua món này ở Chợ Phan Thiết hoặc các tiệm bán đặc sản nằm dọc sông Cà Ty và ở Mũi Né.
7. Cá lồi xối mỡ
Món này cuốn bánh tráng ăn ngon không kém gì gỏi cá mai, nếu ra Phan Thiết mà không thưởng thức món này được xem là điều đáng tiếc.
Địa chỉ:
- Quán Xuân Vàng: Đường Phạm Văn Đồng – Phan Thiết và các quán nằm trên khu vực Mũi Tàu (Bờ Kè) sát cầu Trần Hưng Đạo – Phan Thiết (Nếu các bạn tới Phan Thiết vào buổi trưa thì ăn ở quán này).
- Quán Thu Tỷ, quán Tư Minh : Cũng nằm trên khu vực bờ kè sông Cà Ty luôn, bạn nên ghé tới đây nếu muốn ăn món này vào buổi chiều tối.
8. Bánh quai vạc
Đây là món ăn rất bình dân, nhưng hương vị thì rất đậm đà. Món này được nhiều người gánh hàng rong bán ở biển Đồi Dương, hoặc các bạn có thể thưởng thức tại khu bán đồ ăn ở giữa chợ Phan Thiết.
9. Gỏi ốc giác
Món ăn này vừa là món nhậu vừa là món ăn chơi rất được ưa thích của các bạn học sinh.
Địa chỉ: Món này được bán tại khu Sở Y Tế ngay gần Ga Phan thiết vào buổi chiều tầm 3 giờ chiều đến 7 giờ tối. Tại đây còn bán nhiều món ốc khác nữa …
10. Bún bò Phan Thiết
Nếu nói đến món bún bò thì các bạn nghĩ ngay đến món bún bò Huế, nhưng liệu bạn có biết Phan Thiết cũng có món bún bò rất riêng của mình. Với mùi vị hoàn toàn khác lạ, đặc biệt là sợi bún nhỏ chứ không lớn như bún bò Huế trong Sài Gòn.
Địa chỉ: 
- Quán Bún bò Nguyệt số 134 Thủ Khoa Huân (bán lúc 4 giờ chiều tới tối)
12. Phở khuya Lạc Hà
Đến Phan Thiết, đôi khi bạn đi chơi khuya về cùng với bè bạn, bụng đói… Lúc đó nếu bạn thưởng thức 1 tô phở nóng hổi hấp dẫn thì không còn gì bằng. Phở Lạc Hà là tiệm phở khuya rất lâu năm ở Phan Thiết, nằm trên mặt tiền trục đường chính Trần Hưng Đạo. Rất nhiều du khách gần xa biết đến tiệm phở khuya này.
Thời gian mở cửa: 16 giờ chiều – 3 giờ sáng hôm sau.
Địa chỉ: 365 Đường Trần Hưng Đạo – TP Phan Thiết.
13. Răng mực nướng
Một món ăn rất được các bạn trẻ khi du lịch Phan Thiết yêu thích!
Địa chỉ:
- Quán răng mực nướng gần Ga Phan Thiết (Bán vào khoảng 3 giờ chiều đến gần tối)
- Các quán răng mực nướng trên đường Nguyễn Tất Thành (đường ra biển Đồi Dương).
13. Lẩu thả
Với nhiều du khách đến Mũi Né, lẩu Thả là một món khoái khẩu đặc trưng. Lẩu Thả được làm bằng cá đục, cá suốt, nhưng ngon nhất vẫn là cá mai, một trong những loài cá đặc sản của vùng biển Phan Thiết, Bình Thuận.
Lẩu Thả là một món ăn mà qua đó người ta có thể khám phá và thưởng thức hương vị với những triết lý sâu sắc và ý nghĩa của ẩm thực Việt Nam, dựa trên 5 yếu tố tuyệt vời của người Việt theo thuyết Phật giáo cổ đại: kim, mộc, thủy, hỏa, thổ.
14. Dông nướng
Dông được xem là một loại đặc sản của vùng đồi cát. Đối với những người con xa quê, dông nướng là món ăn không thể quên trong ký ức. Dù cho ngày nay người ta có thể tìm thấy dông nướng ở những quán ăn lớn, những quán nhậu khắp mọi nơi, nhưng vẫn không đâu bằng phố biển. Hương vị và cách thức chế biến đã làm nên sự khác biệt giữa món dông nướng Phan Thiết với những nơi khác.
15. Cá bò hòm
Cá bò hòm thuộc giống cá nóc, thịt trắng phau, có sớ dọc và dai giống hệt thịt gà, mùi thơm cũng không hề nghe mùi cá. Cá bò hòm ngon nhất là hấp cuốn bánh tráng, món ăn này được bán tại nhiều quán trên đường Phạm Văn Đồng (bờ kè Sông Cà Ty – Phan Thiết), hoặc các nhà hàng ở Mũi Né.
16. Mực một nắng Phan Thiết
Ngoài cua Huỳnh Đế, tôm hùm… thì có 1 đặc sản khác mà ai đến Phan Thiết cũng muốn thưởng thức đó chính là mực một nắng Phan Thiết.
Những chú mực lá to xòe ra, chỉ cẩn một lần hong qua cái nắng Bình Thuận, sau đó nướng trên than hồng, mực sẽ ngã sang màu vàng nhạt phảng phất hương thơm. Món mực này sẽ ngon hơn nhiều khi chấm với nước mắm Phan Thiết cho thêm vài lát ớt.
Những trải nghiệm không thể bỏ qua khi du lịch Phan Thiết
1. Khám phá bằng xe máy
Với những đồi cát rộng mênh mông, những bãi biển màu xanh ngọc trong vắt, nên thơ, những ngôi làng đánh cá đẹp như tranh vẽ trong chiều hoàng hôn…, Phan Thiết là nơi hấp dẫn du khách khi khám phá bằng xe máy. Khoảng 200.000 đồng thuê xe một ngày, du khách tha hồ tận hưởng cảm giác khám phá ngóc ngách của thành phố.
2. Trải nghiệm cảm giác trượt cát
Nằm ở phường Mũi Né, đồi cát “bay” luôn có sức hút đối với du khách. Điểm độc đáo ở đây là mỗi khi có đợt gió lớn, diện mạo của đồi cát khác hẳn với hình dạng trước đó và màu sắc cũng thay đổi, có khi vàng, trắng, trắng xám, đỏ sậm… hòa lẫn vào nhau tạo nên một bức tranh thiên nhiên tuyệt đẹp. Trượt từ trên những cồn cát xuống phía dưới cũng là trải nghiệm thú vị. Với một tấm ván, nhiều du khách ưa mạo hiểm trượt từ trên dốc cao xuống. Những tiếng hét lẫn tiếng cười sảng khoải sẽ mang đến cho bạn những giây phút thư giãn.
3. Ngắm bình minh và hoàng hôn
Tìm một nơi yên tĩnh, ngắm nhìn bình minh hay hoàng hôn trên những đồi cát vàng vào những ngày lộng gió thật tuyệt vời. Bạn có thể thư giãn nghe tiếng sáo diều vi vu trên trời cao hay tiếng sóng biển vỗ về khiến cuộc sống như chậm lại, mọi ưu phiền như tiêu tan.
4. Đắm mình ở một bãi biển yên tĩnh
Có nhiều những bãi biển mà bạn có thể thỏa sức vùng vẫy nô đùa với sóng nước tại đây. Nhưng thú vị hơn là tìm bãi biển vắng, tự do tận hưởng một không gian bao la với đất trời, sóng biển và làm những việc mình thích.
5. Lướt ván diều
Với đường bờ biển dài, luôn lộng gió, nơi đây đã trở thành địa điểm lý tưởng cho các môn thể thao, đặc biệt là lướt ván diều. Sử dụng một cánh diều chuyên dụng, với một đội ngũ hướng dẫn tận tình, thật thú vị khi bạn có thể thoải mái cưỡi trên đầu những con sóng.
6. Chèo thuyền ngắm sen ở Bàu Trắng, Bàu Sen
Nếu đến Phan Thiết, nhất định bạn phải đến Bàu Trắng, Bàu Sen. Đây là hai hồ nước ngọt thiên nhiên nằm giữa mấy đồi cát trắng mênh mông, cách Phan Thiết khoảng 60 km. Vào mùa hoa sen, ven hồ nở rộ lên một vùng rộng lớn tô điểm cho đồi cát trắng những sắc màu sặc sỡ. Bạn có thể thuê thuyền nhỏ dạo chơi trên mặt hồ, hái sen, câu cá và cảm nhận nét thơ mộng của hồ nước mênh mông giữa vùng cát trắng, ngắm hoàng hôn buông tuyệt đẹp trên hồ.
7. Ghé thăm chợ hải sản lúc mờ sáng
Khám phá, tìm hiểu cuộc sống của những ngư dân bên các làng chài ven biển cũng là một trải nghiệm thú vị. Mỗi sáng, từng chiếc thuyền đánh cá đêm cập bờ, mọi người hối hả cùng nhau đưa cá, hải sản lên bờ, trao đổi mua bán tấp nập.
8. Ghi lại những khoảnh khắc tuyệt đẹp
Khung cảnh làng chài nhỏ, những cảnh bình minh buông xuống trên biển, trên những ghềnh đá hay những cồn cát trắng đã trở thành những địa điểm tuyệt đẹp để chụp ảnh.
Ở đâu tại Phan Thiết –Mũi Né?
Các nhà nghỉ, khách sạn, resort tại Phan thiết – Mũi Né khá phong phú, có cả những nơi sang trọng và khu bình dân cho khách du lịch bụi. Trên HaiDangTravel phòng khách sạn Phan Thiết – Mũi Né hầu hết giá cả khá mềm, có rất nhiều lựa chọn về phòng nghỉ, phù hợp với từng nhu cầu khác nhau của du khách. Vào các mùa cao điểm, bạn nên nhớ đặt phòng trước qua HaiDangTravel từ 1-2 tháng để nhận được mức giá tốt nhất nhé!
MỘT SỐ KHÁCH SẠN PHAN THIẾT ĐANG KHUYẾN MÃI BẠN CÓ THỂ THAM KHẢO:
1. Victoria Phan Thiết Beach Resort & Spa ( Giảm đến 65%, giá phòng chỉ từ 1.780.000 đồng)
Địa chỉ: Km/9 Biển Phú Hài, Phan Thiết, Bình Thuận
2. Khu nghỉ dưỡng Romana Resort & Spa Phan Thiết  ( Giảm giá đến 59%, đặc biệt khi đặt phòng sớm trước 21 ngày bạn sẽ nhận được thêm nhiều ưu đãi hấp dẫn khác, giá phòng chỉ từ 917.000 đồng)
 Địa chỉ: Km 8 Phường Mũi Né, Mũi Né, Phan Thiết
3. Muine Bay Resort 
Địa chỉ: Khu phố 14, Phường Mũi Né, Phan Thiết
4. Khách Sạn The Cliff Resort & Residences Phan Thiết ( Giá khuyến mãi chỉ từ 1.364.000 đồng)
Địa chỉ: Khu Phố 5, phường Phú Hài, Mũi Né, Phan Thiết
5. Khách sạn WindFlower Beach Boutique Mũi Né Phan Thiết (  Giảm đến 50% giá chỉ còn 545.000 đồng)
Địa chỉ: 76 đường Huỳnh Thúc Kháng, Mũi Né, Phan Thiết
6. Khu nghỉ dưỡng Rock Water Bay Beach Phan Thiết (  Giá khuyến mãi chỉ từ 692.000 đồng)
Địa chỉ: Kê Gà, đường Tân Thành, Hàm Thuận Nam, Tỉnh Bình Thuận
7. Khu nghỉ dưỡng Zenora Beach Phan Thiết ( Khuyến mãi đặc biệt chỉ từ 684.000 đồng)
                    TRỤ SỞ CHÍNH
                         225 Bàu Cát, P12, Q.Tân Bình, HCM
                         19002011 - 08 3849 3838 
                        08 3849 2999   
                          www.haidangtravel.com  
                         info@haidangtravel.com 
                        CSKH: 0948.99.1080
                    CHI NHÁNH
                         Quận 1 : Lầu 7, Tòa Nhà Viễn Đông, 14 Phan Tôn
                        19002011(Ext-107) -  0838204589  
                         Quận 12 : 256 TX25, Thạnh Xuân, Q12 
                        19002011(Ext-111)
                         Biên Hòa : 51A2, KP11, P.Tân Phong 
                        19002011(Ext-108) -  0613999392  
                    TRỢ GIÚP
                    Liên hệ & giới thiệuĐiều khoản chungHình thức thanh toánHướng dẫn mua tourChính sách bảo mật
                        GIỜ LÀM VIỆC
                            Thứ 2 đến 6
                                Sáng: 08:00-12:00Chiều:13:30-17:30
                            Thứ 7 Sáng: 08:00-12:00Nghỉ chủ nhật, lễ, tết
                    Được tìm kiếm nhiều
                        Tour Nha Trang
                        Tour Đà Lạt
                        Tour Cà Mau
                        Tour Phú Yên
                        Tour Ninh Chữ
                        Tour Côn Đảo
                        Tour Miền Bắc
                        Tour Phú Quốc
                        Tour Đà Nẵng
                        Tour Phan Thiết
                        Tour Bình Ba
                        Tour Nam Du
                        Tour Vũng Tàu
                        Tour Bà Lụa
                THÀNH TÍCH
            2015 © All Rights Reserved. Công ty cổ phần xây dựng du lịch Hải Đăng
        Your browser doesn't support canvas. Please download IE9+ on
            IE Test Drive
            +
                Có thể bạn quan tâm ?
                                Tour Đảo Bình Hưng, Hang Rái, Vĩnh Hy 2n2d
                                 1,111,000 đ
                                Tour Đà Lạt Phototrip Khám Phá Những Cung Đường Hoa 3N3Đ
                                 1,250,000 đ
                                Tour Ninh Chữ, Vĩnh Hy Hang Rái Siêu Tiết Kiệm 2n2d
                                 850,000 đ
                                Tour Côn Đảo, Trọn Gói Vé Máy Bay 2N1Đ
                                 3,999,000 đ
                                Tour Đảo Hòn Sơn Khám Phá Đỉnh Ma Thiên Lãnh 2N2Đ
                                 1,390,000 đ
                                Tour Đảo Phú Quý, Khám Phá Hòn Đảo Mang Vẻ Đẹp Hoang Sơ 3N3Đ
                                 2,250,000 đ
                                Tour Ninh Chữ - Vĩnh Hy - Cổ Thạch đồng giá 2N2Đ
                                 999,000 đ
                                Tour Côn Đảo, Khám Phá Lịch Sử Văn Hóa Côn Sơn 2N1Đ
                                 4,590,000 đ
                                Tour Ninh Chữ - Vĩnh Hy Khám Phá Bãi Đá Bảy Màu Resort 3sao 2N2Đ
                                 1,250,000 đ
                                Tour du lịch Vũng Tàu, Long Hải, Suối nước nóng Bình Châu 2N1Đ
                                 789,000 đ
