url:http://haidangtravel.com/Tour-Dao-Binh-Ba-Vuot-Bien-Bang-Ca-No-Sieu-Toc-2N2D
Tittle :Tour Đảo Bình Ba Vượt Biển Bằng Ca Nô Siêu Tốc 2N2Đ
content :Toggle navigation
                             Trang Chủ
                              Tour Du Lịch
                         Tour Trong Nước Tour Nước Ngoài
                              Tổ Chức Sự Kiện
                             Thuê Xe Du Lịch
                         Thuê Xe 4 Chổ Thuê Xe 7 Chổ Thuê Xe 16 Chổ Thuê Xe 29 Chổ Thuê Xe 35 Chổ Thuê Xe 45 Chổ
                             Khách Sạn
                              Cẩm nang du lịch
                              Tin tức du lịch
                              Bảng Giá Tour
                     1900 2011
                    08.3849.3838 - 0948.99.1080
                    Đăng Ký
                                            ×
                                            ĐĂNG KÝ
                                                        Tên đăng nhập (bắt buộc)
                                                        Nhập số điện thoại ( bắt buôt )
                                                        Nhập họ tên của bạn
                                                        Nhập mail của bạn
                                                        Nhập mật khẩu ( bắt buột )
                                                        Nhập lại mật khẩu ( bắt buột )
                                                        NamNữKhác
                                                        Địa chỉ nhà bạn
                                                        Ngày sinh của bạn
                                                 Nhận mail từ Hải Đăng Travel
                                                Đăng Ký
                        Đăng nhập
                                            ×
                                            ĐĂNG NHẬP
                                        Quên mật khẩu ?
                                        Đăng Ký
                                                Ghi nhớ mật khẩu
                                                Đăng nhập
                    Trang chủ
                 ›
                    Tour trong nước
                 ›
                    Tour Đảo Bình Ba Vượt Biển Bằng Ca Nô Siêu Tốc 2N2Đ
                 Photo
                                Hổ Trợ Trực Tuyến
                             SKYPE YAHOO0909467993
                             Tour Đảo Bình Ba Vượt Biển Bằng Ca Nô Siêu Tốc 2N2Đ
                                     2 ngày 2 đêm
                                      Ô Tô 
                                      Nhà nghỉ 
                                     1,490,000 đ
                                            Giá gốc: 2,260,000 đ
                                                 Lịch khởi hành
                                                                                                        25/11/201625/11/201602/12/201602/12/201609/12/201609/12/201616/12/201616/12/201623/12/201623/12/2016
                                 DỊCH VỤ ĐÍNH KÈM
                                  Vé tham quan  Hướng dẫn viên  Ăn uống  Phương tiện   Bảo hiểm  Khách sạn
                                 Cơ hội nhân quà hấp khi đăng ký tour tại www.haidangtravel.com xem quà tặng tại đây 
                                 MUA TOUR
                                 GIỚI THIỆU Tour Đảo Bình Ba Vượt Biển Bằng Ca Nô Siêu Tốc 2N2Đ
                                CHƯƠNG TRÌNH Tour Đảo Bình Ba Vượt Biển Bằng Ca Nô Siêu Tốc 2N2Đ: nằm trong gói sản phẩm “CHÙM TOUR ĐẢO-MUA ĐẢO TẶNG ĐẢO” : Côn Đảo, Đảo Phú Quốc, Đảo Phú Quý, Đảo Lý Sơn, Đảo Nam Du, Đảo Bình Ba, Đảo Bình Hưng, BĐảo Bình Lập, Đảo Cù Lao Câu,Đảo Điệp Sơn, Đảo Hòn Sơn, Đảo Hải Tặc, Đảo Bà Lụa, Đảo Hòn Đá Bạc. 
                                         Đánh Giá Tour
                                    0.0
                                                                                                                                    Đăng nhập để đánh giá hay điền các thông tin sau :
                                                        Họ tên (bắt buộc)
                                                        Nhập mail của bạn (bắt buộc)
                                                    Nhập nhận xét của bạn (bắt buộc)
                                                     Đánh giá :
                                                                           Rất Tốt  Tốt  khá  Trung Bình  Bình Thường
                                                Rất Tốt 0
                                                Tốt  0
                                                Khá 0
                                                Tạm Được  0
                                                Bình Thường  0
                                            Nhận xét (0)
                                                                                                                                                                                Hết
                        LỊCH TRÌNH TOUR
                                 NGÀY 1 : TP. HỒ CHÍ MINH  - CAM RANH
 
21h00:Xe và hướng dẫn viên công ty Hai Dang Travel đón đoàn tại điểm hẹn trong thành phố, sau đó khởi hành đi Cam Ranh.Nghỉ đêm trên xe.
KHÁM PHÁ ĐẢO BÌNH BA (Ăn sáng, trưa & chiều)
Buổi sáng:
07h00: Sáng đến với Tp Cam Ranh dùng điểm tâm sáng tại quán ăn địa phương.
08h00: Quý khách vượt biển bang Cano siêu tốc, 8h15 đến với Đảo Bình Ba.
Sau hơn 1 giờ lênh đênh ngắm cảnh mặt trời mọc cũng như cảnh đẹp bình minh của Vịnh Cam Ranh, nghe thuyết minh về một trong những địa điểm hoàn toàn mới lạ với du khách.
Đến với đảo Tôm Hùm.
09h00: Đến với đảo Tôm Hùm quý khách sẽ nhận phòng nghỉ ngơi
09h30:Đoàn đến tham quan và tắm biển tại bãi Nồm
11h30: Đoàn dùng cơm trưa tại nhà bè, tận hưởng cảm giác thư thái, gió biển trong lành.
Buổi chiều:
14h00: Khởi hành lên tàu để du ngoạn cảnh tại Vịnh Cam Ranh, tàu sẽ đưa du khách đến những bãi tắm hoang sơ nhất chưa có tên trên bản đồ du lịch khu vực miền Trung:
+ Bãi Bồ Đề: một trong những nơi quý khách có thể ngâm mình trong làng nước trong xanh tuyệt đẹp.
+ Bãi Nhà Cũ: là một trong những nơi du khách có thể lặn ngắm những rặng san hô tuyệt đẹp, bơi tung tăng với những đàn cá 7 màu tuyệt đẹp hoặc có thể bắt những con ốc đủ màu sắc.
+ Bãi Me: Nơi quý khách sẽ được hướng dẫn bắt và câu những chú Cá Mú đá cũng như chỉ dẫn cách câu những loài cá khác.
Quý khách sẽ chọn 1 bãi đẹp nhất và tham gia vào chương trình: Bar nổi trên biển với nhiều vũ điệu sôi động, thưởng thức rượu vang giữa biển.
Buổi tối:
18h30: Dùng bữa BBQ Hải Sản thưởng thức các món đặc sản như:
Cháo Tôm Hùm,1 khách 1 con tôm hùm, Tôm nướng, Sò Nướng, Ốc Nướng, Mực Nướng, Cá nướng,Cơm chiên,…
 
                                 NGÀY 2 : ĐẢO BÌNH BA TP. HỒ CHÍ MINH 
                                    05h30:Du khách tự túc thuê xe máy đến Bãi Chướng, ngắm bình minh, một trong những cảnh đẹp kỳ vỹ trên xã đảo. Dạo một vòng quanh các bãi biển, lưu lại những bức ảnh kỷ niệm độc đáo,
07h00: Dùng bữa sáng tự túc với món ăn dân dã Bánh căn mực hay Bánh canh chả cá,nhữngmón ăn đặc sản trên đảo Bình Ba. Quý khách tự do tắm biển thư giãn, chụp hình hoặc câu cá giải trí tại khu vực bãi Nồm hoặc tham quan Điện Quan Âm, một ngôi chùa linh thiêng trên đảo.
08h30: Quý du khách trả phòng khách sạn, mua sắm một số đặc sản địa phương tại cầu cảng Bình Ba, lên tàu khởi hành về lại Cam Ranh.
11h30: Về đến cảng Ba Ngòi và tạm biệt đảo Tôm Hùm quyến rũ.
Buổi chiều:
12h00:Quý khách dừng chân tại Phan Rang, mua sắm đặc sản địa phương như: rượu mật nho, tỏi Phan Rang…
12h30: Dừng chân dùng bữa cơm tại Nhà hàng Cà Ná, quý khách ngắm biển chụp hình,
19h30: Về đến TP. HCM. Kết thúc chuyến đi. Hẹn gặp lại.
Lưu ý: Thứ tự các điểm tham quan trân có thể thay đổi tùy theo hoàn cảnh thực tế và điều kiện thời tiết, nhưng số lượng các điểm tham quan không thay đổi.
                    G.Thiệu
                                        Ngày 1
                                        Ngày 2
                     ĐỊA ĐIỂM ĐÓN KHÁCH
                                                    QUÝ KHÁCH ĐI TOUR KHỞI HÀNH BẰNG Ô TÔ VỚI NHỮNG ĐIỂM ĐÓN SAU :
                             Đón khách tại Công ty Du lịch Hải Đăng, 225 Bàu Cát, P12, Quận Tân Bình
                             Đón khách tại Nhà Văn Hóa Thanh Niên, 04 Phạm Ngọc Thạch, Quận 1
                             Đón khách tại Cây xăng Comeco, Ngã 4 Hàng Xanh, Quận Bình Thạnh
                             Đón khách tại Ngã 4 Thủ Đức, Quận 9
                             Đón khách tại Siêu thị Lotte Mart, Ngã 4 Amata, Biên Hòa, Đồng Nai
                            QUÝ KHÁCH ĐI TOUR TUYẾN MIỀN TÂY NHỮNG ĐIỂM ĐÓN SAU :
                             Đón khách tại Công viên Bàu Cát, 141 Đồng Đen, P11, Quận Tân Bình 
                             Đón khách tại Nhà Văn Hóa Thanh Niên, 04 Phạm Ngọc Thạch, Quận 1
                             Bến xe miền tây , Q 6 ( bệnh viện Triều An )
                            QUÝ KHÁCH ĐI TOUR KHỞI HÀNH BẰNG MÁY BAY VỚI NHỮNG ĐIỂM ĐÓN SAU :
                             Quý khách vui lòng tập trung tại nhà ga đối với những khách đi tour khởi hành bằng tàu
                             Quý khách vui lòng tập trung tại sân bay hoặc các phòng chờ của các hãng bay đối với những khách đi tour khởi hành bằng máy bay
                         QUY ĐỊNH TOUR
                                             GIÁ TOUR BAO GỒM 
                                                  Lưu Trú
                                                Khách sạn: Tiêu chuẩn tại Bình ba phòng 4-6 khách.
Phòng đôi: 150.000 đ/khách.
Phòng Đơn: 300.000 đ/khách.
                                                 Vé Tham Quan
                                                    Tàu ra đảo Bình Ba, Bar trên biển, lặng ngắm san hô., Lửa trại - dancing, Các điểm tham quan trên đảo
                                                  Ăn Uống
                                                Điểm tâm: 1 buổi
1 set Menu: 40.000 đ/suất (1tô bún, phở, hủ tiếu + 1 ly nước ngọt, sữa, café)
Ăn chính: 3 buổi
2 buổi: 80.000đ/suất
1 buổi: 450.000đ/suất 1 khách 1 con tôm hùm (BBQ Hải Sản)
(Nếu quý khách không ăn tôm Hùm, cong ty sẽ trừ tiền lại cho quý khách)
                                                   Nón Nước - Khăn Lạnh
                                                Nước suối: 1 chai 500ml/ngày/khách
Khăn lạnh: 1 cái/ngày/khách
Nón du lịch: 1 nón HAIDANGTRAVEL/khách
                                                 Phương Tiện
                                                Xe Giường Nằm đời mới máy lạnh đón khách tại điểm hẹn,XE DU LỊCH PHỤC VỤ RIÊNG của đoàn,Hải Đăng không sử dụng ghép khách với xe chay tuyến. Nên quý khách được báo cụ thể số giường xe ngay khi đăng kí tour
Mỗi đợt tối thiểu 35 khách/ đoàn. Nếu slk từ 20- dưới 35 công ty sẽ set up xe ghế ngồi để vẫn đảm bảo lịch khởi hành cho quý khách.Trường hợp không đủ slk thì được dời sang lịch khởi hành tiếp theo.
                                             GIÁ TOUR KHÔNG BAO GỒM 
                                                   Chi Phí Cá Nhân
                                                Chi phí cá nhân : Giặt ủi, điện thoại,ăn uống ngoài chương trình …..Điểm tâm tại Đảo (do tính chất phục vụ tại Đảo)
Điểm tham quan: Chi phí cá nhân ngoài chương trình....Thuế VAT 10% : Khách nào có nhu cầu xuất hóa đơn thì đóng thêm 10% giá tour.
                                                  Thuế VAT
                                                 10% thuế VAT
                                             QUY ĐỊNH TRẺ EM 
                                                1.Trẻ em dưới 05 tuổi, cao dưới 1m: miễn phí, cha mẹ lo toàn bộ chi phí cho bé nếu có phát sinh. 02 người lớn chỉ được kèm 01 trẻ em. Trường hợp 02 người lớn kèm 02 trẻ em dưới 05 tuổi. Trẻ em thứ 1 được miễn phí, trẻ em thứ 2 áp dụng mức phí: 50%/mức phí người lớn :  Phụ thu ghế ngồi trên xe: 500.000đ/bé ( Nếu ba mẹ có yêu cầu)
2.Trẻ em từ 05 - 10 tuổi, cao từ 1m - 1.4m: 60% mức phí người lớn, bao gồm tất cả các chi phí & ghế ngồi riêng trên xe, ngủ chung giường với bố mẹ. 02 người lớn chỉ được kèm 01 trẻ em. Trường hợp 02 người lớn đi kèm 02 trẻ em, trẻ em thứ 2 phải áp dụng mức phí của người lớn.  
3.Trẻ em từ 05 - 10 tuổi, cao trên 1m4: 75% mức phí người lớn, bao gồm tất cả các chi phí & ghế ngồi riêng trên xe, ngủ chung giường với bố mẹ. 02 người lớn chỉ được kèm 01 trẻ em. Trường hợp 02 người lớn đi kèm 02 trẻ em, trẻ em thứ 2 phải áp dụng mức phí của người lớn.
4.Trẻ em từ 11 tuổi: 100% giá tour, như người lớn.
                                             QUY ĐỊNH MUA VÀ HỦY TOUR 
                                                Sau khi đăng ký, thanh toán ít nhất 50% tiền cọc và đóng hết 100% trước khởi hành 7 ngày.
Dời ngày khởi hành trước 10 ngày không mất phí, sau 8 ngày mất 20%.( Không tính ngày lễ và chủ nhật), chỉ được dời 1 lần.
Sau khi đăng ký huỷ tour mất 10% giá tour
Từ 10 đến trước 8 ngày trước ngày khởi hành chịu phí 30% giá tour.( Không tính ngày lễ và chủ nhật)
Từ 8 đến 6 ngày trước ngày khởi hành chịu phí 50% giá tour.( Không tính ngày lễ và chủ nhật)
Từ 3-5 ngày trước ngày khởi hành chịu phí 70% giá tour.( Không tính ngày lễ và chủ nhật)
Từ 2 ngày trước ngày khởi hành chịu phí 100% giá tour.( Không tính ngày lễ và chủ nhật)
Các quy định trên không áp dụng cho các dịp lễ và tết.
Các ngày lễ tết việc dời ngày và hủy tour trước 15 ngày khởi hành mất 50% giá tour. Sau 15 ngày so với ngày khởi hành mất 100% giá tour.(Không tính ngày chủ nhật.)
Sau khi hủy tour, du khách vui lòng đến công ty nhận tiền trong vòng 2 tuần kể từ ngày đăng ký tour. Chúng tôi chỉ thanh toán trong thời gian 14 ngày nói trên.
Trường hợp hủy tour do sự cố khách quan như thiên tai, dịch bệnh hoặc do tàu thủy, xe lửa, máy bay hoãn/hủy chuyến, Hải Đăng Travel sẽ không chịu trách nhiệm bồi thường thêm bất kỳ chi phí nào khác ngoài việc hoàn trả chi phí những dịch vụ chưa được sử dụng của tour đó.
                                             HÌNH THỨC THANH TOÁN 
                                                Thanh toán bằng tiền mặt tại Trụ sở chính, chi nhánh của Hải Đăng Travel hoặc công ty hỗ trợ thu tận nơi ( nếu khách có yêu cầu)
Chuyển khoản qua số tài khoản
Số tài khoản: 711A00686521.
Chủ tài khoản: Dương Phan Quốc Văn - Vietinbank TP.HCM – Chi nhánh.
Nội dung:  Tour Đảo 2016-Bình Ba 2n2d. Ngày khởi hành:…, Tên khách:…, Số lượng:…
Sử dụng Voucher, cung cấp mã số Voucher, đóng thêm phụ thu (nếu có). Du khách giữ Voucher và nộp lại cho công ty.
Thanh toán bằng thẻ Visa ( thẻ từ, thẻ chip,…)
Thẻ giảm giá, thẻ ưu đãi xuất trình khi đăng ký tour.
                     ĐIỂM THAM QUAN 
                                                  Kiểm Tra Giá & Lịch Khởi Hành 
                                                                                                                                        Nhà nghỉ
                            Khởi Hành
                                                                                                                                                                    25/11/201625/11/201602/12/201602/12/201609/12/201609/12/201616/12/201616/12/201623/12/201623/12/2016
                            = 
                            Người lớn
                            = 
                            Trẻ em
                            = 
                            Tổng cộng
                                = 
                         Mua Tour
                TOUR LIÊN QUAN
                                                                                                                                                                                                                                                                                                                                                                                                                                                                                                                                                                                                                                                                                                                                                                                                                                                                                                                                                                                                                                                                                                                                                                                                                                                                                                                                                                                                                                                                                                                                                                                                                                                                                                                                                                                                                                                                                                                                                                                                                                                                                                                                                                                                                                                                                                                                                                                                                                                                                                                                                                                                                                                                                                                                                                                                                                                                                                                                                                                                                                                                                                                                                                                                                                                                                                                                                                                                                                                                                                                                                                                                                                                                                                                                                                                                                                                                                                                                                                                                                                                                                                                                                                                                                                                                                                                                                                                                                                                                                                                                                                                                                                                                                                                                                                                                                                                                                                                                                                                                                                                                                                                                                                                                                                                                                                                                                                                                                                                                                                                                                                                                                                                                                                                                                                                                                                                                                                                                                                                                                                                                                                                                                                                                                                                                                                                                                                                                                                                                                                                                                                                                                                                                                                                                                                                                                                                                                                                                                                                                                                                                                                                                                                                                                                                                                                                                                                                                                                                                                    New
                                              3 ngày 2 đêm |  Máy Bay Trọn Gói |  5 sao
                                            Xem
                                    Tour Đà Nẵng, Khám Phá Furama Resort Đà Nẵng 
                                         9,900,000 đ
                                                Giá gốc: 10,900,000 đ
                                                     Lịch khởi hành
                                                        20/11/201621/11/201622/11/201623/11/201624/11/201625/11/201626/11/201627/11/201628/11/201629/11/201630/11/2016
                                                                                                                                                                                                                                                                                                                                                                                                                                                                                                                                                                                                                                                                                                                                                                                                                                                                                                                                                                                                                                                                                                                                                                                                                                                                                                                                                                                                                                                                                                                                                                                                                                                                                                                                                                                                                                                                                                                                                                                                                                                                                                                                                                                                                                                                                                                                                                                                                                                                                                                                                                                                                                                                                                                                                                                                                                                                                                                                                                                                                                                                                                                                                                                                                                                                                                                                                                                                                                                                                                                                                                                                                                                                                                                                                                                                                                                                                                                                                                                                                                                                                                                                                                                                                                                                                                                                                                                                                                                                                                                                                                                                                                                                                                                                                                                                                                                                                                                                                                                                                                                                                                                                                                                                                                                                                                                                                                                                                                                                                                                                                                                                                                                                                                                                                                                                                                                                                                                                                                                                                                                                                                                                                                                                                                                                                                                                                                                                                                                                                                                                                                                                                                                                                                                                                                                                                                                                                                                                                                                                                                                                                                                                                                                                                                                New
                                              1 ngày 1 đêm |  Ô TÔ |  2 sao
                                            Xem
                                    Tour Rừng Tràm Trà Sư, Châu Đốc 1N1Đ
                                         590,000 đ
                                                Giá gốc: 1,000,000 đ
                                                     Lịch khởi hành
                                                        25/11/201625/11/201625/11/201602/12/201602/12/201602/12/201609/12/201609/12/201609/12/201616/12/201616/12/201616/12/2016
                                                                                                                                                                                                                                                                                                                                                                                                                                                                                                                                                                                                                                                                                                                                                                                                                                                                                                                                                                                                                                                                                                                                                                                                                                                                                                                                                                                                                                                                                                                                                                                                                                                                                                                                                                                                                                                                                                                                                                                                                                                                                                                                                                                                                                                                                                                                                                                                                                                                                                                                                                                                                                                                                                                                                                                                                                                                                                                                                                                                                                                                                                                                                                                                                                                                                                                                                                                                                                                                                                                                                                                                                                                                                                                                                                                                                                                                                                                                                                                                                                                                                                                                                                                                                                                                                                                                                                                                                                                                                                                                                                                                                                                                                                                                                                                                                                                                                                                                                                                                                                                                                                                                                                                                                                                                                                                                                                                                                                                                                                                                                                                                                                                                                                                                                                                                                                                                                                                                                                                                                                                                                                                                                                                                                                                                                                                                                                                                                                                                                                                                                                                                                                                                                                                                                                                                                                                                                                                                                                                                                                                                                                                                                                                                                                                                                                                            New
                                              3 ngày 3 đêm |  Ô Tô |  2 sao
                                            Xem
                                    Tour Đà Lạt, Ẩm Thực Đà Lạt, Buffet Rau Không Giới Hạn 3N3Đ
                                         1,190,000 đ
                                                Giá gốc: 1,820,000 đ
                                                     Lịch khởi hành
                                                        24/11/201601/12/201608/12/201615/12/2016
                                                                                                                                                                                                                                                                                                                                                                                                                                                                                                                                                                                                                                                                                                                                                                                                                                                                                                                                                                                                                                                                                                                                                                                                                                                                                                                                                                                                                                                                                                                                                                                                                                                                                                                                                                                                                                                                                                                                                                                                                                                                                                                                                                                                                                                                                                                                                                                                                                                                                                                                                                                                                                                                                                                                                                                                                                                                                                                                                                                                                                                                                                                                                                                                                                                                                                                                                                                                                                                                                                                                                                                                                                                                                                                                                                                                                                                                                                                                                                                                                                                                                                                                                                                                                                                                                                                                                                                                                                                                                                                                                                                                                                                                                                                                                                                                                                                                                                                                                                                                                                                                                                                                                                                                                                                                                                                                                                                                                                                                                                                                                                                                                                                                                                                                                                                                                                                                                                                                                                                                                                                                                                                                                                                                                                                                                                                                                                                                                                                                                                                                                                                                                                                                                                                                                                                                                                                                                                                                                                                                                                                                                                                                                                                                                                                                                                                                                                                                        New
                                              2 ngày 2 đêm |  Máy Bay Trọn Gói |  5 sao
                                            Xem
                                    Tour Nghỉ Dưỡng, An Lâm Ninh Van Bay Lillas, Trọn gói Vé Máy Bay 2N2Đ
                                         13,300,000 đ
                                                Giá gốc: 16,100,000 đ
                                                     Lịch khởi hành
                                                        20/11/201621/11/201622/11/201623/11/201624/11/201625/11/201626/11/201627/11/201628/11/201629/11/201630/11/2016
                                                                                                                                                                                                                                                                                                                                                                                                                                                                                                                                                                                                                                                                                                                                                                                                                                                                                                                                                                                                                                                                                                                                                                                                                                                                                                                                                                                                                                                                                                                                                                                                                                                                                                                                                                                                                                                                                                                                                                                                                                                                                                                                                                                                                                                                                                                                                                                                                                                                                                                                                                                                                                                                                                                                                                                                                                                                                                                                                                                                                                                                                                                                                                                                                                                                                                                                                                                                                                                                                                                                                                                                                                                                                                                                                                                                                                                                                                                                                                                                                                                                                                                                                                                                                                                                                                                                                                                                                                                                                                                                                                                                                                                                                                                                                                                                                                                                                                                                                                                                                                                                                                                                                                                                                                                                                                                                                                                                                                                                                                                                                                                                                                                                                                                                                                                                                                                                                                                                                                                                                                                                                                                                                                                                                                                                                                                                                                                                                                                                                                                                                                                                                                                                                                                                                                                                                                                                                                                                                                                                                                                                                                                                                                                                                                                                                                                                                                                                                                                                                                                                                                New
                                              2 ngày 2 đêm |  Ô Tô |  0 sao
                                            Xem
                                    Tour Đảo Bình Ba, Tiệc BBQ Xe Giường Nằm 2N2Đ
                                         1,090,000 đ
                                                Giá gốc: 2,260,000 đ
                                                     Lịch khởi hành
                                                        25/11/201602/12/201609/12/201616/12/201623/12/2016
                                                                                                                                                                                                                                                                                                                                                                                                                                                                                                                                                                                                                                                                                                                                                                                                                                                                                                                                                                                                                                                                                                                                                                                                                                                                                                                                                                                                                                                                                                                                                                                                                                                                                                                                                                                                                                                                                                                                                                                                                                                                                                                                                                                                                                                                                                                                                                                                                                                                                                                                                                                                                                                                                                                                                                                                                                                                                                                                                                                                                                                                                                                                                                                                                                                                                                                                                                                                                                                                                                                                                                                                                                                                                                                                                                                                                                                                                                                                                                                                                                                                                                                                                                                                                                                                                                                                                                                                                                                                                                                                                                                                                                                                                                                                                                                                                                                                                                                                                                                                                                                                                                                                                                                                                                                                                                                                                                                                                                                                                                                                                                                                                                                                                                                                                                                                                                                                                                                                                                                                                                                                                                                                                                                                                                                                                                                                                                                                                                                                                                                                                                                                                                                                                                                                                                                                                                                                                                                                                                                                                                                                                                                                                                                                                                                                                                                                                                                                                                                                                                                                                                                                                                            New
                                              3 ngày 2 đêm |  máy bay |  2 sao
                                            Xem
                                    Tour Phú Quốc,Bao Vé Máy Bay Vinpearland, Câu Cá, Ngắm San Hô Nam Đảo 3N2Đ
                                         2,990,000 đ
                                                Giá gốc: 2,200,000 đ
                                                     Lịch khởi hành
                                                        20/11/201621/11/201622/11/201623/11/201624/11/201625/11/201626/11/201627/11/201628/11/201629/11/201630/11/2016
                    TRỤ SỞ CHÍNH
                         225 Bàu Cát, P12, Q.Tân Bình, HCM
                         19002011 - 08 3849 3838 
                        08 3849 2999   
                          www.haidangtravel.com  
                         info@haidangtravel.com 
                        CSKH: 0948.99.1080
                    CHI NHÁNH
                         Quận 1 : Lầu 7, Tòa Nhà Viễn Đông, 14 Phan Tôn
                        19002011(Ext-107) -  0838204589  
                         Quận 12 : 256 TX25, Thạnh Xuân, Q12 
                        19002011(Ext-111)
                         Biên Hòa : 51A2, KP11, P.Tân Phong 
                        19002011(Ext-108) -  0613999392  
                    TRỢ GIÚP
                    Liên hệ & giới thiệuĐiều khoản chungHình thức thanh toánHướng dẫn mua tourChính sách bảo mật
                        GIỜ LÀM VIỆC
                            Thứ 2 đến 6
                                Sáng: 08:00-12:00Chiều:13:30-17:30
                            Thứ 7 Sáng: 08:00-12:00Nghỉ chủ nhật, lễ, tết
                    Được tìm kiếm nhiều
                        Tour Nha Trang
                        Tour Đà Lạt
                        Tour Cà Mau
                        Tour Phú Yên
                        Tour Ninh Chữ
                        Tour Côn Đảo
                        Tour Miền Bắc
                        Tour Phú Quốc
                        Tour Đà Nẵng
                        Tour Phan Thiết
                        Tour Bình Ba
                        Tour Nam Du
                        Tour Vũng Tàu
                        Tour Bà Lụa
                THÀNH TÍCH
            2015 © All Rights Reserved. Công ty cổ phần xây dựng du lịch Hải Đăng
        Your browser doesn't support canvas. Please download IE9+ on
            IE Test Drive
            +
                Có thể bạn quan tâm ?
                                Tour Đảo Hòn Sơn Khám Phá Đỉnh Ma Thiên Lãnh 2N2Đ
                                 1,390,000 đ
                                Tour Ninh Chữ - Vĩnh Hy Khám Phá Bãi Đá Bảy Màu Resort 3sao 2N2Đ
                                 1,250,000 đ
                                Tour Côn Đảo, Khám Phá Lịch Sử Văn Hóa Côn Sơn 2N1Đ
                                 4,590,000 đ
                                Tour Ninh Chữ, Vĩnh Hy Hang Rái Siêu Tiết Kiệm 2n2d
                                 850,000 đ
                                Tour Đảo Bình Hưng, Hang Rái, Vĩnh Hy 2n2d
                                 1,111,000 đ
                                Tour Đà Lạt Phototrip Khám Phá Những Cung Đường Hoa 3N3Đ
                                 1,250,000 đ
                                Tour Côn Đảo, Trọn Gói Vé Máy Bay 2N1Đ
                                 3,999,000 đ
                                Tour du lịch Vũng Tàu, Long Hải, Suối nước nóng Bình Châu 2N1Đ
                                 789,000 đ
                                Tour Ninh Chữ - Vĩnh Hy - Cổ Thạch đồng giá 2N2Đ
                                 999,000 đ
                                Tour Đảo Phú Quý, Khám Phá Hòn Đảo Mang Vẻ Đẹp Hoang Sơ 3N3Đ
                                 2,250,000 đ
                        ×
