url:http://haidangtravel.com/tin-tuc/Bang-Gia-Tour-Le-30-Thang-4-Va-Gio-To.html
Tittle :Bảng Giá Tour Lễ 30 Tháng 4 Và Giỗ Tổ
content :Toggle navigation
                             Trang Chủ
                              Tour Du Lịch
                         Tour Trong Nước Tour Nước Ngoài
                              Tổ Chức Sự Kiện
                             Thuê Xe Du Lịch
                         Thuê Xe 4 Chổ Thuê Xe 7 Chổ Thuê Xe 16 Chổ Thuê Xe 29 Chổ Thuê Xe 35 Chổ Thuê Xe 45 Chổ
                             Khách Sạn
                              Cẩm nang du lịch
                              Tin tức du lịch
                              Bảng Giá Tour
                     1900 2011
                    08.3849.3838 - 0948.99.1080
                    Đăng Ký
                                            ×
                                            ĐĂNG KÝ
                                                        Tên đăng nhập (bắt buộc)
                                                        Nhập số điện thoại ( bắt buôt )
                                                        Nhập họ tên của bạn
                                                        Nhập mail của bạn
                                                        Nhập mật khẩu ( bắt buột )
                                                        Nhập lại mật khẩu ( bắt buột )
                                                        NamNữKhác
                                                        Địa chỉ nhà bạn
                                                        Ngày sinh của bạn
                                                 Nhận mail từ Hải Đăng Travel
                                                Đăng Ký
                        Đăng nhập
                                            ×
                                            ĐĂNG NHẬP
                                        Quên mật khẩu ?
                                        Đăng Ký
                                                Ghi nhớ mật khẩu
                                                Đăng nhập
                    Trang chủ
                 ›
                    Bảng Giá Tour Lễ 30 Tháng 4 Và Giỗ Tổ
        Tìm kiếm 
                                    Go
                                    Bảng Giá Tour Lễ 30 Tháng 4 Và Giỗ Tổ
                                        19/11/2016Hồ Chí Minh
                                     
STTTOURTGIANKS GIÁ LỄ GIỖ TỔLỄ 30/4CHÙM TOUR ĐỒNG GIÁ  1 ĐG ĐÀ LẠT2N2Đ2 sao                   999,0001,269,0001,359,0002 ĐG NHA TRANG2N3Đ2 sao                   999,0001,269,0001,359,0003  ĐG NINH CHỮ-  VĨNH HY2N2Đ2 sao                   999,0001,269,0001,359,0004 ĐG BÌNH HƯNG2N2Đ2 sao                   999,0001,269,0001,359,0005 ĐG BÌNH BA2N2ĐNN                   999,0001,269,0001,359,0006  ĐG MŨI NÉ2N1Đ2 sao                   999,0001,269,0001,359,0007  ĐG HÀ TIÊN2N2Đ2 sao                   999,0001,269,0001,359,0008 ĐG HÀM THUẬN NAM2N1Đ4 sao                   999,0001,269,0001,359,0009 ĐG TAM BÌNH2N2Đ2 sao                   999,0001,269,0001,359,000CHÙM TOUR ĐẢO  10   ĐẢO: HÀ TIÊN-PHÚ QUỐC3N3Đ2 sao                2,090,0002,390,0002,590,00011 ĐẢO: PHÚ QUÝ3N3DNN                2,290,0002,640,0002,790,00012 ĐẢO: LÝ SƠN3N4DNN                2,990,0003,490,0003,690,00013 ĐẢO: NAM DU2N2ĐNN                1,590,0001,840,0001,990,00014 ĐẢO: BÌNH BA2N2ĐNN                1,490,0001,740,0001,890,00015 ĐẢO: HẢI TẶC2N2Đ2 sao                1,250,0001,500,0001,650,00016 ĐẢO: CÙ LAO CÂU2N2Đ2 sao                1,250,0001,450,0001,650,00017 ĐẢO: BÌNH HƯNG2N2Đ3 sao                1,290,0001,540,0001,690,00018 ĐẢO: BÌNH LẬP2N2ĐNN                1,290,0001,590,0001,690,00019 ĐẢO: BÀ LỤA2N2Đ4 sao                1,350,0001,700,0001,800,00020 ĐẢO: ĐIỆP SƠN2N2ĐRs Dốc Lết                1,490,0001,740,0001,890,00021 ĐẢO: HÒN TRE2N2D2 sao                1,390,0001,640,0001,740,00022 ĐẢO: HÒN ĐÁ BẠC-UMINH 3N3Đ2 SAO                1,790,0002,040,0002,290,00023 ĐẢO: CÔN ĐẢO3N3D2 sao                2,390,0002,740,0002,890,00024 ĐẢO: HÒN SƠN-MA THIÊN LÃNH2N2ĐNN                1,390,0001,640,0001,790,000PHÚ YÊN   25 ĐIỆP SƠN-PHÚ YÊN 3N3D 4 SAO3N3D4 sao                1,890,0002,290,0002,490,00026 PHÚ YÊN -ĐẠI LÃNH 3N3D 4 SAO3N3D4 sao                1,850,0002,250,0002,450,00027 PHÚ YÊN-VÂN PHONG 3N3D 4 SAO3N3D4 sao                1,850,0002,250,0002,450,00028 ĐIỆP SƠN-PHÚ YÊN 3N3D 5 SAO3N3D5 sao                2,190,0002,590,0002,790,00029 PHÚ YÊN -ĐẠI LÃNH 3N3D 5 SAO3N3D5 sao                2,150,0002,550,0002,750,00030 PHÚ YÊN-VÂN PHONG 3N3D 5 SAO3N3D5 sao                2,150,0002,550,0002,750,000NHA TRANG  31 NHA TRANG -CON SE TRE3N3D2 sao                1,750,0002,000,0002,250,00032 NHA TRANG-HON TAM3N3D2 sao                1,890,0002,140,0002,390,00033 NHA TRANG-BINH BA BAO VINPERLAND3N3D2 sao                1,890,0002,140,0002,390,00034 NHA TRANG- BINH BA 3N3D2 sao                1,590,0001,840,0002,090,00035 ĐIỆP SƠN-NHA TRANG3N3D2 sao                1,490,0001,740,0001,990,00036 ĐIỆP SƠN -NHA TRANG BAO VINPEARLAND3N3D2 sao                1,790,0002,040,0002,290,00037 NHA TRANG-BÃI SÕI-VINPEARLAND3N3D2 sao                1,750,0002.000.0002,250,00038 NHA TRANG -VÂN PHONG3N3D2 sao                1,850,0002,150,0002,390,00039 NHA TRANG -SIÊU TIẾT KIỆM2N3D2 sao                1,290,0001,490,0001,640,000ĐÀ LẠT  39 ĐÀ LẠT HỒ TUYỀN LÂM3N3D2 sao                1,290,0001.540.0001.790.00040 ĐÀ LẠT THANH TỊNH3N2D2 sao                1,150,0001,400,0001,650,00041 ĐÀ LẠT -KHU VƯỜN KÌ LẠ3N3D2 sao                1,290,0001.540.0001.790.00042 ĐÀ LẠT- TÌNH YÊU3N2D2 sao                1,490,0001.740.0001.990.00043 ĐÀ LẠT-PHOTOTRIP3N3D2 sao                1,250,0001,500,0001,750,00044 ĐÀ LẠT-LÀNG LÁT3N3D2 sao                1,290,0001.540.0001.790.00045 ĐÀ LẠT-NHỮNG CÁI NHẤT3N2D2 sao                1,190,0001.440.0001,690,00046 ĐÀ LẠT - BÌNH BA3N3D2 sao                1,490,0001,690,0001,990,000LIÊN TUYẾN  47 BÌNH BA -NHA TRANG-ĐÀ LẠT4N4D2 sao                1,890,0002,190,0002,540,00048 NHA TRANG-ĐÀ LẠT4N4D2 sao                1,690,0001,990,0002,340,00049 NINH CHỮ-ĐÀ LẠT4N4D2 sao                1,690,0001,990,0002,340,00050 BÌNH HƯNG - NINH CHỮ-ĐÀ LẠT4N4D2 sao                1,750,0002,050,0002,400,00051  PHAN THIẾT -ĐÀ LẠT4N3D2 sao                1,590,0001,890,0002,240,00052 BÌNH HƯNG-NHA TRANG3N3D2 sao                1,490,0001,740,0001,990,000TOUR KHÁC  53 BÌNH BA- VĨNH HY2N2D3 sao                1,290,0001,490,0001,690,00054 CÀ MAU2N2D                 1,250,0001,450,0001,600,00055 NINH CHỮ-HANG RÁI-VĨNH HY2N2D3 sao                1,250,0001,500,0001,650,00056 BUÔN MÊ THUỘT3N3D2 sao                1,590,0001,840,0002,090,00057 ĐIỆP SƠN -ĐẠI LÃNH2N2DKdl Đại Lãnh                1,490,0001,790,0001,890,00058 ĐIỆP SƠN-NHA TRANG2N2D2 sao                1,250,0001,400,0001,600,00059 TAM BÌNH : BA -TIÊN-HƯNG3N3DNN, 3 sao                1,690,0001,940,0002,190,00060 TỨ BÌNH: BA -LẬP-HƯNG-TIÊN3N3DNN, 3 sao                1,890,0002,140,0002,390,000TUYẾN BAY  GIÁ TOUR TRỌN GÓI ĐÃ BAO GỒM VÉ MÁY BAY  61 CÔN ĐẢO 2N1ĐTiêu chuẩn                4,590,0005,090,0005,090,000623 sao                4,890,0005,390,0005,390,00063Tiêu chuẩn                4,890,0005,390,0005,390,000643 sao                5,090,0005,590,0005,590,00065 CÔN ĐẢO3N2ĐTiêu chuẩn                5,090,0005,590,0005,590,000663 sao                5,500,0006,000,0006,000,00067Tiêu chuẩn                5,390,0005,890,0005,890,000683 sao                5,990,0006,490,0006,490,00069 PHÚ QUỐC 2N1Đ2 sao                3,350,0003,850,0003,850,00070Resort 2 sao                3,650,0004,150,0004,150,000713 sao                3,850,0004,350,0004,350,000724 sao                4,450,0004,950,0004,950,00073 PHÚ QUỐC 3N2Đ2 sao                3,750,0004,250,0004,250,00074Resort 2 sao                3,950,0004,450,0004,450,000753 sao                4,400,0004,900,0004,900,000764 sao                5,450,0005,950,0005,950,00077 PHÚ QUỐC4N3Đ2 sao                4,750,0005,250,0005,250,00078Resort 2 sao                4,950,0005,450,0005,450,000793 sao                5,350,0005,850,0005,850,000804 sao                6,150,0006,650,0006,650,00081 ĐÀ NẴNG - BÀ NÀ - HỒI AN3N2Đ3 sao                5,240,0006,440,0006,740,00082 ĐÀ  NẴNG - BÀ NÀ - HỒI AN - CÙ LAO CHÀM 4N3Đ3 sao                5,890,0007,090,0007,390,00083 ĐÀ  NẴNG - BÀ NÀ - HỒI AN - HUẾ4N3Đ3 sao                5,990,0007,190,0007,490,00084 ĐÀ NẴNG - HỘI AN - PHONG NHA/THIÊN ĐƯỜNG4N3Đ3 sao                6,290,0007,490,0007,790,00085 ĐÀ NẴNG - HỘI AN - HUẾ -PHONG NHA5N4Đ3 sao                6,090,0007,290,0007,590,000       GIÁ TOUR TRỌN GÓI CHƯA BAO GỒM VÉ MÁY BAY  69 PHÚ QUỐC 2N1Đ2 sao                1,350,0001,850,0001,850,00070Resort 2 sao                1,650,0002,150,0002,150,000713 sao                1,850,0002,350,0002,350,000724 sao                2,450,0002,950,0002,950,00073 PHÚ QUỐC 3N2Đ2 sao                1,750,0002,250,0002,250,00074Resort 2 sao                1,950,0002,450,0002,450,000753 sao                2,400,0002,900,0002,900,000764 sao                3,450,0003,950,0003,950,00077 PHÚ QUỐC4N3Đ2 sao                2,750,0003,250,0003,250,00078Resort 2 sao                2,950,0003,450,0003,450,000793 sao                3,350,0003,850,0003,850,000804 sao                4,150,0004,650,0004,650,00081 ĐÀ NẴNG - BÀ NÀ - HỒI AN3N2Đ3 sao                2,950,0003,250,0003,550,00082 ĐÀ  NẴNG - BÀ NÀ - HỒI AN - CÙ LAO CHÀM 4N3Đ3 sao                3,550,0003,850,0004,150,00083 ĐÀ  NẴNG - BÀ NÀ - HỒI AN - HUẾ4N3Đ3 sao                3,650,0003,950,0004,250,00084 ĐÀ NẴNG - HỘI AN - PHONG NHA/THIÊN ĐƯỜNG4N3Đ3 sao                3,950,0004,250,0004,550,00085 ĐÀ NẴNG - HỘI AN - HUẾ -PHONG NHA5N4Đ3 sao                3,750,0004,050,0004,350,000
        Đọc Nhiều Nhát
                Kỷ Niệm Đà Lạt 
                Chương trình khuyến mãi tour du lịch tết 2016
                Bảng Giá Tour Lễ 30 Tháng 4 Và Giỗ Tổ
        Bài viết mới nhất
                    Biển Của Người Xứ Nẫu
                    Quy Nhơn Thiên Đường Của Biển
                    Ôi Nha Trang
        Cẩm Nang Du Lịch
         Cẩm nang Ninh Chữ Cẩm nang Nha Trang Cẩm nang Đà Lạt Cẩm nang Phú Yên Cẩm nang Phú Quốc Cẩm nang Quảng Ngãi Cẩm nang Quảng Nam Cẩm nang Phú Thọ Cẩm nang Phan Thiết Cẩm nang Quảng Bình Cẩm nang Ninh Bình Cẩm nang Lạng Sơn
        Kinh nghiệmThư giản
                    Du lịch trong nướcDu lịch nước ngoàiKinh Nghiệm Đi Biển Đảo
                    Phượt viếtHình chếChuyện lạ
                    Ảnh đẹpTop du lịchTruyện cười
    Ảnh Khách Hàng
                    TRỤ SỞ CHÍNH
                         225 Bàu Cát, P12, Q.Tân Bình, HCM
                         19002011 - 08 3849 3838 
                        08 3849 2999   
                          www.haidangtravel.com  
                         info@haidangtravel.com 
                        CSKH: 0948.99.1080
                    CHI NHÁNH
                         Quận 1 : Lầu 7, Tòa Nhà Viễn Đông, 14 Phan Tôn
                        19002011(Ext-107) -  0838204589  
                         Quận 12 : 256 TX25, Thạnh Xuân, Q12 
                        19002011(Ext-111)
                         Biên Hòa : 51A2, KP11, P.Tân Phong 
                        19002011(Ext-108) -  0613999392  
                    TRỢ GIÚP
                    Liên hệ & giới thiệuĐiều khoản chungHình thức thanh toánHướng dẫn mua tourChính sách bảo mật
                        GIỜ LÀM VIỆC
                            Thứ 2 đến 6
                                Sáng: 08:00-12:00Chiều:13:30-17:30
                            Thứ 7 Sáng: 08:00-12:00Nghỉ chủ nhật, lễ, tết
                    Được tìm kiếm nhiều
                        Tour Nha Trang
                        Tour Đà Lạt
                        Tour Cà Mau
                        Tour Phú Yên
                        Tour Ninh Chữ
                        Tour Côn Đảo
                        Tour Miền Bắc
                        Tour Phú Quốc
                        Tour Đà Nẵng
                        Tour Phan Thiết
                        Tour Bình Ba
                        Tour Nam Du
                        Tour Vũng Tàu
                        Tour Bà Lụa
                THÀNH TÍCH
            2015 © All Rights Reserved. Công ty cổ phần xây dựng du lịch Hải Đăng
        Your browser doesn't support canvas. Please download IE9+ on
            IE Test Drive
            +
                Có thể bạn quan tâm ?
                                Tour Côn Đảo, Khám Phá Lịch Sử Văn Hóa Côn Sơn 2N1Đ
                                 4,590,000 đ
                                Tour Đà Lạt Phototrip Khám Phá Những Cung Đường Hoa 3N3Đ
                                 1,250,000 đ
                                Tour Đảo Hòn Sơn Khám Phá Đỉnh Ma Thiên Lãnh 2N2Đ
                                 1,390,000 đ
                                Tour Đảo Phú Quý, Khám Phá Hòn Đảo Mang Vẻ Đẹp Hoang Sơ 3N3Đ
                                 2,250,000 đ
                                Tour Ninh Chữ - Vĩnh Hy - Cổ Thạch đồng giá 2N2Đ
                                 999,000 đ
                                Tour Ninh Chữ, Vĩnh Hy Hang Rái Siêu Tiết Kiệm 2n2d
                                 850,000 đ
                                Tour du lịch Vũng Tàu, Long Hải, Suối nước nóng Bình Châu 2N1Đ
                                 789,000 đ
                                Tour Côn Đảo, Trọn Gói Vé Máy Bay 2N1Đ
                                 3,999,000 đ
                                Tour Ninh Chữ - Vĩnh Hy Khám Phá Bãi Đá Bảy Màu Resort 3sao 2N2Đ
                                 1,250,000 đ
                                Tour Đảo Bình Hưng, Hang Rái, Vĩnh Hy 2n2d
                                 1,111,000 đ
