url:http://haidangtravel.com/tin-tuc/Am-Thuc?page=2
Tittle :Ẩm Thực
content :Toggle navigation
                             Trang Chủ
                              Tour Du Lịch
                         Tour Trong Nước Tour Nước Ngoài
                              Tổ Chức Sự Kiện
                             Thuê Xe Du Lịch
                         Thuê Xe 4 Chổ Thuê Xe 7 Chổ Thuê Xe 16 Chổ Thuê Xe 29 Chổ Thuê Xe 35 Chổ Thuê Xe 45 Chổ
                             Khách Sạn
                              Cẩm nang du lịch
                              Tin tức du lịch
                              Bảng Giá Tour
                     1900 2011
                    08.3849.3838 - 0948.99.1080
                    Đăng Ký
                                            ×
                                            ĐĂNG KÝ
                                                        Tên đăng nhập (bắt buộc)
                                                        Nhập số điện thoại ( bắt buôt )
                                                        Nhập họ tên của bạn
                                                        Nhập mail của bạn
                                                        Nhập mật khẩu ( bắt buột )
                                                        Nhập lại mật khẩu ( bắt buột )
                                                        NamNữKhác
                                                        Địa chỉ nhà bạn
                                                        Ngày sinh của bạn
                                                 Nhận mail từ Hải Đăng Travel
                                                Đăng Ký
                        Đăng nhập
                                            ×
                                            ĐĂNG NHẬP
                                        Quên mật khẩu ?
                                        Đăng Ký
                                                Ghi nhớ mật khẩu
                                                Đăng nhập
                    Trang chủ
                 ›
                    Cẩm nang du lịch
                 ›
                    Ẩm Thực
        Ẩm Thực
                                    Go
                                                                                    7 đặc sản nổi tiếng khiến bạn phải phát thèm khi du lịch Cà Mau
                                    03/06/2015
                                    Mũi Cà Mau không chỉ là vùng đất cuối cùng trên bản đồ Việt Nam, mà còn là xứ sở của rất nhiều món ngon...
                                                                                    XEM NGAY
                                                                                    Ẩm thực Bình Ba  Mặn mòi hương vị biển
                                    03/06/2015
                                    Đến với Bình Ba- Chúng ta cùng thoả sức thưởng thức những món hải sản tuyệt tươi ngon nào!
                                                                                    XEM NGAY
                                                                                    Du lịch Hà Nội thưởng thức bún chả chan, bánh canh ghẹ phố Mai Hắc Đế
                                    03/06/2015
                                    Bún chả chan, bánh canh ghẹ hay bún thái hải sản là những lựa chọn thú vị cho bữa trưa nếu bạn chọn con phố này là...
                                                                                    XEM NGAY
                                                                                    Lầy phá và kem cuộn mát lạnh cho ngày nóng ở Sài Gòn
                                    03/06/2015
                                    Thời tiết Sài Gòn đang bước vào giai đoạn “đổ lửa” khiến nhiều người mỏi mệt, cáu gắt. Những loại thức uống, món...
                                                                                    XEM NGAY
                                                                                    Món ngon từ quả cọ nơi đất Tổ Phú Thọ
                                    03/06/2015
                                    Quả cọ chín có màu đen bóng, vị bùi, chát. Ngoài ăn sống, loại quả đặc trưng của Phú Thọ này còn có...
                                                                                    XEM NGAY
                                                                                    6 đặc sản nên thử trên đường du lịch Lai Châu
                                    03/06/2015
                                    Những món ăn thú vị ngay từ tên gọi, có vẻ lạ tai ấy lại là đặc sản địa phương, rất ngon và tốt cho sức khỏe, được...
                                                                                    XEM NGAY
                                                                                    Mì khô thập cẩm cho bữa trưa khi du lịch Sài Gòn
                                    03/06/2015
                                    Sợi mì nhỏ, dai mềm, trộn nước sốt ngọt ngọt ăn kèm với thịt heo, xí quách là gợi ý cho thực khách du lịch Sài...
                                                                                    XEM NGAY
                                                                                    Món chè lạ xuất hiện tại Hà Nội
                                    03/06/2015
                                    Với sự đa dạng trong khâu chế biến và hương vị ngọt ngào, chè là món ăn vặt đặc trưng, có chỗ đứng nổi bật trong ẩm...
                                                                                    XEM NGAY
                                                                                    Quà vặt mát lạnh cho chiều nắng khi du lịch Nha Trang
                                    03/06/2015
                                    Sau bữa chính ở Nha Trang, một số gợi ý dưới đây là lựa chọn tham khảo cho du khách trong buổi chiều nắng nóng.
                                                                                    XEM NGAY
                                                                                    Du lịch Nha Trang thưởng thức bún sứa món ăn mang đậm hương vị biển
                                    03/06/2015
                                    Du lịch Nha Trang thưởng thức bún sứa –  món ăn mang đậm hương vị biển
Là động vật không xương sống, sứa xuất hiện nhiều...
                                                                                    XEM NGAY
        Đọc Nhiều Nhát
                Kỷ Niệm Đà Lạt 
                Chương trình khuyến mãi tour du lịch tết 2016
                Bảng Giá Tour Lễ 30 Tháng 4 Và Giỗ Tổ
        Bài viết mới nhất
                    Biển Của Người Xứ Nẫu
                    Quy Nhơn Thiên Đường Của Biển
                    Ôi Nha Trang
        Cẩm Nang Du Lịch
         Cẩm nang Ninh Chữ Cẩm nang Nha Trang Cẩm nang Đà Lạt Cẩm nang Phú Yên Cẩm nang Phú Quốc Cẩm nang Quảng Ngãi Cẩm nang Quảng Nam Cẩm nang Phú Thọ Cẩm nang Phan Thiết Cẩm nang Quảng Bình Cẩm nang Ninh Bình Cẩm nang Lạng Sơn
        Kinh nghiệmThư giản
                    Du lịch trong nướcDu lịch nước ngoàiKinh Nghiệm Đi Biển Đảo
                    Phượt viếtHình chếChuyện lạ
                    Ảnh đẹpTop du lịchTruyện cười
    Ảnh Khách Hàng
            «123»
                    TRỤ SỞ CHÍNH
                         225 Bàu Cát, P12, Q.Tân Bình, HCM
                         19002011 - 08 3849 3838 
                        08 3849 2999   
                          www.haidangtravel.com  
                         info@haidangtravel.com 
                        CSKH: 0948.99.1080
                    CHI NHÁNH
                         Quận 1 : Lầu 7, Tòa Nhà Viễn Đông, 14 Phan Tôn
                        19002011(Ext-107) -  0838204589  
                         Quận 12 : 256 TX25, Thạnh Xuân, Q12 
                        19002011(Ext-111)
                         Biên Hòa : 51A2, KP11, P.Tân Phong 
                        19002011(Ext-108) -  0613999392  
                    TRỢ GIÚP
                    Liên hệ & giới thiệuĐiều khoản chungHình thức thanh toánHướng dẫn mua tourChính sách bảo mật
                        GIỜ LÀM VIỆC
                            Thứ 2 đến 6
                                Sáng: 08:00-12:00Chiều:13:30-17:30
                            Thứ 7 Sáng: 08:00-12:00Nghỉ chủ nhật, lễ, tết
                    Được tìm kiếm nhiều
                        Tour Nha Trang
                        Tour Đà Lạt
                        Tour Cà Mau
                        Tour Phú Yên
                        Tour Ninh Chữ
                        Tour Côn Đảo
                        Tour Miền Bắc
                        Tour Phú Quốc
                        Tour Đà Nẵng
                        Tour Phan Thiết
                        Tour Bình Ba
                        Tour Nam Du
                        Tour Vũng Tàu
                        Tour Bà Lụa
                THÀNH TÍCH
            2015 © All Rights Reserved. Công ty cổ phần xây dựng du lịch Hải Đăng
        Your browser doesn't support canvas. Please download IE9+ on
            IE Test Drive
            +
                Có thể bạn quan tâm ?
                                Tour Côn Đảo, Khám Phá Lịch Sử Văn Hóa Côn Sơn 2N1Đ
                                 4,590,000 đ
                                Tour Ninh Chữ, Vĩnh Hy Hang Rái Siêu Tiết Kiệm 2n2d
                                 850,000 đ
                                Tour Đảo Hòn Sơn Khám Phá Đỉnh Ma Thiên Lãnh 2N2Đ
                                 1,390,000 đ
                                Tour Ninh Chữ - Vĩnh Hy - Cổ Thạch đồng giá 2N2Đ
                                 999,000 đ
                                Tour Đà Lạt Phototrip Khám Phá Những Cung Đường Hoa 3N3Đ
                                 1,250,000 đ
                                Tour Đảo Phú Quý, Khám Phá Hòn Đảo Mang Vẻ Đẹp Hoang Sơ 3N3Đ
                                 2,250,000 đ
                                Tour Ninh Chữ - Vĩnh Hy Khám Phá Bãi Đá Bảy Màu Resort 3sao 2N2Đ
                                 1,250,000 đ
                                Tour Côn Đảo, Trọn Gói Vé Máy Bay 2N1Đ
                                 3,999,000 đ
                                Tour du lịch Vũng Tàu, Long Hải, Suối nước nóng Bình Châu 2N1Đ
                                 789,000 đ
                                Tour Đảo Bình Hưng, Hang Rái, Vĩnh Hy 2n2d
                                 1,111,000 đ
