url:http://haidangtravel.com/Tour-Diep-Son-Nha-Trang-Khu-Du-Lich-Hon-Chong-Tet-Duong-Lich-2017
Tittle :Tour Điệp Sơn Nha Trang Khu Du Lịch Hòn Chồng,Tết Dương Lịch 2017
content :Toggle navigation
                             Trang Chủ
                              Tour Du Lịch
                         Tour Trong Nước Tour Nước Ngoài
                              Tổ Chức Sự Kiện
                             Thuê Xe Du Lịch
                         Thuê Xe 4 Chổ Thuê Xe 7 Chổ Thuê Xe 16 Chổ Thuê Xe 29 Chổ Thuê Xe 35 Chổ Thuê Xe 45 Chổ
                             Khách Sạn
                              Cẩm nang du lịch
                              Tin tức du lịch
                              Bảng Giá Tour
                     1900 2011
                    08.3849.3838 - 0948.99.1080
                    Đăng Ký
                                            ×
                                            ĐĂNG KÝ
                                                        Tên đăng nhập (bắt buộc)
                                                        Nhập số điện thoại ( bắt buôt )
                                                        Nhập họ tên của bạn
                                                        Nhập mail của bạn
                                                        Nhập mật khẩu ( bắt buột )
                                                        Nhập lại mật khẩu ( bắt buột )
                                                        NamNữKhác
                                                        Địa chỉ nhà bạn
                                                        Ngày sinh của bạn
                                                 Nhận mail từ Hải Đăng Travel
                                                Đăng Ký
                        Đăng nhập
                                            ×
                                            ĐĂNG NHẬP
                                        Quên mật khẩu ?
                                        Đăng Ký
                                                Ghi nhớ mật khẩu
                                                Đăng nhập
                    Trang chủ
                 ›
                    Tour trong nước
                 ›
                    Tour Điệp Sơn Nha Trang Khu Du Lịch Hòn Chồng,Tết Dương Lịch 2017
                 Photo
                                Hổ Trợ Trực Tuyến
                             SKYPE YAHOO0947368118
                             Tour Điệp Sơn Nha Trang Khu Du Lịch Hòn Chồng,Tết Dương Lịch 2017
                                     3 ngày 3 đê,
                                      Ô Tô 
                                      2 sao 
                                     1,990,000 đ
                                            Giá gốc: 2,250,000 đ
                                                 Lịch khởi hành
                                                                                                        29/12/201630/12/2016
                                 DỊCH VỤ ĐÍNH KÈM
                                  Vé tham quan  Hướng dẫn viên  Ăn uống  Phương tiện   Bảo hiểm  Khách sạn
                                 Cơ hội nhân quà hấp khi đăng ký tour tại www.haidangtravel.com xem quà tặng tại đây 
                                 MUA TOUR
                                 GIỚI THIỆU Tour Điệp Sơn Nha Trang Khu Du Lịch Hòn Chồng,Tết Dương Lịch 2017
                                         Đánh Giá Tour
                                    0.0
                                                                                                                                    Đăng nhập để đánh giá hay điền các thông tin sau :
                                                        Họ tên (bắt buộc)
                                                        Nhập mail của bạn (bắt buộc)
                                                    Nhập nhận xét của bạn (bắt buộc)
                                                     Đánh giá :
                                                                           Rất Tốt  Tốt  khá  Trung Bình  Bình Thường
                                                Rất Tốt 0
                                                Tốt  0
                                                Khá 0
                                                Tạm Được  0
                                                Bình Thường  0
                                            Nhận xét (0)
                                                                                                                                                                                Hết
                        LỊCH TRÌNH TOUR
                                 NGÀY 1 : TP. HỒ CHÍ MINH  – NHA TRANG
                                    20h00: Xe và hướng dẫn viên công ty Hai Dang Travel đón đoàn tại điểm hẹn trong thành phố, sau đó khởi hành đi Đảo Điệp Sơn.
Nghỉ đêm trên xe.
KHÁM PHÁ ĐẢO ĐIỆP SƠN- CON ĐƯỜNG DƯỚI BIỂN ĐỘC ĐÁO
Buổi sáng:
07:30 Quý khách dùng bữa sáng tại nhà hàng thuộc địa phận Ninh Hòa. Sau đó tiếp tục hành trình đến với xã Vạn Giã.
Quý khách lên tàu khám phá “Đảo Điệp Sơn” – Điệp Sơn là một dãy gồm 3 hòn đảo nhỏ thuộc vịnh Vân Phong, tỉnh Khánh Hòa. Hành trình khám phá bắt đầu từ thị trấn Vạn Giã, sau khoảng một giờ đồng hồ lênh đênh trên biển, du khách sẽ đặt chân đến quần đảo Điệp Sơn.
Điều đặc biệt ở đảo Điệp Sơn chính là hành trình chinh phục con đường dưới biển vô cùng độc đáo và thú vị dài gần 700 mét, nối liền hòn đảo giữa với đảo Điệp Sơn lớn. Con đường uốn lượn, rộng khoảng 1 mét và nằm sâu dưới mặt nước biển trong xanh chưa đến nửa mét. Đi bộ trên con đường này đem lại cảm giác vô cùng thích thú, xen lẫn hồi hộp và một chút sợ hãi khi bạn phải bước giữa đại dương bao la. Bạn có thể thỏa thích ngắm nhìn những đàn cá nhỏ tung tăng bơi lội hai bên, chốc chốc lại thấy những đàn cá nhảy tung lên khỏi mặt nước, hay giơ tay vẫy chào con thuyền đang chạy lướt qua.Quý khách tự do tắm biển
12h00: Quý khách dung cơm tại đảo với các món Hải Sản như:
1.Tôm nướng
2.Mực nướng
3.Cá nướng
4.Lẩu Hải sản + bún
5.Cơm chiên
6.Trái cây trà đá trang miệng.
Tiếp tục khám phá cảnh đẹp nơi đây: Những cánh đồng cỏ lau tuyệt đẹp. Chiều chiều theo chân người dân chài lưới đánh cá, sau đó cùng nhau khám phá con đường đi bộ ngang qua biển.Chắc chắn bạn sẽ có những trải nghiệm đáng nhớ tại đây.
14h30 : Tàu đón đoàn về lại Nha trang nhận phòng nghỉ ngơi.
17h30 : Đến Nha Trang, đoàn thưởng thức bữa tối tại thành phố biển với đặc sản nem nướng Ninh Hòa. Ngoài hương vị giòn, thơm của món nem Nướng, Quý khách còn có cơ hội thưởng thức món Bún thịt nướng mang hương vị của miền Trung, món nem chua – chả lụa mang đặc trưng của thị xã Ninh Hòa – Khánh Hòa, sau đó trờ về khách sạn nhận phòng khách sạn nghỉ ngơi.
Buổi tối : Tự do khám phá thành phố biển về đêm
                                 NGÀY 2 : HÒN CHỒNG-NHÀ YẾN-IRESORT-CHÙA LONG SƠN-NHÀ THỜ ĐÁ-VINPEARLAND 
                                     
07:00 Xe đón đoàn dung điểm tâm sang tại nhà hàng.
08:00 Đoàn tham quan KLD Hòn Chồng-Hòn Vợ, Tới đây du khách có thể cảm nhận bãi đá Hòn Chồng như là nơi giao nhau giữa núi và biển. Bởi chỉ vài bước chân du khách có thể chạm đến mặt biển hoặc ngay chân đồi. Đến đây du khách còn được nghe nhiều câu chuyện kỳ thú về sự tích bãi đá này giữa một phong cảnh thiên nhiên hữu tình.Nơi đây, phong cảnh hữu tình. Núi, biển và bờ nằm sát bên nhau. Khác với bãi biển dọc theo đường Trần Phú ở khu trung tâm, bãi biển ở khu vực Hòn Chồng khá yên tĩnh. Tại đây, khách có thể ngồi trên mõm đá buông câu hoặc di chuyển vài chục mét vào phía bờ để tắm biển trên bãi cát mịn màng, thoai thoải. Nước biển trong xanh và hiền hòa.Nơi đây cũng là một trong những điểm ngắm thành phố biển đẹp nhất
9h:00 Quý khách tham quan mua sắm Yến sào Nha Trang tốt nhất, giá cả rẻ nhất ; được dùng trà Yến miễn phí và nếm vị Yến sào Nha Trang chính hiệu. Kế đến, Quý khách sẽ tận mắt nhìn thấy các quy trình sơ chế tổ Yến, được phổ biển tỉ mỉ kỹ thuật xây dựng nhà chim và nghệ thuật dẫn dụ chim Yến vào nhà. Quý khách sẽ được nghe thuyết minh sâu sắc vòng đời chim Yến... Và, hấp dẫnnhất là được vào  bên trong nhà chim, được sờ thấy những chiếc tổ Yến và nhìn thấy chim Yến “cư ngụ” trong môi trường nhà phố
11:00 Đoàn dùng buổi trưa tại Nhà hàng, về khách sạn nghỉ ngơi
Buổi chiều:
14:00 Xe đưa đoàn tham quan chùa Long Sơn, Chùa còn được gọi là chùa Phật Trắng hoặc Đăng Long tự. Đây là điểm đến hành hương, vãn cảnh yêu thích của người địa phương cũng như khách thập phương và là ngôi chùa nổi tiếng nhất thành phố Nha Trang bởi lịch sử lâu đời với bức tượng Kim Thân Phật tổ nằm trên đỉnh núi.
Xây dựng từ năm 1963, đã đưa ngôi chùa vào danh sách kỷ lục Việt Nam: “Ngôi chùa có tượng Phật ngoài trời lớn nhất Việt Nam”.
14:30 Xe đưa đoàn đi tắm khoáng tại Iresort. Cách trung tâm thành phố khoảng 4km, đó là khoảng cách giúp I – resort có được sự yên tĩnh cần thiết để du khách tới đây được thư giãn tối đa với dịch vụ tắm bùn, suối khoáng. Bao bọc bởi dáng núi hùng vĩ và dòng sông Cái Nha Trang hiền hòa uốn lượn kết hợp với lối kiến trúc độc đáo sử dụng các vật liệu địa phương như gỗ, đá, lá dừa nước, khu nghỉ dưỡng I – resort hiện ra như một ốc đảo thu nhỏ, gây ấn tượng cho du khách ngay từ cái nhìn đầu tiên. Như một liệu pháp tự nhiên, không gian mộc mạc tuyệt đẹp này sẽ góp phần thanh lọc tâm hồn, mang lại cho bạn cảm giác sảng khoái thư thái cùng những chiêm nghiệm mới về cuộc sống thông qua những gói dịch vụ ngâm tắm bùn khoáng độc đáo mang đậm phong cách Spa.       
Hiệu quả của bùn khoáng trong việc chăm sóc sức khỏe, sắc đẹp và chữa bệnh đã được thế giới công nhận và biết đến từ lâu. Cho đến nay, tắm bùn – tắm khoáng vẫn là loại hình du lịch độc đáo được du khách trong nước cũng như quốc tế yêu thích.
15:00  Đoàn tham quan Nhà Thờ Đá, một công trình kiến trúc độc đáo của Nha Trang.
16:30 Xe đưa đoàn tham quan Khu Du Lịch 5 Sao Vinpearland.
Quý khách tự do tham gia tất cả các trò chơi trong nhà, ngoài trời:
- Hệ thống làn trượt đầu tiên trên đảo tại Châu Á: Alpine Coaster
Trò chơi bật nhảy Bungee
- Hay thử sức“bay” trên biển với các trò chơi cảm giác mạnh như: đu quay 3 chiều, đu quay văng dây, đu quay thú nhún, đu quay voi con, tàu hải tặc, tàu lượn cao tốc.
- Khám phá hệ thống các trò chơi trong nhà như: đấu bò tót, xe đụng, vườn cổ tích, thiên đường trẻ em, siêu thị game, hát karaoke & và trải nghiệm cảm giác mới lạ  trong rạp chiếu phim 4D hiện đại.
- Thám hiểm thế giới đại dương với hàng trăm ngàn sinh vật biển qua Thủy Cung Vinpearl lớn nhất Đông Nam Á bằng hệ thống cầu thang cuốn trong một đường hầm dài 90m dưới đáy biển được thiết kế rất công phu tạo cảm giác hấp dẫn, kỳ bí.
- Trải nghiệm đa cảm giác tại khu vực Công Viên Nước với các trò chơi cảm giác mạnh: đường trượt 6 làn, hố đen vũ trụ, cảm tử quân, rơi tự do, sóng thần, phao bay & phao vượt tốc. Thỏa thích trong không gian của bé tại khu vực trò chơi dành cho gia đình: hồ bơi trẻ em, hồ tạo sóng, máng trượt thân người, máng trượt nhóm gia đình…
- Dạo bộ dọc những dãy phố mua sắm rộng hơn 6000 m2 với những gian hàng thiết kế độc đáo
- Tham quan Trúc Lâm Tịnh Viện để tìm về một không gian tâm linh, thành kính và hướng thiện của đức Phật
18:30  Tự do thưởng thức các món đặc sản tại Nha Trang
Buổi tối. Tự do khám phá thành phố Nha Trang, nghỉ đêm tại Nha Trang 
                                 NGÀY 3 : CHỢ ĐẦM  – TP. NHA TRANG – TP. HỒ CHÍ MINH
                                    07:00 Làm thủ tục trả phòng khách sạn.
07:30 Dùng điểm tâm sáng tại nhà hàng.
08:00 Tự do mua sắm tại Trung Tâm Thương Mại chợ Đầm với kiến trúc chợ hình tròn lồng duy nhất ở Việt Nam. Qua đó khám phá nét đẹp văn hóa, đời sống thường ngày của người dân xứ sở Trầm Hương.
09:00 Tạm biệt thành phố biển, đoàn khởi hành về lại Tp. Hồ Chí Minh. Trên đường về, Quý khách cùng thư giãn với các trò chơi tập thể vui nhộn trên xe & nghe hướng dẫn viên thuyết minh về những thắng cảnh trên dải đất Mẹ miền Trung quanh năm rì rào gió biển.
11:00 Dùng cơm trưa tại Cà Ná
Dừng chân tại  Phan Rang, thưởng thức rượu nho & các loại trái cây đặc sản của vùng. 
20:00 Đoàn có mặt tại Tp. Hồ Chí Minh. 
Kết thúc chương trình, chia tay & hẹn gặp lại.
​     
                    G.Thiệu
                                        Ngày 1
                                        Ngày 2
                                        Ngày 3
                     ĐỊA ĐIỂM ĐÓN KHÁCH
                                                QUÝ KHÁCH ĐI TOUR KHỞI HÀNH BẰNG Ô TÔ VỚI NHỮNG ĐIỂM ĐÓN SAU :
Đón khách tại Công ty Du lịch Hải Đăng, 225 Bàu Cát, P12, Quận Tân Bình
Đón khách tại Nhà Văn Hóa Thanh Niên, 04 Phạm Ngọc Thạch, Quận 1
Đón khách tại Cây xăng Comeco, Ngã 4 Hàng Xanh, Quận Bình Thạnh
Đón khách tại Ngã 4 Thủ Đức, Quận 9
Đón khách tại Siêu thị Lotte Mart, Ngã 4 Amata, Biên Hòa, Đồng Nai
QUÝ KHÁCH ĐI TOUR TUYẾN MIỀN TÂY NHỮNG ĐIỂM ĐÓN SAU :
Đón khách tại Công viên Bàu Cát, 141 Đồng Đen, P11, Quận Tân Bình
Đón khách tại Nhà Văn Hóa Thanh Niên, 04 Phạm Ngọc Thạch, Quận 1
Bến xe miền tây , Q 6 ( bệnh viện Triều An )
QUÝ KHÁCH ĐI TOUR KHỞI HÀNH BẰNG MÁY BAY VỚI NHỮNG ĐIỂM ĐÓN SAU :
Quý khách vui lòng tập trung tại nhà ga đối với những khách đi tour khởi hành bằng tàu
Quý khách vui lòng tập trung tại sân bay hoặc các phòng chờ của các hãng bay đối với những khách đi tour khởi hành bằng máy bay
                         QUY ĐỊNH TOUR
                                             GIÁ TOUR BAO GỒM 
                                                  Lưu Trú
                                                Khách sạn 2 sao: Cường Long, Phương Nhung …..
Máy lạnh, tivi, hoặc khách sạn tương đương,phòng 3-4 khách.
Phụ thu phòng đơn: 1 phòng 1 khách: 600.000 đ/khách/2 đêm (dịp lễ), 400.000 đ/khách/2 đêm (ngày thường)
Phụ thu phòng đôi:   75.000 đ/Khách/đêm (Ngày thường)
Phụ thu phòng đôi: 125.000 đ/Khách/đêm (Ngày lễ)
Trường hợp có khách đi lẻ, Hải Đăng ghép cho khách và khách không phải đóng phụ thu.
. *** Nếu quý khách có nhu cầu ở khách sạn 3-4-5 sao vui lòng liên hệ HAIDANGTRAVEL để được sắp xếp.
                                                 Vé Tham Quan
                                                    Vé vào cổng: Bao trọn gói: vé tham quan KDL Hòn Chồng, Tàu ra đảo Diệp Sơn
                                                  Ăn Uống
                                                Điểm tâm: 3 buổi
1 set Menu: 40.000 đ/suất (1tô bún, phở, hủ tiếu + 1 ly nước ngọt, sữa, café)
Ăn chính: 4 buổi
3 buổi: 80.000đ/suất
1 bữa Hải Sản : 150.000đ/suất
                                                   Nón Nước - Khăn Lạnh
                                                Nước suối: 1 chai 500ml/ngày/khách
Khăn lạnh: 1 cái/ngày/khách
Nón du lịch: 1 nón HAIDANGTRAVEL/khách
                                                 Phương Tiện
                                                Xe đời mới máy lạnh 45 Chỗ, đón khách theo chương trình
Mỗi đợt khởi hành tối thiểu 40 khách.
                                             GIÁ TOUR KHÔNG BAO GỒM 
                                                   Chi Phí Cá Nhân
                                                Chi phí cá nhân, Giặt ủi, điện thoại,ăn uống ngoài chương trình …..Điểm tham quan, Vinpearl,Iresort chi phí cá nhân ngoài chương trình....Thuế VAT 10%, Khách nào có nhu cầu xuất hóa đơn thì đóng thêm 10% giá tour.
                                                  Thuế VAT
                                                 10% thuế VAT
                                             QUY ĐỊNH TRẺ EM 
                                                1.Trẻ em dưới 05 tuổi, cao dưới 1m: miễn phí – cha mẹ lo toàn bộ chi phí cho bé nếu có phát sinh. 02 người lớn chỉ được kèm 01 trẻ em. Trường hợp 02 người lớn kèm 02 trẻ em dưới 05 tuổi. Trẻ em thứ 1 được miễn phí, trẻ em thứ 2 áp dụng mức phí: 50%/mức phí người lớn :  Phụ thu ghế ngồi trên xe:40%/bé ( Nếu ba mẹ có yêu cầu)
2.Trẻ em từ 05 – 10 tuổi, cao từ 1m – 1.4m: 75%/mức phí người lớn – bao gồm tất cả các chi phí & ghế ngồi riêng trên xe, ngủ chung giường với bố mẹ. 02 người lớn chỉ được kèm 01 trẻ em. Trường hợp 02 người lớn đi kèm 02 trẻ em, trẻ em thứ 2 phải áp dụng mức phí của người lớn.  
3.Trẻ em từ 05 – 10 tuổi, cao trên 1m4: 85%/mức phí người lớn – bao gồm tất cả các chi phí & ghế ngồi riêng trên xe, ngủ chung giường với bố mẹ. 02 người lớn chỉ được kèm 01 trẻ em. Trường hợp 02 người lớn đi kèm 02 trẻ em, trẻ em thứ 2 phải áp dụng mức phí của người lớn. 
4.Trẻ em từ 11 tuổi: 100% giá tour - như người lớn.
                                             QUY ĐỊNH MUA VÀ HỦY TOUR 
                                                Sau khi đăng ký, thanh toán ít nhất 50% tiền cọc và đóng hết 100% trước khởi hành 7 ngày.
Dời ngày khởi hành trước 10 ngày không mất phí, sau 8 ngày mất 20%.( Không tính ngày lễ và chủ nhật), chỉ được dời 1 lần.
Sau khi đăng ký huỷ tour mất 10% giá tour
Từ 10 đến trước 8 ngày trước ngày khởi hành chịu phí 30% giá tour.( Không tính ngày lễ và chủ nhật)
Từ 8 đến 6 ngày trước ngày khởi hành chịu phí 50% giá tour.( Không tính ngày lễ và chủ nhật)
Từ 3-5 ngày trước ngày khởi hành chịu phí 70% giá tour.( Không tính ngày lễ và chủ nhật)
Từ 2 ngày trước ngày khởi hành chịu phí 100% giá tour.( Không tính ngày lễ và chủ nhật)
Các quy định trên không áp dụng cho các dịp lễ và tết.
Các ngày lễ tết việc dời ngày và hủy tour trước 15 ngày khởi hành mất 50% giá tour. Sau 15 ngày so với ngày khởi hành mất 100% giá tour.(Không tính ngày chủ nhật.)
Sau khi hủy tour, du khách vui lòng đến công ty nhận tiền trong vòng 2 tuần kể từ ngày đăng ký tour. Chúng tôi chỉ thanh toán trong thời gian 14 ngày nói trên.
Trường hợp hủy tour do sự cố khách quan như thiên tai, dịch bệnh hoặc do tàu thủy, xe lửa, máy bay hoãn/hủy chuyến, Hải Đăng Travel sẽ không chịu trách nhiệm bồi thường thêm bất kỳ chi phí nào khác ngoài việc hoàn trả chi phí những dịch vụ chưa được sử dụng của tour đó.
                                             HÌNH THỨC THANH TOÁN 
                                                Thanh toán bằng tiền mặt tại Trụ sở chính, chi nhánh của Hải Đăng Travel hoặc công ty hỗ trợ thu tận nơi ( nếu khách có yêu cầu)
Chuyển khoản qua số tài khoản
Số tài khoản: 711A00686521.
Chủ tài khoản: Dương Phan Quốc Văn – Vietinbank TP.HCM.
Nội dung: Tour Điệp Sơn-Nha Trang 3n3d. Ngày khởi hành:…, Tên khách:…, Số lượng:…
Sử dụng Voucher, cung cấp mã số Voucher, đóng thêm phụ thu (nếu có). Quý khách giữ Voucher và nộp lại cho công ty.
Thanh toán bằng thẻ Visa ( thẻ từ, thẻ chip,…)
Thẻ giảm giá, thẻ ưu đãi xuất trình khi đăng ký tour.
                     ĐIỂM THAM QUAN 
                                                  Kiểm Tra Giá & Lịch Khởi Hành 
                                                                                            KS 2 Sao
                            Khởi Hành
                                                                                                                                                                    29/12/201630/12/2016
                            = 
                            Người lớn
                            = 
                            Trẻ em
                            = 
                            Tổng cộng
                                = 
                         Mua Tour
                TOUR LIÊN QUAN
                                              4 ngày 4 đêm |  Ô Tô |  2 sao
                                            Xem
                                    Tour Ninh Chữ, Đà Lạt,Tết Dương Lịch 2017
                                         2,290,000 đ
                                                Giá gốc: 2,900,000 đ
                                                     Lịch khởi hành
                                                        28/12/2016
                                              4 ngày 4 đêm |  Ô Tô |  2 sao
                                            Xem
                                    Tour Nha Trang, Đà Lạt, Tết Dương Lịch 2017
                                         2,290,000 đ
                                                Giá gốc: 2,340,000 đ
                                                     Lịch khởi hành
                                                        29/12/201630/12/2016
                                              3 ngày 3 đêm |  Ô Tô |  2 sao
                                            Xem
                                    Tour Nha Trang Tiệc Buffet, Bãi Tắm Nhũ Tiên,Tết Dương Lịch 2017
                                         1,790,000 đ
                                                Giá gốc: 1,890,000 đ
                                                     Lịch khởi hành
                                                        29/12/201630/12/2016
                                              3 ngày 3 đêm |  Ô Tô |  2 sao
                                            Xem
                                    Tour Nha Trang, Bar Trên Biển, Tết Dương Lịch 2017
                                         1,690,000 đ
                                                Giá gốc: 1,890,000 đ
                                                     Lịch khởi hành
                                                        29/12/201630/12/2016
                                              2 ngày 2 đêm |  ô Tô |  3 sao
                                            Xem
                                    Tour Ninh Chữ - Vĩnh Hy Resort 3sao, Tết Dương Lịch 2017
                                         1,550,000 đ
                                                Giá gốc: 1,999,000 đ
                                                     Lịch khởi hành
                                                        30/12/2016
                                              2 ngày 1 đêm |  Máy bay (Bao Gồm ) |  3 sao
                                            Xem
                                    Tour Côn Đảo, Trọn Gói Vé Máy Bay Tết Dương Lịch 2017
                                         5,250,000 đ
                                                Giá gốc: 5,890,000 đ
                                                     Lịch khởi hành
                                                        25/12/201626/12/201627/12/201628/12/201629/12/201630/12/201631/12/201601/01/201702/01/2017
                    TRỤ SỞ CHÍNH
                         225 Bàu Cát, P12, Q.Tân Bình, HCM
                         19002011 - 08 3849 3838 
                        08 3849 2999   
                          www.haidangtravel.com  
                         info@haidangtravel.com 
                        CSKH: 0948.99.1080
                    CHI NHÁNH
                         Quận 1 : Lầu 7, Tòa Nhà Viễn Đông, 14 Phan Tôn
                        19002011(Ext-107) -  0838204589  
                         Quận 12 : 256 TX25, Thạnh Xuân, Q12 
                        19002011(Ext-111)
                         Biên Hòa : 51A2, KP11, P.Tân Phong 
                        19002011(Ext-108) -  0613999392  
                    TRỢ GIÚP
                    Liên hệ & giới thiệuĐiều khoản chungHình thức thanh toánHướng dẫn mua tourChính sách bảo mật
                        GIỜ LÀM VIỆC
                            Thứ 2 đến 6
                                Sáng: 08:00-12:00Chiều:13:30-17:30
                            Thứ 7 Sáng: 08:00-12:00Nghỉ chủ nhật, lễ, tết
                    Được tìm kiếm nhiều
                        Tour Nha Trang
                        Tour Đà Lạt
                        Tour Cà Mau
                        Tour Phú Yên
                        Tour Ninh Chữ
                        Tour Côn Đảo
                        Tour Miền Bắc
                        Tour Phú Quốc
                        Tour Đà Nẵng
                        Tour Phan Thiết
                        Tour Bình Ba
                        Tour Nam Du
                        Tour Vũng Tàu
                        Tour Bà Lụa
                THÀNH TÍCH
            2015 © All Rights Reserved. Công ty cổ phần xây dựng du lịch Hải Đăng
        Your browser doesn't support canvas. Please download IE9+ on
            IE Test Drive
            +
                Có thể bạn quan tâm ?
                                Tour Côn Đảo, Khám Phá Lịch Sử Văn Hóa Côn Sơn 2N1Đ
                                 4,590,000 đ
                                Tour Đảo Hòn Sơn Khám Phá Đỉnh Ma Thiên Lãnh 2N2Đ
                                 1,390,000 đ
                                Tour du lịch Vũng Tàu, Long Hải, Suối nước nóng Bình Châu 2N1Đ
                                 789,000 đ
                                Tour Ninh Chữ - Vĩnh Hy Khám Phá Bãi Đá Bảy Màu Resort 3sao 2N2Đ
                                 1,250,000 đ
                                Tour Đà Lạt Phototrip Khám Phá Những Cung Đường Hoa 3N3Đ
                                 1,250,000 đ
                                Tour Đảo Bình Hưng, Hang Rái, Vĩnh Hy 2n2d
                                 1,111,000 đ
                                Tour Ninh Chữ - Vĩnh Hy - Cổ Thạch đồng giá 2N2Đ
                                 999,000 đ
                                Tour Côn Đảo, Trọn Gói Vé Máy Bay 2N1Đ
                                 3,999,000 đ
                                Tour Ninh Chữ, Vĩnh Hy Hang Rái Siêu Tiết Kiệm 2n2d
                                 850,000 đ
                                Tour Đảo Phú Quý, Khám Phá Hòn Đảo Mang Vẻ Đẹp Hoang Sơ 3N3Đ
                                 2,250,000 đ
                        ×
