url:http://mytour.vn/82-son-tra-resort-spa.html
Tittle :Sơn Trà Resort & Spa - Đà Nẵng giá tốt nhất - Mytour.vn
content :Đặt phòng trực tuyến, hoặc gọi
                                                            Hà Nội: (04) 7109 9999
                                                                                        - (04) 7309 9899
                                                            Hồ Chí Minh: (08) 7309 9899
                                                                                        - (08) 7109 9998
                        T2 - CN: 08:00 - 23:00
                    Toggle navigation
                                Bạn không có thông báo nào
                    |
                    ||
                                                            Tài khoản
                        Đăng nhập
                                Đăng kýKhách sạn yêu thích
                            Khách sạn
                            Tour
                            Cẩm nang du lịch
                            Thông tin
                                                Về Mytour
                                                Tin khuyến mãi
                                                Ưu đãi
                                                Hướng dẫn
                                                Liên hệ
                            Tốt nhất 2016
                ×
                Bạn có chắc muốn hủy đơn hàng?
                Lorem ipsum dolor sit amet, consectetur adipisicing elit. Iure corporis repudiandae nobis distinctio
                quae quos, officia modi, ab voluptatem pariatur ducimus mollitia, necessitatibus sed soluta dicta
                repellendus! Praesentium debitis, temporibus?
                    Đồng ý
                    Đóng
                    Khách sạnĐà NẵngSơn TràKhách sạn gần Chùa Linh ỨngSơn Trà Resort & Spa
                    Đóng
            Tìm Kiếm Khách Sạn
                            Ngày nhận phòng
                            Ngày trả phòng
                    Số đêm
                    Số phòng
                        123456789101112
                    Người lớn
                        123456789101112
                    Tìm khách sạn
                Giá tốt hơn so với đặt phòng trực tiếp tại khách sạn
                Đảm bảo 
                giá tốt nhất
                Đảm bảo 
                hoàn tiền
                Nhân viên chăm sóc, tư vấn nhiều kinh nghiệm
                Hơn 5000 khách sạn tại Việt Nam với đánh giá thực
                Nhiều chương trình khuyến mãi và tích lũy điểm
                Thanh toán dễ dàng, đa dạng
                        Sơn Trà Resort & Spa
                            (Cung cấp bởi khách sạn)
                                    Tất cả thông tin về tiêu chuẩn khách sạn trên website mytour.vn
                                    là do khách sạn tự cung cấp, chỉ mang tính chất tham khảo và không nhất thiết trùng
                                    hợp với hạng
                                    sao được cấp bởi sở Văn Hoá, Thể thao và du lịch.
                             Bãi Nam - Bãi Cồn, Thọ Quang, Sơn Trà, Đà Nẵng 
                                Đặt phòng ngay giữ giá tốt
                                Đã thích
                                        7.8
                                            (54
                                            đánh giá)
                                Giới thiệu về Sơn Trà Resort & Spa 
                                    Sơn Trà Resort & Spa nằm ở một vị trí thuận lợi, cách Trung tâm thành phố và Trung tâm thương mại khoản 10 phút chạy xe và cách 20 phút từ sân bay quốc tế Đà Nẵng, luôn là điểm đến lý tưởng cho du khách mỗi khi đặt chân đến Đà Nẵng.Resort giống như một "thiên đường" nghỉ ngơi giúp cho du khách có những giây phút thoải mái nhất sau những ngày làm việc bận rộn và căng thẳng. 
Các biệt thự sang trọng rất gần với thiên nhiên với cảnh quan hài hòa của biển, thực vật ngoại lai, núi rừng tạo nên mọi lợi thế cho eo vịnh và cho bãi biển đẹp lộng lẫy. Mỗi Villa Ocean View và Beachfront Villas có một hồ bơi riêng gồm có 2 phòng ngủ lớn, 1 phòng ăn riêng biệt, 1 nhà bếp đầy đủ tiện nghi, tất cả được cung cấp một cách đầy đủ làm cho khu nghỉ mát 5 sao này trở nên hoàn hảo hơn. Ngoài ra, quý khách có thể tận hưởng những giây phút thư giãn với các dịch vụ tại đây, đặc biệt là các dịch vụ Spa làm đẹp.
Đến với Sơn Trà Resort & Spa bạn sẽ được phục vụ một cách chu đáo và tận tình nhất từ đội ngũ nhân viên năng động, nhiều kinh nghiệm, được đào tạo chuyên môn trong môi trường đầy chuyên nghiệp. Chúng tôi chắc chắn sẽ mang đến cho quý khách những tiện nghi hoàn hảo với đầy đủ tiện lợi, giúp quý khách có những giây phút thoải mái, thật thư giãn và bình yên trong "căn nhà riêng" của mình. Đối với chúng tôi, các bạn luôn luôn là chủ và chắc chắn các bạn sẽ cảm nhận được những giây phút thực sự thoải mái - "đúng là nơi mà mình muốn đến".
Cũng tại Sơn Trà Resort & Spa, quý khách có thể thưởng thức các món ăn ngon bậc nhất của Việt Nam hay của thế giới và cùng nhâm nhi ly rượu để tận hưởng sự hòa quyện ấm cúng của vẻ đẹp biển Sơn Trà.
Đến với Sơn Trà Resort & Spa, quý khách sẽ tận hưởng những phút giây thoải mái, giúp bạn thư thái sau những ngày làm việc căng thẳng, có những giây phút thú vị bên cạnh gia đình, người thân và bạn bè. Khu nghỉ mát bãi biển duyên dáng và sang trọng của chúng tôi luôn cam kết sẽ cung cấp cho bạn một kỳ nghỉ đầy ấn tượng khó quên để bạn thả hồn vào biển cả, quên hết những ưu phiền của cuộc sống.
Bên cạnh đó, khi đặt phòng Sơn Trà Resort & Spa, resort còn gợi ý cho bạn những hoạt động vui chơi giải trí bảo đảm bạn luôn thấy hứng thú trong suốt kì nghỉ. Dù bạn đến để thư giãn hay làm gì, Sơn Trà Resort & Spa luôn là sự lựa chọn hoàn hảo cho kì nghỉ của bạn ở Đà Nẵng. 
Khi đặt phòng khách sạn hoặc đặt tour qua hệ thống đặt phòng trực tuyến của Mytour.vn, bạn sẽ có cơ hội sở hữu phòng nghỉ tại những khách sạn giá rẻ hay cao cấp. Hãy sử dụng dịch vụ của Mytour.vn để có cơ hội đặt những phòng khách sạn giá rẻ nhất với chất lượng tuyệt vời bạn nhé.
                                        Xem thêm 
                                Chọn ngày để xem giá và phòng trống
                                    Đảm bảo giá tốt nhất
                                                                            Giá ưu đãi chỉ dành cho khách nội địa.
                                                Ngày nhận phòng
                                                Ngày trả phòng
                                        Số đêm
                                        Số phòng
                                            123456789101112
                                        Người lớn
                                            123456789101112
                                        Cập nhật giá
                                Lưu ý: Vui lòng ẩn "Cập nhật giá" để cập nhật phòng
                                Chọn phòng Sơn Trà Resort & Spa
                                                Loại Phòng
                                                Giá 1 đêm
                                                Số phòng
                                                Đặt phòng
                                                                    Two Bedroom Ocean View Villa (4 người lớn + 2 trẻ em)
                                                                        Điều kiện hủy phòng
                                                                        Thêm giường
                                                                        0
                                                                         Vui lòng chọn số lượng phòng trước! 
                                                         
Miễn phí tiền phòng cho trẻ em dưới 6 tuổi sử dụng giường chung với bố mẹ.
Từ 6 đến dưới 12 tuổi phụ thu 50% tiền villa hoặc extra bed.
Phụ thu 50% giá extra bed nếu khách yêu cầu đặt cho trẻ em.
Miễn phí ăn sáng đối với trẻ em dưới 6 tuổi
Phụ thu ăn sáng 50% đối với trẻ em từ 6 đến dưới 12 tuổi, giá 110 000VND net/trẻ
Trẻ em từ 12 tuổi trở lên tính bằng giá người lớn, 220 000 VND net/trẻ/người lớn
 
                                                        phòng
                                                                                                                                                                            012345678910
                                                            Đặt ngay
                                                            Xác nhận ngay
                                                                    One Bedroom Ocean View Villa (2 người lớn + 1 trẻ em)
                                                                        Điều kiện hủy phòng
                                                                        Thêm giường
                                                                        0
                                                                         Vui lòng chọn số lượng phòng trước! 
                                                         
Miễn phí tiền phòng cho trẻ em dưới 6 tuổi sử dụng giường chung với bố mẹ.
Từ 6 đến dưới 12 tuổi phụ thu 50% tiền villa hoặc extra bed.
Phụ thu 50% giá extra bed nếu khách yêu cầu đặt cho trẻ em.
Miễn phí ăn sáng đối với trẻ em dưới 6 tuổi
Phụ thu ăn sáng 50% đối với trẻ em từ 6 đến dưới 12 tuổi, giá 110 000VND net/trẻ
Trẻ em từ 12 tuổi trở lên tính bằng giá người lớn, 220 000 VND net/trẻ/người lớn
                                                        phòng
                                                                                                                                                                            01234567891011121314
                                                            Đặt ngay
                                                            Xác nhận ngay
                                                                    Two Bedroom Beach Front Villa (4 người + 2 trẻ em)
                                                                        Điều kiện hủy phòng
                                                                        Thêm giường
                                                                        0
                                                                         Vui lòng chọn số lượng phòng trước! 
                                                         
Miễn phí tiền phòng cho trẻ em dưới 6 tuổi sử dụng giường chung với bố mẹ.
Từ 6 đến dưới 12 tuổi phụ thu 50% tiền villa hoặc extra bed.
Phụ thu 50% giá extra bed nếu khách yêu cầu đặt cho trẻ em.
Miễn phí ăn sáng đối với trẻ em dưới 6 tuổi
Phụ thu ăn sáng 50% đối với trẻ em từ 6 đến dưới 12 tuổi, giá 110 000VND net/trẻ
Trẻ em từ 12 tuổi trở lên tính bằng giá người lớn, 220 000 VND net/trẻ/người lớn
                                                        phòng
                                                                                                                                                                            012345678910
                                                            Đặt ngay
                                                            Xác nhận ngay
                                                                    One Bedroom Beach Front Villas (2 người lớn + 1 trẻ em)
                                                                        Điều kiện hủy phòng
                                                                        Thêm giường
                                                                        0
                                                                         Vui lòng chọn số lượng phòng trước! 
                                                         
Miễn phí tiền phòng cho trẻ em dưới 6 tuổi sử dụng giường chung với bố mẹ.
Từ 6 đến dưới 12 tuổi phụ thu 50% tiền villa hoặc extra bed.
Phụ thu 50% giá extra bed nếu khách yêu cầu đặt cho trẻ em.
Miễn phí ăn sáng đối với trẻ em dưới 6 tuổi
Phụ thu ăn sáng 50% đối với trẻ em từ 6 đến dưới 12 tuổi, giá 110 000VND net/trẻ
Trẻ em từ 12 tuổi trở lên tính bằng giá người lớn, 220 000 VND net/trẻ/người lớn
                                                        phòng
                                                                                                                                                                            01234567891011121314
                                                            Đặt ngay
                                                            Xác nhận ngay
                                    Tiện nghi Sơn Trà Resort & Spa 
                                                Bữa sáng miễn phí
                                                Bể bơi ngoài trời
                                                Cửa hàng
                                                Internet
                                                internet ( miễn phí )
                                                Phòng hút thuốc
                                                Thêm giường phụ
                                                Wifi miễn phí
                                                Giặt là
                                                Hỗ trợ đặt tour
                                                Quán cafe
                                                Thuê xe, taxi
                                                vé tàu xe, máy bay
                                                Bể bơi trong nhà
                                                Spa
                                                Tắm hơi
                                Ghi chú: Ăn sáng miễn phí (nếu có) có thể thay đổi theo phòng và ngày
                                    Chính sách Sơn Trà Resort & Spa 
                                        Giờ nhận
                                        phòng: 14:00
                                        Giờ trả
                                        phòng: 12:00
            Đánh giá Sơn Trà Resort & Spa
                Viết đánh giá
                        Tất cả ( 54 )
                        Công tác ( 1 )
                        Cặp đôi ( 8 )
                        Gia đình ( 24 )
                        Bạn bè ( 2 )
                        Cá nhân ( 19 )
                        Đánh giá
                        7.8
                            Tất cả
                    Chi tiết điểm  (từ
                        54
                        nhận xét)
                            Vị trí
                                8
                                    % Complete
                            8
                            Phục vụ
                                7.8
                                    % Complete
                            7.8
                            Tiện nghi
                                7.9
                                    % Complete
                            7.9
                            Giá cả
                                7.7
                                    % Complete
                            7.7
                            Vệ sinh
                                7.7
                                    % Complete
                            7.7
                                    “Resort thật sự đẹp và đã đem đến cho tôi sự thư giãn khi nghỉ lại. Căn phòng được trang hoàng đầy đủ, nhân viên ở đây thân thiện với khách hàng. Ngoài ra bãi biển riêng cũng đẹp và thoáng. Tôi hài lòng với khoảng thời gian lưu lại.
                                    “
                                Đinh Thị Hương
                                14/09/2016
                        Đánh giá
                        7.4
                            Công tác
                    Chi tiết điểm  (từ
                        1
                        nhận xét)
                            Vị trí
                                8
                                    % Complete
                            8
                            Phục vụ
                                8
                                    % Complete
                            8
                            Tiện nghi
                                8
                                    % Complete
                            8
                            Giá cả
                                7
                                    % Complete
                            7
                            Vệ sinh
                                7
                                    % Complete
                            7
                                    “Khu resort này toàn là villa nên rất đẹp, mỗi villa gồm 2 phòng ngủ, 1 phòng bếp, 1 phòng khách, một bể bơi. Phòng rất thoải mái và rộng rãi. Nhưng ăn sáng hơi chán, nếu có dịp tôi vẫn muốn quay lại đây cùng gia đình nhưng mong resort cải thiện để tôi cảm thấy hài lòng hơn. 
                                    “
                                Sơn Phong
                                10/02/2012
                        Đánh giá
                        6.8
                            Cặp đôi
                    Chi tiết điểm  (từ
                        8
                        nhận xét)
                            Vị trí
                                7.3
                                    % Complete
                            7.3
                            Phục vụ
                                6.5
                                    % Complete
                            6.5
                            Tiện nghi
                                6.9
                                    % Complete
                            6.9
                            Giá cả
                                6.8
                                    % Complete
                            6.8
                            Vệ sinh
                                6.6
                                    % Complete
                            6.6
                                    “Khách sạn tuy tốt nhưng hơi cũ và phòng ốc bị mốc có mùi. Vệ sinh tổng thể chưa chu đáo ,sạch sẽ .Nên sửa chữa và tu bổ lại khách sạn. Nếu tình trạng giống như năm nay thì sẽ không quay lại với dịch vụ của khách sạn này nữa.
                                    “
                                Đặng Thanh Hùng
                                11/08/2014
                        Đánh giá
                        7.8
                            Gia đình
                    Chi tiết điểm  (từ
                        24
                        nhận xét)
                            Vị trí
                                8
                                    % Complete
                            8
                            Phục vụ
                                7.9
                                    % Complete
                            7.9
                            Tiện nghi
                                7.9
                                    % Complete
                            7.9
                            Giá cả
                                7.6
                                    % Complete
                            7.6
                            Vệ sinh
                                7.7
                                    % Complete
                            7.7
                                    “Resort phòng ốc đẹp, sạch, hơi xa trung tâm nhưng rất yên tĩnh và không gian thoáng đạt, thích hợp đi 2 gia đình  vì mỗi villa là 2 phòng ngủ có bếp, phòng khách và bể bơi riêng, sinh hoạt rất thoải mái. GĐ tôi hoàn toàn hài lòng khi nghỉ ở đây.
                                    “
                                llthao
                                08/08/2016
                        Tốt
                        8
                            Bạn bè
                    Chi tiết điểm  (từ
                        2
                        nhận xét)
                            Vị trí
                                8.5
                                    % Complete
                            8.5
                            Phục vụ
                                8.5
                                    % Complete
                            8.5
                            Tiện nghi
                                8
                                    % Complete
                            8
                            Giá cả
                                7.5
                                    % Complete
                            7.5
                            Vệ sinh
                                7.5
                                    % Complete
                            7.5
                                    “Khách sạn có bể bơi riêng, bãi biển ngay trước cửa phòng rất thuận tiện. Nội thất phòng ngủ đẹp nhưng thiết bị vệ sinh không tốt lắm. Nói chung mình rất hài lòng về kỳ nghỉ này
                                    “
                                Nguyen Thu Huong
                                05/12/2013
                        Tốt
                        8.1
                            Cá nhân
                    Chi tiết điểm  (từ
                        19
                        nhận xét)
                            Vị trí
                                8.2
                                    % Complete
                            8.2
                            Phục vụ
                                8.2
                                    % Complete
                            8.2
                            Tiện nghi
                                8.2
                                    % Complete
                            8.2
                            Giá cả
                                8.1
                                    % Complete
                            8.1
                            Vệ sinh
                                8.2
                                    % Complete
                            8.2
                                    “Resort thật sự đẹp và đã đem đến cho tôi sự thư giãn khi nghỉ lại. Căn phòng được trang hoàng đầy đủ, nhân viên ở đây thân thiện với khách hàng. Ngoài ra bãi biển riêng cũng đẹp và thoáng. Tôi hài lòng với khoảng thời gian lưu lại.
                                    “
                                Đinh Thị Hương
                                14/09/2016
                                Từ ngày mới đến cũ
                                Từ ngày cũ đến mới
                                Điểm từ thấp đến cao
                                Điểm từ cao đến thấp
                                Đinh Thị Hương
                                14-09-2016
                                            Tốt
                                            8
                                        "Đẹp "
                                                Vị trí
                                                    8 .0
                                                Phục vụ
                                                8 .0
                                                Tiện nghi
                                                8 .0
                                                Giá cả
                                                8 .0
                                                Vệ sinh
                                                8 .0
                                                “Resort thật sự đẹp và đã đem đến cho tôi sự thư giãn khi nghỉ lại. Căn phòng được trang hoàng đầy đủ, nhân viên ở đây thân thiện với khách hàng. Ngoài ra bãi biển riêng cũng đẹp và thoáng. Tôi hài lòng với khoảng thời gian lưu lại.” 
                                llthao
                                08-08-2016
                                            Tốt
                                            8
                                        "Sơn Trà resort "
                                                Vị trí
                                                    8 .0
                                                Phục vụ
                                                9 .0
                                                Tiện nghi
                                                8 .0
                                                Giá cả
                                                7 .0
                                                Vệ sinh
                                                8 .0
                                                “Resort phòng ốc đẹp, sạch, hơi xa trung tâm nhưng rất yên tĩnh và không gian thoáng đạt, thích hợp đi 2 gia đình  vì mỗi villa là 2 phòng ngủ có bếp, phòng khách và bể bơi riêng, sinh hoạt rất thoải mái. GĐ tôi hoàn toàn hài lòng khi nghỉ ở đây.” 
                                Nguyễn Thị Thu Hằng
                                27-07-2016
                                            Tốt
                                            8
                                        "Rất hài lòng "
                                                Vị trí
                                                    8 .0
                                                Phục vụ
                                                8 .0
                                                Tiện nghi
                                                8 .0
                                                Giá cả
                                                8 .0
                                                Vệ sinh
                                                8 .0
                                                “Sơn Trà Resort & Spa đã cho tôi một kì nghỉ mát khá thú vị, không khí ở đây trong lành, cảnh quan đẹp và các dịch vụ thư giãn cũng đầy đủ. Phòng bố trí gọn gàng, trang thiết bị hiện đại xứng với tiêu chuẩn 4 sao. Bữa sáng đa dạng món, phục vụ đúng giờ đồng thời nhân viên cũng chu đáo. Chẳng có điểm nào đáng chê trách.” 
                                Phan Thị Lan Anh - Phan Thị Kim Chi
                                29-03-2016
                                            Đánh giá
                                            7
                                        "Khá ổn "
                                                Vị trí
                                                    7 .0
                                                Phục vụ
                                                7 .0
                                                Tiện nghi
                                                7 .0
                                                Giá cả
                                                7 .0
                                                Vệ sinh
                                                7 .0
                                                “Tôi có chuyến đi Đà Nẵng và chọn dịch vụ này để nghỉ lại nhưng vì ở chỉ trong vài giờ nên Tôi chưa trãi nghiệm được hết tất cả dịch vụ ở đây đang có là như thế nào. Nhưng với phòng ốc của Tôi nhận được thì thấy khang trang và sạch sẽ, phòng thơm tho dễ chịu. Nhìn chung phục vụ cũng khá nhiệt tình và chu đáo Tôi cảm thấy khá ổn về dịch vụ này.” 
                                Hà Ngọc Dũng
                                30-12-2015
                                            Tốt
                                            8
                                        "Nơi nghỉ dưỡng khá tốt "
                                                Vị trí
                                                    8 .0
                                                Phục vụ
                                                8 .0
                                                Tiện nghi
                                                8 .0
                                                Giá cả
                                                8 .0
                                                Vệ sinh
                                                8 .0
                                                “Phía trước resort là một bãi cát trắng cùng với bãi biển có nước trong xanh đi kèm với những dịch vụ đa dạng thì tôi nghĩ nơi đây đúng là nơi nghĩ dưỡng khá tốt đấy. Thức ăn phục vụ ngon miệng, món ăn được chế biến từ hải sản tươi sống nhìn rất hấp dẫn. Ngoài ra, chất lượng phòng ốc cũng ok, đạt chuẩn nhân viên thì nhiệt tình, vui vẻ. Tóm lại là tôi đã có một chuyến nghĩ dưỡng rất thoải mái khi ở đây.” 
                    Xem tất cả đánh giá ( 54 )
                                Đặt phòng ngay giữ giá tốt
            Địa danh ở gần
                                    Chùa Linh Ứng
                                     ~ 2.18km
                                    Chùa Linh Ứng Bà Nà
                                     ~ 2.19km
                                                                Chùa Linh Ứng Bà Nà thuộc huyện Hòa Vang, Đà Nẵng. Ngoài ra, du khách còn có cơ hội đến thăm nhiều địa điểm du lịch nổi tiếng như: đồi Vọng Nguyệt, chùa Quán Thế  m, đình Bồ Bản… Hãy để Mytour hỗ trợ bạn để có 1 chuyến đi thú vị, tiết kiệm bằng cách đặt phòng khách sạn khu vực chùa Linh Ứng Bà Nà ngay bây giờ với giá chỉ từ 748,000 VND.
                                    Núi Sơn Trà
                                     ~ 2.59km
                                    Bán Đảo Sơn Trà
                                     ~ 3.29km
                                                                Bán Đảo Sơn Trà thuộc quận Sơn Trà, tp. Đà Nẵng. Tại đây, du khách có cơ hội đến thăm nhiều địa điểm du lịch nổi tiếng như: Chùa thiêng Linh Ứng Bãi Bụt, đỉnh bàn cờ tiên, bãi biển Mỹ Khê … Hãy để Mytour hỗ trợ bạn để có 1 chuyến đi thú vị, tiết kiệm bằng cách đặt phòng khách sạn khu vực bán đảo Sơn Trà ngay bây giờ với giá chỉ từ 297,000 VND.
                ×
                    Chính sách đảm bảo hoàn tiền của mytour
                    Bạn chưa tin tưởng việc đặt phòng khách sạn trực tuyến? Bạn e ngại rằng phòng khách sạn thực tế không đúng với thông tin trên website? Chúng tôi cam kết đưa đầy đủ và chính xác thông tin khách sạn trên website với chính sách “Đảm bảo Hoàn tiền”
                        Nếu khách hàng đặt khách sạn thành công trên Mytour nhưng khách sạn không có phòng, Mytour sẽ hoàn lại tiền cho khách và tặng kèm phiếu giảm giá có giá trị bằng với số tiền khách hàng đã trả.
                        Trong trường hợp loại phòng thực tế không đúng với loại phòng trên đơn hàng, Mytour sẽ quyết định nâng cấp miễn phí hoặc tặng phiếu giảm giá có giá trị bằng với số tiền khách hàng đã trả.
                        Trường hợp các tiện nghi phòng khách sạn (như bữa sáng, wifi…) không đúng với nội dung trên website, Mytour sẽ tặng phiếu giảm giá có giá trị bằng 10% số tiền khách đã trả (tối đa 500,000 VND)
                        Khách hàng cần gọi điện thoại 04-7309 9899 (Hà Nội), 08-7309 9899 (Hồ Chí Minh) hoặc email tới info@mytour.vn và cung cấp mã đơn hàng trong vòng 24 giờ từ lúc nhận phòng để được trợ giúp giải quyết khiếu nại (Hotline chỉ hỗ trợ trong giờ hành chính).
                        Mytour không chịu trách nhiệm bồi thường thiệt hại gián tiếp, ngẫu nhiên, hay do hậu quả phát sinh. Trong mọi trường hợp, trách nhiệm của Mytour không vượt quá tổng số tiền khách hàng thanh toán đặt phòng.
                ×
                    Đảm bảo giá tốt nhất
                    Nếu Thành viên đã đặt một phòng khách sạn được “Đảm Bảo” tại Mytour.vn và sau đó, cho Mytour.vn  thấy rằng Thành viên có thể đặt một phòng tương tự trong cùng khoảng thời gian ở mức giá tốt hơn có thể xem và đặt được trên một website khác, Mytour.vn sẽ giảm giá bằng hoặc thấp hơn mức giá đó.
                    Giá dùng để so sánh là giá sau khi áp dụng mức giảm giá công bố trên website Mytour.vn.
                    Chính sách “Đảm Bảo Giá Tốt Nhất” của Mytour.vn chỉ áp dụng cho các đặt phòng đã được xác nhận và phải thỏa mãn những điều kiện sau:
                Cùng khách sạnCùng thời gian nghỉ lạiCùng loại Phòng/GiườngCùng các yêu cầu mua Trước, yêu cầu trả trước và đặt cọc (nếu có)Cùng chính sách Hủy và Sửa Đổi
                    Phòng đó phải còn trống để được xác nhận ngay tại thời điểm các đại lý của Mytour.vn  kiểm tra phòng trống
                        Chính sách “Đảm Bảo Giá Tốt Nhất” không áp dụng cho các mức giá không công bố, như: chương trình khách hàng thân thiện.
                        Bất kỳ tổ chức nào với các mức giá dành cho nhóm cá nhân cụ thể và không nhằm mục đích áp dụng ra bên ngoài.
                        Thành viên có thể gửi khiếu nại theo địa chỉ : info@mytour.vn
                                Nêu mã đặt phòng Mytour.vn trong dòng tiêu đề thư
                                Gửi URL của website nơi Thành viên tìm thấy mức giá tốt hơn
                                Cung cấp ảnh chụp màn hình của website đối thủ cạnh tranh trong đó nêu rõ Phòng Trống, Loại Phòng, và các mức giá cho những ngày nghỉ lại theo yêu cầu của Thành viên.
                VUI LÒNG LƯU Ý: Thành viên không cần thực hiện đặt phòng trên website của đối thủ cạnh tranh, chỉ cần cho Mytour.vn thấy sự so sánh.
                ×
                Đăng Nhập
                                 Đăng nhập bằng tài khoản Facebook
                                 Đăng nhập bằng tài khoản Google
                            Hoặc đăng nhập bằng
                        Email*
                        Mật khẩu*
                        Quên mật khẩu?
                            Chưa có tài khoản/tạo tài khoản
                Đăng nhập
                         Nhớ đăng nhập
                ×
                Bản đồ
                                            Sơn Trà Resort & Spa
                    Tìm đường
                        Từ: 
                        Đến: 
                            Khách sạnĐịa danh Hiển thị các khách sạn ở gần Hiển thị các khu du lịch ở gần
                ×
                Yêu Cầu Lấy Giá
                                    Ngày nhận phòng
                                    Ngày trả phòng
                        Tên khách hàng
                        Email
                        Điện thoại
                        Nhân viên chăm sóc khách hàng sẽ gọi điện cho quý khách trong thời gian sớm nhất.
                        Quý khách có thể gọi điện đến cho Mytour để được tư vấn ngay:
                        Hà Nội: (04) 7109 9999, Hồ Chí Minh: (08) 7309 9899, Support
                            English: (+84)4-7309-9899.
                    Hoàn thành
                ×
                Gửi Thông Tin
                        Tên khách hàng
                        Email
                        Điện thoại
                            Quý khách sẽ thấy giá giảm ngay trên trang sau khi gửi thông tin
                    Hoàn thành
                ×
                Nhận Giá Tốt
                                    Ngày nhận phòng
                                    Ngày trả phòng
                        Tên khách hàng
                        Email
                        Điện thoại
                        Vì giá tốt không được công bố nên hệ thống sẽ gửi giá qua email đến quý khách và nhân viên chăm
                        sóc sẽ gọi điện cho quý khách trong thời gian sớm nhất.
                        Quý khách có thể gọi điện đến cho Mytour để được tư vấn ngay:
                        Hà Nội: (04) 7109 9999, Hồ Chí Minh: (08) 7309 9899, Support
                            English: (+84)4-7309-9899.
                    Hoàn thành
                ×
                ×
                ĐÁNH GIÁ 
                        Tên
                        Tiêu đề
                        Kiểu du lịch?
                                -- Chọn --Cá nhânCặp đôiGia đìnhBạn bèDoanh nghiệp
                        Nội dung
                                Đánh giá chi tiết
                                Chỗ ở
                                5
                                Thức ăn
                                5
                                Phương tiện
                                5
                                Hướng dẫn viên
                                5
                                Lịch trình
                                5
                    Gửi đánh giá
                    Hủy Bỏ
                ×
                Gửi lại email kích hoạt
                ×
                Thông tin chi tiết giá theo phòng
                    Chọn khoảng thời gian hiển thị giá phòng
                    Hiển thị giá
                ×
                Khóa phòng theo khoảng thời gian
                            Chọn khoảng thời gian check-in cần khóa/mở phòng
                            Khóa phòng
                            Mở phòng
                ×
                THUẾ VÀ PHÍ DỊCH VỤ
                17% thuế và phí dịch vụ bao gồm:
                    - 10% thuế và 5% phí dịch vụ hoàn trả lại cho khách sạn.
                    - 2% phí giao dịch tại Mytour.
                ×
                Bạn có hài lòng về website của Mytour?
                    Thông điệp nhắn nhủ:
                Mytour luôn mong muốn cải thiện dịch vụ để bạn có trải nghiệm tốt hơn!
                            Ảnh đính kèm
                        Đóng
                        Gửi
                ×
                    Những đóng góp của bạn đã được ghi nhận. Mytour cám ơn bạn !
                Quay lại website
                            Giới thiệu Mytour
                            Đối tác khách sạn
                            Đăng nhập HMS
                            Tích lũy Vpoint
                            Điều khoản sử dụng
                            Quy chế hoạt động
                            Tuyển dụng
                            Liên hệ
                            Đăng ký nhận email
                                Đăng ký email để nhận khuyến mãi lên đến 70%
                                    Đăng
                                    ký
                    Công ty TNHH Mytour Việt Nam
                    Số ĐKKD: 0105983269 cấp ngày 30/08/2012
                    Văn phòng Hà Nội: Tầng 4, tòa nhà GP Invest, 170 Đê La Thành, Đống Đa
                    Văn phòng HCM: Tầng 5, Tòa Nhà HDTC, Số 36 Bùi Thị Xuân, Q.1
                Hotline
                        Hà Nội:
                        (04) 7109 9999
                        Tp. HCM:
                        (08) 7309 9899
                        ENGLISH SUPPORT:
                        (+84)4 7309 9899
