url:http://mytour.vn/3053-khach-san-nouveau-happy-inn.html
Tittle :Khách Sạn Nouveau Happy Inn - Hồ Chí Minh giá tốt nhất - Mytour.vn
content :Đặt phòng trực tuyến, hoặc gọi
                                                            Hà Nội: (04) 7109 9999
                                                                                        - (04) 7309 9899
                                                            Hồ Chí Minh: (08) 7309 9899
                                                                                        - (08) 7109 9998
                        T2 - CN: 08:00 - 23:00
                    Toggle navigation
                                Bạn không có thông báo nào
                    |
                    ||
                                                            Tài khoản
                        Đăng nhập
                                Đăng kýKhách sạn yêu thích
                            Khách sạn
                            Tour
                            Cẩm nang du lịch
                            Thông tin
                                                Về Mytour
                                                Tin khuyến mãi
                                                Ưu đãi
                                                Hướng dẫn
                                                Liên hệ
                            Tốt nhất 2016
                ×
                Bạn có chắc muốn hủy đơn hàng?
                Lorem ipsum dolor sit amet, consectetur adipisicing elit. Iure corporis repudiandae nobis distinctio
                quae quos, officia modi, ab voluptatem pariatur ducimus mollitia, necessitatibus sed soluta dicta
                repellendus! Praesentium debitis, temporibus?
                    Đồng ý
                    Đóng
                    Khách sạnHồ Chí MinhQuận 1Khách sạn gần Quận 1 - Chợ Bến ThànhKhách Sạn Nouveau Happy Inn
                    Đóng
            Tìm Kiếm Khách Sạn
                            Ngày nhận phòng
                            Ngày trả phòng
                    Số đêm
                    Số phòng
                        123456789101112
                    Người lớn
                        123456789101112
                    Tìm khách sạn
                Giá tốt hơn so với đặt phòng trực tiếp tại khách sạn
                Đảm bảo 
                giá tốt nhất
                Đảm bảo 
                hoàn tiền
                Nhân viên chăm sóc, tư vấn nhiều kinh nghiệm
                Hơn 5000 khách sạn tại Việt Nam với đánh giá thực
                Nhiều chương trình khuyến mãi và tích lũy điểm
                Thanh toán dễ dàng, đa dạng
                        Khách Sạn Nouveau Happy Inn
                            (Cung cấp bởi khách sạn)
                                    Tất cả thông tin về tiêu chuẩn khách sạn trên website mytour.vn
                                    là do khách sạn tự cung cấp, chỉ mang tính chất tham khảo và không nhất thiết trùng
                                    hợp với hạng
                                    sao được cấp bởi sở Văn Hoá, Thể thao và du lịch.
                             39 Bùi Thị Xuân, Quận 1, Hồ Chí Minh 
                                Đặt phòng ngay giữ giá tốt
                                Đã thích
                                        7.3
                                            (338
                                            đánh giá)
                                Giới thiệu về Khách Sạn Nouveau Happy Inn 
                                    Khách Sạn Nouveau Happy Inn tọa lạc tại 39 Bùi Thị Xuân, Quận 1, Hồ Chí Minh
Là nơi nghỉ ngơi chất lượng trong văn hóa, điểm tín ngưỡng, tôn giáo, mua sắm của Thành phố Hồ Chí Minh, Khách Sạn Nouveau Happy Inn nổi tiếng phục vụ cho cả khách nghỉ dưỡng và các doanh nhân. Từ đây, khách có thể dễ dàng tiếp cận được nét đẹp sống động của thành phố ở mọi góc cạnh. Với vị trí thuận lợi, khách sạn dễ dàng tiếp cận những điểm tham quan du lịch nổi tiếng của thành phố.
Tại Khách Sạn Nouveau Happy Inn, dịch vụ hoàn hảo và thiết bị tối tân tạo nên một kì nghỉ khó quên. Quán cà phê, dịch vụ du lịch, Wi-Fi ở khu vực công cộng, két sắt, thang máy chỉ là một vài trong số những thiết bị được lắp đặt tại Khách Sạn Nouveau Happy Inn ngoài một số khách sạn khác trong thành phố. 
Khách Sạn Nouveau Happy Inn đặc biệt có 32 phòng đẹp, mỗi phòng bao gồm truy cập internet không dây, bàn, máy sấy tóc, bồn tắm, tivi. Bên cạnh đó, khách sạn còn gợi ý cho bạn những hoạt động vui chơi giải trí bảo đảm bạn luôn thấy hứng thú trong suốt kì nghỉ. Dù cho lý do của bạn khi tham quan Thành phố Hồ Chí Minh là gì đi nữa, Khách Sạn Nouveau Happy Inn là một nơi tuyệt vời cho chuyến nghỉ mát vui vẻ và thú vị.
Từ khách sạn dễ dàng tiếp cận đến các địa điểm như Nhà hát Lớn Sài Gòn, Dinh Thống Nhất, nhà thờ Đức Bà, Nhà Thờ Huyền Sỹ, bảo tàng Hồ Chí Minh, bảo tàng chứng tích chiến tranh, nhà thi đấu Phú Thọ, bến Nhà Rồng... là những địa điểm hàng năm thu hút rất nhiều du khách đặt tour tới đây.
Bên cạnh đó, khi đặt phòng Khách Sạn Nouveau Happy Inn, khách sạn còn gợi ý cho bạn những hoạt động vui chơi giải trí bảo đảm bạn luôn thấy hứng thú trong suốt kì nghỉ. Dù bạn đến để thư giãn hay làm gì, Khách Sạn Nouveau Happy Inn luôn là sự lựa chọn hoàn hảo cho kì nghỉ của bạn ở Sài Gòn. 
Khi đặt phòng khách sạn hoặc đặt tour qua hệ thống đặt phòng trực tuyến của Mytour.vn, bạn sẽ có cơ hội sở hữu phòng nghỉ tại những khách sạn giá rẻ hay cao cấp. Hãy sử dụng dịch vụ của Mytour.vn để có cơ hội đặt những phòng khách sạn giá rẻ nhất với chất lượng tuyệt vời bạn nhé.
 
                                        Xem thêm 
                                Chọn ngày để xem giá và phòng trống
                                    Đảm bảo giá tốt nhất
                                                Ngày nhận phòng
                                                Ngày trả phòng
                                        Số đêm
                                        Số phòng
                                            123456789101112
                                        Người lớn
                                            123456789101112
                                        Cập nhật giá
                                Lưu ý: Vui lòng ẩn "Cập nhật giá" để cập nhật phòng
                                Chọn phòng Khách Sạn Nouveau Happy Inn
                                                Loại Phòng
                                                Giá 1 đêm
                                                Số phòng
                                                Đặt phòng
                                                                    PHÒNG VIP CHO 4 NGƯỜI NHÌN RA THÀNH PHỐ
                                                                        Điều kiện hủy phòng
                                                                        Thêm giường
                                                                        0
                                                                         Vui lòng chọn số lượng phòng trước! 
                                                        Trẻ em trên 6 tuổi phụ thu như người lớn 200.000/đêm 
                                                        phòng
                                                                                                                                                                            012345
                                                            Đặt ngay
                                                            Xác nhận ngay
                                                                    PHÒNG SUPERIOR DOUBE KHÔNG CỬA SỔ
                                                                        Điều kiện hủy phòng
                                                        Trẻ em trên 6 tuổi phụ thu như người lớn 200.000/đêm 
                                                        phòng
                                                                                                                                                                            012345
                                                            Đặt ngay
                                                            Xác nhận ngay
                                                                    PHÒNG DELUXE GIƯỜNG ĐÔI CÓ CỬA SỔ
                                                                        Điều kiện hủy phòng
                                                        Trẻ em trên 6 tuổi phụ thu như người lớn 200.000/đêm 
                                                        phòng
                                                                                                                                                                            012345
                                                            Đặt ngay
                                                            Xác nhận ngay
                                                                    PHÒNG 2 GIƯỜNG ĐƠN CHO 2 NGƯỜI
                                                                        Điều kiện hủy phòng
                                                        Trẻ em trên 6 tuổi phụ thu như người lớn 200.000/đêm 
                                                        phòng
                                                                                                                                                                            012345
                                                            Đặt ngay
                                                            Xác nhận ngay
                                                                    PHÒNG TRIPBLE 3 NGƯỜI HƯỚNG PHỐ
                                                                        Điều kiện hủy phòng
                                                                        Thêm giường
                                                                        0
                                                                         Vui lòng chọn số lượng phòng trước! 
                                                        Trẻ em trên 6 tuổi phụ thu như người lớn 200.000/đêm 
                                                        phòng
                                                                                                                                                                            012345
                                                            Đặt ngay
                                                            Xác nhận ngay
                                    Tiện nghi Khách Sạn Nouveau Happy Inn 
                                                Đưa đón khách sạn sân bay
                                                Bữa sáng miễn phí
                                                Bãi đỗ xe
                                                Chấp nhận thú nuôi
                                                Cửa hàng lưu niệm
                                                Internet
                                                Internet (không dây)
                                                internet ( miễn phí )
                                                Phòng chức năng
                                                Phòng hội thảo
                                                Phòng họp
                                                Phòng hút thuốc
                                                Thang máy
                                                Thiết bị cho người tàn tật
                                                Truyền hình cáp/vệ tinh
                                                Wifi miễn phí
                                                Giặt là
                                                Hỗ trợ đặt tour
                                                Karaoke
                                                Nhà hàng
                                                Quán cafe
                                                Thuê xe, taxi
                                                Tiếp tân 24/24
                                                Trông trẻ
                                                vé tàu xe, máy bay
                                                Đổi tiền
                                                Gia đình
                                                Massage
                                Ghi chú: Ăn sáng miễn phí (nếu có) có thể thay đổi theo phòng và ngày
                                    Chính sách Khách Sạn Nouveau Happy Inn 
                                        Giờ nhận
                                        phòng: 14:00
                                        Giờ trả
                                        phòng: 12:00
            Đánh giá Khách Sạn Nouveau Happy Inn
                Viết đánh giá
                        Tất cả ( 338 )
                        Công tác ( 0 )
                        Cặp đôi ( 14 )
                        Gia đình ( 12 )
                        Bạn bè ( 3 )
                        Cá nhân ( 299 )
                        Đánh giá
                        7.3
                            Tất cả
                    Chi tiết điểm  (từ
                        338
                        nhận xét)
                            Vị trí
                                7.6
                                    % Complete
                            7.6
                            Phục vụ
                                7.3
                                    % Complete
                            7.3
                            Tiện nghi
                                7.2
                                    % Complete
                            7.2
                            Giá cả
                                7.2
                                    % Complete
                            7.2
                            Vệ sinh
                                7.2
                                    % Complete
                            7.2
                        Đánh giá
                        0
                            Công tác
                    Chi tiết điểm  (từ
                        0
                        nhận xét)
                            Vị trí
                                0
                                    % Complete
                            0
                            Phục vụ
                                0
                                    % Complete
                            0
                            Tiện nghi
                                0
                                    % Complete
                            0
                            Giá cả
                                0
                                    % Complete
                            0
                            Vệ sinh
                                0
                                    % Complete
                            0
                        Đánh giá
                        6.3
                            Cặp đôi
                    Chi tiết điểm  (từ
                        14
                        nhận xét)
                            Vị trí
                                7.8
                                    % Complete
                            7.8
                            Phục vụ
                                6.3
                                    % Complete
                            6.3
                            Tiện nghi
                                5.3
                                    % Complete
                            5.3
                            Giá cả
                                6.3
                                    % Complete
                            6.3
                            Vệ sinh
                                6
                                    % Complete
                            6
                        Đánh giá
                        7.2
                            Gia đình
                    Chi tiết điểm  (từ
                        12
                        nhận xét)
                            Vị trí
                                7.8
                                    % Complete
                            7.8
                            Phục vụ
                                7.3
                                    % Complete
                            7.3
                            Tiện nghi
                                7.1
                                    % Complete
                            7.1
                            Giá cả
                                7.2
                                    % Complete
                            7.2
                            Vệ sinh
                                6.5
                                    % Complete
                            6.5
                        Đánh giá
                        5.9
                            Bạn bè
                    Chi tiết điểm  (từ
                        3
                        nhận xét)
                            Vị trí
                                7.3
                                    % Complete
                            7.3
                            Phục vụ
                                5
                                    % Complete
                            5
                            Tiện nghi
                                7
                                    % Complete
                            7
                            Giá cả
                                5.3
                                    % Complete
                            5.3
                            Vệ sinh
                                4.7
                                    % Complete
                            4.7
                        Đánh giá
                        7.2
                            Cá nhân
                    Chi tiết điểm  (từ
                        299
                        nhận xét)
                            Vị trí
                                7.4
                                    % Complete
                            7.4
                            Phục vụ
                                7.3
                                    % Complete
                            7.3
                            Tiện nghi
                                7.2
                                    % Complete
                            7.2
                            Giá cả
                                7.2
                                    % Complete
                            7.2
                            Vệ sinh
                                7.2
                                    % Complete
                            7.2
                                Từ ngày mới đến cũ
                                Từ ngày cũ đến mới
                                Điểm từ thấp đến cao
                                Điểm từ cao đến thấp
                                Nguyễn Mai Kim Tuyết
                                15-11-2016
                                            Tốt
                                            8
                                        "Khá hài lòng "
                                                Vị trí
                                                    8 .0
                                                Phục vụ
                                                8 .0
                                                Tiện nghi
                                                8 .0
                                                Giá cả
                                                8 .0
                                                Vệ sinh
                                                8 .0
                                                “Ở Khách Sạn Nouveau Happy Inn này thì có khá nhiều loại phòng, một số phòng khá bí, dịch vụ phòng chưa ổn lắm, khá cũ. Phòng tôi là phòng lớn,nên phòng ốc khá sạch sẽ, tiện nghi cũng ok, đầy đủ, ở khá ổn. Vị trí nằm gần trung tâm. Nhân viên thì lịch sự, nhiệt tình. Tôi khá hài lòng khi nghỉ tại đây.” 
                                Nguyễn Thu Hiền
                                11-11-2016
                                            Đánh giá
                                            6
                                        "Cũng được "
                                                Vị trí
                                                    6 .0
                                                Phục vụ
                                                6 .0
                                                Tiện nghi
                                                6 .0
                                                Giá cả
                                                6 .0
                                                Vệ sinh
                                                6 .0
                                                “Khi đến Hồ Chí Minh tôi có đặt phòng ở khách sạn Nouveau Happy Inn  dịch vụ mà khách sạn này cung cấp cũng khá ổn, phòng ở được dọn dẹp vệ sinh sạch sẽ, tiện nghi cũng khá đầy đủ, nhưng khâu nhận phòng nếu tôi được thông báo trước về việc chuyển sang phòng khác thì tôi sẽ hài lòng hơn.” 
                                NGUYEN THI PHUONG MAI
                                11-11-2016
                                            Tốt
                                            8
                                        "Nhân viên nhiệt tình "
                                                Vị trí
                                                    8 .0
                                                Phục vụ
                                                8 .0
                                                Tiện nghi
                                                8 .0
                                                Giá cả
                                                8 .0
                                                Vệ sinh
                                                8 .0
                                                “Phòng ốc của khách sạn Nouveau Happy Inn được giữ vệ sinh sạch sẽ, tiện nghi trong phòng thì đầy đủ, tuy nhiên máy nước nóng, lạnh có vấn đề một xíu còn nhân viên khách sạn tôi rất thích nhiệt tình và thân thiện với khách hàng.” 
                                Huỳnh thới vương đông
                                09-11-2016
                                            Tốt
                                            8
                                        "Dịch vụ tốt "
                                                Vị trí
                                                    8 .0
                                                Phục vụ
                                                8 .0
                                                Tiện nghi
                                                8 .0
                                                Giá cả
                                                8 .0
                                                Vệ sinh
                                                8 .0
                                                “Ở Khách Sạn Nouveau Happy Inn, tôi nhận thấy chất lượng dịch vụ tốt. Khách sạn sắp xếp tôi ở căn phòng có trang bị nội thất khá khang trang, sạch sẽ. Thế nhưng, khách sạn không có bãi đỗ ô tô nên hơi bất tiện.” 
                                Nguyen Van Hung
                                09-11-2016
                                            Đánh giá
                                            7
                                        "So với giá tiền được "
                                                Vị trí
                                                    7 .0
                                                Phục vụ
                                                7 .0
                                                Tiện nghi
                                                7 .0
                                                Giá cả
                                                7 .0
                                                Vệ sinh
                                                7 .0
                                                “Theo nhận xét của tôi thì dịch vụ Khách Sạn Nouveau Happy Inn so với giá tiền được. Khách sạn nằm ở trung tâm thành phố, đi lại dễ dàng và tiện lợi. Thái độ phục vụ cũng như đón tiếp ổn, lịch sự và niềm nở.” 
                    Xem tất cả đánh giá ( 338 )
                                Đặt phòng ngay giữ giá tốt
            Khách hàng đã xem khách sạn này thường tham khảo thêm
                Được đề xuất cho bạn
            Khách sạn 2 sao có cùng tiện nghi
            Có thể bạn muốn xem
                    Khách sạn 2 sao tại Hồ Chí Minh
                        Khách sạn có Đưa đón khách sạn sân bay tại Hồ Chí Minh
                        Khách sạn có nhà hàng tại Hồ Chí Minh
                        Khách sạn có giặt là tại Hồ Chí Minh
            Địa danh ở gần
                                    Nhà thờ Huyện Sĩ
                                     ~ 0.15km
                                                                Nhà thờ Huyện Sĩ tọa lạc tại quận 1, Hồ Chí Minh. Ngoài ra, du khách có cơ hội đến thăm nhiều địa điểm nổi tiếng như: Nhà hát Lớn, bưu điện Thành phố, Nhà thờ chính tòa, Chợ Bến Thành… Hãy để Mytour hỗ trợ bạn để có 1 chuyến đi thú vị, tiết kiệm bằng cách đặt phòng khách sạn khu vực Nhà thờ Huyện Sĩ ngay bây giờ với giá chỉ từ 230,000 VND.
                                    Nhà thờ Huyện Sĩ
                                     ~ 0.16km
                                                                Nhà thờ Huyện Sĩ tọa lạc tại quận 1, Hồ Chí Minh. Ngoài ra, du khách có cơ hội đến thăm nhiều địa điểm nổi tiếng như: Nhà hát Lớn, bưu điện Thành phố, Nhà thờ chính tòa, Chợ Bến Thành… Hãy để Mytour hỗ trợ bạn để có 1 chuyến đi thú vị, tiết kiệm bằng cách đặt phòng khách sạn khu vực Nhà thờ Huyện Sĩ ngay bây giờ với giá chỉ từ 230,000 VND.
                                    Chùa Bà Thiên Hậu
                                     ~ 0.22km
                                                                Chùa Bà Thiên Hậu thuộc quận 5, tp. Hồ Chí Minh. Ngoài ra, du khách có cơ hội đến thăm nhiều địa điểm nổi tiếng như: chùa Ông Bồn, nhà thờ thánh Jeanne d Arc, chùa Vạn Thiện, chùa Vạn Phật … Hãy để Mytour hỗ trợ bạn để có 1 chuyến đi thú vị, tiết kiệm bằng cách đặt phòng khách sạn khu vực chùa Bà Thiên Hậu ngay bây giờ với giá chỉ từ 266,000 VND.
                                    Chùa An Lạc - Quận 1
                                     ~ 0.49km
                                                                Chùa An Lạc tọa lạc ở quận 1, tp. Hồ Chí Minh. Ngoài ra, du khách có cơ hội đến thăm nhiều địa điểm nổi tiếng như: Nhà hát Lớn, bưu điện Thành phố, Nhà thờ chính tòa, Chợ Bến Thành… Hãy để Mytour hỗ trợ bạn để có 1 chuyến đi thú vị, tiết kiệm bằng cách đặt phòng khách sạn khu vực chùa An Lạc ngay bây giờ với giá chỉ từ 230,000 VND.
                                    Chùa An Lạc
                                     ~ 0.49km
                                                                Chùa An Lạc tọa lạc ở đường Phạm Ngũ Lão, quận 1, tp. Hồ Chí Minh. Ngoài ra, du khách có cơ hội đến thăm nhiều địa điểm nổi tiếng như: Nhà hát Lớn, Dinh Độc Lập, Nhà thờ chính tòa, Chợ Bến Thành… Hãy để Mytour hỗ trợ bạn để có 1 chuyến đi thú vị, tiết kiệm bằng cách đặt phòng khách sạn khu vực chùa An Lạc ngay bây giờ với giá chỉ từ 230,000 VND.
                                    Chùa Nguyên Hương
                                     ~ 0.5km
                                    Đại học Mở Thành phố Hồ Chí Minh
                                     ~ 0.74km
                                                                Địa học Mở HCM tọa lạc tại quận 3 Thành Phố Hồ Chí Minh. Đến với Địa học Mở HCM, du khách có cơ hội tham quan các địa điểm nổi tiếng như nhà thờ Đức Bà, Dinh Thống Nhất, địa đạo Củ Chi...Hãy để Mytour hỗ trợ bạn để có 1 chuyến đi thú vị, tiết kiệm bằng cách đặt phòng khách sạn tại khu vực Địa học Mở HCM ngay bây giờ với giá rẻ nhất.
                                    Bệnh viện răng hàm mặt HCM
                                     ~ 0.8km
                                                                Bệnh Viện Răng Hàm Mặt HCM tọa lạc tại Thành phố HCM. Đến với Bệnh Viện Răng Hàm Mặt HCM, du khách có cơ hội tham quan các địa điểm như nhà thờ Đức Bà, Dinh Thống Nhất, địa đạo Củ Chi...Hãy để Mytour hỗ trợ bạn để có 1 chuyến đi thú vị, tiết kiệm bằng cách đặt phòng khách sạn tại khu vực Bệnh Viện Răng Hàm Mặt HCM ngay bây giờ với giá rẻ nhất.
                                    Không gian tâm linh cổ kính mà hiện đại chùa Xá Lợi
                                     ~ 0.93km
                                    Bệnh viện Mắt
                                     ~ 1.01km
                                                                Bệnh Viện Mắt tọa lạc tại quận 3 Thành Phố Hồ Chí Minh. Đến với Bệnh Viện Mắt, du khách có cơ hội tham quan các địa điểm du lịch nổi tiếng như nhà thờ Đức Bà, Dinh Thống Nhất, địa đạo củ Chi...Hãy để Mytour hỗ trợ bạn để có 1 chuyến đi thú vị, tiết kiệm bằng cách đặt phòng khách sạn tại khu vực Bệnh Viện Mắt ngay bây giờ với giá rẻ nhất.
                                    Chợ Bình Điền
                                     ~ 1.03km
                                                                Chợ Bình Điền tọa lạc tại quận 8, tp. Hồ Chí Minh. Ngoài ra, du khách có cơ hội đến thăm nhiều địa điểm nổi tiếng như: Chùa Huệ Lâm, chùa Long Hoa, Lễ Kỳ Yên, đình Bình Đông… Hãy để Mytour hỗ trợ bạn để có 1 chuyến đi thú vị, tiết kiệm bằng cách đặt phòng khách sạn khu vực chợ Bình Điền ngay bây giờ với giá chỉ từ 299,000 VND.
                                    Chùa Trường Thạnh
                                     ~ 1.06km
                                                                Chùa Trường Thạnh tọa lạc tại quận 1, tp. Hồ Chí Minh. Ngoài ra, du khách có cơ hội đến thăm nhiều địa điểm nổi tiếng như: Nhà hát Lớn, bưu điện Thành phố, Nhà thờ chính tòa, Chợ Bến Thành… Hãy để Mytour hỗ trợ bạn để có 1 chuyến đi thú vị, tiết kiệm bằng cách đặt phòng khách sạn khu vực Chùa Trường Thạnh ngay bây giờ với giá chỉ từ 230,000 VND.
                                    Chùa Linh Sơn - TP HCM
                                     ~ 1.08km
                                                                Chùa Linh Sơn tọa lạc tại quận 1, tp. Hồ Chí Minh. Ngoài ra, du khách có cơ hội đến thăm nhiều địa điểm nổi tiếng như: Nhà hát Lớn, bưu điện Thành phố, Nhà thờ chính tòa, Chợ Bến Thành… Hãy để Mytour hỗ trợ bạn để có 1 chuyến đi thú vị, tiết kiệm bằng cách đặt phòng khách sạn khu vực chùa Linh Sơn ngay bây giờ với giá chỉ từ 230,000 VND.
                                    Dinh Độc Lập
                                     ~ 1.15km
                                    Dinh Thống Nhất
                                     ~ 1.15km
                                                                Dinh Thống Nhất tọa lạc ở quận 1, tp. Hồ Chí Minh. Ngoài ra, du khách có cơ hội đến thăm nhiều địa điểm nổi tiếng như: Nhà hát Lớn, bưu điện Thành phố, Nhà thờ chính tòa, Chợ Bến Thành… Hãy để Mytour hỗ trợ bạn để có 1 chuyến đi thú vị, tiết kiệm bằng cách đặt phòng khách sạn khu vực Dinh Thống Nhất ngay bây giờ với giá chỉ từ 230,000 VND.
                                    Nhà thờ Cầu Kho
                                     ~ 1.16km
                                    Bảo tàng Chứng tích chiến tranh
                                     ~ 1.16km
                                                                Bảo tàng Chứng tích Chiến Tranh thuộc quận 3, tp. Hồ Chí Minh. Ngoài ra, du khách có cơ hội đến thăm nhiều địa điểm nổi tiếng như: Chùa Vĩnh Nghiêm, chùa Xá Lợi, nhà thờ Kỳ Đồng … Hãy để Mytour hỗ trợ bạn có 1 chuyến đi thú vị, tiết kiệm bằng cách đặt phòng khách sạn khu vực Bảo tàng Chứng tích Chiến Tranh ngay bây giờ với giá chỉ từ 350,000 VND.
                                    Bảo Tàng Chứng Tích Chiến Tranh
                                     ~ 1.16km
                                                                Bảo tàng chứng tích chiến tranh nằm ở số 28 Võ Văn Tần, Quận 3, Hồ Chí Minh, được thành lập ngay sau ngày đất nước thống nhất. Gần bảo tàng chứng tích chiến tranh có các địa danh: hồ Con Rùa. Hãy để Mytour hỗ trợ bạn để có 1 chuyến đi thú vị, tiết kiệm bằng cách đặt phòng khách sạn bảo tàng chứng tích chiến tranh ngay bây giờ với giá rẻ nhất.
                                    Chợ Bến Thành
                                     ~ 1.18km
                                                                Chợ Bến Thành tọa lạc trên địa phận quận 1, tp. Hồ Chí Minh. Ngoài ra, du khách có cơ hội đến thăm nhiều địa điểm nổi tiếng như: Nhà hát Lớn, bưu điện Thành phố, Nhà thờ chính tòa… Hãy để Mytour hỗ trợ bạn để có 1 chuyến đi thú vị, tiết kiệm bằng cách đặt phòng khách sạn khu vực chợ Bến Thành ngay bây giờ với giá chỉ từ 230,000 VND.
                                    Chợ Thái Bình 
                                     ~ 1.2km
                                                                Chợ Thái Bình tọa lạc tại quận 1, tp. Hồ Chí Minh. Ngoài ra, du khách có cơ hội đến thăm nhiều địa điểm nổi tiếng như: Nhà hát Lớn, bưu điện Thành phố, Nhà thờ chính tòa, Chợ Bến Thành… Hãy để Mytour hỗ trợ bạn để có 1 chuyến đi thú vị, tiết kiệm bằng cách đặt phòng khách sạn khu vực chợ Thái Bình ngay bây giờ với giá chỉ từ 230,000 VND.
                    ×
                                    PHÒNG VIP CHO 4 NGƯỜI NHÌN RA THÀNH PHỐ vừa được
                    đặt 3 giờ trước
                ×
                    Chính sách đảm bảo hoàn tiền của mytour
                    Bạn chưa tin tưởng việc đặt phòng khách sạn trực tuyến? Bạn e ngại rằng phòng khách sạn thực tế không đúng với thông tin trên website? Chúng tôi cam kết đưa đầy đủ và chính xác thông tin khách sạn trên website với chính sách “Đảm bảo Hoàn tiền”
                        Nếu khách hàng đặt khách sạn thành công trên Mytour nhưng khách sạn không có phòng, Mytour sẽ hoàn lại tiền cho khách và tặng kèm phiếu giảm giá có giá trị bằng với số tiền khách hàng đã trả.
                        Trong trường hợp loại phòng thực tế không đúng với loại phòng trên đơn hàng, Mytour sẽ quyết định nâng cấp miễn phí hoặc tặng phiếu giảm giá có giá trị bằng với số tiền khách hàng đã trả.
                        Trường hợp các tiện nghi phòng khách sạn (như bữa sáng, wifi…) không đúng với nội dung trên website, Mytour sẽ tặng phiếu giảm giá có giá trị bằng 10% số tiền khách đã trả (tối đa 500,000 VND)
                        Khách hàng cần gọi điện thoại 04-7309 9899 (Hà Nội), 08-7309 9899 (Hồ Chí Minh) hoặc email tới info@mytour.vn và cung cấp mã đơn hàng trong vòng 24 giờ từ lúc nhận phòng để được trợ giúp giải quyết khiếu nại (Hotline chỉ hỗ trợ trong giờ hành chính).
                        Mytour không chịu trách nhiệm bồi thường thiệt hại gián tiếp, ngẫu nhiên, hay do hậu quả phát sinh. Trong mọi trường hợp, trách nhiệm của Mytour không vượt quá tổng số tiền khách hàng thanh toán đặt phòng.
                ×
                    Đảm bảo giá tốt nhất
                    Nếu Thành viên đã đặt một phòng khách sạn được “Đảm Bảo” tại Mytour.vn và sau đó, cho Mytour.vn  thấy rằng Thành viên có thể đặt một phòng tương tự trong cùng khoảng thời gian ở mức giá tốt hơn có thể xem và đặt được trên một website khác, Mytour.vn sẽ giảm giá bằng hoặc thấp hơn mức giá đó.
                    Giá dùng để so sánh là giá sau khi áp dụng mức giảm giá công bố trên website Mytour.vn.
                    Chính sách “Đảm Bảo Giá Tốt Nhất” của Mytour.vn chỉ áp dụng cho các đặt phòng đã được xác nhận và phải thỏa mãn những điều kiện sau:
                Cùng khách sạnCùng thời gian nghỉ lạiCùng loại Phòng/GiườngCùng các yêu cầu mua Trước, yêu cầu trả trước và đặt cọc (nếu có)Cùng chính sách Hủy và Sửa Đổi
                    Phòng đó phải còn trống để được xác nhận ngay tại thời điểm các đại lý của Mytour.vn  kiểm tra phòng trống
                        Chính sách “Đảm Bảo Giá Tốt Nhất” không áp dụng cho các mức giá không công bố, như: chương trình khách hàng thân thiện.
                        Bất kỳ tổ chức nào với các mức giá dành cho nhóm cá nhân cụ thể và không nhằm mục đích áp dụng ra bên ngoài.
                        Thành viên có thể gửi khiếu nại theo địa chỉ : info@mytour.vn
                                Nêu mã đặt phòng Mytour.vn trong dòng tiêu đề thư
                                Gửi URL của website nơi Thành viên tìm thấy mức giá tốt hơn
                                Cung cấp ảnh chụp màn hình của website đối thủ cạnh tranh trong đó nêu rõ Phòng Trống, Loại Phòng, và các mức giá cho những ngày nghỉ lại theo yêu cầu của Thành viên.
                VUI LÒNG LƯU Ý: Thành viên không cần thực hiện đặt phòng trên website của đối thủ cạnh tranh, chỉ cần cho Mytour.vn thấy sự so sánh.
                ×
                Đăng Nhập
                                 Đăng nhập bằng tài khoản Facebook
                                 Đăng nhập bằng tài khoản Google
                            Hoặc đăng nhập bằng
                        Email*
                        Mật khẩu*
                        Quên mật khẩu?
                            Chưa có tài khoản/tạo tài khoản
                Đăng nhập
                         Nhớ đăng nhập
                ×
                Bản đồ
                                            Khách Sạn Nouveau Happy Inn
                    Tìm đường
                        Từ: 
                        Đến: 
                            Khách sạnĐịa danh Hiển thị các khách sạn ở gần Hiển thị các khu du lịch ở gần
                ×
                Yêu Cầu Lấy Giá
                                    Ngày nhận phòng
                                    Ngày trả phòng
                        Tên khách hàng
                        Email
                        Điện thoại
                        Nhân viên chăm sóc khách hàng sẽ gọi điện cho quý khách trong thời gian sớm nhất.
                        Quý khách có thể gọi điện đến cho Mytour để được tư vấn ngay:
                        Hà Nội: (04) 7109 9999, Hồ Chí Minh: (08) 7309 9899, Support
                            English: (+84)4-7309-9899.
                    Hoàn thành
                ×
                Gửi Thông Tin
                        Tên khách hàng
                        Email
                        Điện thoại
                            Quý khách sẽ thấy giá giảm ngay trên trang sau khi gửi thông tin
                    Hoàn thành
                ×
                Nhận Giá Tốt
                                    Ngày nhận phòng
                                    Ngày trả phòng
                        Tên khách hàng
                        Email
                        Điện thoại
                        Vì giá tốt không được công bố nên hệ thống sẽ gửi giá qua email đến quý khách và nhân viên chăm
                        sóc sẽ gọi điện cho quý khách trong thời gian sớm nhất.
                        Quý khách có thể gọi điện đến cho Mytour để được tư vấn ngay:
                        Hà Nội: (04) 7109 9999, Hồ Chí Minh: (08) 7309 9899, Support
                            English: (+84)4-7309-9899.
                    Hoàn thành
                ×
                ×
                ĐÁNH GIÁ 
                        Tên
                        Tiêu đề
                        Kiểu du lịch?
                                -- Chọn --Cá nhânCặp đôiGia đìnhBạn bèDoanh nghiệp
                        Nội dung
                                Đánh giá chi tiết
                                Chỗ ở
                                5
                                Thức ăn
                                5
                                Phương tiện
                                5
                                Hướng dẫn viên
                                5
                                Lịch trình
                                5
                    Gửi đánh giá
                    Hủy Bỏ
                ×
                Gửi lại email kích hoạt
                ×
                Thông tin chi tiết giá theo phòng
                    Chọn khoảng thời gian hiển thị giá phòng
                    Hiển thị giá
                ×
                Khóa phòng theo khoảng thời gian
                            Chọn khoảng thời gian check-in cần khóa/mở phòng
                            Khóa phòng
                            Mở phòng
                ×
                THUẾ VÀ PHÍ DỊCH VỤ
                17% thuế và phí dịch vụ bao gồm:
                    - 10% thuế và 5% phí dịch vụ hoàn trả lại cho khách sạn.
                    - 2% phí giao dịch tại Mytour.
                ×
                Bạn có hài lòng về website của Mytour?
                    Thông điệp nhắn nhủ:
                Mytour luôn mong muốn cải thiện dịch vụ để bạn có trải nghiệm tốt hơn!
                            Ảnh đính kèm
                        Đóng
                        Gửi
                ×
                    Những đóng góp của bạn đã được ghi nhận. Mytour cám ơn bạn !
                Quay lại website
                            Giới thiệu Mytour
                            Đối tác khách sạn
                            Đăng nhập HMS
                            Tích lũy Vpoint
                            Điều khoản sử dụng
                            Quy chế hoạt động
                            Tuyển dụng
                            Liên hệ
                            Đăng ký nhận email
                                Đăng ký email để nhận khuyến mãi lên đến 70%
                                    Đăng
                                    ký
                    Công ty TNHH Mytour Việt Nam
                    Số ĐKKD: 0105983269 cấp ngày 30/08/2012
                    Văn phòng Hà Nội: Tầng 4, tòa nhà GP Invest, 170 Đê La Thành, Đống Đa
                    Văn phòng HCM: Tầng 5, Tòa Nhà HDTC, Số 36 Bùi Thị Xuân, Q.1
                Hotline
                        Hà Nội:
                        (04) 7109 9999
                        Tp. HCM:
                        (08) 7309 9899
                        ENGLISH SUPPORT:
                        (+84)4 7309 9899
