url:http://mytour.vn/a2437/khach-san-khu-vuc-cho-ha-long.html
Tittle :Khách sạn gần Chợ Hạ Long - Quảng Ninh giá tốt nhất - Mytour.vn
content :Đặt phòng trực tuyến, hoặc gọi
                                                            Hà Nội: (04) 7109 9999
                                                                                        - (04) 7309 9899
                                                            Hồ Chí Minh: (08) 7309 9899
                                                                                        - (08) 7109 9998
                        T2 - CN: 08:00 - 23:00
                    Toggle navigation
                                Bạn không có thông báo nào
                    |
                    ||
                                                            Tài khoản
                        Đăng nhập
                                Đăng kýKhách sạn yêu thích
                            Khách sạn
                            Tour
                            Cẩm nang du lịch
                            Thông tin
                                                Về Mytour
                                                Tin khuyến mãi
                                                Ưu đãi
                                                Hướng dẫn
                                                Liên hệ
                            Tốt nhất 2016
                ×
                Bạn có chắc muốn hủy đơn hàng?
                Lorem ipsum dolor sit amet, consectetur adipisicing elit. Iure corporis repudiandae nobis distinctio
                quae quos, officia modi, ab voluptatem pariatur ducimus mollitia, necessitatibus sed soluta dicta
                repellendus! Praesentium debitis, temporibus?
                    Đồng ý
                    Đóng
                    Khách sạnQuảng NinhHạ Long Khách sạn gần Chợ Hạ Long
                    Áp dụng
                    Đóng
            Tìm Kiếm Khách Sạn
                            Ngày nhận phòng
                            Ngày trả phòng
                    Số đêm
                    Số phòng
                        123456789101112
                    Người lớn
                        123456789101112
                    Tìm khách sạn
                                Bộ lọc tìm kiếm
                                        Theo mức giá
                                                        Dưới 500.000
                                                        500.000 - 1.000.000
                                                        1.000.000 - 1.500.000
                                                        1.500.000 - 2.000.000
                                                        2.000.000 - 2.500.000
                                                        2.500.000 - 3.000.000
                                                        Trên 3.000.000
                                    Hạng Khách Sạn
                                    Loại khách sạn
                                                    Khách sạn
                                                    Resort
                                Tiện nghi
                                                Đưa đón khách sạn sân bay
                                                Bữa sáng miễn phí
                                                Bể bơi ngoài trời
                                                Bãi đỗ xe
                                                Phòng họp
                                                Phòng tập thể thao
                                                Thang máy
                                                Thêm giường phụ
                                                Truyền hình cáp/vệ tinh
                                                Wifi miễn phí
                                                Giặt là
                                                Nhà hàng
                                                Spa
            Quận huyện
                        Hạ Long 
             Giá tốt hơn so với đặt phòng trực
            tiếp tại khách sạn
             Đảm bảo 
            giá tốt nhất 
             Đảm bảo 
            hoàn tiền
             Nhân viên chăm sóc, tư vấn nhiều kinh nghiệm
             Hơn 5000 khách sạn tại Việt Nam với
            đánh giá thực
             Nhiều chương trình khuyến mãi và tích lũy điểm
             Thanh toán dễ dàng, đa dạng
                            Khách sạn gần Chợ Hạ Long
                                     Xem Bản Đồ
                            Chợ Hạ Long nằm tại thành phố Hạ Long, Quảng Ninh. Tuy nằm cách khá xa khu du lịch Bãi Cháy, chợ Hạ Long thu hút rất đông du khách bởi lượng hàng hóa ở đây rất phong phú, đặc biệt là hải sản tươi ngon. Hãy để Mytour hỗ trợ bạn để có 1 chuyến đi thú vị, tiết kiệm bằng cách đặt phòng khách sạn Chợ Hạ Long ngay bây giờ với giá từ 307,000 VND.
                                Có 35
                                khách sạn ở
                                đây theo ngày đã chọn
                        Ngày nhận phòng
                        Ngày trả phòng
                Số đêm
                Số phòng
                    123456789101112
                Người lớn
                    123456789101112
                Cập nhật ngày
                             Bộ lọc
                                            Phổ biến nhất
                                     Hạng khách sạn
                                                                                                Hạng sao [5...1]
                                                                                                Hạng sao [1...5]
                                            Đánh giá cao nhất
                                            Khuyến mãi
                                     Giá
                                                                                                Giá tăng dần
                                                                                                Giá giảm dần
                            Sắp xếp:
                            Đánh giá cao nhất
                        Phổ biến nhấtĐánh giá cao nhấtGiá tăng dầnGiá giảm dầnHạng tăng dầnHạng giảm dầnKhuyến mãi
                            Khách Sạn City Bay Palace
                             156 Lê Thánh Tông, Phường Bạch Đằng, Hạ Long , Quảng Ninh 
                            (Xem bản đồ)
                                                ~ 0.14km
                            Chợ Hạ Long
                                        “Khách Sạn City Bay Palace Hạ Long được nhiều du khách biết đến và lựa chọn bởi trang thiết bị tiện nghi, hiện đại, đội ngũ nhân viên nhiệt tình, chuyên nghiệp và các chương trình ưu đãi đặc biệt cho m...
                                        “
                                                Đảm bảo hoàn tiền
                                                Đảm bảo giá tốt nhất!
                                                            8.0
                                Tốt
                                    (13
                                        đánh giá)
                                Xem phòng
                            Khách Sạn Hạ Long DC
                             Đường 25/4, Tổ 8, Khu 3, Phường Hồng Gai, Hạ Long , Quảng Ninh 
                            (Xem bản đồ)
                                                ~ 0.66km
                            Chợ Hạ Long
                                        “Khách Sạn Hạ Long DC cách sự nhộn nhịp của thành phố 1 Km, rất gần với bãi biển thơ mộng. Khách Sạn đạt tiêu chuẩn 4 sao với 22 tầng kiến trúc hiện đại, các dịch vụ được bố trí khép kín hợp lý.
                                        “
                                                Đảm bảo hoàn tiền
                                                Đảm bảo giá tốt nhất!
                                                            8.3
                                Tốt
                                    (18
                                        đánh giá)
                                Xem phòng
                            Khách Sạn Hạ Long Plaza 
                             8 Hạ Long, Bãi Cháy, Hạ Long , Quảng Ninh 
                            (Xem bản đồ)
                                                ~ 2.55km
                            Bai Chay Beach (  Bãi tắm Bãi Cháy)
                                        “Khách Sạn Hạ Long Plaza có thiết kế sang trọng cùng trang thiết bị hiện đại. Nhiều tiện nghi như hồ bơi, quán bar và nhà hàng riêng. Ngoài ra, nhân viên cũng rất thân thiện và hiếu khách
                                        “
                                                Đảm bảo hoàn tiền
                                                Đảm bảo giá tốt nhất!
                                                            8.1
                                Tốt
                                    (41
                                        đánh giá)
                                Xem phòng
                            Khách Sạn Starlight
                             Số 1A  Anh Đào, Phường Bãi Cháy, Hạ Long , Quảng Ninh 
                            (Xem bản đồ)
                                                ~ 3.43km
                            Chợ Bãi Cháy
                                                Đảm bảo hoàn tiền
                                                Đảm bảo giá tốt nhất!
                                Xem phòng
                            Khách Sạn Asean Hải Ngọc
                             Tổ 10, Khu 3, Phường Bãi Cháy, Hạ Long , Quảng Ninh 
                            (Xem bản đồ)
                                                ~ 3.55km
                            Chợ Bãi Cháy
                                        “Khách Sạn Asean Hải Ngọc Hạ Long có nội thất sang trọng, sạch sẽ, tiện nghi và dịch vụ giá cả phù hợp cùng với phong cách phục vụ chuyên nghiệp. Trang thiết bị hiện đại và được bài trí sang trọng, ấm...
                                        “
                                                Đảm bảo hoàn tiền
                                                Đảm bảo giá tốt nhất!
                                                            7.5
                                Đánh giá
                                    (26
                                        đánh giá)
                                Xem phòng
                            Khách Sạn Bạch Đằng  
                             2 Hạ Long, Bãi Cháy, Hạ Long , Quảng Ninh 
                            (Xem bản đồ)
                                                ~ 2.43km
                            Bai Chay Beach (  Bãi tắm Bãi Cháy)
                                        “Khách Sạn Bạch Đằng Hạ Long nằm bên bờ Vịnh Hạ Long, có tầm nhìn bao quát toàn bộ thắng cảnh nổi tiếng được UNESCO công nhận di sản thế giới này. Đội ngũ nhân viên khách sạn phục vụ thân thiện và nhiệ...
                                        “
                                                Đảm bảo hoàn tiền
                                                Đảm bảo giá tốt nhất!
                                                            7.2
                                Đánh giá
                                    (22
                                        đánh giá)
                                Xem phòng
                            Du thuyền Hạ Long Paloma 
                             Cảng Bãi Cháy, Hạ Long , Quảng Ninh 
                            (Xem bản đồ)
                                                ~ 1.95km
                            Bai Chay Beach (  Bãi tắm Bãi Cháy)
                                        “Du thuyền Hạ Long Paloma là lựa chọn lý tưởng cho bạn để đi du lịch hay công tác với giá cả hợp lí. Các phòng nghỉ đầy đủ tiện nghi hiện đại. Đội ngũ nhân viên khách sạn phục vụ thân thiện và nhiệt tì...
                                        “
                                                Đảm bảo hoàn tiền
                                                Đảm bảo giá tốt nhất!
                                                            9.0
                                Rất tốt
                                    (1
                                        đánh giá)
                                Xem phòng
                            Khách Sạn Bin Bop
                             Tổ 10 Khu 1, Trần Hưng Đạo, Hòn Gai, Hạ Long , Quảng Ninh 
                            (Xem bản đồ)
                                                ~ 2.01km
                            Chợ Hạ Long
                                        “Khách Sạn Bin Bop Hạ Long có phong cách phục vụ chu đáo, nhiệt tình chắc chắn sẽ làm hài lòng quý khách và mang đến cảm giác thoải mái. Trang thiết bị hiện đại và được bài trí sang trọng, ấm cúng.
                                        “
                                                Đảm bảo hoàn tiền
                                                Đảm bảo giá tốt nhất!
                                Xem phòng
                            Khách Sạn Tiên Long
                             Vườn Đào, Phường Bãi Cháy, Hạ Long , Quảng Ninh 
                            (Xem bản đồ)
                                                ~ 3.45km
                            Chợ Bãi Cháy
                                        “Khách Sạn Tiên Long Quảng Ninh có phong cách phục vụ chu đáo, nhiệt tình chắc chắn sẽ làm quý khách hài lòng và mang đến cảm giác cần thiết. Trang thiết bị hiện đại và giá cả hợp lí.
                                        “
                                                Đảm bảo hoàn tiền
                                                Đảm bảo giá tốt nhất!
                                                            7.7
                                Đánh giá
                                    (16
                                        đánh giá)
                                Xem phòng
                            Khách Sạn Thùy Dương Hạ Long
                             20 Hạ Long , Bãi Cháy, Hạ Long , Quảng Ninh 
                            (Xem bản đồ)
                                                ~ 3.31km
                            Chợ Bãi Cháy
                                        “Khách Sạn Thùy Dương Hạ Long cung cấp đầy đủ những tiện nghi và trang thiết bị hiện đại, tạo không khí ấm cúng thoải mái cho quý khách. Đội ngũ nhân viên khách sạn phục vụ thân thiện và nhiệt tình.
                                        “
                                                Đảm bảo hoàn tiền
                                                Đảm bảo giá tốt nhất!
                                                            7.4
                                Đánh giá
                                    (5
                                        đánh giá)
                                Xem phòng
                            Du Thuyền Âu Cơ
                             30 Anh Đào, Bãi Cháy, Hạ Long , Quảng Ninh 
                            (Xem bản đồ)
                                                ~ 3.46km
                            Chợ Bãi Cháy
                                        “Du Thuyền Âu Cơ Hạ Long là một trong những đội thuyền chất lượng tại Hạ Long. Với vỏ ngoài bằng thép mang đến cho du khách cảm nhận về sự tinh tế và sang trọng, an tòan bậc nhất khi thăm quan vịnh Hạ...
                                        “
                                                Đảm bảo hoàn tiền
                                                Đảm bảo giá tốt nhất!
                                                            8.7
                                Tốt
                                    (3
                                        đánh giá)
                                Xem phòng
                            Pelican Cruise Hạ Long
                             32 Anh Đào, Bãi Cháy, Hạ Long , Quảng Ninh 
                            (Xem bản đồ)
                                                ~ 3.45km
                            Chợ Bãi Cháy
                                        “Pelican Cruise Hạ Long là 1 du thuyền sang trọng trên vịnh Hạ Long, nơi du khách có thể trải nghiệm nét đẹp của vịnh đẹp bậc nhất thế giới. Hãy một lần đến và trải nghiệm tiện nghi, dịch vụ tại Pelica...
                                        “
                                                Đảm bảo hoàn tiền
                                                Đảm bảo giá tốt nhất!
                                                            8.4
                                Tốt
                                    (1
                                        đánh giá)
                                Xem phòng
                            Khách Sạn Điện Lực Bãi Cháy
                             18 Hạ Long, Phường Bãi Cháy, Hạ Long , Quảng Ninh 
                            (Xem bản đồ)
                                                ~ 3.32km
                            Chợ Bãi Cháy
                                        “Khách Sạn Điện Lực Bãi Cháy Hạ Long nằm ngay trung tâm thành phố, rất gần bãi biển thơ mộng. Tất cả phòng trong khách sạn đều được đặc biệt trang bị tiện nghi, dịch vụ cao cấp cho du khách kỳ nghỉ tuy...
                                        “
                                                Đảm bảo hoàn tiền
                                                Đảm bảo giá tốt nhất!
                                                            7.1
                                Đánh giá
                                    (2
                                        đánh giá)
                                            (1
                                            Reviews)
                                Xem phòng
                            Du Thuyền Syrena
                             Số 8, Đường Hạ Long Bãi Cháy, Hạ Long , Quảng Ninh 
                            (Xem bản đồ)
                                                ~ 2.55km
                            Bai Chay Beach (  Bãi tắm Bãi Cháy)
                                        “Du Thuyền Syrena là một hình thức du lịch mới ở Hạ Long. Du thuyền được thiết kế dựa trên sự kết hợp phong cách của phương Đông và phương Tây. Hãy lựa chọn nơi đây để có một kì nghỉ thật ý nghĩa nhé!...
                                        “
                                                Đảm bảo hoàn tiền
                                                Đảm bảo giá tốt nhất!
                                                            8.0
                                Tốt
                                    (1
                                        đánh giá)
                                Xem phòng
                            Khách Sạn Hồng Minh
                             21A Hạ Long, Hạ Long , Quảng Ninh 
                            (Xem bản đồ)
                                                ~ 3.3km
                            Chợ Bãi Cháy
                                        “Khách Sạn Hồng Minh Hạ Long tọa lạc ở trung tâm thành phố Hạ Long, đạt tiêu chuẩn quốc tế 2 sao. Các phòng nghỉ tại khách sạn được trang trí theo phong cách hiện đại và hệ thống ánh sáng ấm áp, thỏai...
                                        “
                                                Đảm bảo hoàn tiền
                                                Đảm bảo giá tốt nhất!
                                                            7.9
                                Đánh giá
                                    (2
                                        đánh giá)
                                            (3
                                            Reviews)
                                Xem phòng
                            Image Halong Cruise
                             32 Anh Đào, Bãi Cháy, Hạ Long , Quảng Ninh 
                            (Xem bản đồ)
                                                ~ 3.45km
                            Chợ Bãi Cháy
                                        “Image Halong Cruise Hạ Long khiêm tốn nằm trong trung tâm của Đảo Tuần Châu. Phòng nghỉ của khách sạn được trang bị tiện nghi hiện đại đem đến không gian nghỉ dưỡng hoàn hảo cho cả du khách khó tính n...
                                        “
                                                Đảm bảo hoàn tiền
                                                Đảm bảo giá tốt nhất!
                                Xem phòng
                            Du Thuyền Royal Heritage Cruise
                             Hạ Long,Quảng Ninh 
                            (Xem bản đồ)
                                                ~ 3.15km
                            Chợ Bãi Cháy
                                        “Du Thuyền Royal Heritage Cruise Hạ Long được thiết kế rất sang trọng, mang phong cách Phương Đông. Đặc biệt, Boong tàu rộng 200m2, là nơi tuyệt vời để tắm nắng và ngắm cảnh cũng như tổ chức tiệc ngoài...
                                        “
                                                Đảm bảo hoàn tiền
                                                Đảm bảo giá tốt nhất!
                                Xem phòng
                            Khách Sạn Holiday - Hạ Long
                             81 Vườn Đào, Bãi Cháy, Hạ Long , Quảng Ninh 
                            (Xem bản đồ)
                                                ~ 3.43km
                            Chợ Bãi Cháy
                                        “Khách Sạn Holiday - Hạ Long là lựa chọn lý tưởng cho du khách khi đi du lịch hay đi công tác với giá cả hợp lí. Các phòng nghỉ tại khách sạn được trang trí theo phong cách hiện đại và hệ thống ánh sán...
                                        “
                                                Đảm bảo hoàn tiền
                                                Đảm bảo giá tốt nhất!
                                                            6.8
                                Đánh giá
                                    (4
                                        đánh giá)
                                Xem phòng
                            Khách Sạn Ngọc Lan
                             Tổ 4 Khu 4A, Phường Bãi Cháy, Hạ Long , Quảng Ninh 
                            (Xem bản đồ)
                                                ~ 3.6km
                            Chợ Bãi Cháy
                                        “Khách Sạn Ngọc Lan Hạ Long mang lại dịch vụ hoàn hảo, làm hài lòng cả những vị khách khó tính nhất. Từ đây, du khách có thể ghé thăm các địa danh nổi tiếng tại Quảng Ninh như vịnh Hạ Long, Bãi Cháy, n...
                                        “
                                                Đảm bảo hoàn tiền
                                                Đảm bảo giá tốt nhất!
                                                            7.8
                                Đánh giá
                                    (2
                                        đánh giá)
                                Xem phòng
                            Khách Sạn Minh Tân
                             Cienco 5, P.hường Cao Xanh, Hạ Long , Quảng Ninh 
                            (Xem bản đồ)
                                                ~ 2.89km
                            Bai Chay Beach (  Bãi tắm Bãi Cháy)
                                        “Khách Sạn Minh Tân Hạ Long là sự lựa chọn hoàn hảo cho kì nghỉ của bạn. Với 60 phòng sang trọng, đạt tiêu chuẩn, khách sạn có thể đáp ứng nhu cầu của 150 du khách với giá cả hợp lý cùng các tiện nghi...
                                        “
                                                Đảm bảo hoàn tiền
                                                Đảm bảo giá tốt nhất!
                                Xem phòng
                «
                Trang trước
                1
                2
                Trang sau
                »
                                Chợ Hạ Long
                            Với hơn 5.000 khách sạn, resort tại 63 tỉnh/ thành phố, Mytour ngày càng được du khách tin dùng để đặt khách sạn. Mytour sẽ hỗ trợ quý khách đặt khách sạn Chợ Hạ Long với chi phí hợp lý để có chuyến đi thật thú vị và tiết kiệm. Ngoài việc cung cấp những khách sạn giá tốt nhất, bạn còn có thể tìm thấy nhiều thông tin du lịch hữu ích và thú vị khác.  Đặt phòng khách sạn Chợ Hạ Long giá tốt nhất tại Mytour.vn, với nhiều khuyến mãi từ website và đơn vị khách sạn tiết kiệm lên đến 70%. Hơn 150.000 đánh giá từ khách hàng đã qua sử dụng khách sạn giúp bạn đưa ra những quyết định tốt nhất cho lựa chọn của mình. Đặc biệt chính sách ĐẢM BẢO HOÀN TIỀN chỉ có tại Mytour.vn, giờ đây bạn có thể hoàn toàn tin tưởng vào dịch vụ đặt phòng trực tuyến.  Chợ Hạ Long nằm ở trung tâm thành phố Hạ Long, là một chợ đầu mối buôn bán hàng đầu của người dân tỉnh Quảng Ninh. Nhưng không chỉ có vậy, đây còn là nơi tham quan, mua sắm thú vị của du khách trong nước và quốc tế mỗi khi đến với Quảng Ninh, đặc biệt là vào những ngày cuối tuần khi ta có thể thấy rõ rệt lượng khách tham quan mua sắm ở chợ tăng cao. Được xây mới năm 2003, Chợ Hạ Long khai thác rất tốt những ưu điểm sẵn có để mở rộng quy mô với 36 ngành hàng sắp xếp hợp lí để tiện lợi cho việc mua bán cũng như công tác quản lý. Trung bình có hơn 5.000 lượt khách đến chợ tham quan mua bán mỗi ngày, và vào những ngày cuối tuần thì con số này có thể lên tới hơn 7.000 lượt khách/ngày.  Một trong những hoạt động thú vị tại Chợ Hạ Long mà bất cứ du khách nào tới đây cũng không nên bỏ qua, đó là mua sắm hải sản tại Chợ đêm Hạ Long bên bờ biển Bãi Cháy xinh đẹp. Tại đây, du khách có thể thoả thích lựa chọn  cho mình và gia đình những món hải sản tươi sống đa dạng, phong phú với mức giá rất đỗi phải chăng. Hải sản mua xong có thể được yêu cầu chế biến ngay thành món ăn, để rồi du khách sẽ được trải nghiệm một cảm giác thật thích thú khi vừa ăn vừa thấy những chú tôm hùm hay những chú mực còn sống bơi lội ngay gần mình. Du khách nước ngoài tìm đến với Chợ đêm Hạ Long rất nhiều cũng chính bởi vì họ thích khung cảnh nhộn nhịp và những trải nghiệm ăn uống tuyệt vời ở nơi này.  Nếu bạn có dự dịnh du lịch Quảng Ninh, Chợ Hạ Long (Chợ đêm Hạ Long) chắc chắn là một trong những sự lựa chọn đáng giá đầu tiên mà bạn nên cân nhắc. Hãy để Mytour giúp bạn tìm cho mình một địa điểm dừng chân như ý gần đây qua hệ thống đặt phòng trực tuyến các khách sạn gần thành phố Hạ Long. Hãy thử trải nghiệm ngay, bạn sẽ được trợ giúp và tư vấn về phòng khách sạn, nơi ăn chốn ở, những điểm du lịch đặc sắc không thể bỏ qua với một sự chu đáo và thân thiện mà bạn khó có thể tìm thấy ở nơi nào khác!  Bạn còn chần chừ gì nữa, hãy nhanh tay đặt phòng hoặc đặt tour du lịch thành phố Hạ Long ngay hôm nay để hưởng những ưu đãi lớn từ mytour và tận hưởng kỳ nghỉ trọn vẹn, ý nghĩa và khó quên bên người thân và bạn bè bạn bạn nhé!
                ×
                    Chính sách đảm bảo hoàn tiền của mytour
                    Bạn chưa tin tưởng việc đặt phòng khách sạn trực tuyến? Bạn e ngại rằng phòng khách sạn thực tế không đúng với thông tin trên website? Chúng tôi cam kết đưa đầy đủ và chính xác thông tin khách sạn trên website với chính sách “Đảm bảo Hoàn tiền”
                        Nếu khách hàng đặt khách sạn thành công trên Mytour nhưng khách sạn không có phòng, Mytour sẽ hoàn lại tiền cho khách và tặng kèm phiếu giảm giá có giá trị bằng với số tiền khách hàng đã trả.
                        Trong trường hợp loại phòng thực tế không đúng với loại phòng trên đơn hàng, Mytour sẽ quyết định nâng cấp miễn phí hoặc tặng phiếu giảm giá có giá trị bằng với số tiền khách hàng đã trả.
                        Trường hợp các tiện nghi phòng khách sạn (như bữa sáng, wifi…) không đúng với nội dung trên website, Mytour sẽ tặng phiếu giảm giá có giá trị bằng 10% số tiền khách đã trả (tối đa 500,000 VND)
                        Khách hàng cần gọi điện thoại 04-7309 9899 (Hà Nội), 08-7309 9899 (Hồ Chí Minh) hoặc email tới info@mytour.vn và cung cấp mã đơn hàng trong vòng 24 giờ từ lúc nhận phòng để được trợ giúp giải quyết khiếu nại (Hotline chỉ hỗ trợ trong giờ hành chính).
                        Mytour không chịu trách nhiệm bồi thường thiệt hại gián tiếp, ngẫu nhiên, hay do hậu quả phát sinh. Trong mọi trường hợp, trách nhiệm của Mytour không vượt quá tổng số tiền khách hàng thanh toán đặt phòng.
                ×
                    Đảm bảo giá tốt nhất
                    Nếu Thành viên đã đặt một phòng khách sạn được “Đảm Bảo” tại Mytour.vn và sau đó, cho Mytour.vn  thấy rằng Thành viên có thể đặt một phòng tương tự trong cùng khoảng thời gian ở mức giá tốt hơn có thể xem và đặt được trên một website khác, Mytour.vn sẽ giảm giá bằng hoặc thấp hơn mức giá đó.
                    Giá dùng để so sánh là giá sau khi áp dụng mức giảm giá công bố trên website Mytour.vn.
                    Chính sách “Đảm Bảo Giá Tốt Nhất” của Mytour.vn chỉ áp dụng cho các đặt phòng đã được xác nhận và phải thỏa mãn những điều kiện sau:
                Cùng khách sạnCùng thời gian nghỉ lạiCùng loại Phòng/GiườngCùng các yêu cầu mua Trước, yêu cầu trả trước và đặt cọc (nếu có)Cùng chính sách Hủy và Sửa Đổi
                    Phòng đó phải còn trống để được xác nhận ngay tại thời điểm các đại lý của Mytour.vn  kiểm tra phòng trống
                        Chính sách “Đảm Bảo Giá Tốt Nhất” không áp dụng cho các mức giá không công bố, như: chương trình khách hàng thân thiện.
                        Bất kỳ tổ chức nào với các mức giá dành cho nhóm cá nhân cụ thể và không nhằm mục đích áp dụng ra bên ngoài.
                        Thành viên có thể gửi khiếu nại theo địa chỉ : info@mytour.vn
                                Nêu mã đặt phòng Mytour.vn trong dòng tiêu đề thư
                                Gửi URL của website nơi Thành viên tìm thấy mức giá tốt hơn
                                Cung cấp ảnh chụp màn hình của website đối thủ cạnh tranh trong đó nêu rõ Phòng Trống, Loại Phòng, và các mức giá cho những ngày nghỉ lại theo yêu cầu của Thành viên.
                VUI LÒNG LƯU Ý: Thành viên không cần thực hiện đặt phòng trên website của đối thủ cạnh tranh, chỉ cần cho Mytour.vn thấy sự so sánh.
                ×
                Đăng Nhập
                                 Đăng nhập bằng tài khoản Facebook
                                 Đăng nhập bằng tài khoản Google
                            Hoặc đăng nhập bằng
                        Email*
                        Mật khẩu*
                        Quên mật khẩu?
                            Chưa có tài khoản/tạo tài khoản
                Đăng nhập
                         Nhớ đăng nhập
                ×
                Bản đồ
                                            Chợ Hạ Long
                    Tìm đường
                        Từ: 
                        Đến: 
                            Khách sạnĐịa danh Hiển thị các khách sạn ở gần Hiển thị các khu du lịch ở gần
                ×
                Yêu Cầu Lấy Giá
                                    Ngày nhận phòng
                                    Ngày trả phòng
                        Tên khách hàng
                        Email
                        Điện thoại
                        Nhân viên chăm sóc khách hàng sẽ gọi điện cho quý khách trong thời gian sớm nhất.
                        Quý khách có thể gọi điện đến cho Mytour để được tư vấn ngay:
                        Hà Nội: (04) 7109 9999, Hồ Chí Minh: (08) 7309 9899, Support
                            English: (+84)4-7309-9899.
                    Hoàn thành
                ×
                Gửi Thông Tin
                        Tên khách hàng
                        Email
                        Điện thoại
                            Quý khách sẽ thấy giá giảm ngay trên trang sau khi gửi thông tin
                    Hoàn thành
                ×
                Nhận Giá Tốt
                                    Ngày nhận phòng
                                    Ngày trả phòng
                        Tên khách hàng
                        Email
                        Điện thoại
                        Vì giá tốt không được công bố nên hệ thống sẽ gửi giá qua email đến quý khách và nhân viên chăm
                        sóc sẽ gọi điện cho quý khách trong thời gian sớm nhất.
                        Quý khách có thể gọi điện đến cho Mytour để được tư vấn ngay:
                        Hà Nội: (04) 7109 9999, Hồ Chí Minh: (08) 7309 9899, Support
                            English: (+84)4-7309-9899.
                    Hoàn thành
                ×
                ×
                ĐÁNH GIÁ 
                        Tên
                        Tiêu đề
                        Kiểu du lịch?
                                -- Chọn --Cá nhânCặp đôiGia đìnhBạn bèDoanh nghiệp
                        Nội dung
                                Đánh giá chi tiết
                                Chỗ ở
                                5
                                Thức ăn
                                5
                                Phương tiện
                                5
                                Hướng dẫn viên
                                5
                                Lịch trình
                                5
                    Gửi đánh giá
                    Hủy Bỏ
                ×
                Gửi lại email kích hoạt
                ×
                Thông tin chi tiết giá theo phòng
                    Chọn khoảng thời gian hiển thị giá phòng
                    Hiển thị giá
                ×
                Khóa phòng theo khoảng thời gian
                            Chọn khoảng thời gian check-in cần khóa/mở phòng
                            Khóa phòng
                            Mở phòng
                ×
                THUẾ VÀ PHÍ DỊCH VỤ
                17% thuế và phí dịch vụ bao gồm:
                    - 10% thuế và 5% phí dịch vụ hoàn trả lại cho khách sạn.
                    - 2% phí giao dịch tại Mytour.
                ×
                Bạn có hài lòng về website của Mytour?
                    Thông điệp nhắn nhủ:
                Mytour luôn mong muốn cải thiện dịch vụ để bạn có trải nghiệm tốt hơn!
                            Ảnh đính kèm
                        Đóng
                        Gửi
                ×
                    Những đóng góp của bạn đã được ghi nhận. Mytour cám ơn bạn !
                Quay lại website
                Du lịch Chợ Hạ Long
                                Du lịch Những điểm đến hấp dẫn ở miền Bắc dịp nghỉ lễ 2/9
                                Du lịch 9 địa điểm du lịch ba miền lý tưởng cho sĩ tử xả tress
                                Du lịch Ngao du 4 ngày Hà Nội – Hạ Long – Cô Tô dịp lễ 2/9
                                Du lịch Hòn Gà Chọi - biểu tượng của Vịnh Hạ Long
                                Du lịch 3 Lí do nên chọn Bãi Cháy – Hạ Long cho kì nghỉ gia đình  
                                Du lịch 10 bãi tắm 'vạn người mê' siêu gần Hà Nội
                                Du lịch Những địa điểm 'trú ẩn' hoàn hảo cho lễ 2/9 
                                Du lịch Bảo tàng Quảng Ninh - Công trình kiến trúc của năm 2013
                                Du lịch Những bãi biển đẹp ở Việt Nam - Phần 1
                                Du lịch Tìm hiểu Vịnh Hạ Long - danh thắng số 1 Việt Nam
                            Giới thiệu Mytour
                            Đối tác khách sạn
                            Đăng nhập HMS
                            Tích lũy Vpoint
                            Điều khoản sử dụng
                            Quy chế hoạt động
                            Tuyển dụng
                            Liên hệ
                            Đăng ký nhận email
                                Đăng ký email để nhận khuyến mãi lên đến 70%
                                    Đăng
                                    ký
                    Công ty TNHH Mytour Việt Nam
                    Số ĐKKD: 0105983269 cấp ngày 30/08/2012
                    Văn phòng Hà Nội: Tầng 4, tòa nhà GP Invest, 170 Đê La Thành, Đống Đa
                    Văn phòng HCM: Tầng 5, Tòa Nhà HDTC, Số 36 Bùi Thị Xuân, Q.1
                Hotline
                        Hà Nội:
                        (04) 7109 9999
                        Tp. HCM:
                        (08) 7309 9899
                        ENGLISH SUPPORT:
                        (+84)4 7309 9899
