url:http://mytour.vn/resort.html
Tittle :Resort Việt Nam giá tốt nhất - Mytour.vn
content :Đặt phòng trực tuyến, hoặc gọi
                                                            Hà Nội: (04) 7109 9999
                                                                                        - (04) 7309 9899
                                                            Hồ Chí Minh: (08) 7309 9899
                                                                                        - (08) 7109 9998
                        T2 - CN: 08:00 - 23:00
                    Toggle navigation
                                Bạn không có thông báo nào
                    |
                    ||
                                                            Tài khoản
                        Đăng nhập
                                Đăng kýKhách sạn yêu thích
                            Khách sạn
                            Tour
                            Cẩm nang du lịch
                            Thông tin
                                                Về Mytour
                                                Tin khuyến mãi
                                                Ưu đãi
                                                Hướng dẫn
                                                Liên hệ
                            Tốt nhất 2016
                ×
                Bạn có chắc muốn hủy đơn hàng?
                Lorem ipsum dolor sit amet, consectetur adipisicing elit. Iure corporis repudiandae nobis distinctio
                quae quos, officia modi, ab voluptatem pariatur ducimus mollitia, necessitatibus sed soluta dicta
                repellendus! Praesentium debitis, temporibus?
                    Đồng ý
                    Đóng
                    Khách sạnResort tại Việt Nam
                    Áp dụng
                    Đóng
            Tìm Kiếm Khách Sạn
                            Ngày nhận phòng
                            Ngày trả phòng
                    Số đêm
                    Số phòng
                        123456789101112
                    Người lớn
                        123456789101112
                    Tìm khách sạn
                                Bộ lọc tìm kiếm
                                        Theo mức giá
                                                        Dưới 500.000
                                                        500.000 - 1.000.000
                                                        1.000.000 - 1.500.000
                                                        1.500.000 - 2.000.000
                                                        2.000.000 - 2.500.000
                                                        2.500.000 - 3.000.000
                                                        Trên 3.000.000
                                    Hạng Khách Sạn
                                Tiện nghi
                                                Đưa đón khách sạn sân bay
                                                Bữa sáng miễn phí
                                                Bể bơi ngoài trời
                                                Bãi đỗ xe
                                                Phòng họp
                                                Phòng tập thể thao
                                                Thang máy
                                                Thêm giường phụ
                                                Truyền hình cáp/vệ tinh
                                                Wifi miễn phí
                                                Giặt là
                                                Nhà hàng
                                                Spa
                Resort tại:
                                Hà Nội
                                Hồ Chí Minh
                                Đà Nẵng
                                Bà Rịa - Vũng Tàu
                                Bình Thuận
                                Kiên Giang
                                Khánh Hòa
                                Lào Cai
                                Lâm Đồng
                                Quảng Nam
                                Quảng Ninh
                                Thừa Thiên Huế
                                An Giang
                                Bắc Ninh
                                Bắc Giang
                                Bình Dương
                                Bình Định
                                Bình Phước
                                Bến Tre
                                Bắc Kạn
                                Cần Thơ
                                Trà Vinh
                                Đồng Nai
                                Nam Định
                                Cà Mau
                                Cao Bằng
                                Gia Lai
                                Hà Giang
                                Hà Nam
                                Hà Tĩnh
                                Hải Dương
                                Hải Phòng
                                Hoà Bình
                                Hưng Yên
                                Kon Tum
                                Lai Châu
                                Lạng Sơn
                                Long An
                                Nghệ An
                                Ninh Bình
                                Ninh Thuận
                                Phú Thọ
                                Phú Yên
                                Quảng Bình
                                Quảng Ngãi
                                Quảng Trị
                                Sóc Trăng
                                Sơn La
                                Tây Ninh
                                Thái Bình
                                Thái Nguyên
                                Thanh Hoá
                                Tiền Giang
                                Tuyên Quang
                                Vĩnh Long
                                Vĩnh Phúc
                                Yên Bái
                                Đắk Lắk
                                Đồng Tháp
                                Đắk Nông
                                Hậu Giang
                                Bạc Liêu
                                Điện Biên
             Giá tốt hơn so với đặt phòng trực
            tiếp tại khách sạn
             Đảm bảo 
            giá tốt nhất 
             Đảm bảo 
            hoàn tiền
             Nhân viên chăm sóc, tư vấn nhiều kinh nghiệm
             Hơn 5000 khách sạn tại Việt Nam với
            đánh giá thực
             Nhiều chương trình khuyến mãi và tích lũy điểm
             Thanh toán dễ dàng, đa dạng
                            Resort tại Việt Nam
                                Có 479
                                khách sạn ở
                                đây theo ngày đã chọn
                        Ngày nhận phòng
                        Ngày trả phòng
                Số đêm
                Số phòng
                    123456789101112
                Người lớn
                    123456789101112
                Cập nhật ngày
                             Bộ lọc
                                            Phổ biến nhất
                                     Hạng khách sạn
                                                                                                    Hạng sao [5...1]
                                                                                                    Hạng sao [1...5]
                                            Đánh giá cao nhất
                                            Khuyến mãi
                                     Giá
                                                                                                    Giá tăng dần
                                                                                                    Giá giảm dần
                            Sắp xếp:
                            Đánh giá cao nhất
                        Phổ biến nhấtĐánh giá cao nhấtGiá tăng dầnGiá giảm dầnHạng tăng dầnHạng giảm dầnKhuyến mãi
                            Diamond Hotel & Resort
                             106 Nguyễn Tri Phương, Biên Hòa , Đồng Nai 
                            (Xem bản đồ)
                            Ga Biên Hòa
                                        “Khách Sạn Diamond Đồng Nai có đội ngũ nhân viên thân thiện và phục vụ nhiệt tình, trang thiết bị hiện đại cùng nội thất bài trí rất bắt mắt. Nhanh tay đặt phòng để có thể nhận được những ưu đãi tốt nh...
                                        “
                                                Đảm bảo hoàn tiền
                                                Đảm bảo giá tốt nhất!
                                                            7.5
                                Đánh giá
                                    (19
                                        đánh giá)
                                Xem phòng
                            Victoria Sapa Resort & Spa
                             Hoàng Diệu, Thị Trấn Sa Pa, SaPa , Lào Cai 
                            (Xem bản đồ)
                            Nhà Thờ Đá
                                        “Victoria Sapa Resort & Spa có thiết kế mộc mạc, mang phong cách đậm chất truyền thống với gỗ. Đội ngũ nhân viên thân thiện, phục vụ chuyên nghiệp. Trang thiết bị hiện đại và được bài trí sang trọng, ấ...
                                        “
                                                Đảm bảo hoàn tiền
                                                Đảm bảo giá tốt nhất!
                                                            8.4
                                Tốt
                                    (59
                                        đánh giá)
                                Xem phòng
                            Diamond Bay Resort & Spa
                             Đại lộ Nguyễn Tất Thành, Nha Trang, Khánh Hòa 
                            (Xem bản đồ)
                            Sân Golf Diamond
                                        “Diamond Bay Resort & Spa Nha Trang có các tiện nghi hiện đại như hồ bơi sang trọng cùng với phòng xông hơi và bồn tắm thuỷ lực ngay tại phòng. Đội ngũ nhân viên khách sạn phục vụ thân thiện và nhiệt t...
                                        “
                                                Đảm bảo hoàn tiền
                                                Đảm bảo giá tốt nhất!
                                                            8.2
                                Tốt
                                    (78
                                        đánh giá)
                                Xem phòng
                            Pandanus Resort 
                             Khu phố 5, Mũi Né, Phan Thiết , Bình Thuận 
                            (Xem bản đồ)
                            Mũi Né / Đông Hàm Tiên
                                        “Pandanus Resort Phan Thiết có tầm nhìn bao quát, tùy vào vị trí phòng nghỉ bạn có thể thấy được rừng cây, đồi cát thơ mộng hay cảnh biển bao la. Trang thiết bị hiện đại và được bài trí sang trọng, ấm...
                                        “
                                                Đảm bảo hoàn tiền
                                                Đảm bảo giá tốt nhất!
                                                            7.9
                                Đánh giá
                                    (59
                                        đánh giá)
                                Xem phòng
                            Sơn Trà Resort & Spa
                             Bãi Nam - Bãi Cồn, Thọ Quang, Sơn Trà, Đà Nẵng 
                            (Xem bản đồ)
                            Chùa Linh Ứng
                                        “Sơn Trà Resort & Spa Đà Nẵng nằm trên bán đảo Sơn Trà, gần bãi Rạng. Không gian thơ mộng cùng bãi biển riêng, là điểm đến lý tưởng cho quý khách. Đội ngũ nhân viên khách sạn phục vụ thân thiện và nhiệ...
                                        “
                                                Đảm bảo hoàn tiền
                                                Đảm bảo giá tốt nhất!
                                                            7.8
                                Đánh giá
                                    (54
                                        đánh giá)
                                Xem phòng
                            Romana Resort & Spa
                             Km 8, Mũi Né, Phan Thiết , Bình Thuận 
                            (Xem bản đồ)
                            Mũi Né / Bãi Biển Phú Hải
                                        “Romana Resort & Spa Phan Thiết nằm trên bờ biển hoang sơ Mũi Né, với đầy đủ những dịch vụ và tiện nghi đáp ứng được mọi nhu cầu của du khách. Đội ngũ nhân viên khách sạn phục vụ thân thiện và nhiệt tì...
                                        “
                                                Đảm bảo hoàn tiền
                                                Đảm bảo giá tốt nhất!
                                                            8.0
                                Tốt
                                    (147
                                        đánh giá)
                                Xem phòng
                            Hương Giang Resort & Spa
                             51 Lê Lợi, Huế, Thừa Thiên Huế 
                            (Xem bản đồ)
                            Ven Sông / Sông Hương
                                        “Hương Giang Resort & Spa Huế nằm ở trung tâm thành phố, bên dòng sông Hương thơ mộng với sân vườn trong xanh. Nhân viên rất nhiệt tình và chu đáo. Trang thiết bị hiện đại và được bài trí sang trọng, ấ...
                                        “
                                                Đảm bảo hoàn tiền
                                                Đảm bảo giá tốt nhất!
                                                            8.1
                                Tốt
                                    (183
                                        đánh giá)
                                Xem phòng
                            Sài Gòn Hồ Cốc Beach Seaside Resort & Hotel
                             Tỉnh Lộ 55, Xã Bưng Riềng, Xuyên Mộc, Bà Rịa - Vũng Tàu 
                            (Xem bản đồ)
                            Khu bảo tồn thiên nhiên Bình Châu - Phước Bửu
                                        “Sài Gòn Hồ Cóc Beach Vũng Tàu có tiện nghi như quán Bar, phòng hội họp, Spa & Massage, đảm bảo quý khách có thời gian thư giãn tuyệt vời nhất. Nơi đây là điểm đến lý tưởng cho du khách.
                                        “
                                                Đảm bảo hoàn tiền
                                                Đảm bảo giá tốt nhất!
                                                            6.8
                                Đánh giá
                                    (79
                                        đánh giá)
                                Xem phòng
                            Khách Sạn Tháng Mười 
                             151 Thùy Vân, Vũng Tàu, Bà Rịa - Vũng Tàu 
                            (Xem bản đồ)
                            Bãi Sau
                                        “Khách Sạn Tháng Mười Vũng Tàu nằm trên con đường Thùy Vân sầm uất nhất Vũng Tàu, ngay trên bãi sau, thuận tiện vui chơi và tắm biển. Đội ngũ nhân viên khách sạn phục vụ thân thiện và nhiệt tình.
                                        “
                                                Đảm bảo hoàn tiền
                                                Đảm bảo giá tốt nhất!
                                                            7.4
                                Đánh giá
                                    (171
                                        đánh giá)
                                Xem phòng
                            Khu Nghỉ Dưỡng Lăng Cô
                             493 Lạc Long Quân, TT Lăng Cô, Huyện Phú Lộc, Thừa Thiên Huế, Phú Lộc, Thừa Thiên Huế 
                            (Xem bản đồ)
                            Lăng Cô Beach Resort
                                        “Biệt Thự Dưỡng T26 Lăng Cô Huế nằm ngay tại trung tâm thành phố, sở hữu hệ thống phòng ốc sang trọng và các trang thiết bị hiện đại. Du khách hãy nhanh tay đặt phòng để có những ngày nghỉ thật ý nghĩa...
                                        “
                                                Đảm bảo hoàn tiền
                                                Đảm bảo giá tốt nhất!
                                                            8.8
                                Tốt
                                    (2
                                        đánh giá)
                                Xem phòng
                            Tràng An Beach Resort & Spa
                             60 Trần Hưng Đạo, Khu Phố 7, Thị trấn Dương Đông, Phú Quốc , Kiên Giang 
                            (Xem bản đồ)
                            Bãi Dài / Thị Trấn Dương Đông
                                                Đảm bảo hoàn tiền
                                                Đảm bảo giá tốt nhất!
                                Xem phòng
                            Hoàng Ngọc Beach Resort
                             152 Nguyễn Đình Chiểu, Phan Thiết , Bình Thuận 
                            (Xem bản đồ)
                            Trung Tâm Bãi Biển Mũi Né
                                        “Hoàng Ngọc Beach Resort Phan Thiết có thiết kế mang đậm màu sắc và tinh thần Việt, vừa gần gũi với thiên nhiên, vừa khoáng đạt vừa mạnh mẽ. Đội ngũ nhân viên khách sạn phục vụ thân thiện và nhiệt tình...
                                        “
                                                Đảm bảo hoàn tiền
                                                Đảm bảo giá tốt nhất!
                                                            7.4
                                Đánh giá
                                    (36
                                        đánh giá)
                                Xem phòng
                            Furama Resort Đà Nẵng 
                             Đường Võ Nguyên Giáp, Phường Khuê Mỹ, Thanh Khê, Đà Nẵng 
                            (Xem bản đồ)
                            Ga Đà Nẵng
                                        “Furama Resort Đà Nẵng có thiết kế sang trọng, nội thất cùng trang thiết bị hiện đại. Nhiều tiện nghi như Massage & spa, sân golf, sân tennis. Nơi đây sẽ là điểm dừng chân tuyệt vời.
                                        “
                                                Đảm bảo hoàn tiền
                                                Đảm bảo giá tốt nhất!
                                                            8.2
                                Tốt
                                    (150
                                        đánh giá)
                                Xem phòng
                            DESSOLE Sea Lion Beach Resort
                             Km Số 11 Phía Bắc Bán Đảo Cam Ranh, Đại Lộ Nguyễn Tất Thành , Huyện Cam Lâm , Tỉnh Khánh Hòa 
                            (Xem bản đồ)
                            Vịnh Cam Ranh
                                        “Khách Sạn Dessole Sea Lion Nha Trang có tiện nghi như quán Bar, phòng hội họp, dịch vụ Spa & Massage, đảm bảo quý khách có thời gian thư giãn tuyệt vời nhất. Nhanh tay đặt phòng để có thể nhận được nh...
                                        “
                                                Đảm bảo hoàn tiền
                                                Đảm bảo giá tốt nhất!
                                Xem phòng
                            Riva Resort Mũi Né
                             94 Nguyễn Đình Chiểu, Hàm Tiến, Tp.Phan Thiết, Phan Thiết , Bình Thuận 
                            (Xem bản đồ)
                                                Đảm bảo hoàn tiền
                                                Đảm bảo giá tốt nhất!
                                Xem phòng
                            Dốc Lết Resort
                             Xã Ninh Hải, Ninh Hòa , Khánh Hòa 
                            (Xem bản đồ)
                            Bải biển Dốc Lết
                                        “Dốc Lết Resort Ninh Hải được xây dựng theo kiểu dáng nhà sàn dân tộc, các phòng Bungallows ở Dốc Lết là nơi lý tưởng cho công việc và nghỉ ngơi. Đội ngũ nhân viên khách sạn phục vụ thân thiện và nhiệt...
                                        “
                                                Đảm bảo hoàn tiền
                                                Đảm bảo giá tốt nhất!
                                                            7.2
                                Đánh giá
                                    (38
                                        đánh giá)
                                Xem phòng
                            Mangala Garden Đà Nẵng
                             Villa J.02, The OceanVillas, Trường Sa, Phường Hòa Hải, Ngũ Hành Sơn, Đà Nẵng 
                            (Xem bản đồ)
                            Danang Golf Club - Vietnam
                                        “Mangala Garden - Đà Nẵng nằm bên bờ sông Hàn thơ mông và gần kề ngay cầu Rồng nổi tiếng của thành phố, view hướng ra cầu Rồng với giá cả hết sức hợp lí
                                        “
                                                Đảm bảo hoàn tiền
                                                Đảm bảo giá tốt nhất!
                                                            7.7
                                Đánh giá
                                    (5
                                        đánh giá)
                                Xem phòng
                            Evason Ana Mandara 
                             Đường Trần Phú, Nha Trang, Khánh Hòa 
                            (Xem bản đồ)
                            Chợ Đêm
                                        “Evason Ana Mandara Nha Trang có thiết kế kết hợp giữa kiến trúc truyền thống Việt Nam với nét riêng địa phương, làm toát lên sự sang trọng. Đội ngũ nhân viên khách sạn phục vụ thân thiện và nhiệt tình...
                                        “
                                                Đảm bảo hoàn tiền
                                                Đảm bảo giá tốt nhất!
                                                            8.8
                                Tốt
                                    (62
                                        đánh giá)
                                Xem phòng
                            Pilgrimage Village Hue Boutique Resort & Spa
                             130 Minh Mạng, Huế, Thừa Thiên Huế 
                            (Xem bản đồ)
                            Đàn Nam Giao
                                        “Pilgrimage Village Hue Boutique Resort & Spa có nội thất trang nhã, ấm cúng, cùng với vị trí cực kì thuận lợi, đây hứa hẹn là nơi nghỉ dưỡng tuyệt vời. Đây chắc chắn là một điểm đến không thể bỏ qua....
                                        “
                                                Đảm bảo hoàn tiền
                                                Đảm bảo giá tốt nhất!
                                                            8.3
                                Tốt
                                    (24
                                        đánh giá)
                                Xem phòng
                            Fusion Maia Resort Đà Nẵng
                             Sơn Trà Điện Ngọc, Phường Khuê Mỹ, Ngũ Hành Sơn, Đà Nẵng 
                            (Xem bản đồ)
                            Bãi Biển Non Nước
                                        “Fusion Maia Resort Đà Nẵng nằm trên bãi biển Mỹ Khê tuyệt đẹp và lãng mạn. Khách sạn sang trọng, tiện nghi và đặc biệt có hồ bơi vô cực độc đáo. Đội ngũ nhân viên khách sạn phục vụ thân thiện và nhiệt...
                                        “
                                                Đảm bảo hoàn tiền
                                                Đảm bảo giá tốt nhất!
                                                            8.7
                                Tốt
                                    (65
                                        đánh giá)
                                Xem phòng
                «
                Trang trước
                1
                2
                3
                4
                5
                6
                7
                8
                    ..
                    23
                    24
                Trang sau
                »
                ×
                    Chính sách đảm bảo hoàn tiền của mytour
                    Bạn chưa tin tưởng việc đặt phòng khách sạn trực tuyến? Bạn e ngại rằng phòng khách sạn thực tế không đúng với thông tin trên website? Chúng tôi cam kết đưa đầy đủ và chính xác thông tin khách sạn trên website với chính sách “Đảm bảo Hoàn tiền”
                        Nếu khách hàng đặt khách sạn thành công trên Mytour nhưng khách sạn không có phòng, Mytour sẽ hoàn lại tiền cho khách và tặng kèm phiếu giảm giá có giá trị bằng với số tiền khách hàng đã trả.
                        Trong trường hợp loại phòng thực tế không đúng với loại phòng trên đơn hàng, Mytour sẽ quyết định nâng cấp miễn phí hoặc tặng phiếu giảm giá có giá trị bằng với số tiền khách hàng đã trả.
                        Trường hợp các tiện nghi phòng khách sạn (như bữa sáng, wifi…) không đúng với nội dung trên website, Mytour sẽ tặng phiếu giảm giá có giá trị bằng 10% số tiền khách đã trả (tối đa 500,000 VND)
                        Khách hàng cần gọi điện thoại 04-7309 9899 (Hà Nội), 08-7309 9899 (Hồ Chí Minh) hoặc email tới info@mytour.vn và cung cấp mã đơn hàng trong vòng 24 giờ từ lúc nhận phòng để được trợ giúp giải quyết khiếu nại (Hotline chỉ hỗ trợ trong giờ hành chính).
                        Mytour không chịu trách nhiệm bồi thường thiệt hại gián tiếp, ngẫu nhiên, hay do hậu quả phát sinh. Trong mọi trường hợp, trách nhiệm của Mytour không vượt quá tổng số tiền khách hàng thanh toán đặt phòng.
                ×
                    Đảm bảo giá tốt nhất
                    Nếu Thành viên đã đặt một phòng khách sạn được “Đảm Bảo” tại Mytour.vn và sau đó, cho Mytour.vn  thấy rằng Thành viên có thể đặt một phòng tương tự trong cùng khoảng thời gian ở mức giá tốt hơn có thể xem và đặt được trên một website khác, Mytour.vn sẽ giảm giá bằng hoặc thấp hơn mức giá đó.
                    Giá dùng để so sánh là giá sau khi áp dụng mức giảm giá công bố trên website Mytour.vn.
                    Chính sách “Đảm Bảo Giá Tốt Nhất” của Mytour.vn chỉ áp dụng cho các đặt phòng đã được xác nhận và phải thỏa mãn những điều kiện sau:
                Cùng khách sạnCùng thời gian nghỉ lạiCùng loại Phòng/GiườngCùng các yêu cầu mua Trước, yêu cầu trả trước và đặt cọc (nếu có)Cùng chính sách Hủy và Sửa Đổi
                    Phòng đó phải còn trống để được xác nhận ngay tại thời điểm các đại lý của Mytour.vn  kiểm tra phòng trống
                        Chính sách “Đảm Bảo Giá Tốt Nhất” không áp dụng cho các mức giá không công bố, như: chương trình khách hàng thân thiện.
                        Bất kỳ tổ chức nào với các mức giá dành cho nhóm cá nhân cụ thể và không nhằm mục đích áp dụng ra bên ngoài.
                        Thành viên có thể gửi khiếu nại theo địa chỉ : info@mytour.vn
                                Nêu mã đặt phòng Mytour.vn trong dòng tiêu đề thư
                                Gửi URL của website nơi Thành viên tìm thấy mức giá tốt hơn
                                Cung cấp ảnh chụp màn hình của website đối thủ cạnh tranh trong đó nêu rõ Phòng Trống, Loại Phòng, và các mức giá cho những ngày nghỉ lại theo yêu cầu của Thành viên.
                VUI LÒNG LƯU Ý: Thành viên không cần thực hiện đặt phòng trên website của đối thủ cạnh tranh, chỉ cần cho Mytour.vn thấy sự so sánh.
                ×
                Đăng Nhập
                                 Đăng nhập bằng tài khoản Facebook
                                 Đăng nhập bằng tài khoản Google
                            Hoặc đăng nhập bằng
                        Email*
                        Mật khẩu*
                        Quên mật khẩu?
                            Chưa có tài khoản/tạo tài khoản
                Đăng nhập
                         Nhớ đăng nhập
                ×
                Bản đồ
                                            Việt Nam
                    Tìm đường
                        Từ: 
                        Đến: 
                            Khách sạnĐịa danh Hiển thị các khách sạn ở gần Hiển thị các khu du lịch ở gần
                ×
                Yêu Cầu Lấy Giá
                                    Ngày nhận phòng
                                    Ngày trả phòng
                        Tên khách hàng
                        Email
                        Điện thoại
                        Nhân viên chăm sóc khách hàng sẽ gọi điện cho quý khách trong thời gian sớm nhất.
                        Quý khách có thể gọi điện đến cho Mytour để được tư vấn ngay:
                        Hà Nội: (04) 7109 9999, Hồ Chí Minh: (08) 7309 9899, Support
                            English: (+84)4-7309-9899.
                    Hoàn thành
                ×
                Gửi Thông Tin
                        Tên khách hàng
                        Email
                        Điện thoại
                            Quý khách sẽ thấy giá giảm ngay trên trang sau khi gửi thông tin
                    Hoàn thành
                ×
                Nhận Giá Tốt
                                    Ngày nhận phòng
                                    Ngày trả phòng
                        Tên khách hàng
                        Email
                        Điện thoại
                        Vì giá tốt không được công bố nên hệ thống sẽ gửi giá qua email đến quý khách và nhân viên chăm
                        sóc sẽ gọi điện cho quý khách trong thời gian sớm nhất.
                        Quý khách có thể gọi điện đến cho Mytour để được tư vấn ngay:
                        Hà Nội: (04) 7109 9999, Hồ Chí Minh: (08) 7309 9899, Support
                            English: (+84)4-7309-9899.
                    Hoàn thành
                ×
                ×
                ĐÁNH GIÁ 
                        Tên
                        Tiêu đề
                        Kiểu du lịch?
                                -- Chọn --Cá nhânCặp đôiGia đìnhBạn bèDoanh nghiệp
                        Nội dung
                                Đánh giá chi tiết
                                Chỗ ở
                                5
                                Thức ăn
                                5
                                Phương tiện
                                5
                                Hướng dẫn viên
                                5
                                Lịch trình
                                5
                    Gửi đánh giá
                    Hủy Bỏ
                ×
                Gửi lại email kích hoạt
                ×
                Thông tin chi tiết giá theo phòng
                    Chọn khoảng thời gian hiển thị giá phòng
                    Hiển thị giá
                ×
                Khóa phòng theo khoảng thời gian
                            Chọn khoảng thời gian check-in cần khóa/mở phòng
                            Khóa phòng
                            Mở phòng
                ×
                THUẾ VÀ PHÍ DỊCH VỤ
                17% thuế và phí dịch vụ bao gồm:
                    - 10% thuế và 5% phí dịch vụ hoàn trả lại cho khách sạn.
                    - 2% phí giao dịch tại Mytour.
                ×
                Bạn có hài lòng về website của Mytour?
                    Thông điệp nhắn nhủ:
                Mytour luôn mong muốn cải thiện dịch vụ để bạn có trải nghiệm tốt hơn!
                            Ảnh đính kèm
                        Đóng
                        Gửi
                ×
                    Những đóng góp của bạn đã được ghi nhận. Mytour cám ơn bạn !
                Quay lại website
                            Giới thiệu Mytour
                            Đối tác khách sạn
                            Đăng nhập HMS
                            Tích lũy Vpoint
                            Điều khoản sử dụng
                            Quy chế hoạt động
                            Tuyển dụng
                            Liên hệ
                            Đăng ký nhận email
                                Đăng ký email để nhận khuyến mãi lên đến 70%
                                    Đăng
                                    ký
                    Công ty TNHH Mytour Việt Nam
                    Số ĐKKD: 0105983269 cấp ngày 30/08/2012
                    Văn phòng Hà Nội: Tầng 4, tòa nhà GP Invest, 170 Đê La Thành, Đống Đa
                    Văn phòng HCM: Tầng 5, Tòa Nhà HDTC, Số 36 Bùi Thị Xuân, Q.1
                Hotline
                        Hà Nội:
                        (04) 7109 9999
                        Tp. HCM:
                        (08) 7309 9899
                        ENGLISH SUPPORT:
                        (+84)4 7309 9899
