url:http://mytour.vn/1083-khach-san-tien-kim.html
Tittle :Khách sạn Tiên Kim - Bạc Liêu giá tốt nhất - Mytour.vn
content :Đặt phòng trực tuyến, hoặc gọi
                                                            Hà Nội: (04) 7109 9999
                                                                                        - (04) 7309 9899
                                                            Hồ Chí Minh: (08) 7309 9899
                                                                                        - (08) 7109 9998
                        T2 - CN: 08:00 - 23:00
                    Toggle navigation
                                Bạn không có thông báo nào
                    |
                    ||
                                                            Tài khoản
                        Đăng nhập
                                Đăng kýKhách sạn yêu thích
                            Khách sạn
                            Tour
                            Cẩm nang du lịch
                            Thông tin
                                                Về Mytour
                                                Tin khuyến mãi
                                                Ưu đãi
                                                Hướng dẫn
                                                Liên hệ
                            Tốt nhất 2016
                ×
                Bạn có chắc muốn hủy đơn hàng?
                Lorem ipsum dolor sit amet, consectetur adipisicing elit. Iure corporis repudiandae nobis distinctio
                quae quos, officia modi, ab voluptatem pariatur ducimus mollitia, necessitatibus sed soluta dicta
                repellendus! Praesentium debitis, temporibus?
                    Đồng ý
                    Đóng
                    Khách sạnBạc LiêuThành Phố Bạc LiêuKhách sạn gần Bến xe Bạc LiêuKhách sạn Tiên Kim
                    Đóng
            Tìm Kiếm Khách Sạn
                            Ngày nhận phòng
                            Ngày trả phòng
                    Số đêm
                    Số phòng
                        123456789101112
                    Người lớn
                        123456789101112
                    Tìm khách sạn
                Giá tốt hơn so với đặt phòng trực tiếp tại khách sạn
                Đảm bảo 
                giá tốt nhất
                Đảm bảo 
                hoàn tiền
                Nhân viên chăm sóc, tư vấn nhiều kinh nghiệm
                Hơn 5000 khách sạn tại Việt Nam với đánh giá thực
                Nhiều chương trình khuyến mãi và tích lũy điểm
                Thanh toán dễ dàng, đa dạng
                        Khách sạn Tiên Kim
                            (Cung cấp bởi khách sạn)
                                    Tất cả thông tin về tiêu chuẩn khách sạn trên website mytour.vn
                                    là do khách sạn tự cung cấp, chỉ mang tính chất tham khảo và không nhất thiết trùng
                                    hợp với hạng
                                    sao được cấp bởi sở Văn Hoá, Thể thao và du lịch.
                             50/8 QL1A, Phường 7, Thành Phố Bạc Liêu, Bạc Liêu 
                                Đặt phòng ngay giữ giá tốt
                                Đã thích
                                        0
                                            (0
                                            đánh giá)
                                Giới thiệu về Khách sạn Tiên Kim 
                                    Khách sạn Tiên Kim tọa lạc trên Quốc lộ 1, khách sạn Kim Tiên có vị trí thuận lợi, là địa chỉ lưu trú uy tín tại thành phố Bạc Liêu.
Khách sạn đạt tiêu chuẩn 1 sao với 35 phòng ngủ. Các phòng đều trang bị đầy đủ những tiện nghi đáp ứng nhu cầu sinh hoạt của khách lưu trú.
Cùng với các dịch vụ, khách sạn Tiên Kim có đội ngũ nhân viên chuyên nghiệp sẽ làm hài lòng quý khách. Tại khách sạn Tiên Kim mọi sự cố gắng đều nhằm mục đích khiến cho du khách hài lòng. Để làm được điều đó, khách sạn sẽ cung cấp dịch vụ và tiện nghi tốt nhất. Khách của khách sạn có thể tận hưởng tính năng tuyệt vời như phục vụ ăn tại phòng, Wi-Fi ở khu vực công cộng, người vận chuyển hành lý, phòng gia đình, dịch vụ trông xe. 
Thêm vào đó, tất cả những phòng khách đều được đặc biệt trang bị những tiện nghi như Phòng tắm chung, tủ lạnh, truy cập internet không dây (miễn phí), ban công, truy cập internet không dây để làm hài lòng những vị khách khó tính nhất. Cho dù bạn là người thích vui vẻ hay chỉ là khách muốn thư giãn sau một ngày làm việc bận rộn, bạn sẽ thấy thoải mái khi sử dụng các tiện nghi giải trí khác. Khách sạn Tiên Kim là nơi bạn có thể dừng chân ở một khách sạn chất lượng tại Bạc Liêu.
Bên cạnh đó, khi đặt phòng khách sạn Tiên Kim, khách sạn còn gợi ý cho bạn những hoạt động vui chơi giải trí bảo đảm bạn luôn thấy hứng thú trong suốt kì nghỉ. Dù bạn đến để thư giãn hay làm gì, khách sạn Tiên Kim luôn là sự lựa chọn hoàn hảo cho kì nghỉ của bạn ở Bạc Liêu. 
Khi đặt phòng khách sạn hoặc đặt tour qua hệ thống đặt phòng trực tuyến của Mytour.vn, bạn sẽ có cơ hội sở hữu phòng nghỉ tại những khách sạn giá rẻ hay cao cấp. Hãy sử dụng dịch vụ của Mytour.vn để có cơ hội đặt những phòng khách sạn giá rẻ nhất với chất lượng tuyệt vời bạn nhé.
                                        Xem thêm 
                                Chọn ngày để xem giá và phòng trống
                                    Đảm bảo giá tốt nhất
                                                Ngày nhận phòng
                                                Ngày trả phòng
                                        Số đêm
                                        Số phòng
                                            123456789101112
                                        Người lớn
                                            123456789101112
                                        Cập nhật giá
                                Lưu ý: Vui lòng ẩn "Cập nhật giá" để cập nhật phòng
                                Chọn phòng Khách sạn Tiên Kim
                                                Loại Phòng
                                                Giá 1 đêm
                                                Số phòng
                                                Đặt phòng
                                                                    Double
                                                                        Điều kiện hủy phòng
                                                        phòng
                                                                                                                                                                            012345
                                                            Đặt ngay
                                                            Xác nhận ngay
                                                                    single
                                                                        Điều kiện hủy phòng
                                                        phòng
                                                                                                                                                                            012345
                                                            Đặt ngay
                                                            Xác nhận ngay
                                    Tiện nghi Khách sạn Tiên Kim 
                                                Bãi đỗ xe
                                                Cửa hàng lưu niệm
                                                Internet
                                                Salon
                                                Wifi miễn phí
                                Ghi chú: Ăn sáng miễn phí (nếu có) có thể thay đổi theo phòng và ngày
                                    Chính sách Khách sạn Tiên Kim 
                                        Giờ nhận
                                        phòng: 14:00
                                        Giờ trả
                                        phòng: 12:00
            Đánh giá Khách sạn Tiên Kim
                Viết đánh giá
                        Tất cả ( 0 )
                        Công tác ( 0 )
                        Cặp đôi ( 0 )
                        Gia đình ( 0 )
                        Bạn bè ( 0 )
                        Cá nhân ( 0 )
                        Đánh giá
                        0
                            Tất cả
                    Chi tiết điểm  (từ
                        0
                        nhận xét)
                            Vị trí
                                0
                                    % Complete
                            0
                            Phục vụ
                                0
                                    % Complete
                            0
                            Tiện nghi
                                0
                                    % Complete
                            0
                            Giá cả
                                0
                                    % Complete
                            0
                            Vệ sinh
                                0
                                    % Complete
                            0
                        Đánh giá
                        0
                            Công tác
                    Chi tiết điểm  (từ
                        0
                        nhận xét)
                            Vị trí
                                0
                                    % Complete
                            0
                            Phục vụ
                                0
                                    % Complete
                            0
                            Tiện nghi
                                0
                                    % Complete
                            0
                            Giá cả
                                0
                                    % Complete
                            0
                            Vệ sinh
                                0
                                    % Complete
                            0
                        Đánh giá
                        0
                            Cặp đôi
                    Chi tiết điểm  (từ
                        0
                        nhận xét)
                            Vị trí
                                0
                                    % Complete
                            0
                            Phục vụ
                                0
                                    % Complete
                            0
                            Tiện nghi
                                0
                                    % Complete
                            0
                            Giá cả
                                0
                                    % Complete
                            0
                            Vệ sinh
                                0
                                    % Complete
                            0
                        Đánh giá
                        0
                            Gia đình
                    Chi tiết điểm  (từ
                        0
                        nhận xét)
                            Vị trí
                                0
                                    % Complete
                            0
                            Phục vụ
                                0
                                    % Complete
                            0
                            Tiện nghi
                                0
                                    % Complete
                            0
                            Giá cả
                                0
                                    % Complete
                            0
                            Vệ sinh
                                0
                                    % Complete
                            0
                        Đánh giá
                        0
                            Bạn bè
                    Chi tiết điểm  (từ
                        0
                        nhận xét)
                            Vị trí
                                0
                                    % Complete
                            0
                            Phục vụ
                                0
                                    % Complete
                            0
                            Tiện nghi
                                0
                                    % Complete
                            0
                            Giá cả
                                0
                                    % Complete
                            0
                            Vệ sinh
                                0
                                    % Complete
                            0
                        Đánh giá
                        0
                            Cá nhân
                    Chi tiết điểm  (từ
                        0
                        nhận xét)
                            Vị trí
                                0
                                    % Complete
                            0
                            Phục vụ
                                0
                                    % Complete
                            0
                            Tiện nghi
                                0
                                    % Complete
                            0
                            Giá cả
                                0
                                    % Complete
                            0
                            Vệ sinh
                                0
                                    % Complete
                            0
                                Từ ngày mới đến cũ
                                Từ ngày cũ đến mới
                                Điểm từ thấp đến cao
                                Điểm từ cao đến thấp
                    Xem tất cả đánh giá ( 0 )
                                Đặt phòng ngay giữ giá tốt
            Khách hàng đã xem khách sạn này thường tham khảo thêm
                Được đề xuất cho bạn
            Khách sạn 1 sao có cùng tiện nghi
            Có thể bạn muốn xem
                    Khách sạn 1 sao tại Bạc Liêu
                        Khách sạn có wifi miễn phí tại Bạc Liêu
                        Khách sạn có bãi đỗ xe tại Bạc Liêu
            Địa danh ở gần
                                    Tịnh Xá Ngọc Lợi   
                                     ~ 1.38km
                                                                Tịnh Xá Ngọc Lợi tọa lạc tại phường 7, tp. Bạc Liêu. Ngòai ra, du khách còn có cơ hội đến thăm nhiều địa điểm nổi tiếng như: cửa biển Nhà Mát, Quán âm Phật đài, khu mộ cố Nhạc sĩ Cao Văn Lầu… Hãy để Mytour hỗ trợ bạn để có 1 chuyến đi thú vị, tiết kiệm bằng cách đặt phòng khách sạn khu vực Tịnh Xá Ngọc Lợi ngay bây giờ với giá chỉ từ 245,000 VND.
                                    Nhà công tử Bạc Liêu
                                     ~ 1.93km
                                                                Nhà công tử Bạc Liêu tọa lạc tại phường 3, tp. Bạc Liêu. Ngòai ra, du khách có cơ hội đến thăm nhiều địa điểm nổi tiếng như: cửa biển Nhà Mát, Quán âm Phật đài, khu mộ cố Nhạc sĩ Cao Văn Lầu … Hãy để Mytour hỗ trợ bạn có 1 chuyến đi thú vị, tiết kiệm bằng cách đặt phòng khách sạn khu vực Nhà công tử Bạc Liêu ngay bây giờ với giá chỉ từ 245,000 VND.
                                    Chùa Vĩnh Hòa
                                     ~ 2.61km
                                                                Chùa Vĩnh Hòa tọa lạc tại thành phố Bạc Liêu. Ngòai ra, du khách còn có cơ hội đến thăm nhiều địa điểm du lịch nổi tiếng như: cửa biển Nhà Mát, Quán âm Phật đài, khu mộ cố Nhạc sĩ Cao Văn Lầu … Hãy để Mytour hỗ trợ bạn để có 1 chuyến đi thú vị, tiết kiệm bằng cách đặt phòng khách sạn khu vực chùa Vĩnh Hòa ngay bây giờ với giá chỉ từ 245,000 VND.
                                    Phước Đức Cổ Miếu
                                     ~ 3.04km
                                                                Phước Đức Cổ Miếu tọa lạc tại phường 3, tp. Bạc Liêu. Ngòai ra, du khách còn có cơ hội đến thăm nhiều địa điểm nổi tiếng như: cửa biển Nhà Mát, Quán âm Phật đài, khu mộ cố Nhạc sĩ Cao Văn Lầu… Hãy để Mytour hỗ trợ bạn để có 1 chuyến đi thú vị, tiết kiệm bằng cách đặt phòng khách sạn khu vực Phước Đức Cổ Miếu ngay bây giờ với giá chỉ từ 245,000 VND.
                                    Bệnh viện Bạc Liêu
                                     ~ 3.12km
                                                                Bệnh viện Bạc Liêu tọa lạc tại phường 3, tp. Bạc Liêu. Từ đây, du khách có cơ hội đến thăm nhiều địa điểm nổi tiếng như: cửa biển Nhà Mát, Quán âm Phật đài, khu mộ cố Nhạc sĩ Cao Văn Lầu… Hãy để Mytour hỗ trợ bạn để có 1 chuyến đi thú vị, tiết kiệm bằng cách đặt phòng khách sạn khu vực Bệnh viện Bạc Liêu ngay bây giờ với giá chỉ từ 245,000 VND.
                                    Sân chim Bạc Liêu
                                     ~ 3.12km
                                                                Sân chim Bạc Liêu tọa lạc tại tp. Bạc Liêu. Ngòai ra, du khách còn có cơ hội đến thăm nhiều địa điểm du lịch nổi tiếng như: cửa biển Nhà Mát, Quán âm Phật đài, khu mộ cố Nhạc sĩ Cao Văn Lầu… Hãy để Mytour hỗ trợ bạn để có 1 chuyến đi thú vị, tiết kiệm bằng cách đặt phòng khách sạn khu vực Sân chim Bạc Liêu ngay bây giờ với giá chỉ từ 245,000 VND.
                                    Chùa Quan Đế - Chùa Ông
                                     ~ 3.51km
                                                                Chùa Quan Đế là địa điểm du lịch nổi tiếng tâm linh nổi tiếng của Bạc Liêu. Đến với Chùa Quan Đế, du khách có cơ hội tham quan các địa điểm du lịch nổi tiếng khác như Vườn cò Tân Long, Nhà Thờ Tắc Sậy...Hãy để Mytour hỗ trợ bạn để có 1 chuyến đi thú vị, tiết kiệm bằng cách đặt phòng khách sạn tại khu vực Chùa Quan Đế ngay bây giờ với giá rẻ nhất.
                ×
                    Chính sách đảm bảo hoàn tiền của mytour
                    Bạn chưa tin tưởng việc đặt phòng khách sạn trực tuyến? Bạn e ngại rằng phòng khách sạn thực tế không đúng với thông tin trên website? Chúng tôi cam kết đưa đầy đủ và chính xác thông tin khách sạn trên website với chính sách “Đảm bảo Hoàn tiền”
                        Nếu khách hàng đặt khách sạn thành công trên Mytour nhưng khách sạn không có phòng, Mytour sẽ hoàn lại tiền cho khách và tặng kèm phiếu giảm giá có giá trị bằng với số tiền khách hàng đã trả.
                        Trong trường hợp loại phòng thực tế không đúng với loại phòng trên đơn hàng, Mytour sẽ quyết định nâng cấp miễn phí hoặc tặng phiếu giảm giá có giá trị bằng với số tiền khách hàng đã trả.
                        Trường hợp các tiện nghi phòng khách sạn (như bữa sáng, wifi…) không đúng với nội dung trên website, Mytour sẽ tặng phiếu giảm giá có giá trị bằng 10% số tiền khách đã trả (tối đa 500,000 VND)
                        Khách hàng cần gọi điện thoại 04-7309 9899 (Hà Nội), 08-7309 9899 (Hồ Chí Minh) hoặc email tới info@mytour.vn và cung cấp mã đơn hàng trong vòng 24 giờ từ lúc nhận phòng để được trợ giúp giải quyết khiếu nại (Hotline chỉ hỗ trợ trong giờ hành chính).
                        Mytour không chịu trách nhiệm bồi thường thiệt hại gián tiếp, ngẫu nhiên, hay do hậu quả phát sinh. Trong mọi trường hợp, trách nhiệm của Mytour không vượt quá tổng số tiền khách hàng thanh toán đặt phòng.
                ×
                    Đảm bảo giá tốt nhất
                    Nếu Thành viên đã đặt một phòng khách sạn được “Đảm Bảo” tại Mytour.vn và sau đó, cho Mytour.vn  thấy rằng Thành viên có thể đặt một phòng tương tự trong cùng khoảng thời gian ở mức giá tốt hơn có thể xem và đặt được trên một website khác, Mytour.vn sẽ giảm giá bằng hoặc thấp hơn mức giá đó.
                    Giá dùng để so sánh là giá sau khi áp dụng mức giảm giá công bố trên website Mytour.vn.
                    Chính sách “Đảm Bảo Giá Tốt Nhất” của Mytour.vn chỉ áp dụng cho các đặt phòng đã được xác nhận và phải thỏa mãn những điều kiện sau:
                Cùng khách sạnCùng thời gian nghỉ lạiCùng loại Phòng/GiườngCùng các yêu cầu mua Trước, yêu cầu trả trước và đặt cọc (nếu có)Cùng chính sách Hủy và Sửa Đổi
                    Phòng đó phải còn trống để được xác nhận ngay tại thời điểm các đại lý của Mytour.vn  kiểm tra phòng trống
                        Chính sách “Đảm Bảo Giá Tốt Nhất” không áp dụng cho các mức giá không công bố, như: chương trình khách hàng thân thiện.
                        Bất kỳ tổ chức nào với các mức giá dành cho nhóm cá nhân cụ thể và không nhằm mục đích áp dụng ra bên ngoài.
                        Thành viên có thể gửi khiếu nại theo địa chỉ : info@mytour.vn
                                Nêu mã đặt phòng Mytour.vn trong dòng tiêu đề thư
                                Gửi URL của website nơi Thành viên tìm thấy mức giá tốt hơn
                                Cung cấp ảnh chụp màn hình của website đối thủ cạnh tranh trong đó nêu rõ Phòng Trống, Loại Phòng, và các mức giá cho những ngày nghỉ lại theo yêu cầu của Thành viên.
                VUI LÒNG LƯU Ý: Thành viên không cần thực hiện đặt phòng trên website của đối thủ cạnh tranh, chỉ cần cho Mytour.vn thấy sự so sánh.
                ×
                Đăng Nhập
                                 Đăng nhập bằng tài khoản Facebook
                                 Đăng nhập bằng tài khoản Google
                            Hoặc đăng nhập bằng
                        Email*
                        Mật khẩu*
                        Quên mật khẩu?
                            Chưa có tài khoản/tạo tài khoản
                Đăng nhập
                         Nhớ đăng nhập
                ×
                Bản đồ
                                            Khách sạn Tiên Kim
                    Tìm đường
                        Từ: 
                        Đến: 
                            Khách sạnĐịa danh Hiển thị các khách sạn ở gần Hiển thị các khu du lịch ở gần
                ×
                Yêu Cầu Lấy Giá
                                    Ngày nhận phòng
                                    Ngày trả phòng
                        Tên khách hàng
                        Email
                        Điện thoại
                        Nhân viên chăm sóc khách hàng sẽ gọi điện cho quý khách trong thời gian sớm nhất.
                        Quý khách có thể gọi điện đến cho Mytour để được tư vấn ngay:
                        Hà Nội: (04) 7109 9999, Hồ Chí Minh: (08) 7309 9899, Support
                            English: (+84)4-7309-9899.
                    Hoàn thành
                ×
                Gửi Thông Tin
                        Tên khách hàng
                        Email
                        Điện thoại
                            Quý khách sẽ thấy giá giảm ngay trên trang sau khi gửi thông tin
                    Hoàn thành
                ×
                Nhận Giá Tốt
                                    Ngày nhận phòng
                                    Ngày trả phòng
                        Tên khách hàng
                        Email
                        Điện thoại
                        Vì giá tốt không được công bố nên hệ thống sẽ gửi giá qua email đến quý khách và nhân viên chăm
                        sóc sẽ gọi điện cho quý khách trong thời gian sớm nhất.
                        Quý khách có thể gọi điện đến cho Mytour để được tư vấn ngay:
                        Hà Nội: (04) 7109 9999, Hồ Chí Minh: (08) 7309 9899, Support
                            English: (+84)4-7309-9899.
                    Hoàn thành
                ×
                ×
                ĐÁNH GIÁ 
                        Tên
                        Tiêu đề
                        Kiểu du lịch?
                                -- Chọn --Cá nhânCặp đôiGia đìnhBạn bèDoanh nghiệp
                        Nội dung
                                Đánh giá chi tiết
                                Chỗ ở
                                5
                                Thức ăn
                                5
                                Phương tiện
                                5
                                Hướng dẫn viên
                                5
                                Lịch trình
                                5
                    Gửi đánh giá
                    Hủy Bỏ
                ×
                Gửi lại email kích hoạt
                ×
                Thông tin chi tiết giá theo phòng
                    Chọn khoảng thời gian hiển thị giá phòng
                    Hiển thị giá
                ×
                Khóa phòng theo khoảng thời gian
                            Chọn khoảng thời gian check-in cần khóa/mở phòng
                            Khóa phòng
                            Mở phòng
                ×
                THUẾ VÀ PHÍ DỊCH VỤ
                17% thuế và phí dịch vụ bao gồm:
                    - 10% thuế và 5% phí dịch vụ hoàn trả lại cho khách sạn.
                    - 2% phí giao dịch tại Mytour.
                ×
                Bạn có hài lòng về website của Mytour?
                    Thông điệp nhắn nhủ:
                Mytour luôn mong muốn cải thiện dịch vụ để bạn có trải nghiệm tốt hơn!
                            Ảnh đính kèm
                        Đóng
                        Gửi
                ×
                    Những đóng góp của bạn đã được ghi nhận. Mytour cám ơn bạn !
                Quay lại website
                            Giới thiệu Mytour
                            Đối tác khách sạn
                            Đăng nhập HMS
                            Tích lũy Vpoint
                            Điều khoản sử dụng
                            Quy chế hoạt động
                            Tuyển dụng
                            Liên hệ
                            Đăng ký nhận email
                                Đăng ký email để nhận khuyến mãi lên đến 70%
                                    Đăng
                                    ký
                    Công ty TNHH Mytour Việt Nam
                    Số ĐKKD: 0105983269 cấp ngày 30/08/2012
                    Văn phòng Hà Nội: Tầng 4, tòa nhà GP Invest, 170 Đê La Thành, Đống Đa
                    Văn phòng HCM: Tầng 5, Tòa Nhà HDTC, Số 36 Bùi Thị Xuân, Q.1
                Hotline
                        Hà Nội:
                        (04) 7109 9999
                        Tp. HCM:
                        (08) 7309 9899
                        ENGLISH SUPPORT:
                        (+84)4 7309 9899
