url:http://mytour.vn/2676-lan-rung-resort-spa-vung-tau.html
Tittle :Lan Rừng Resort & Spa Vũng Tàu - Bà Rịa - Vũng Tàu giá tốt nhất - Mytour.vn
content :Đặt phòng trực tuyến, hoặc gọi
                                                            Hà Nội: (04) 7109 9999
                                                                                        - (04) 7309 9899
                                                            Hồ Chí Minh: (08) 7309 9899
                                                                                        - (08) 7109 9998
                        T2 - CN: 08:00 - 23:00
                    Toggle navigation
                                Bạn không có thông báo nào
                    |
                    ||
                                                            Tài khoản
                        Đăng nhập
                                Đăng kýKhách sạn yêu thích
                            Khách sạn
                            Tour
                            Cẩm nang du lịch
                            Thông tin
                                                Về Mytour
                                                Tin khuyến mãi
                                                Ưu đãi
                                                Hướng dẫn
                                                Liên hệ
                            Tốt nhất 2016
                ×
                Bạn có chắc muốn hủy đơn hàng?
                Lorem ipsum dolor sit amet, consectetur adipisicing elit. Iure corporis repudiandae nobis distinctio
                quae quos, officia modi, ab voluptatem pariatur ducimus mollitia, necessitatibus sed soluta dicta
                repellendus! Praesentium debitis, temporibus?
                    Đồng ý
                    Đóng
                    Khách sạnBà Rịa - Vũng TàuVũng TàuKhách sạn gần Tượng chúa Giêsu KitôLan Rừng Resort & Spa Vũng Tàu
                    Đóng
            Tìm Kiếm Khách Sạn
                            Ngày nhận phòng
                            Ngày trả phòng
                    Số đêm
                    Số phòng
                        123456789101112
                    Người lớn
                        123456789101112
                    Tìm khách sạn
                Giá tốt hơn so với đặt phòng trực tiếp tại khách sạn
                Đảm bảo 
                giá tốt nhất
                Đảm bảo 
                hoàn tiền
                Nhân viên chăm sóc, tư vấn nhiều kinh nghiệm
                Hơn 5000 khách sạn tại Việt Nam với đánh giá thực
                Nhiều chương trình khuyến mãi và tích lũy điểm
                Thanh toán dễ dàng, đa dạng
                        Lan Rừng Resort & Spa Vũng Tàu
                            (Cung cấp bởi khách sạn)
                                    Tất cả thông tin về tiêu chuẩn khách sạn trên website mytour.vn
                                    là do khách sạn tự cung cấp, chỉ mang tính chất tham khảo và không nhất thiết trùng
                                    hợp với hạng
                                    sao được cấp bởi sở Văn Hoá, Thể thao và du lịch.
                             3-6 Hạ Long, Vũng Tàu, Bà Rịa - Vũng Tàu 
                                Đặt phòng ngay giữ giá tốt
                                Đã thích
                                        8
                                            (521
                                            đánh giá)
                                Giới thiệu về Lan Rừng Resort & Spa Vũng Tàu 
Được kiến tạo từ năm 2008, Lan Rừng Resort & Spa được biết đến là một trong những khu nghỉ dưỡng bậc nhất của thành phố biển Vũng Tàu, tự hào sở hữu không gian thoáng đãng, phong cảnh hữu tình với Khuôn viên cây xanh giữa dãy biển xanh viền cát trắng tọa lạc trên con đường Hạ Long thanh bình của Bãi Dứa như làm say lòng du khách.
Ngoài lợi thế “tựa sơn, hướng thủy”, Lan Rừng Resort & Spa còn quyến rũ bởi dáng vẻ kiêu sa giao hòa giữa nghệ thuật kiến trúc vừa cổ điển vừa hiện đại của Châu Âu, thanh thoát về dáng dấp bên ngoài và trang nhã, tỉ mỉ với từng chi tiết nội thất bên trong.
Hai khu chính là Seaside (bên biển) và Hillside (bên đồi) nằm đối diện nhau với tổng cộng 80 phòng nghỉ dưỡng từ Deluxe (sang trọng) đến Suite (thượng hạng) và nhiều hạng phòng khác nhau với giá cả phù hợp dành cho mọi đối tượng du khách. Chỉ cần mở tung cửa phòng đón gió và tựa mình vào ban công ngắm mặt trời lên từ phía biển, du khách sẽ cảm nhận được sự yên bình tràn ngập xung quanh mình trong từng khoảnh khắc.
Giữa không gian giao hòa với thiên nhiên, biển xanh, cát trắng, nắng vàng. Lan Rừng Resort & Spa thật sự là một không gian lý tưởng cho hoạt động du lịch MICE (loại hình kết hợp tham quan du lịch với tổ chức hội nghị, hội thảo), họp mặt công ty, liên hoan, họp mặt gia đình, bạn bè,...với các loại phòng họp được trang bị hiện đại, sức chứa đến 400 khách và khu máy tính được kết nối internet. Ngoài ra, chuỗi Nhà hàng Lan Rừng cũng không kém phần hấp dẫn du khách bởi nhiều món ăn Âu, Á được chế biến từ hải sản tươi sống của thành phố biển Vũng Tàu, không gian thoáng mát hướng biển và sự phục vụ tận tình, chu đáo của đội ngũ nhân viên chuyên nghiệp.,.....Du khách cũng sẽ thỏa sức vui chơi nghỉ dưỡng với nhiều dịch vụ chăm sóc sức khỏe cao cấp tại Saigon New spa, phòng gym, hồ bơi ngoài trời, Karaoke; tự do mua sắm tại quầy hàng lưu niệm (gift shop) với nhiều mặt hàng độc đáo mang đậm phong cách miền biển.
Lan Rừng Resort & Spa như nổi bật hơn với bãi biển riêng, bờ cát trắng mịn và Nhà hàng nằm dọc theo bờ biển trong xanh khiến du khách luôn có cảm giác như sóng biển đang vỗ về dưới chân mình và tạo cho du khách một không gian riêng biệt, thoải mái, tận hưởng khoảnh khắc tuyệt vời cùng người thân và bạn bè. Ánh hoàng hôn ấm áp của buổi chiều tà hòa lẫn cảm giác mát dịu của nước biển cùng thưởng thức ẩm thực xứ biển tươi ngon như một những ký ức thật khó quên đối với du khách.
Với Slogan “Enjoy Your dream space!” có thể nói Lan Rừng Resort & Spa thật sự mang đến cho du khách một trải nghiệm về chất lượng cuộc sống hoàn hảo ngay từ lần đầu tiên đặt chân đến nơi đây.
 
Với sự hỗ trợ của Mytour, bạn sẽ có cơ hội đặt phòng giá rẻ nhất cùng nhiều chương trình khuyến mại dành riêng cho khách hàng của Mytour. 
Nhanh tay đặt phòng Lan Rừng Resort & Spa để tận hưởng dịch vụ đẳng cấp với đội ngũ phục vụ chuyên nghiệp, chu đáo đang sẵn sàng chào đón bạn, cho một kỳ nghỉ ngọt ngào, đáng nhớ!
                                        Xem thêm 
                                Chọn ngày để xem giá và phòng trống
                                    Đảm bảo giá tốt nhất
                                                                            Giá ưu đãi chỉ dành cho khách nội địa.
                                                Ngày nhận phòng
                                                Ngày trả phòng
                                        Số đêm
                                        Số phòng
                                            123456789101112
                                        Người lớn
                                            123456789101112
                                        Cập nhật giá
                                Lưu ý: Vui lòng ẩn "Cập nhật giá" để cập nhật phòng
                                Chọn phòng Lan Rừng Resort & Spa Vũng Tàu
                                                Loại Phòng
                                                Giá 1 đêm
                                                Số phòng
                                                Đặt phòng
                                                                    SEASIDE - Executive Deluxe DOUBLE Garden View
                                                                        Điều kiện hủy phòng
                                                        Thêm người/ thêm giường từ T6 - T7: 795.000đThêm người/ thêm giường từ CN - T5: 550.000đThêm người/ thêm giường giai đoạn Lễ, Tết vui lòng liên hệ để biết thêm chi tiết.Chính sách trẻ em : Đối với trẻ em từ 24 tháng tuổi trở xuống: miễn phí giường phụ (nôi), được phục vụ theo nhu cầu của khách và tùy theo tiện ích sẵn có của ResortTrẻ em dưới 12 tuổi ở chung với bố mẹ: sử dụng miễn phí giường sẵn có trong phòng (Tối đa02 trẻ em ngủ cùng giường với bố mẹ) Trẻ em từ 12 tuổi trở lên: tính như người lớn phụ thu ngày thường 550.000/ khách, cuối tuần 795.000/ khách- Phụ thu phí ăn sáng: (Áp dụng theo giá niêm yết tại Resort)+ Trẻ em cao dưới 1m00 : miễn phí phụ thu này.+ Trẻ em cao từ 1m00 đến 1m20: phụ thu phiếu ăn sáng trẻ em+Trẻ em cao từ 1m20 trở lên: phụ thu phiếu ăn sáng người lớn- Giá đêm 31.12.2016 đã bao gồm bữa tối bắt buộc*** Phụ thu đêm 31.12.2016 :+Phụ thu extra bed và ăn sáng:Người lớn và bé từ 12 tuổi trở lên: 795,000VNDTrẻ em (5 - 11 tuổi): 210,000VND (không bao gồm extra bed)Trẻ em (dưới 5 tuổi): Miễn phí+Phụ thu vé Gala DinnerNgười lớn và bé từ 12 tuổi trở lên: 790,000VND/kháchTrẻ em từ 5 - 11 tuổi: 395.000đ/vé (nữa giá vé người lớn) giá bán cho khách.Trẻ em dưới 5 tuổi sẽ được vé tiệc Gala.
 
 
                                                        phòng
                                                                                                                                                                            01234
                                                            Đặt ngay
                                                            Xác nhận ngay
                                                                    SEASIDE - Executive Deluxe TWIN Sea View F1
                                                                        Điều kiện hủy phòng
                                                        Thêm người/ thêm giường từ T6 - T7: 795.000đThêm người/ thêm giường từ CN - T5: 550.000đThêm người/ thêm giường giai đoạn Lễ, Tết vui lòng liên hệ để biết thêm chi tiết.Chính sách trẻ em : Đối với trẻ em từ 24 tháng tuổi trở xuống: miễn phí giường phụ (nôi), được phục vụ theo nhu cầu của khách và tùy theo tiện ích sẵn có của ResortTrẻ em dưới 12 tuổi ở chung với bố mẹ: sử dụng miễn phí giường sẵn có trong phòng (Tối đa02 trẻ em ngủ cùng giường với bố mẹ) Trẻ em từ 12 tuổi trở lên: tính như người lớn phụ thu ngày thường 550.000/ khách, cuối tuần 795.000/ khách- Phụ thu phí ăn sáng: (Áp dụng theo giá niêm yết tại Resort)+ Trẻ em cao dưới 1m00 : miễn phí phụ thu này.+ Trẻ em cao từ 1m00 đến 1m20: phụ thu phiếu ăn sáng trẻ em+Trẻ em cao từ 1m20 trở lên: phụ thu phiếu ăn sáng người lớn- Giá đêm 31.12.2016 đã bao gồm bữa tối bắt buộc*** Phụ thu đêm 31.12.2016 :+Phụ thu extra bed và ăn sáng:Người lớn và bé từ 12 tuổi trở lên: 795,000VNDTrẻ em (5 - 11 tuổi): 210,000VND (không bao gồm extra bed)Trẻ em (dưới 5 tuổi): Miễn phí+Phụ thu vé Gala DinnerNgười lớn và bé từ 12 tuổi trở lên: 790,000VND/kháchTrẻ em từ 5 - 11 tuổi: 395.000đ/vé (nữa giá vé người lớn) giá bán cho khách.Trẻ em dưới 5 tuổi sẽ được vé tiệc Gala.
 
 
                                                        phòng
                                                                                                                                                                            012345678
                                                            Đặt ngay
                                                            Xác nhận ngay
                                                                    SEASIDE - Executive Suite DOUBLE Sea View
                                                                        Điều kiện hủy phòng
                                                        Thêm người/ thêm giường từ T6 - T7: 795.000đThêm người/ thêm giường từ CN - T5: 550.000đThêm người/ thêm giường giai đoạn Lễ, Tết vui lòng liên hệ để biết thêm chi tiết.Chính sách trẻ em : Đối với trẻ em từ 24 tháng tuổi trở xuống: miễn phí giường phụ (nôi), được phục vụ theo nhu cầu của khách và tùy theo tiện ích sẵn có của ResortTrẻ em dưới 12 tuổi ở chung với bố mẹ: sử dụng miễn phí giường sẵn có trong phòng (Tối đa02 trẻ em ngủ cùng giường với bố mẹ) Trẻ em từ 12 tuổi trở lên: tính như người lớn phụ thu ngày thường 550.000/ khách, cuối tuần 795.000/ khách- Phụ thu phí ăn sáng: (Áp dụng theo giá niêm yết tại Resort)+ Trẻ em cao dưới 1m00 : miễn phí phụ thu này.+ Trẻ em cao từ 1m00 đến 1m20: phụ thu phiếu ăn sáng trẻ em+Trẻ em cao từ 1m20 trở lên: phụ thu phiếu ăn sáng người lớn- Giá đêm 31.12.2016 đã bao gồm bữa tối bắt buộc*** Phụ thu đêm 31.12.2016 :+Phụ thu extra bed và ăn sáng:Người lớn và bé từ 12 tuổi trở lên: 795,000VNDTrẻ em (5 - 11 tuổi): 210,000VND (không bao gồm extra bed)Trẻ em (dưới 5 tuổi): Miễn phí+Phụ thu vé Gala DinnerNgười lớn và bé từ 12 tuổi trở lên: 790,000VND/kháchTrẻ em từ 5 - 11 tuổi: 395.000đ/vé (nữa giá vé người lớn) giá bán cho khách.Trẻ em dưới 5 tuổi sẽ được vé tiệc Gala.
 
 
                                                        phòng
                                                                                                                                                                            012
                                                            Đặt ngay
                                                            Xác nhận ngay
                                                                    SEASIDE - Executive Suite TWIN Sea View
                                                                        Điều kiện hủy phòng
                                                        Thêm người/ thêm giường từ T6 - T7: 795.000đThêm người/ thêm giường từ CN - T5: 550.000đThêm người/ thêm giường giai đoạn Lễ, Tết vui lòng liên hệ để biết thêm chi tiết.Chính sách trẻ em : Đối với trẻ em từ 24 tháng tuổi trở xuống: miễn phí giường phụ (nôi), được phục vụ theo nhu cầu của khách và tùy theo tiện ích sẵn có của ResortTrẻ em dưới 12 tuổi ở chung với bố mẹ: sử dụng miễn phí giường sẵn có trong phòng (Tối đa02 trẻ em ngủ cùng giường với bố mẹ) Trẻ em từ 12 tuổi trở lên: tính như người lớn phụ thu ngày thường 550.000/ khách, cuối tuần 795.000/ khách- Phụ thu phí ăn sáng: (Áp dụng theo giá niêm yết tại Resort)+ Trẻ em cao dưới 1m00 : miễn phí phụ thu này.+ Trẻ em cao từ 1m00 đến 1m20: phụ thu phiếu ăn sáng trẻ em+Trẻ em cao từ 1m20 trở lên: phụ thu phiếu ăn sáng người lớn- Giá đêm 31.12.2016 đã bao gồm bữa tối bắt buộc*** Phụ thu đêm 31.12.2016 :+Phụ thu extra bed và ăn sáng:Người lớn và bé từ 12 tuổi trở lên: 795,000VNDTrẻ em (5 - 11 tuổi): 210,000VND (không bao gồm extra bed)Trẻ em (dưới 5 tuổi): Miễn phí+Phụ thu vé Gala DinnerNgười lớn và bé từ 12 tuổi trở lên: 790,000VND/kháchTrẻ em từ 5 - 11 tuổi: 395.000đ/vé (nữa giá vé người lớn) giá bán cho khách.Trẻ em dưới 5 tuổi sẽ được vé tiệc Gala.
 
 
                                                        phòng
                                                                                                                                                                            012
                                                            Đặt ngay
                                                            Xác nhận ngay
                                                                    SEASIDE - Lan Rừng Suite DOUBLE Sea View
                                                                        Điều kiện hủy phòng
                                                        Thêm người/ thêm giường từ T6 - T7: 795.000đThêm người/ thêm giường từ CN - T5: 550.000đThêm người/ thêm giường giai đoạn Lễ, Tết vui lòng liên hệ để biết thêm chi tiết.Chính sách trẻ em : Đối với trẻ em từ 24 tháng tuổi trở xuống: miễn phí giường phụ (nôi), được phục vụ theo nhu cầu của khách và tùy theo tiện ích sẵn có của ResortTrẻ em dưới 12 tuổi ở chung với bố mẹ: sử dụng miễn phí giường sẵn có trong phòng (Tối đa02 trẻ em ngủ cùng giường với bố mẹ) Trẻ em từ 12 tuổi trở lên: tính như người lớn phụ thu ngày thường 550.000/ khách, cuối tuần 795.000/ khách- Phụ thu phí ăn sáng: (Áp dụng theo giá niêm yết tại Resort)+ Trẻ em cao dưới 1m00 : miễn phí phụ thu này.+ Trẻ em cao từ 1m00 đến 1m20: phụ thu phiếu ăn sáng trẻ em+Trẻ em cao từ 1m20 trở lên: phụ thu phiếu ăn sáng người lớn- Giá đêm 31.12.2016 đã bao gồm bữa tối bắt buộc*** Phụ thu đêm 31.12.2016 :+Phụ thu extra bed và ăn sáng:Người lớn và bé từ 12 tuổi trở lên: 795,000VNDTrẻ em (5 - 11 tuổi): 210,000VND (không bao gồm extra bed)Trẻ em (dưới 5 tuổi): Miễn phí+Phụ thu vé Gala DinnerNgười lớn và bé từ 12 tuổi trở lên: 790,000VND/kháchTrẻ em từ 5 - 11 tuổi: 395.000đ/vé (nữa giá vé người lớn) giá bán cho khách.Trẻ em dưới 5 tuổi sẽ được vé tiệc Gala.
 
 
                                                        phòng
                                                                                                                                                                            012
                                                            Đặt ngay
                                                            Xác nhận ngay
                                                                    HILLSIDE - Deluxe DOUBLE Garden View
                                                                        Điều kiện hủy phòng
                                                        Thêm người/ thêm giường từ T6 - T7: 795.000đThêm người/ thêm giường từ CN - T5: 550.000đThêm người/ thêm giường giai đoạn Lễ, Tết vui lòng liên hệ để biết thêm chi tiết.Chính sách trẻ em : Đối với trẻ em từ 24 tháng tuổi trở xuống: miễn phí giường phụ (nôi), được phục vụ theo nhu cầu của khách và tùy theo tiện ích sẵn có của ResortTrẻ em dưới 12 tuổi ở chung với bố mẹ: sử dụng miễn phí giường sẵn có trong phòng (Tối đa02 trẻ em ngủ cùng giường với bố mẹ) Trẻ em từ 12 tuổi trở lên: tính như người lớn phụ thu ngày thường 550.000/ khách, cuối tuần 795.000/ khách- Phụ thu phí ăn sáng: (Áp dụng theo giá niêm yết tại Resort)+ Trẻ em cao dưới 1m00 : miễn phí phụ thu này.+ Trẻ em cao từ 1m00 đến 1m20: phụ thu phiếu ăn sáng trẻ em+Trẻ em cao từ 1m20 trở lên: phụ thu phiếu ăn sáng người lớn- Giá đêm 31.12.2016 đã bao gồm bữa tối bắt buộc*** Phụ thu đêm 31.12.2016 :+Phụ thu extra bed và ăn sáng:Người lớn và bé từ 12 tuổi trở lên: 795,000VNDTrẻ em (5 - 11 tuổi): 210,000VND (không bao gồm extra bed)Trẻ em (dưới 5 tuổi): Miễn phí+Phụ thu vé Gala DinnerNgười lớn và bé từ 12 tuổi trở lên: 790,000VND/kháchTrẻ em từ 5 - 11 tuổi: 395.000đ/vé (nữa giá vé người lớn) giá bán cho khách.Trẻ em dưới 5 tuổi sẽ được vé tiệc Gala.
 
 
                                                        phòng
                                                                                                                                                                            0123456789101112131415161718192021
                                                            Đặt ngay
                                                            Xác nhận ngay
                                                                    HILLSIDE - Deluxe TWIN Garden View
                                                                        Điều kiện hủy phòng
                                                        Thêm người/ thêm giường từ T6 - T7: 795.000đThêm người/ thêm giường từ CN - T5: 550.000đThêm người/ thêm giường giai đoạn Lễ, Tết vui lòng liên hệ để biết thêm chi tiết.Chính sách trẻ em : Đối với trẻ em từ 24 tháng tuổi trở xuống: miễn phí giường phụ (nôi), được phục vụ theo nhu cầu của khách và tùy theo tiện ích sẵn có của ResortTrẻ em dưới 12 tuổi ở chung với bố mẹ: sử dụng miễn phí giường sẵn có trong phòng (Tối đa02 trẻ em ngủ cùng giường với bố mẹ) Trẻ em từ 12 tuổi trở lên: tính như người lớn phụ thu ngày thường 550.000/ khách, cuối tuần 795.000/ khách- Phụ thu phí ăn sáng: (Áp dụng theo giá niêm yết tại Resort)+ Trẻ em cao dưới 1m00 : miễn phí phụ thu này.+ Trẻ em cao từ 1m00 đến 1m20: phụ thu phiếu ăn sáng trẻ em+Trẻ em cao từ 1m20 trở lên: phụ thu phiếu ăn sáng người lớn- Giá đêm 31.12.2016 đã bao gồm bữa tối bắt buộc*** Phụ thu đêm 31.12.2016 :+Phụ thu extra bed và ăn sáng:Người lớn và bé từ 12 tuổi trở lên: 795,000VNDTrẻ em (5 - 11 tuổi): 210,000VND (không bao gồm extra bed)Trẻ em (dưới 5 tuổi): Miễn phí+Phụ thu vé Gala DinnerNgười lớn và bé từ 12 tuổi trở lên: 790,000VND/kháchTrẻ em từ 5 - 11 tuổi: 395.000đ/vé (nữa giá vé người lớn) giá bán cho khách.Trẻ em dưới 5 tuổi sẽ được vé tiệc Gala.
 
 
                                                        phòng
                                                                                                                                                                            01234567891011
                                                            Đặt ngay
                                                            Xác nhận ngay
                                                                    SEASIDE - Deluxe DOUBLE Garden View
                                                                        Điều kiện hủy phòng
                                                        Thêm người/ thêm giường từ T6 - T7: 795.000đThêm người/ thêm giường từ CN - T5: 550.000đThêm người/ thêm giường giai đoạn Lễ, Tết vui lòng liên hệ để biết thêm chi tiết.Chính sách trẻ em : Đối với trẻ em từ 24 tháng tuổi trở xuống: miễn phí giường phụ (nôi), được phục vụ theo nhu cầu của khách và tùy theo tiện ích sẵn có của ResortTrẻ em dưới 12 tuổi ở chung với bố mẹ: sử dụng miễn phí giường sẵn có trong phòng (Tối đa02 trẻ em ngủ cùng giường với bố mẹ) Trẻ em từ 12 tuổi trở lên: tính như người lớn phụ thu ngày thường 550.000/ khách, cuối tuần 795.000/ khách- Phụ thu phí ăn sáng: (Áp dụng theo giá niêm yết tại Resort)+ Trẻ em cao dưới 1m00 : miễn phí phụ thu này.+ Trẻ em cao từ 1m00 đến 1m20: phụ thu phiếu ăn sáng trẻ em+Trẻ em cao từ 1m20 trở lên: phụ thu phiếu ăn sáng người lớn- Giá đêm 31.12.2016 đã bao gồm bữa tối bắt buộc*** Phụ thu đêm 31.12.2016 :+Phụ thu extra bed và ăn sáng:Người lớn và bé từ 12 tuổi trở lên: 795,000VNDTrẻ em (5 - 11 tuổi): 210,000VND (không bao gồm extra bed)Trẻ em (dưới 5 tuổi): Miễn phí+Phụ thu vé Gala DinnerNgười lớn và bé từ 12 tuổi trở lên: 790,000VND/kháchTrẻ em từ 5 - 11 tuổi: 395.000đ/vé (nữa giá vé người lớn) giá bán cho khách.Trẻ em dưới 5 tuổi sẽ được vé tiệc Gala.
 
 
                                                        phòng
                                                                                                                                                                            012345
                                                            Đặt ngay
                                                            Xác nhận ngay
                                    Tiện nghi Lan Rừng Resort & Spa Vũng Tàu 
                                                Đưa đón khách sạn sân bay
                                                Bữa sáng miễn phí
                                                Bể bơi ngoài trời
                                                Bãi đỗ xe
                                                Cửa hàng lưu niệm
                                                Internet
                                                Phòng họp
                                                Phòng hút thuốc
                                                Phòng tập thể thao
                                                Thêm giường phụ
                                                Truyền hình cáp/vệ tinh
                                                Wifi miễn phí
                                                Giặt là
                                                Hỗ trợ đặt tour
                                                Nhà hàng
                                                Quán cafe
                                                Thuê xe, taxi
                                                Tiếp tân 24/24
                                                Trông trẻ
                                                Gia đình
                                                Massage
                                                Spa
                                                Tắm hơi
                                Ghi chú: Ăn sáng miễn phí (nếu có) có thể thay đổi theo phòng và ngày
                                    Chính sách Lan Rừng Resort & Spa Vũng Tàu 
                                        Giờ nhận
                                        phòng: 14:00
                                        Giờ trả
                                        phòng: 12:00
            Đánh giá Lan Rừng Resort & Spa Vũng Tàu
                Viết đánh giá
                        Tất cả ( 521 )
                        Công tác ( 1 )
                        Cặp đôi ( 28 )
                        Gia đình ( 78 )
                        Bạn bè ( 16 )
                        Cá nhân ( 396 )
                        Tốt
                        8
                            Tất cả
                    Chi tiết điểm  (từ
                        521
                        nhận xét)
                            Vị trí
                                8
                                    % Complete
                            8
                            Phục vụ
                                8
                                    % Complete
                            8
                            Tiện nghi
                                8
                                    % Complete
                            8
                            Giá cả
                                8
                                    % Complete
                            8
                            Vệ sinh
                                8
                                    % Complete
                            8
                                    “Vào các dịp cuối tuần tôi thường đến Lan Rừng Resort & Spa Vũng Tàu nghỉ dưỡng bởi tôi thích không gian ở đây. Biển đẹp và thoáng, dịch vụ lại tốt, nhân viên phục vụ chu đáo. Căn phòng được trang bị các thiết bị hiện đại, diện tích vừa đủ rộng. Nói chung là tôi hài lòng.
                                    “
                                Phạm hoàng phương linh
                                06/10/2016
                        Tốt
                        8
                            Công tác
                    Chi tiết điểm  (từ
                        1
                        nhận xét)
                            Vị trí
                                8
                                    % Complete
                            8
                            Phục vụ
                                8
                                    % Complete
                            8
                            Tiện nghi
                                8
                                    % Complete
                            8
                            Giá cả
                                8
                                    % Complete
                            8
                            Vệ sinh
                                8
                                    % Complete
                            8
                                    “Phòng resort 4 sao tiện nghi và rất đẹp. Đoàn chúng tôi đã có 1 cuộc hội nghị thành công tốt đẹp + 1 kỳ nghỉ tuyệt vời. Bữa ăn sáng ngon, bãi biển khá đẹp. Nhân viên phục vụ chúng tôi rất nhiệt tình và thân thiện. Cảm ơn Mytour.vn
                                    “
                                Ms Hồng Anh
                                17/03/2014
                        Đánh giá
                        7.8
                            Cặp đôi
                    Chi tiết điểm  (từ
                        28
                        nhận xét)
                            Vị trí
                                8
                                    % Complete
                            8
                            Phục vụ
                                7.8
                                    % Complete
                            7.8
                            Tiện nghi
                                7.8
                                    % Complete
                            7.8
                            Giá cả
                                7.8
                                    % Complete
                            7.8
                            Vệ sinh
                                7.8
                                    % Complete
                            7.8
                                    “Khách sạn khá tốt nhưng phòng hơi nhỏ, mình ở bên khu đồi nên phải đi bộ qua đường tắm biển . Do lúc đặt mình không biết Lan Rưng có phòng bên kia đường. 
                                    “
                                Anh Vo
                                25/10/2015
                        Đánh giá
                        7.7
                            Gia đình
                    Chi tiết điểm  (từ
                        78
                        nhận xét)
                            Vị trí
                                7.7
                                    % Complete
                            7.7
                            Phục vụ
                                7.8
                                    % Complete
                            7.8
                            Tiện nghi
                                7.7
                                    % Complete
                            7.7
                            Giá cả
                                7.8
                                    % Complete
                            7.8
                            Vệ sinh
                                7.7
                                    % Complete
                            7.7
                                    “Nhìn chung là Ok. Phòng hơi nhỏ. Không có bãi tắm riêng
                                    “
                                Nguyễn Văn Đức
                                04/07/2016
                        Đánh giá
                        7.8
                            Bạn bè
                    Chi tiết điểm  (từ
                        16
                        nhận xét)
                            Vị trí
                                7.9
                                    % Complete
                            7.9
                            Phục vụ
                                8
                                    % Complete
                            8
                            Tiện nghi
                                8
                                    % Complete
                            8
                            Giá cả
                                8
                                    % Complete
                            8
                            Vệ sinh
                                8
                                    % Complete
                            8
                                    “Tuy tôi chỉ ở đây một đêm nhưng tôi rất ấn tượng với resort này. Phòng tôi đặt bên đồi nhưng lúc tôi đi được nâng cấp miễn phí lên phòng phía biển và còn được tặng thêm voucher ăn uống tại nhà hàng. Nhân viên rất thân thiện khi giúp tôi chọn những nơi ăn uống giá cả hợp túi tiền và ngon. Tôi sẽ trở lại đây một ngày không xa!
                                    “
                                Ngô Quốc Hùng
                                26/11/2015
                        Tốt
                        8
                            Cá nhân
                    Chi tiết điểm  (từ
                        396
                        nhận xét)
                            Vị trí
                                8.1
                                    % Complete
                            8.1
                            Phục vụ
                                8
                                    % Complete
                            8
                            Tiện nghi
                                8.1
                                    % Complete
                            8.1
                            Giá cả
                                8
                                    % Complete
                            8
                            Vệ sinh
                                8
                                    % Complete
                            8
                                    “Vào các dịp cuối tuần tôi thường đến Lan Rừng Resort & Spa Vũng Tàu nghỉ dưỡng bởi tôi thích không gian ở đây. Biển đẹp và thoáng, dịch vụ lại tốt, nhân viên phục vụ chu đáo. Căn phòng được trang bị các thiết bị hiện đại, diện tích vừa đủ rộng. Nói chung là tôi hài lòng.
                                    “
                                Phạm hoàng phương linh
                                06/10/2016
                                Từ ngày mới đến cũ
                                Từ ngày cũ đến mới
                                Điểm từ thấp đến cao
                                Điểm từ cao đến thấp
                                Le Huynh Tuyet Anh
                                04-11-2016
                                            Rất tốt
                                            9
                                        "Resort thoáng đẹp "
                                                Vị trí
                                                    9 .0
                                                Phục vụ
                                                9 .0
                                                Tiện nghi
                                                9 .0
                                                Giá cả
                                                9 .0
                                                Vệ sinh
                                                9 .0
                                                “Lan Rừng resort có không gian đẹp, thoáng và rộng, bờ biển riêng cũng sạch sẽ nhưng bên Hill side thì hơi bất tiện một tí vì phải băng qua đường. Lễ tân tiếp đón khách ok, khu vực ăn uống cũng lịch sự, phòng ở thì sạch sẽ. Tôi hài lòng với dịch vụ, có dịp sẽ quay lại.” 
                                Anh Chinh Pham
                                29-10-2016
                                            Tốt
                                            8
                                        "Phục vụ lịch sự "
                                                Vị trí
                                                    8 .0
                                                Phục vụ
                                                8 .0
                                                Tiện nghi
                                                8 .0
                                                Giá cả
                                                8 .0
                                                Vệ sinh
                                                8 .0
                                                “Đội ngũ nhân viên phục vụ khách hàng một cách lịch sự, thân thiện. Cộng với chất lượng phòng ốc đạt tiêu chuẩn 4 sao, vệ sinh phòng ở kỹ càng, sạch sẽ tinh tươm. Tôi thấy Lan Rừng Resort & Spa Vũng Tàu tốt.” 
                                Hồ Hoàng Phương
                                17-10-2016
                                            Rất tốt
                                            9
                                        "Hài lòng về dịch vụ "
                                                Vị trí
                                                    9 .0
                                                Phục vụ
                                                9 .0
                                                Tiện nghi
                                                9 .0
                                                Giá cả
                                                9 .0
                                                Vệ sinh
                                                9 .0
                                                “Ở Lan Rừng Resort & Spa Vũng Tàu thì có vị trí đẹp, không gian xung quanh cũng thoáng mát, vệ sinh phòng ốc thì sạch sẽ, đầy đủ tiện nghi. Dịch vụ phòng cơ bản là đạt tiêu chuẩn và tương xứng với giá cả, nhân viên cũng nhiệt tình. Các tiện ích cơ bản có đầy đủ. Tuy nhiên, chắc do ở đây nhiều cây cối, nên lúc tôi đi về, thì thấy có rắn ở ngoài hành lang.” 
                                Phạm hoàng phương linh
                                06-10-2016
                                            Tốt
                                            8
                                        "Tôi thường đến đây nghỉ dưỡng "
                                                Vị trí
                                                    8 .0
                                                Phục vụ
                                                8 .0
                                                Tiện nghi
                                                8 .0
                                                Giá cả
                                                8 .0
                                                Vệ sinh
                                                8 .0
                                                “Vào các dịp cuối tuần tôi thường đến Lan Rừng Resort & Spa Vũng Tàu nghỉ dưỡng bởi tôi thích không gian ở đây. Biển đẹp và thoáng, dịch vụ lại tốt, nhân viên phục vụ chu đáo. Căn phòng được trang bị các thiết bị hiện đại, diện tích vừa đủ rộng. Nói chung là tôi hài lòng.” 
                                Dinh Xuan Toan
                                11-09-2016
                                            Rất tốt
                                            9
                                        "Được "
                                                Vị trí
                                                    9 .0
                                                Phục vụ
                                                9 .0
                                                Tiện nghi
                                                9 .0
                                                Giá cả
                                                9 .0
                                                Vệ sinh
                                                9 .0
                                                “Lan Rừng Resort & Spa Vũng Tàu có không gian khá ổn, không khí thoáng mát và điều kiện cơ sở vật chất ở đây cũng đảm bảo. Phòng ốc được trang bị nội thất đẹp, giường ngủ thoải mái và sạch sẽ. Dịch vụ đi kèm đầy đủ, bãi biển tắm tốt. Tuy nhiên, khách sạn nên có biện pháp khắc phục tiếng ồn cho phòng bên cạnh máy bơm nước thì sẽ tốt hơn, như phòng tôi tối máy chạy là không thể ngủ được.” 
                    Xem tất cả đánh giá ( 521 )
                                Đặt phòng ngay giữ giá tốt
                Được đề xuất cho bạn
            Khách sạn 4 sao có cùng tiện nghi
            Có thể bạn muốn xem
                    Khách sạn 4 sao tại Bà Rịa - Vũng Tàu
                        Khách sạn có Đưa đón khách sạn sân bay tại Bà Rịa - Vũng Tàu
                        Khách sạn có nhà hàng tại Bà Rịa - Vũng Tàu
                        Khách sạn có giặt là tại Bà Rịa - Vũng Tàu
            Địa danh ở gần
                                    Mũi Nghinh Phong
                                     ~ 0.36km
                                                                Mũi Nghinh Phong là khu du lịch có ưu thế trước mặt là biển sau lưng là núi. Nơi đây có không khí trong lành và phong cảnh hữu tình với nước biển xanh mát tại bãi biển Ô Quắn. Hãy để Mytour hỗ trợ bạn để có 1 chuyến đi thú vị, tiết kiệm bằng cách đặt phòng khách sạn tại khu vực Mũi Nghinh Phong ngay bây giờ với giá chỉ từ 171.000đ
                                    Tượng chúa Jesus
                                     ~ 0.37km
                                    Tượng Chúa Kitô
                                     ~ 0.37km
                                                                Tượng chúa kitô cao 32m ở Nghinh Phong – Vọng Nguyệt, Bà Rịa - Vũng Tàu. Nhờ bàn tay con người cải tạo mạn cực nam Núi Nhỏ và xây dựng nơi đây một công trình kiến trúc điêu khắc đồ sộ. Hãy để Mytour hỗ trợ bạn để có 1 chuyến đi thú vị, tiết kiệm bằng cách đặt phòng khách sạn tại khu vực Tượng Chúa Kitô ngay bây giờ với giá rẻ nhất.
                                    Bãi Dứa
                                     ~ 0.57km
                                    Mũi Nghinh Phong
                                     ~ 0.79km
                                    Lăng Cá Ông
                                     ~ 1.46km
                                    Miếu Bà Ngũ Hành
                                     ~ 1.47km
                                    Đình thần Thắng Tam
                                     ~ 1.5km
                                    Bến tàu Cánh ngầm
                                     ~ 1.74km
                                    Nhà Thờ Vũng Tàu
                                     ~ 2.18km
                                                                Nhà Thờ Vũng Tàu  là một trong những địa điểm du lịch tâm linh của Vũng Tàu.. Đến với Nhà Thờ Vũng Tàu , du khách có cơ hội tham quan các địa điểm  như núi Tao Phùng, Côn Đảo, Bạch Dinh, Hải Đăng ..Hãy để Mytour hỗ trợ bạn để có 1 chuyến đi thú vị, tiết kiệm bằng cách đặt phòng khách sạn tại khu vực Nhà Thờ Vũng Tàu  ngay bây giờ với giá rẻ nhất.
                                    Cảng Cầu Đá 
                                     ~ 2.27km
                                                                Cầu Đá là một trong những di tích du lịch thu hút số lượng lớn du khách mỗi năm của Vũng Tàu.. Đến với Cầu Đá, du khách có cơ hội tham quan các địa điểm  như núi Tao Phùng, Côn Đảo, Bạch Dinh, Hải Đăng ..Hãy để Mytour hỗ trợ bạn để có 1 chuyến đi thú vị, tiết kiệm bằng cách đặt phòng khách sạn tại khu vực Cầu Đá ngay bây giờ với giá rẻ nhất.
                                    Bãi Tầm Dương (Bãi Trước)
                                     ~ 2.33km
                                                                Là mặt tiền của Vũng Tàu, nằm về hướng tây-nam, còn gọi là bãi Tầm Dương. Bãi Trước như một nửa vành trăng tựa lưng vào đất liền, hai đầu là hai ngọn núi Tương Kỳ và Tao Phùng. Hãy để Mytour hỗ trợ bạn để có 1 chuyến đi thú vị, tiết kiệm bằng cách đặt phòng khách sạn tại khu vực Bãi Tầm Dương (Bãi Trước) ngay bây giờ với giá chỉ từ 171.000đ
                                    Lăng Cá Ông ở Đình Thần Thắng Tam
                                     ~ 2.33km
                                                                Đình thần Thắng Tam ở trên khu đất rộng ở đường Hoàng Hoa Thám, thành phố Vũng Tàu, là quần thể kiến trúc, di tích gồm ba công trình: đình Thắng Tam, miếu Bà và lăng cá Ông. Hãy để Mytour hỗ trợ bạn để có 1 chuyến đi thú vị, tiết kiệm bằng cách đặt phòng khách sạn tại khu vực Lăng Cá Ông ở Đình Thần Thắng Tam ngay bây giờ với giá chỉ từ 171.000đ
                                    Đài liệt sĩ Vũng Tàu 
                                     ~ 2.59km
                                                                Đài liệt sĩ Vũng Tàu ở ngay Bãi Sau, gồm một Đài liệt sĩ nằm giữa vòng xoay và một đền thờ nằm trên đỉnh đồi bên cạnh. Đây là địa điểm vui chơi và hóng mát mỗi chiều của dân địa phương. Hãy để Mytour hỗ trợ bạn để có 1 chuyến đi thú vị, tiết kiệm bằng cách đặt phòng khách sạn tại khu vực Đài liệt sĩ Vũng Tàu ngay bây giờ với giá chỉ từ 309.000đ
                                    Khu du lịch Biển Đông 
                                     ~ 2.7km
                                                                Khu du lịch Biển Đông với chiều dài 750m bờ biển, nằm ngay trung tâm Bãi Sau (bãi tắm Thùy Vân) thành phố biển Vũng Tàu - một trong những bãi biển được xem là đẹp nhất Việt Nam. Hãy để Mytour hỗ trợ bạn để có 1 chuyến đi thú vị, tiết kiệm bằng cách đặt phòng khách sạn tại khu vực Khu du lịch Biển Đông ngay bây giờ với giá chỉ từ 171.000đ
                                    Bãi sau
                                     ~ 2.74km
                                    Bãi Thùy Vân (Bãi Sau)
                                     ~ 2.94km
                                                                Bãi Sau tọa lạc ở phía đông nam thành phố Vũng Tàu, dài khoảng trên 8km từ chân núi Nhỏ đến Cửa Lấp. Đây là một trong những bãi biển du lịch đẹp và lớn nhất của Việt Nam. Hãy để Mytour hỗ trợ bạn để có 1 chuyến đi thú vị, tiết kiệm bằng cách đặt phòng khách sạn tại khu vực Bãi Thùy Vân (Bãi Sau) ngay bây giờ với giá chỉ từ 171.000đ
                                    Sân vận động Lam Sơn
                                     ~ 2.95km
                                                                Sân vận động Lam Sơn ở thành phố Vũng Tàu, du khách thường đến đây vào cuối tuần để xem “môn điền kinh đua chó” có một không hai ở Việt Nam, đây là điểm khác biệt với các sân vận động khác. Hãy để Mytour hỗ trợ bạn để có 1 chuyến đi thú vị, tiết kiệm bằng cách đặt phòng khách sạn tại khu vực Sân vận động Lam Sơn ngay bây giờ với giá chỉ từ 171.000đ
                                    Bạch Dinh
                                     ~ 3.01km
                                    Đền Hùng ở Bến Đình
                                     ~ 3.32km
                                                                Đền Hùng là một địa điểm du lịch tâm linh nổi tiếng Vũng Tàu. Đến với Đền Hùng , du khách có cơ hội tham quan các địa điểm nổi tiếng như Núi Tao Phùng, Hải Đăng Vũng Tàu, Côn Đảo, Bãi Thùy Vân… Hãy để Mytour hỗ trợ bạn để có 1 chuyến đi thú vị, tiết kiệm bằng cách đặt phòng khách sạn tại khu vực Đền Hùng ngay bây giờ với giá rẻ nhất.
                    ×
                                    HILLSIDE - Deluxe DOUBLE Garden View vừa được
                    đặt 8 giờ trước
                ×
                    Chính sách đảm bảo hoàn tiền của mytour
                    Bạn chưa tin tưởng việc đặt phòng khách sạn trực tuyến? Bạn e ngại rằng phòng khách sạn thực tế không đúng với thông tin trên website? Chúng tôi cam kết đưa đầy đủ và chính xác thông tin khách sạn trên website với chính sách “Đảm bảo Hoàn tiền”
                        Nếu khách hàng đặt khách sạn thành công trên Mytour nhưng khách sạn không có phòng, Mytour sẽ hoàn lại tiền cho khách và tặng kèm phiếu giảm giá có giá trị bằng với số tiền khách hàng đã trả.
                        Trong trường hợp loại phòng thực tế không đúng với loại phòng trên đơn hàng, Mytour sẽ quyết định nâng cấp miễn phí hoặc tặng phiếu giảm giá có giá trị bằng với số tiền khách hàng đã trả.
                        Trường hợp các tiện nghi phòng khách sạn (như bữa sáng, wifi…) không đúng với nội dung trên website, Mytour sẽ tặng phiếu giảm giá có giá trị bằng 10% số tiền khách đã trả (tối đa 500,000 VND)
                        Khách hàng cần gọi điện thoại 04-7309 9899 (Hà Nội), 08-7309 9899 (Hồ Chí Minh) hoặc email tới info@mytour.vn và cung cấp mã đơn hàng trong vòng 24 giờ từ lúc nhận phòng để được trợ giúp giải quyết khiếu nại (Hotline chỉ hỗ trợ trong giờ hành chính).
                        Mytour không chịu trách nhiệm bồi thường thiệt hại gián tiếp, ngẫu nhiên, hay do hậu quả phát sinh. Trong mọi trường hợp, trách nhiệm của Mytour không vượt quá tổng số tiền khách hàng thanh toán đặt phòng.
                ×
                    Đảm bảo giá tốt nhất
                    Nếu Thành viên đã đặt một phòng khách sạn được “Đảm Bảo” tại Mytour.vn và sau đó, cho Mytour.vn  thấy rằng Thành viên có thể đặt một phòng tương tự trong cùng khoảng thời gian ở mức giá tốt hơn có thể xem và đặt được trên một website khác, Mytour.vn sẽ giảm giá bằng hoặc thấp hơn mức giá đó.
                    Giá dùng để so sánh là giá sau khi áp dụng mức giảm giá công bố trên website Mytour.vn.
                    Chính sách “Đảm Bảo Giá Tốt Nhất” của Mytour.vn chỉ áp dụng cho các đặt phòng đã được xác nhận và phải thỏa mãn những điều kiện sau:
                Cùng khách sạnCùng thời gian nghỉ lạiCùng loại Phòng/GiườngCùng các yêu cầu mua Trước, yêu cầu trả trước và đặt cọc (nếu có)Cùng chính sách Hủy và Sửa Đổi
                    Phòng đó phải còn trống để được xác nhận ngay tại thời điểm các đại lý của Mytour.vn  kiểm tra phòng trống
                        Chính sách “Đảm Bảo Giá Tốt Nhất” không áp dụng cho các mức giá không công bố, như: chương trình khách hàng thân thiện.
                        Bất kỳ tổ chức nào với các mức giá dành cho nhóm cá nhân cụ thể và không nhằm mục đích áp dụng ra bên ngoài.
                        Thành viên có thể gửi khiếu nại theo địa chỉ : info@mytour.vn
                                Nêu mã đặt phòng Mytour.vn trong dòng tiêu đề thư
                                Gửi URL của website nơi Thành viên tìm thấy mức giá tốt hơn
                                Cung cấp ảnh chụp màn hình của website đối thủ cạnh tranh trong đó nêu rõ Phòng Trống, Loại Phòng, và các mức giá cho những ngày nghỉ lại theo yêu cầu của Thành viên.
                VUI LÒNG LƯU Ý: Thành viên không cần thực hiện đặt phòng trên website của đối thủ cạnh tranh, chỉ cần cho Mytour.vn thấy sự so sánh.
                ×
                Đăng Nhập
                                 Đăng nhập bằng tài khoản Facebook
                                 Đăng nhập bằng tài khoản Google
                            Hoặc đăng nhập bằng
                        Email*
                        Mật khẩu*
                        Quên mật khẩu?
                            Chưa có tài khoản/tạo tài khoản
                Đăng nhập
                         Nhớ đăng nhập
                ×
                Bản đồ
                                            Lan Rừng Resort & Spa Vũng Tàu
                    Tìm đường
                        Từ: 
                        Đến: 
                            Khách sạnĐịa danh Hiển thị các khách sạn ở gần Hiển thị các khu du lịch ở gần
                ×
                Yêu Cầu Lấy Giá
                                    Ngày nhận phòng
                                    Ngày trả phòng
                        Tên khách hàng
                        Email
                        Điện thoại
                        Nhân viên chăm sóc khách hàng sẽ gọi điện cho quý khách trong thời gian sớm nhất.
                        Quý khách có thể gọi điện đến cho Mytour để được tư vấn ngay:
                        Hà Nội: (04) 7109 9999, Hồ Chí Minh: (08) 7309 9899, Support
                            English: (+84)4-7309-9899.
                    Hoàn thành
                ×
                Gửi Thông Tin
                        Tên khách hàng
                        Email
                        Điện thoại
                            Quý khách sẽ thấy giá giảm ngay trên trang sau khi gửi thông tin
                    Hoàn thành
                ×
                Nhận Giá Tốt
                                    Ngày nhận phòng
                                    Ngày trả phòng
                        Tên khách hàng
                        Email
                        Điện thoại
                        Vì giá tốt không được công bố nên hệ thống sẽ gửi giá qua email đến quý khách và nhân viên chăm
                        sóc sẽ gọi điện cho quý khách trong thời gian sớm nhất.
                        Quý khách có thể gọi điện đến cho Mytour để được tư vấn ngay:
                        Hà Nội: (04) 7109 9999, Hồ Chí Minh: (08) 7309 9899, Support
                            English: (+84)4-7309-9899.
                    Hoàn thành
                ×
                ×
                ĐÁNH GIÁ 
                        Tên
                        Tiêu đề
                        Kiểu du lịch?
                                -- Chọn --Cá nhânCặp đôiGia đìnhBạn bèDoanh nghiệp
                        Nội dung
                                Đánh giá chi tiết
                                Chỗ ở
                                5
                                Thức ăn
                                5
                                Phương tiện
                                5
                                Hướng dẫn viên
                                5
                                Lịch trình
                                5
                    Gửi đánh giá
                    Hủy Bỏ
                ×
                Gửi lại email kích hoạt
                ×
                Thông tin chi tiết giá theo phòng
                    Chọn khoảng thời gian hiển thị giá phòng
                    Hiển thị giá
                ×
                Khóa phòng theo khoảng thời gian
                            Chọn khoảng thời gian check-in cần khóa/mở phòng
                            Khóa phòng
                            Mở phòng
                ×
                THUẾ VÀ PHÍ DỊCH VỤ
                17% thuế và phí dịch vụ bao gồm:
                    - 10% thuế và 5% phí dịch vụ hoàn trả lại cho khách sạn.
                    - 2% phí giao dịch tại Mytour.
                ×
                Bạn có hài lòng về website của Mytour?
                    Thông điệp nhắn nhủ:
                Mytour luôn mong muốn cải thiện dịch vụ để bạn có trải nghiệm tốt hơn!
                            Ảnh đính kèm
                        Đóng
                        Gửi
                ×
                    Những đóng góp của bạn đã được ghi nhận. Mytour cám ơn bạn !
                Quay lại website
                            Giới thiệu Mytour
                            Đối tác khách sạn
                            Đăng nhập HMS
                            Tích lũy Vpoint
                            Điều khoản sử dụng
                            Quy chế hoạt động
                            Tuyển dụng
                            Liên hệ
                            Đăng ký nhận email
                                Đăng ký email để nhận khuyến mãi lên đến 70%
                                    Đăng
                                    ký
                    Công ty TNHH Mytour Việt Nam
                    Số ĐKKD: 0105983269 cấp ngày 30/08/2012
                    Văn phòng Hà Nội: Tầng 4, tòa nhà GP Invest, 170 Đê La Thành, Đống Đa
                    Văn phòng HCM: Tầng 5, Tòa Nhà HDTC, Số 36 Bùi Thị Xuân, Q.1
                Hotline
                        Hà Nội:
                        (04) 7109 9999
                        Tp. HCM:
                        (08) 7309 9899
                        ENGLISH SUPPORT:
                        (+84)4 7309 9899
