url:http://mytour.vn/c21/khach-san-tai-quang-ninh.html?page=7
Tittle :Khách sạn Quảng Ninh giá tốt nhất - Mytour.vn - Trang 7
content :Đặt phòng trực tuyến, hoặc gọi
                                                            Hà Nội: (04) 7109 9999
                                                                                        - (04) 7309 9899
                                                            Hồ Chí Minh: (08) 7309 9899
                                                                                        - (08) 7109 9998
                        T2 - CN: 08:00 - 23:00
                    Toggle navigation
                                Bạn không có thông báo nào
                    |
                    ||
                                                            Tài khoản
                        Đăng nhập
                                Đăng kýKhách sạn yêu thích
                            Khách sạn
                            Tour
                            Cẩm nang du lịch
                            Thông tin
                                                Về Mytour
                                                Tin khuyến mãi
                                                Ưu đãi
                                                Hướng dẫn
                                                Liên hệ
                            Tốt nhất 2016
                ×
                Bạn có chắc muốn hủy đơn hàng?
                Lorem ipsum dolor sit amet, consectetur adipisicing elit. Iure corporis repudiandae nobis distinctio
                quae quos, officia modi, ab voluptatem pariatur ducimus mollitia, necessitatibus sed soluta dicta
                repellendus! Praesentium debitis, temporibus?
                    Đồng ý
                    Đóng
                    Khách sạnKhách sạn tại Quảng NinhKhách sạn tại Quảng Ninh - trang 7
                    Áp dụng
                    Đóng
            Tìm Kiếm Khách Sạn
                            Ngày nhận phòng
                            Ngày trả phòng
                    Số đêm
                    Số phòng
                        123456789101112
                    Người lớn
                        123456789101112
                    Tìm khách sạn
                                Bộ lọc tìm kiếm
                                        Theo mức giá
                                                        Dưới 500.000
                                                        500.000 - 1.000.000
                                                        1.000.000 - 1.500.000
                                                        1.500.000 - 2.000.000
                                                        2.000.000 - 2.500.000
                                                        2.500.000 - 3.000.000
                                                        Trên 3.000.000
                                    Hạng Khách Sạn
                                    Loại khách sạn
                                                    Khách sạn
                                                    Resort
                                Tiện nghi
                                                Đưa đón khách sạn sân bay
                                                Bữa sáng miễn phí
                                                Bể bơi ngoài trời
                                                Bãi đỗ xe
                                                Phòng họp
                                                Phòng tập thể thao
                                                Thang máy
                                                Thêm giường phụ
                                                Truyền hình cáp/vệ tinh
                                                Wifi miễn phí
                                                Giặt là
                                                Nhà hàng
                                                Spa
            Quận huyện
                        Hạ Long 
                        Móng Cái 
                        Vân Đồn
                        Uông Bí 
                        Ba Chẽ 
                        Bình Liêu 
                        Cẩm Phả 
                        Cô Tô 
                        Đầm Hà 
                        Đông Triều 
                        Hoành Bồ 
                        Tiên Yên 
                        Yên Hưng 
                        Hải Hà 
            Khu vực
                        Chợ Bãi Cháy
                        Chợ Vĩnh Tuy
                        Bai Chay Beach (  Bãi tắm Bãi Cháy)
                        Chợ Hạ Long
                        Cảng Hòn Gai
                        Đảo Tuần Châu
                        Hạ Long / Bãi Cháy
                        Đảo Quan Lạn
                        Đảo Thanh Lân
                        Đảo Cô Tô
                        Chùa Thánh Mẫu Trà Cổ
             Giá tốt hơn so với đặt phòng trực
            tiếp tại khách sạn
             Đảm bảo 
            giá tốt nhất 
             Đảm bảo 
            hoàn tiền
             Nhân viên chăm sóc, tư vấn nhiều kinh nghiệm
             Hơn 5000 khách sạn tại Việt Nam với
            đánh giá thực
             Nhiều chương trình khuyến mãi và tích lũy điểm
             Thanh toán dễ dàng, đa dạng
                            Khách sạn tại Quảng Ninh
                                     Xem Bản Đồ
                            Quảng Ninh là một địa danh giàu tiềm năng du lịch. Không ai lạ gì với danh thắng Vịnh Hạ Long của nơi đây, ngoài ra còn có những địa danh như quần đảo Vân Đồn, núi Yên Tử không kém phần xinh đẹp. Hãy để Mytour hỗ trợ bạn để có 1 chuyến đi thú vị, tiết kiệm bằng cách đặt phòng khách sạn Quảng Ninh ngay bây giờ với giá tốt nhất.
                                Có 174
                                khách sạn ở
                                đây theo ngày đã chọn
                        Ngày nhận phòng
                        Ngày trả phòng
                Số đêm
                Số phòng
                    123456789101112
                Người lớn
                    123456789101112
                Cập nhật ngày
                             Bộ lọc
                                            Phổ biến nhất
                                     Hạng khách sạn
                                                                                                Hạng sao [5...1]
                                                                                                Hạng sao [1...5]
                                            Đánh giá cao nhất
                                            Khuyến mãi
                                     Giá
                                                                                                Giá tăng dần
                                                                                                Giá giảm dần
                            Sắp xếp:
                            Đánh giá cao nhất
                        Phổ biến nhấtĐánh giá cao nhấtGiá tăng dầnGiá giảm dầnHạng tăng dầnHạng giảm dầnKhuyến mãi
                «
                Trang trước
                    1
                    2
                    ..
                3
                4
                5
                6
                7
                8
                9
                Trang sau
                »
                                Quảng Ninh
                            Đặt phòng khách sạn Quảng Ninh giá tốt nhất tại Mytour.vn, với nhiều khuyến mãi từ website và đơn vị khách sạn tiết kiệm lên đến 70%. Hơn 150.000 đánh giá từ khách hàng đã qua sử dụng khách sạn giúp bạn đưa ra những quyết định tốt nhất cho lựa chọn của mình. Đặc biệt chính sách ĐẢM BẢO HOÀN TIỀN chỉ có tại Mytour.vn, giờ đây bạn có thể hoàn toàn tin tưởng vào dịch vụ đặt phòng trực tuyến.  Ngoài ra, chúng tôi cũng trân trọng giới thiệu đến bạn những khách sạn đoạt giải tại Quảng Ninh trong các hạng mục Best Seller và Top Review trên website Mytour.vn năm 2015. Đây là những khách sạn đạt tiêu chuẩn rất cao và làm hài lòng cả những vị khách khó tính nhất.Với hơn 5.000 khách sạn, resort tại 63 tỉnh/ thành phố, Mytour ngày càng được du khách tin dùng để tìm kiếm khách sạn. Mytour sẽ hỗ trợ quý khách đặt khách sạn Quảng Ninh với chi phí hợp lý để có chuyến đi thật thú vị và tiết kiệm. Ngoài việc cung cấp những khách sạn giá tốt nhất, bạn có còn có thể tìm thấy nhiều thông tin du lịch hữu ích và thú vị khác.  Quảng Ninh là một tỉnh ở địa đầu Ðông Bắc Việt Nam, nằm giữa các kinh độ đông 106º26’-108º31’3’’ và các vĩ độ bắc 20º40’-21º40’, khoảng dài nhất từ đông sang tây là 195km, từ bắc xuống nam là 102km. Phía bắc giáp Quảng Tây (Trung Quốc) với đường biên giới dài 132,8km và tỉnh Lạng Sơn. Phía tây giáp Bắc  Khi đặt khách sạn tại Quảng Ninh, Mytour với hệ thống đặt phòng có hơn 128 khách sạn được trang bị đầy đủ tiện nghi hiện đại cùng với dịch vụ chăm sóc khách hàng hoàn hảo sẽ mang lại cho bạn những trải nghiệm thú vị.  Du lịch Quảng Ninh bạn sẽ được tham quan những thắng cảnh nổi tiếng nơi đây như:     Vịnh Hạ Long: với vẻ đẹp “thoát tục” của vịnh nước trong xanh in bóng những núi đá vôi nhiều hình dáng, những động thạch nhũ tuyệt đẹp, bãi tắm hoang sơ luôn có sức hút đối với mọi du khách trong và ngoài nước. Có hai phương án tham quan vịnh là thuê tàu tại bến (giá từ 1,2 triệu - 1,5 triệu, nếu ghép đoàn thì 250.000 đồng/người) hay du thuyền. Lưu ý không mua hay thưởng thức hải sản tại các bè trên vịnh.  Đảo Cô Tô: Đảo Cô Tô mê hoặc du khách bởi những bãi biển hoang sơ với bờ cát trắng và làn nước trong xanh. Ở đây có đảo Cô Tô lớn, đảo Cô Tô nhỏ, đảo Thanh Lâm, đảo Trần và vô số hòn đảo nhỏ khác... Ngoài tắm biển, du khách còn có thể tham quan rừng tự nhiên, hải đăng, cầu cảng, làng đánh cá, các vịnh biển, bãi đá tự nhiên...  Đảo Tuần Châu: Đảo Tuần Châu nằm ở phía Tây Nam của thành phố Hạ Long. Đây là hòn đảo đất lẫn phiến thạch duy nhất trong 1.969 hòn đảo lớn nhỏ nằm trong điểm kết nối của vùng Di sản thiên nhiên thế giới Hạ Long. Đảo có diện tích khoảng 400ha, được thiên nhiên ban phú cho một điều kiện tự nhiên tuyệt đẹp. Với thảm cát trắng mịn trải dài 6km, làn nước biển trong xanh bao quanh hơn 200 ha rừng thông xanh mướt. Khí hậu mát mẻ quanh năm đón gió biển thổi vào, đảo Tuần Châu xứng đáng là nơi để xây dựng khu du lịch nghỉ dưỡng cao cấp lý tưởng.  Núi Yên Tử: là ngọn núi cao trong dãy núi Đông Triều vùng đông bắc Việt Nam. Núi thuộc xã Thượng Yên Công, thành phố Uông Bí, tỉnh Quảng Ninh. Vốn là là một thắng cảnh thiên nhiên, ngọn Yên Tử còn lưu giữ nhiều di tích lịch sử với mệnh danh "đất tổ Phật giáo Việt Nam". Trên đỉnh núi thường có mây bao phủ nên ngày trước có tên gọi là Bạch Vân Sơn. Tổng chiều dài đường bộ để lên đỉnh Yên Tử (chùa Đồng) là khoảng 6.000m với 6 giờ đi bộ liên tục qua hàng ngàn bậc đá, đường rừng núi... Hành trình lên Yên Tử ngày nay sẽ không vất vả như xưa nữa vì hệ thống cáp treo 1 lên gần Hoa Yên đã hoàn thành năm 2002 và hệ thống cáp treo 2 lên cổng trời (khu vực đỉnh Yên Tử) đã được đưa vào sử dụng từ mùa lễ hội 2008. Yên Tử trở thành trung tâm của Phật giáo từ khi vua Trần Nhân Tông từ bỏ ngai vàng khoác áo cà sa tu hành và thành lập một dòng Phật giáo đặc trưng của Việt Nam, đó là dòng Thiền Trúc Lâm Yên Tử và trở thành vị tổ thứ nhất với pháp danh Điều Ngự Giác Hoàng Trần Nhân Tông 1258-1308. Ông đã cho xây dựng hàng trăm công trình lớn nhỏ trên núi Yên Tử để làm nơi tu hành và truyền kinh, giảng đạo. Sau khi ông qua đời, người kế tục sự nghiệp là Pháp Loa Đồng Kiên Cương (1284-1330), vị tổ thứ hai của dòng Trúc Lâm. Trong 19 năm tu hành, ông đã soạn ra bộ sách Thạch thất mị ngữ và cho xây dựng 800 ngôi chùa, am, tháp lớn nhỏ trong nước với hàng nghìn pho tượng có giá trị, trong đó có những chùa nổi tiếng như Chùa Quỳnh Lâm, chùa Hồ Thiên ở Đông Triều...  Bên cạnh đó, một yếu tố khác thu hút khách du lịch đó chính là nền ẩm thực phong phú và đa dạng. Lưu trú tại Quảng Ninh, quý khách sẽ được thưởng thức đặc sản hải sâm, bào ngư, tôm, cua, sò, ngán, hầu hà, sá sùng, rau câu...  Nếu bạn có kế họach đến nghỉ dưỡng hoặc công tác ở vùng đất Quảng Ninh, hãy để Mytour giúp bạn chuẩn bị 1 chuyến đi dễ dàng, thú vị, và tiết kiệm nhất bạn nhé!  Đến với Mytour.vn, bạn sẽ có cơ hội đặt phòng khách sạn giá rẻ tại Quảng Ninh cùng nhiều chương trình khuyến mại hấp dẫn chỉ dành riêng cho khách hàng Mytour nữa đấy!
            Địa danh ở gần
                                    Vịnh Hạ Long - Quảng Ninh
                                     ~ 0km
                                    Chùa Đồng Yên Tử
                                     ~ 0km
                                    Chùa Cái Bầu - Điểm du lịch tâm linh tại Quảng Ninh
                                     ~ 0km
                                    Bãi Biển Trà Cổ
                                     ~ 0km
                                    Vịnh Bái Tử Long
                                     ~ 0km
                                    Chợ Bình Liêu
                                     ~ 0km
                                    Chợ Móng Cái
                                     ~ 0km
                                    Hang Luồn
                                     ~ 0km
                                    Hồ Ba Hầm
                                     ~ 0km
                                    Hang Hanh
                                     ~ 0km
                                    Thị trấn Ba Chẽ
                                     ~ 0km
                                    Bãi tắm Tình Yêu
                                     ~ 0km
                                    Hồ Tân Bình
                                     ~ 0km
                                    Thị trấn Đầm Hà
                                     ~ 0km
                                    Thị trấn Đông Triều
                                     ~ 0km
                                    Hồ Bến Châu
                                     ~ 0km
                                    Hồ Chúc Bài Sơn
                                     ~ 0km
                                    Thị trấn Quảng Hà
                                     ~ 0km
                                    Thị trấn Trới
                                     ~ 0km
                                    Hồ Cao Vân
                                     ~ 0km
                                    Thị trấn Tiên Yên
                                     ~ 0km
                                    Chùa Cái Bầu
                                     ~ 0km
                                    Thị trấn Cái Rồng
                                     ~ 0km
                                    Bãi tắm Quan Lạn
                                     ~ 0km
                                    Thị trấn Quảng Yên
                                     ~ 0km
                                    Chợ Cốc
                                     ~ 0km
                                    Chùa Lôi Âm
                                     ~ 0km
                                    Ga Hạ Long
                                     ~ 0km
                                    Chợ Bãi Cháy
                                     ~ 0km
                                    Đảo Tuần Châu
                                     ~ 0km
                 Du lịch Quảng Ninh 
                  Những món quà đặc sản không thể bỏ lỡ khi du lịch Hạ Long   Khám phá văn hóa làng chài ở Hạ Long   Phương tiện di chuyển khi du lịch Hạ Long   Du lịch Hạ Long – Mỗi mùa mỗi vẻ   Những thông tin lưu ý cho chuyến du lịch Hạ Long   Chơi gì ở Vịnh Hạ Long?   Những khách sạn lý tưởng cho chuyến du lịch Hạ Long   Những món ăn không thể bỏ qua khi đến Hạ Long   Cẩm nang du lịch Hạ Long từ A đến Z  
                ×
                    Chính sách đảm bảo hoàn tiền của mytour
                    Bạn chưa tin tưởng việc đặt phòng khách sạn trực tuyến? Bạn e ngại rằng phòng khách sạn thực tế không đúng với thông tin trên website? Chúng tôi cam kết đưa đầy đủ và chính xác thông tin khách sạn trên website với chính sách “Đảm bảo Hoàn tiền”
                        Nếu khách hàng đặt khách sạn thành công trên Mytour nhưng khách sạn không có phòng, Mytour sẽ hoàn lại tiền cho khách và tặng kèm phiếu giảm giá có giá trị bằng với số tiền khách hàng đã trả.
                        Trong trường hợp loại phòng thực tế không đúng với loại phòng trên đơn hàng, Mytour sẽ quyết định nâng cấp miễn phí hoặc tặng phiếu giảm giá có giá trị bằng với số tiền khách hàng đã trả.
                        Trường hợp các tiện nghi phòng khách sạn (như bữa sáng, wifi…) không đúng với nội dung trên website, Mytour sẽ tặng phiếu giảm giá có giá trị bằng 10% số tiền khách đã trả (tối đa 500,000 VND)
                        Khách hàng cần gọi điện thoại 04-7309 9899 (Hà Nội), 08-7309 9899 (Hồ Chí Minh) hoặc email tới info@mytour.vn và cung cấp mã đơn hàng trong vòng 24 giờ từ lúc nhận phòng để được trợ giúp giải quyết khiếu nại (Hotline chỉ hỗ trợ trong giờ hành chính).
                        Mytour không chịu trách nhiệm bồi thường thiệt hại gián tiếp, ngẫu nhiên, hay do hậu quả phát sinh. Trong mọi trường hợp, trách nhiệm của Mytour không vượt quá tổng số tiền khách hàng thanh toán đặt phòng.
                ×
                    Đảm bảo giá tốt nhất
                    Nếu Thành viên đã đặt một phòng khách sạn được “Đảm Bảo” tại Mytour.vn và sau đó, cho Mytour.vn  thấy rằng Thành viên có thể đặt một phòng tương tự trong cùng khoảng thời gian ở mức giá tốt hơn có thể xem và đặt được trên một website khác, Mytour.vn sẽ giảm giá bằng hoặc thấp hơn mức giá đó.
                    Giá dùng để so sánh là giá sau khi áp dụng mức giảm giá công bố trên website Mytour.vn.
                    Chính sách “Đảm Bảo Giá Tốt Nhất” của Mytour.vn chỉ áp dụng cho các đặt phòng đã được xác nhận và phải thỏa mãn những điều kiện sau:
                Cùng khách sạnCùng thời gian nghỉ lạiCùng loại Phòng/GiườngCùng các yêu cầu mua Trước, yêu cầu trả trước và đặt cọc (nếu có)Cùng chính sách Hủy và Sửa Đổi
                    Phòng đó phải còn trống để được xác nhận ngay tại thời điểm các đại lý của Mytour.vn  kiểm tra phòng trống
                        Chính sách “Đảm Bảo Giá Tốt Nhất” không áp dụng cho các mức giá không công bố, như: chương trình khách hàng thân thiện.
                        Bất kỳ tổ chức nào với các mức giá dành cho nhóm cá nhân cụ thể và không nhằm mục đích áp dụng ra bên ngoài.
                        Thành viên có thể gửi khiếu nại theo địa chỉ : info@mytour.vn
                                Nêu mã đặt phòng Mytour.vn trong dòng tiêu đề thư
                                Gửi URL của website nơi Thành viên tìm thấy mức giá tốt hơn
                                Cung cấp ảnh chụp màn hình của website đối thủ cạnh tranh trong đó nêu rõ Phòng Trống, Loại Phòng, và các mức giá cho những ngày nghỉ lại theo yêu cầu của Thành viên.
                VUI LÒNG LƯU Ý: Thành viên không cần thực hiện đặt phòng trên website của đối thủ cạnh tranh, chỉ cần cho Mytour.vn thấy sự so sánh.
                ×
                Đăng Nhập
                                 Đăng nhập bằng tài khoản Facebook
                                 Đăng nhập bằng tài khoản Google
                            Hoặc đăng nhập bằng
                        Email*
                        Mật khẩu*
                        Quên mật khẩu?
                            Chưa có tài khoản/tạo tài khoản
                Đăng nhập
                         Nhớ đăng nhập
                ×
                Bản đồ
                                            Quảng Ninh
                    Tìm đường
                        Từ: 
                        Đến: 
                            Khách sạnĐịa danh Hiển thị các khách sạn ở gần Hiển thị các khu du lịch ở gần
                ×
                Yêu Cầu Lấy Giá
                                    Ngày nhận phòng
                                    Ngày trả phòng
                        Tên khách hàng
                        Email
                        Điện thoại
                        Nhân viên chăm sóc khách hàng sẽ gọi điện cho quý khách trong thời gian sớm nhất.
                        Quý khách có thể gọi điện đến cho Mytour để được tư vấn ngay:
                        Hà Nội: (04) 7109 9999, Hồ Chí Minh: (08) 7309 9899, Support
                            English: (+84)4-7309-9899.
                    Hoàn thành
                ×
                Gửi Thông Tin
                        Tên khách hàng
                        Email
                        Điện thoại
                            Quý khách sẽ thấy giá giảm ngay trên trang sau khi gửi thông tin
                    Hoàn thành
                ×
                Nhận Giá Tốt
                                    Ngày nhận phòng
                                    Ngày trả phòng
                        Tên khách hàng
                        Email
                        Điện thoại
                        Vì giá tốt không được công bố nên hệ thống sẽ gửi giá qua email đến quý khách và nhân viên chăm
                        sóc sẽ gọi điện cho quý khách trong thời gian sớm nhất.
                        Quý khách có thể gọi điện đến cho Mytour để được tư vấn ngay:
                        Hà Nội: (04) 7109 9999, Hồ Chí Minh: (08) 7309 9899, Support
                            English: (+84)4-7309-9899.
                    Hoàn thành
                ×
                ×
                ĐÁNH GIÁ 
                        Tên
                        Tiêu đề
                        Kiểu du lịch?
                                -- Chọn --Cá nhânCặp đôiGia đìnhBạn bèDoanh nghiệp
                        Nội dung
                                Đánh giá chi tiết
                                Chỗ ở
                                5
                                Thức ăn
                                5
                                Phương tiện
                                5
                                Hướng dẫn viên
                                5
                                Lịch trình
                                5
                    Gửi đánh giá
                    Hủy Bỏ
                ×
                Gửi lại email kích hoạt
                ×
                Thông tin chi tiết giá theo phòng
                    Chọn khoảng thời gian hiển thị giá phòng
                    Hiển thị giá
                ×
                Khóa phòng theo khoảng thời gian
                            Chọn khoảng thời gian check-in cần khóa/mở phòng
                            Khóa phòng
                            Mở phòng
                ×
                THUẾ VÀ PHÍ DỊCH VỤ
                17% thuế và phí dịch vụ bao gồm:
                    - 10% thuế và 5% phí dịch vụ hoàn trả lại cho khách sạn.
                    - 2% phí giao dịch tại Mytour.
                ×
                Bạn có hài lòng về website của Mytour?
                    Thông điệp nhắn nhủ:
                Mytour luôn mong muốn cải thiện dịch vụ để bạn có trải nghiệm tốt hơn!
                            Ảnh đính kèm
                        Đóng
                        Gửi
                ×
                    Những đóng góp của bạn đã được ghi nhận. Mytour cám ơn bạn !
                Quay lại website
            Khách sạn theo các tỉnh thành
                        An Giang
                        Bà Rịa - Vũng Tàu
                        Bắc Giang
                        Bắc Kạn
                        Bạc Liêu
                        Bắc Ninh
                        Bến Tre
                        Bình Định
                        Bình Dương
                        Bình Phước
                        Bình Thuận
                        Cà Mau
                        Cần Thơ
                        Cao Bằng
                        Đà Lạt
                        Đà Nẵng
                        Đắk Nông
                        Đắk Lắk
                        Điện Biên
                        Đồng Nai
                        Đồng Tháp
                        Gia Lai
                        Hà Giang
                        Hạ Long
                        Hà Nam
                        Hà Nội
                        Hà Tĩnh
                        Hải Dương
                        Hải Phòng
                        Hậu Giang
                        Hồ Chí Minh
                        Hoà Bình
                        Hội An
                        Hưng Yên
                        Khánh Hòa
                        Kiên Giang
                        Kon Tum
                        Lai Châu
                        Lâm Đồng
                        Lạng Sơn
                        Lào Cai
                        Long An
                        Nam Định
                        Nghệ An
                        Nha Trang
                        Ninh Bình
                        Ninh Thuận
                        Phan Thiết
                        Phú Quốc
                        Phú Thọ
                        Phú Yên
                        Quảng Bình
                        Quảng Nam
                        Quảng Ngãi
                        Quảng Ninh
                        Quảng Trị
                        Sa Pa
                        Sóc Trăng
                        Sơn La
                        Tây Ninh
                        Thái Bình
                        Thái Nguyên
                        Thanh Hoá
                        Thành Phố Huế
                        Thừa Thiên Huế
                        Tiền Giang
                        Trà Vinh
                        Tuyên Quang
                        Vĩnh Long
                        Vĩnh Phúc
                        Vũng Tàu
                        Yên Bái
                Du lịch Quảng Ninh
                                Du lịch Hạ Long 
                                Du lịch Vân Đồn
                                Du lịch Cô Tô 
                                Du lịch Uông Bí 
                                Du lịch Cẩm Phả 
                                Du lịch Móng Cái 
                                Du lịch Bình Liêu 
                                Du lịch Đông Triều 
                                Du lịch Yên Hưng 
                                Du lịch Hoành Bồ 
                            Giới thiệu Mytour
                            Đối tác khách sạn
                            Đăng nhập HMS
                            Tích lũy Vpoint
                            Điều khoản sử dụng
                            Quy chế hoạt động
                            Tuyển dụng
                            Liên hệ
                            Đăng ký nhận email
                                Đăng ký email để nhận khuyến mãi lên đến 70%
                                    Đăng
                                    ký
                    Công ty TNHH Mytour Việt Nam
                    Số ĐKKD: 0105983269 cấp ngày 30/08/2012
                    Văn phòng Hà Nội: Tầng 4, tòa nhà GP Invest, 170 Đê La Thành, Đống Đa
                    Văn phòng HCM: Tầng 5, Tòa Nhà HDTC, Số 36 Bùi Thị Xuân, Q.1
                Hotline
                        Hà Nội:
                        (04) 7109 9999
                        Tp. HCM:
                        (08) 7309 9899
                        ENGLISH SUPPORT:
                        (+84)4 7309 9899
