url:http://mytour.vn/
Tittle :Mytour.vn - Đặt phòng khách sạn và resort trực tuyến hàng đầu Việt Nam
content :Đặt phòng trực tuyến, hoặc gọi
                                                            Hà Nội: (04) 7109 9999
                                                                                        - (04) 7309 9899
                                                            Hồ Chí Minh: (08) 7309 9899
                                                                                        - (08) 7109 9998
                        T2 - CN: 08:00 - 23:00
                    Toggle navigation
                                Bạn không có thông báo nào
                    |
                    ||
                                                            Tài khoản
                        Đăng nhập
                                Đăng kýKhách sạn yêu thích
                            Khách sạn
                            Tour
                            Cẩm nang du lịch
                            Thông tin
                                                Về Mytour
                                                Tin khuyến mãi
                                                Ưu đãi
                                                Hướng dẫn
                                                Liên hệ
                            Tốt nhất 2016
                ×
                Bạn có chắc muốn hủy đơn hàng?
                Lorem ipsum dolor sit amet, consectetur adipisicing elit. Iure corporis repudiandae nobis distinctio
                quae quos, officia modi, ab voluptatem pariatur ducimus mollitia, necessitatibus sed soluta dicta
                repellendus! Praesentium debitis, temporibus?
                    Đồng ý
                    Đóng
                            Việt NamNước Ngoài
                                    Tìm Khách sạn
                                    Hơn 5,000 khách sạn khắp Việt Nam
                                            Nơi bạn muốn đến
                                                Điểm đến phổ biến
                                    Đà Nẵng
                                    Hồ Chí Minh
                                    Vũng Tàu
                                    Đà Lạt
                                    Nha Trang
                                    Hà Nội
                                    Phú Quốc
                                    Phan Thiết
                                    Sa Pa
                                    Hội An
                                    Hạ Long
                                    Huế
                                    Cần Thơ
                                    Hải Phòng
                                    Quảng Bình
                                    Ninh Bình
                                                    Ngày nhận phòng
                                                    Ngày trả phòng
                                            Số đêm
                                            Số phòng
                                                123456789101112
                                            Người lớn
                                                123456789101112
                                            Tìm khách sạn
                                    Tìm Khách sạn
                                    1,007,490 chỗ ở trên toàn thế giới
                                            Nơi bạn muốn đến
                                                    Ngày nhận phòng
                                                    Ngày trả phòng
                                            Số đêm
                                            Số phòng
                                                123456789101112
                                            Người lớn
                                                123456789101112
                                            Tìm khách sạn
                    ĐIỂM ĐẾN Phổ biến
                                                                        Hà Nội
                                                                        Hồ Chí Minh
                                                                        Đà Nẵng
                                                                        Vũng Tàu
                                                                        Phan Thiết 
                                                                        Phú Quốc 
                                                                        Nha Trang
                                                                        SaPa 
                                                                        Đà Lạt
                                                                        Hội An
                                                                        Hạ Long 
                                                                        Huế
                             Giá tốt hơn so với đặt
                            phòng trực tiếp tại khách sạn
                             Đảm bảo
                            giá tốt nhất
                             Đảm bảo
                            hoàn tiền
                             Nhân viên chăm sóc, tư vấn nhiều kinh
                            nghiệm
                             Hơn 5000 khách sạn tại
                            Việt Nam với đánh giá thực
                             Nhiều chương trình khuyến mãi và tích lũy
                            điểm
                             Thanh toán dễ dàng, đa
                                dạng
                ×
                    Chính sách đảm bảo hoàn tiền của mytour
                    Bạn chưa tin tưởng việc đặt phòng khách sạn trực tuyến? Bạn e ngại rằng phòng khách sạn thực tế không đúng với thông tin trên website? Chúng tôi cam kết đưa đầy đủ và chính xác thông tin khách sạn trên website với chính sách “Đảm bảo Hoàn tiền”
                        Nếu khách hàng đặt khách sạn thành công trên Mytour nhưng khách sạn không có phòng, Mytour sẽ hoàn lại tiền cho khách và tặng kèm phiếu giảm giá có giá trị bằng với số tiền khách hàng đã trả.
                        Trong trường hợp loại phòng thực tế không đúng với loại phòng trên đơn hàng, Mytour sẽ quyết định nâng cấp miễn phí hoặc tặng phiếu giảm giá có giá trị bằng với số tiền khách hàng đã trả.
                        Trường hợp các tiện nghi phòng khách sạn (như bữa sáng, wifi…) không đúng với nội dung trên website, Mytour sẽ tặng phiếu giảm giá có giá trị bằng 10% số tiền khách đã trả (tối đa 500,000 VND)
                        Khách hàng cần gọi điện thoại 04-7309 9899 (Hà Nội), 08-7309 9899 (Hồ Chí Minh) hoặc email tới info@mytour.vn và cung cấp mã đơn hàng trong vòng 24 giờ từ lúc nhận phòng để được trợ giúp giải quyết khiếu nại (Hotline chỉ hỗ trợ trong giờ hành chính).
                        Mytour không chịu trách nhiệm bồi thường thiệt hại gián tiếp, ngẫu nhiên, hay do hậu quả phát sinh. Trong mọi trường hợp, trách nhiệm của Mytour không vượt quá tổng số tiền khách hàng thanh toán đặt phòng.
                ×
                    Đảm bảo giá tốt nhất
                    Nếu Thành viên đã đặt một phòng khách sạn được “Đảm Bảo” tại Mytour.vn và sau đó, cho Mytour.vn  thấy rằng Thành viên có thể đặt một phòng tương tự trong cùng khoảng thời gian ở mức giá tốt hơn có thể xem và đặt được trên một website khác, Mytour.vn sẽ giảm giá bằng hoặc thấp hơn mức giá đó.
                    Giá dùng để so sánh là giá sau khi áp dụng mức giảm giá công bố trên website Mytour.vn.
                    Chính sách “Đảm Bảo Giá Tốt Nhất” của Mytour.vn chỉ áp dụng cho các đặt phòng đã được xác nhận và phải thỏa mãn những điều kiện sau:
                Cùng khách sạnCùng thời gian nghỉ lạiCùng loại Phòng/GiườngCùng các yêu cầu mua Trước, yêu cầu trả trước và đặt cọc (nếu có)Cùng chính sách Hủy và Sửa Đổi
                    Phòng đó phải còn trống để được xác nhận ngay tại thời điểm các đại lý của Mytour.vn  kiểm tra phòng trống
                        Chính sách “Đảm Bảo Giá Tốt Nhất” không áp dụng cho các mức giá không công bố, như: chương trình khách hàng thân thiện.
                        Bất kỳ tổ chức nào với các mức giá dành cho nhóm cá nhân cụ thể và không nhằm mục đích áp dụng ra bên ngoài.
                        Thành viên có thể gửi khiếu nại theo địa chỉ : info@mytour.vn
                                Nêu mã đặt phòng Mytour.vn trong dòng tiêu đề thư
                                Gửi URL của website nơi Thành viên tìm thấy mức giá tốt hơn
                                Cung cấp ảnh chụp màn hình của website đối thủ cạnh tranh trong đó nêu rõ Phòng Trống, Loại Phòng, và các mức giá cho những ngày nghỉ lại theo yêu cầu của Thành viên.
                VUI LÒNG LƯU Ý: Thành viên không cần thực hiện đặt phòng trên website của đối thủ cạnh tranh, chỉ cần cho Mytour.vn thấy sự so sánh.
                ×
                Đăng Nhập
                                 Đăng nhập bằng tài khoản Facebook
                                 Đăng nhập bằng tài khoản Google
                            Hoặc đăng nhập bằng
                        Email*
                        Mật khẩu*
                        Quên mật khẩu?
                            Chưa có tài khoản/tạo tài khoản
                Đăng nhập
                         Nhớ đăng nhập
                ×
                Bản đồ
                    Tìm đường
                        Từ: 
                        Đến: 
                            Khách sạnĐịa danh Hiển thị các khách sạn ở gần Hiển thị các khu du lịch ở gần
                ×
                Yêu Cầu Lấy Giá
                                    Ngày nhận phòng
                                    Ngày trả phòng
                        Tên khách hàng
                        Email
                        Điện thoại
                        Nhân viên chăm sóc khách hàng sẽ gọi điện cho quý khách trong thời gian sớm nhất.
                        Quý khách có thể gọi điện đến cho Mytour để được tư vấn ngay:
                        Hà Nội: (04) 7109 9999, Hồ Chí Minh: (08) 7309 9899, Support
                            English: (+84)4-7309-9899.
                    Hoàn thành
                ×
                Gửi Thông Tin
                        Tên khách hàng
                        Email
                        Điện thoại
                            Quý khách sẽ thấy giá giảm ngay trên trang sau khi gửi thông tin
                    Hoàn thành
                ×
                Nhận Giá Tốt
                                    Ngày nhận phòng
                                    Ngày trả phòng
                        Tên khách hàng
                        Email
                        Điện thoại
                        Vì giá tốt không được công bố nên hệ thống sẽ gửi giá qua email đến quý khách và nhân viên chăm
                        sóc sẽ gọi điện cho quý khách trong thời gian sớm nhất.
                        Quý khách có thể gọi điện đến cho Mytour để được tư vấn ngay:
                        Hà Nội: (04) 7109 9999, Hồ Chí Minh: (08) 7309 9899, Support
                            English: (+84)4-7309-9899.
                    Hoàn thành
                ×
                ×
                ĐÁNH GIÁ 
                        Tên
                        Tiêu đề
                        Kiểu du lịch?
                                -- Chọn --Cá nhânCặp đôiGia đìnhBạn bèDoanh nghiệp
                        Nội dung
                                Đánh giá chi tiết
                                Chỗ ở
                                5
                                Thức ăn
                                5
                                Phương tiện
                                5
                                Hướng dẫn viên
                                5
                                Lịch trình
                                5
                    Gửi đánh giá
                    Hủy Bỏ
                ×
                Gửi lại email kích hoạt
                ×
                Thông tin chi tiết giá theo phòng
                    Chọn khoảng thời gian hiển thị giá phòng
                    Hiển thị giá
                ×
                Khóa phòng theo khoảng thời gian
                            Chọn khoảng thời gian check-in cần khóa/mở phòng
                            Khóa phòng
                            Mở phòng
                ×
                THUẾ VÀ PHÍ DỊCH VỤ
                17% thuế và phí dịch vụ bao gồm:
                    - 10% thuế và 5% phí dịch vụ hoàn trả lại cho khách sạn.
                    - 2% phí giao dịch tại Mytour.
                ×
                Bạn có hài lòng về website của Mytour?
                    Thông điệp nhắn nhủ:
                Mytour luôn mong muốn cải thiện dịch vụ để bạn có trải nghiệm tốt hơn!
                            Ảnh đính kèm
                        Đóng
                        Gửi
                ×
                    Những đóng góp của bạn đã được ghi nhận. Mytour cám ơn bạn !
                Quay lại website
            Khách sạn theo các tỉnh thành
                        An Giang
                        Bà Rịa - Vũng Tàu
                        Bắc Giang
                        Bắc Kạn
                        Bạc Liêu
                        Bắc Ninh
                        Bến Tre
                        Bình Định
                        Bình Dương
                        Bình Phước
                        Bình Thuận
                        Cà Mau
                        Cần Thơ
                        Cao Bằng
                        Đà Lạt
                        Đà Nẵng
                        Đắk Nông
                        Đắk Lắk
                        Điện Biên
                        Đồng Nai
                        Đồng Tháp
                        Gia Lai
                        Hà Giang
                        Hạ Long
                        Hà Nam
                        Hà Nội
                        Hà Tĩnh
                        Hải Dương
                        Hải Phòng
                        Hậu Giang
                        Hồ Chí Minh
                        Hoà Bình
                        Hội An
                        Hưng Yên
                        Khánh Hòa
                        Kiên Giang
                        Kon Tum
                        Lai Châu
                        Lâm Đồng
                        Lạng Sơn
                        Lào Cai
                        Long An
                        Nam Định
                        Nghệ An
                        Nha Trang
                        Ninh Bình
                        Ninh Thuận
                        Phan Thiết
                        Phú Quốc
                        Phú Thọ
                        Phú Yên
                        Quảng Bình
                        Quảng Nam
                        Quảng Ngãi
                        Quảng Ninh
                        Quảng Trị
                        Sa Pa
                        Sóc Trăng
                        Sơn La
                        Tây Ninh
                        Thái Bình
                        Thái Nguyên
                        Thanh Hoá
                        Thành Phố Huế
                        Thừa Thiên Huế
                        Tiền Giang
                        Trà Vinh
                        Tuyên Quang
                        Vĩnh Long
                        Vĩnh Phúc
                        Vũng Tàu
                        Yên Bái
                        Top khách sạn tại việt nam 
                                    Top khách sạn 1 sao
                                    Top khách sạn 2 sao
                                    Top khách sạn 3 sao
                                    Top khách sạn 4 sao
                                    Top khách sạn 5 sao
                                    Top khách sạn giá rẻ
                                    Top resort
                            Giới thiệu Mytour
                            Đối tác khách sạn
                            Đăng nhập HMS
                            Tích lũy Vpoint
                            Điều khoản sử dụng
                            Quy chế hoạt động
                            Tuyển dụng
                            Liên hệ
                            Đăng ký nhận email
                                Đăng ký email để nhận khuyến mãi lên đến 70%
                                    Đăng
                                    ký
                    Công ty TNHH Mytour Việt Nam
                    Số ĐKKD: 0105983269 cấp ngày 30/08/2012
                    Văn phòng Hà Nội: Tầng 4, tòa nhà GP Invest, 170 Đê La Thành, Đống Đa
                    Văn phòng HCM: Tầng 5, Tòa Nhà HDTC, Số 36 Bùi Thị Xuân, Q.1
                Hotline
                        Hà Nội:
                        (04) 7109 9999
                        Tp. HCM:
                        (08) 7309 9899
                        ENGLISH SUPPORT:
                        (+84)4 7309 9899
