url:http://mytour.vn/261-khach-san-song-huong.html
Tittle :Khách Sạn Sông Hương - Bà Rịa - Vũng Tàu giá tốt nhất - Mytour.vn
content :Đặt phòng trực tuyến, hoặc gọi
                                                            Hà Nội: (04) 7109 9999
                                                                                        - (04) 7309 9899
                                                            Hồ Chí Minh: (08) 7309 9899
                                                                                        - (08) 7109 9998
                        T2 - CN: 08:00 - 23:00
                    Toggle navigation
                                Bạn không có thông báo nào
                    |
                    ||
                                                            Tài khoản
                        Đăng nhập
                                Đăng kýKhách sạn yêu thích
                            Khách sạn
                            Tour
                            Cẩm nang du lịch
                            Thông tin
                                                Về Mytour
                                                Tin khuyến mãi
                                                Ưu đãi
                                                Hướng dẫn
                                                Liên hệ
                            Tốt nhất 2016
                ×
                Bạn có chắc muốn hủy đơn hàng?
                Lorem ipsum dolor sit amet, consectetur adipisicing elit. Iure corporis repudiandae nobis distinctio
                quae quos, officia modi, ab voluptatem pariatur ducimus mollitia, necessitatibus sed soluta dicta
                repellendus! Praesentium debitis, temporibus?
                    Đồng ý
                    Đóng
                    Khách sạnBà Rịa - Vũng TàuVũng TàuKhách sạn gần Bạch DinhKhách Sạn Sông Hương
                    Đóng
            Tìm Kiếm Khách Sạn
                            Ngày nhận phòng
                            Ngày trả phòng
                    Số đêm
                    Số phòng
                        123456789101112
                    Người lớn
                        123456789101112
                    Tìm khách sạn
                Giá tốt hơn so với đặt phòng trực tiếp tại khách sạn
                Đảm bảo 
                giá tốt nhất
                Đảm bảo 
                hoàn tiền
                Nhân viên chăm sóc, tư vấn nhiều kinh nghiệm
                Hơn 5000 khách sạn tại Việt Nam với đánh giá thực
                Nhiều chương trình khuyến mãi và tích lũy điểm
                Thanh toán dễ dàng, đa dạng
                        Khách Sạn Sông Hương
                            (Cung cấp bởi khách sạn)
                                    Tất cả thông tin về tiêu chuẩn khách sạn trên website mytour.vn
                                    là do khách sạn tự cung cấp, chỉ mang tính chất tham khảo và không nhất thiết trùng
                                    hợp với hạng
                                    sao được cấp bởi sở Văn Hoá, Thể thao và du lịch.
                             9 Trương Vĩnh Ký, Vũng Tàu, Bà Rịa - Vũng Tàu 
                                Đặt phòng ngay giữ giá tốt
                                Đã thích
                                        6.6
                                            (17
                                            đánh giá)
                                Giới thiệu về Khách Sạn Sông Hương 
                                    Khách Sạn Sông Hương tọa lạc tại số 9 Trương Vĩnh Ký, Tp. Vũng Tàu. Khách sạn nằm cách Bến xe Vũng Tàu 3 km, Nhà ga cáp treo Núi Lớn 6 km.
Khách Sạn Sông Hương được xây dựng theo tiêu chuẩn 2 sao là một lựa chọn lý tưởng cho quý khách cho dù đi du lịch hay đi công tác với giá cả hợp lí. Các phòng nghỉ tại khách sạn được trang trí theo phong cách hiện đại và hệ thống ánh sáng ấm áp. Khi đặt phòng khách sạn Sông Hương, du khách sẽ được nghỉ ngơi thoải mái sau những ngày làm việc căng thẳng hay tận hưởng những giây phút ấn tượng và khó quên bên gia đình và những người thân yêu.
Tại khách sạn Sông Hương mọi sự cố gắng đều nhằm mục đích khiến cho du khách hài lòng. Để làm được điều đó, khách sạn đã cung cấp dịch vụ và tiện nghi tốt nhất. Khi nghỉ ngơi trong khách sạn tuyệt vời này, khách có thể sử dụng wifi ở khu vực công cộng, phục vụ ăn tại phòng, dịch vụ giặt là/ giặt khô, nhà hàng, phòng tập thể thao, bể bơi ngoài trời… Thêm vào đó, tất cả các phòng đều được đặc biệt trang bị những tiện nghi như vòi hoa sen, tivi, tủ đồ ăn uống nhẹ, để làm hài lòng những vị khách khó tính nhất. Bên cạnh đó, khách sạn còn gợi ý cho bạn những hoạt động vui chơi giải trí bảo đảm bạn luôn thấy hứng thú trong suốt kì nghỉ. Các nhân viên Mytour sẽ rất sẵn lòng tư vấn giúp quý khách lựa chọn và đặt phòng giá rẻ nhất khi quý khách tới đây.
Với vị trí thuận lợi, du khách có thể tự thiết kế riêng cho mình một lịch trình tham quan, nghỉ dưỡng hoặc đặt tour du lịch khám phá các địa danh nổi tiếng tại đây có được chuyến đi đáng nhớ nhất. Quý khách có thể ghé thăm các địa điểm du lịch gần với khách sạn như Lăng Cá Ông, Hòn Bà, Miếu Bà Ngũ Hành, Cáp treo Vũng Tàu… 
Đến với Mytour.vn, quý khách sẽ có cơ hội đặt khách sạn giá rẻ nhất cùng với nhiều chương trình khuyến mại hấp dẫn chỉ dành riêng cho khách hàng của Mytour.
Còn chần chừ gì nữa, hãy nhanh tay đặt phòng trên Mytour và tận hưởng kì nghỉ thú vị của quý khách ngay từ bây giờ nhé!
                                        Xem thêm 
                                Chọn ngày để xem giá và phòng trống
                                    Đảm bảo giá tốt nhất
                                                Ngày nhận phòng
                                                Ngày trả phòng
                                        Số đêm
                                        Số phòng
                                            123456789101112
                                        Người lớn
                                            123456789101112
                                        Cập nhật giá
                                Lưu ý: Vui lòng ẩn "Cập nhật giá" để cập nhật phòng
                                Chọn phòng Khách Sạn Sông Hương
                                                Loại Phòng
                                                Giá 1 đêm
                                                Số phòng
                                                Đặt phòng
                                                                    Deluxe 1 khách
                                                                        Điều kiện hủy phòng
                                                        Giá trên không áp dụng cho ngày lễ tết
Khách ở ghép tính thêm 25% giá phòng
                                                        phòng
                                                                                                                                                                            012345
                                                            Đặt ngay
                                                            Xác nhận ngay
                                                                    Deluxe 2 khách
                                                                        Điều kiện hủy phòng
Giá trên không áp dụng cho ngày lễ tết
Khách ở ghép tính thêm 25% giá phòng
                                                        phòng
                                                                                                                                                                            012345
                                                            Đặt ngay
                                                            Xác nhận ngay
                                                                    Suite 1 khách
                                                                        Điều kiện hủy phòng
                                                        Khách ở ghép tính thêm 25% giá phòng
Giá trên không áp dụng cho ngày lễ tết
                                                        phòng
                                                                                                                                                                            012345
                                                            Đặt ngay
                                                            Xác nhận ngay
                                                                    Suite 2 khách
                                                                        Điều kiện hủy phòng
                                                        phòng
                                                                                                                                                                            012345
                                                            Đặt ngay
                                                            Xác nhận ngay
                                    Tiện nghi Khách Sạn Sông Hương 
                                                Bữa sáng miễn phí
                                                Bể bơi ngoài trời
                                                Bãi đỗ xe
                                                Internet
                                                Phòng hội thảo
                                                Phòng họp
                                                Phòng tập thể thao
                                                Wifi miễn phí
                                                Giặt là
                                                Nhà hàng
                                                Tiếp tân 24/24
                                Ghi chú: Ăn sáng miễn phí (nếu có) có thể thay đổi theo phòng và ngày
                                    Chính sách Khách Sạn Sông Hương 
                                        Giờ nhận
                                        phòng: 14:00
                                        Giờ trả
                                        phòng: 12:00
            Đánh giá Khách Sạn Sông Hương
                Viết đánh giá
                        Tất cả ( 17 )
                        Công tác ( 2 )
                        Cặp đôi ( 6 )
                        Gia đình ( 4 )
                        Bạn bè ( 1 )
                        Cá nhân ( 4 )
                        Đánh giá
                        6.6
                            Tất cả
                    Chi tiết điểm  (từ
                        17
                        nhận xét)
                            Vị trí
                                6.4
                                    % Complete
                            6.4
                            Phục vụ
                                6.4
                                    % Complete
                            6.4
                            Tiện nghi
                                6.3
                                    % Complete
                            6.3
                            Giá cả
                                6.6
                                    % Complete
                            6.6
                            Vệ sinh
                                6.6
                                    % Complete
                            6.6
                                    “Tôi ở lại một đêm tại Song Huong mà nằm phía sau khách sạn rex và khách sạn Hoàng Gia. Trên thực tế, phòng của tôi trên tầng 2 giám sát lối vào spa massage rex. Khách sạn cũ, tuy nhiên, nó là rất sạch sẽ, có một căn phòng rộng rãi, tường ấm cúng để tường trải thảm, đồ nội thất bằng gỗ. Rẻ hơn 30 USD so với khách sạn Hoàng Gia và khách sạn rex, được coi là rẻ. nó có tất cả các kênh truyền hình và nhà hàng tuyệt vời với giá cả hợp lý cho ăn. Vị trí trong vòng chưa đầy 3 phút đi bộ đến quảng trường thị trấn.
                                    “
                                Thanh Ngân
                                17/06/2014
                        Đánh giá
                        5.4
                            Công tác
                    Chi tiết điểm  (từ
                        2
                        nhận xét)
                            Vị trí
                                5
                                    % Complete
                            5
                            Phục vụ
                                5.5
                                    % Complete
                            5.5
                            Tiện nghi
                                5.5
                                    % Complete
                            5.5
                            Giá cả
                                5.5
                                    % Complete
                            5.5
                            Vệ sinh
                                5
                                    % Complete
                            5
                                    “
Khách sạn phục vụ kiểu nhà nước, với giá bình dân. Chúng tôi đến vào dịp 30-4, các khách sạn khác đều đã hết phòng. Phòng ok, chất lượng bình dân. 
                                    “
                                Đông Dương
                                30/04/2013
                        Đánh giá
                        6.8
                            Cặp đôi
                    Chi tiết điểm  (từ
                        6
                        nhận xét)
                            Vị trí
                                6.8
                                    % Complete
                            6.8
                            Phục vụ
                                7
                                    % Complete
                            7
                            Tiện nghi
                                6.5
                                    % Complete
                            6.5
                            Giá cả
                                7
                                    % Complete
                            7
                            Vệ sinh
                                6.7
                                    % Complete
                            6.7
                                    “Đạt yêu cầu của khách sạn, vị trí tốt. Hơi thất vọng về bữa sáng, nhưng may là có quán rượu nhỏ (Bistro 9) bên cạnh, phục vụ thức ăn tuyệt vời từ sáng sớm tất cả các ngày. Nếu bạn xảy ở tại Vũng Tàu vào ngày Thứ Bảy (07:00), phía trước mặt là các cuộc đua chó (Chó săn thỏ), chỉ 2-3 phút đi bộ từ khách sạn, rất thú vị!
                                    “
                                Tiến Phát
                                10/08/2013
                        Đánh giá
                        5.8
                            Gia đình
                    Chi tiết điểm  (từ
                        4
                        nhận xét)
                            Vị trí
                                6
                                    % Complete
                            6
                            Phục vụ
                                5.8
                                    % Complete
                            5.8
                            Tiện nghi
                                5.5
                                    % Complete
                            5.5
                            Giá cả
                                6
                                    % Complete
                            6
                            Vệ sinh
                                7
                                    % Complete
                            7
                                    “Thích hợp cho các chuyến đi kinh doanh hoặc nghỉ ngắn chưa đầy một tuần. Vị trí của khách sạn này tốt: gần bãi biển, gần ga tàu Thành phố Hồ Chí Minh, vệ sinh của căn phòng vẫn ổn.
                                    “
                                Phương Hiếu
                                17/06/2014
                        Đánh giá
                        6
                            Bạn bè
                    Chi tiết điểm  (từ
                        1
                        nhận xét)
                            Vị trí
                                6
                                    % Complete
                            6
                            Phục vụ
                                6
                                    % Complete
                            6
                            Tiện nghi
                                6
                                    % Complete
                            6
                            Giá cả
                                6
                                    % Complete
                            6
                            Vệ sinh
                                6
                                    % Complete
                            6
                                    “Khách sạn nằm gần bến tau cánh ngầm, mất khoảng chưa đến 5 phút đi taxi (26 ngàn). Tiêu chuẩn cũng phù hợp với chất lượng 2 sao. Điều tệ nhất là khi tôi đến nhận phòng, khách sạn đã không dọn dẹp phòng sạch sẽ trước mà giao phòng luôn: cụ thể là trong phòng còn thấy khăn giấy và tăm trên thảm lót sàn nhà, trên thảm còn bụi khá nhiều chứng tỏ chưa hút bụi; toilet thì nước trong bồn cầu chưa được dội,... nói chung khâu chuẩn bị phòng khá qua loa.
                                    “
                                Lan Quỳnh
                                13/11/2013
                        Đánh giá
                        7.7
                            Cá nhân
                    Chi tiết điểm  (từ
                        4
                        nhận xét)
                            Vị trí
                                7.3
                                    % Complete
                            7.3
                            Phục vụ
                                7
                                    % Complete
                            7
                            Tiện nghi
                                7.7
                                    % Complete
                            7.7
                            Giá cả
                                7.7
                                    % Complete
                            7.7
                            Vệ sinh
                                7.5
                                    % Complete
                            7.5
                                    “Không có vấn đề, thật thư giãn. Vị trí tốt cho mua sắm, phòng lớn và yên tĩnh. Vòi sen và vòi sen tốt
                                    “
                                Anh Kiệt
                                17/06/2014
                                Từ ngày mới đến cũ
                                Từ ngày cũ đến mới
                                Điểm từ thấp đến cao
                                Điểm từ cao đến thấp
                                Phương Hiếu
                                17-06-2014
                                            Đánh giá
                                            5.75
                                        "Nơi tốt để nghỉ "
                                                Vị trí
                                                    6 .0
                                                Phục vụ
                                                6 .0
                                                Tiện nghi
                                                5 .0
                                                Giá cả
                                                6 .0
                                                Vệ sinh
                                                0 .0
                                                “Thích hợp cho các chuyến đi kinh doanh hoặc nghỉ ngắn chưa đầy một tuần. Vị trí của khách sạn này tốt: gần bãi biển, gần ga tàu Thành phố Hồ Chí Minh, vệ sinh của căn phòng vẫn ổn.” 
                                Anh Kiệt
                                17-06-2014
                                            Đánh giá
                                            6.6
                                        "Ở lại 10 ngày "
                                                Vị trí
                                                    7 .0
                                                Phục vụ
                                                7 .0
                                                Tiện nghi
                                                6 .0
                                                Giá cả
                                                7 .0
                                                Vệ sinh
                                                6 .0
                                                “Không có vấn đề, thật thư giãn. Vị trí tốt cho mua sắm, phòng lớn và yên tĩnh. Vòi sen và vòi sen tốt” 
                                Thanh Ngân
                                17-06-2014
                                            Rất tốt
                                            9.25
                                        "Sạch, rộng khách sạn cổ "
                                                Vị trí
                                                    9 .0
                                                Phục vụ
                                                0 .0
                                                Tiện nghi
                                                10 .0
                                                Giá cả
                                                9 .0
                                                Vệ sinh
                                                9 .0
                                                “Tôi ở lại một đêm tại Song Huong mà nằm phía sau khách sạn rex và khách sạn Hoàng Gia. Trên thực tế, phòng của tôi trên tầng 2 giám sát lối vào spa massage rex. Khách sạn cũ, tuy nhiên, nó là rất sạch sẽ, có một căn phòng rộng rãi, tường ấm cúng để tường trải thảm, đồ nội thất bằng gỗ. Rẻ hơn 30 USD so với khách sạn Hoàng Gia và khách sạn rex, được coi là rẻ. nó có tất cả các kênh truyền hình và nhà hàng tuyệt vời với giá cả hợp lý cho ăn. Vị trí trong vòng chưa đầy 3 phút đi bộ đến quảng trường thị trấn.” 
                                Vi Vân
                                17-06-2014
                                            Đánh giá
                                            7
                                        "Khách sạn với vị trí tốt "
                                                Vị trí
                                                    7 .0
                                                Phục vụ
                                                7 .0
                                                Tiện nghi
                                                7 .0
                                                Giá cả
                                                7 .0
                                                Vệ sinh
                                                7 .0
                                                “Chúng tôi đến đó vào buổi chiều và thủ tục kiểm tra rất nhanh chóng. Vị trí tốt và nó rất gần với trạm Ferry. Lựa chọn bữa ăn sáng hạn chế với không nhiều món ăn phương Tây. Nhin chung, trải nghiệm này đáng giá” 
                                Lan Quỳnh
                                13-11-2013
                                            Đánh giá
                                            6
                                        "Địa điểm tốt nhưng chất lượng chưa được tốt "
                                                Vị trí
                                                    6 .0
                                                Phục vụ
                                                6 .0
                                                Tiện nghi
                                                6 .0
                                                Giá cả
                                                6 .0
                                                Vệ sinh
                                                6 .0
                                                “Khách sạn nằm gần bến tau cánh ngầm, mất khoảng chưa đến 5 phút đi taxi (26 ngàn). Tiêu chuẩn cũng phù hợp với chất lượng 2 sao. Điều tệ nhất là khi tôi đến nhận phòng, khách sạn đã không dọn dẹp phòng sạch sẽ trước mà giao phòng luôn: cụ thể là trong phòng còn thấy khăn giấy và tăm trên thảm lót sàn nhà, trên thảm còn bụi khá nhiều chứng tỏ chưa hút bụi; toilet thì nước trong bồn cầu chưa được dội,... nói chung khâu chuẩn bị phòng khá qua loa.” 
                    Xem tất cả đánh giá ( 17 )
                                Đặt phòng ngay giữ giá tốt
            Khách hàng đã xem khách sạn này thường tham khảo thêm
                Được đề xuất cho bạn
            Khách sạn 2 sao có cùng tiện nghi
            Có thể bạn muốn xem
                    Khách sạn 2 sao tại Bà Rịa - Vũng Tàu
                        Khách sạn có nhà hàng tại Bà Rịa - Vũng Tàu
                        Khách sạn có giặt là tại Bà Rịa - Vũng Tàu
                        Khách sạn có wifi miễn phí tại Bà Rịa - Vũng Tàu
            Địa danh ở gần
                                    Sân vận động Lam Sơn
                                     ~ 0.33km
                                                                Sân vận động Lam Sơn ở thành phố Vũng Tàu, du khách thường đến đây vào cuối tuần để xem “môn điền kinh đua chó” có một không hai ở Việt Nam, đây là điểm khác biệt với các sân vận động khác. Hãy để Mytour hỗ trợ bạn để có 1 chuyến đi thú vị, tiết kiệm bằng cách đặt phòng khách sạn tại khu vực Sân vận động Lam Sơn ngay bây giờ với giá chỉ từ 171.000đ
                                    Bạch Dinh
                                     ~ 0.43km
                                    Cảng Cầu Đá 
                                     ~ 0.45km
                                                                Cầu Đá là một trong những di tích du lịch thu hút số lượng lớn du khách mỗi năm của Vũng Tàu.. Đến với Cầu Đá, du khách có cơ hội tham quan các địa điểm  như núi Tao Phùng, Côn Đảo, Bạch Dinh, Hải Đăng ..Hãy để Mytour hỗ trợ bạn để có 1 chuyến đi thú vị, tiết kiệm bằng cách đặt phòng khách sạn tại khu vực Cầu Đá ngay bây giờ với giá rẻ nhất.
                                    Bãi Tầm Dương (Bãi Trước)
                                     ~ 0.54km
                                                                Là mặt tiền của Vũng Tàu, nằm về hướng tây-nam, còn gọi là bãi Tầm Dương. Bãi Trước như một nửa vành trăng tựa lưng vào đất liền, hai đầu là hai ngọn núi Tương Kỳ và Tao Phùng. Hãy để Mytour hỗ trợ bạn để có 1 chuyến đi thú vị, tiết kiệm bằng cách đặt phòng khách sạn tại khu vực Bãi Tầm Dương (Bãi Trước) ngay bây giờ với giá chỉ từ 171.000đ
                                    Lăng Cá Ông ở Đình Thần Thắng Tam
                                     ~ 0.54km
                                                                Đình thần Thắng Tam ở trên khu đất rộng ở đường Hoàng Hoa Thám, thành phố Vũng Tàu, là quần thể kiến trúc, di tích gồm ba công trình: đình Thắng Tam, miếu Bà và lăng cá Ông. Hãy để Mytour hỗ trợ bạn để có 1 chuyến đi thú vị, tiết kiệm bằng cách đặt phòng khách sạn tại khu vực Lăng Cá Ông ở Đình Thần Thắng Tam ngay bây giờ với giá chỉ từ 171.000đ
                                    Nhà Thờ Vũng Tàu
                                     ~ 0.57km
                                                                Nhà Thờ Vũng Tàu  là một trong những địa điểm du lịch tâm linh của Vũng Tàu.. Đến với Nhà Thờ Vũng Tàu , du khách có cơ hội tham quan các địa điểm  như núi Tao Phùng, Côn Đảo, Bạch Dinh, Hải Đăng ..Hãy để Mytour hỗ trợ bạn để có 1 chuyến đi thú vị, tiết kiệm bằng cách đặt phòng khách sạn tại khu vực Nhà Thờ Vũng Tàu  ngay bây giờ với giá rẻ nhất.
                                    Đền Hùng ở Bến Đình
                                     ~ 0.74km
                                                                Đền Hùng là một địa điểm du lịch tâm linh nổi tiếng Vũng Tàu. Đến với Đền Hùng , du khách có cơ hội tham quan các địa điểm nổi tiếng như Núi Tao Phùng, Hải Đăng Vũng Tàu, Côn Đảo, Bãi Thùy Vân… Hãy để Mytour hỗ trợ bạn để có 1 chuyến đi thú vị, tiết kiệm bằng cách đặt phòng khách sạn tại khu vực Đền Hùng ngay bây giờ với giá rẻ nhất.
                                    Bến tàu Cánh ngầm
                                     ~ 1.17km
                                    Miếu Bà Ngũ Hành
                                     ~ 1.56km
                                    Đình thần Thắng Tam
                                     ~ 1.58km
                                    Lăng Cá Ông
                                     ~ 1.61km
                                    Đài liệt sĩ Vũng Tàu 
                                     ~ 2.22km
                                                                Đài liệt sĩ Vũng Tàu ở ngay Bãi Sau, gồm một Đài liệt sĩ nằm giữa vòng xoay và một đền thờ nằm trên đỉnh đồi bên cạnh. Đây là địa điểm vui chơi và hóng mát mỗi chiều của dân địa phương. Hãy để Mytour hỗ trợ bạn để có 1 chuyến đi thú vị, tiết kiệm bằng cách đặt phòng khách sạn tại khu vực Đài liệt sĩ Vũng Tàu ngay bây giờ với giá chỉ từ 309.000đ
                                    Bãi Dứa
                                     ~ 2.29km
                                    Trường THPT Trần Nguyên Hãn
                                     ~ 2.42km
                                                                Trường THPT Trần Nguyên Hãn thành lập ở thành phố Vũng Tàu. Ngày nay, trường là cơ sở Giáo dục quốc lập làm nhiệm vụ giáo dục phổ thông trung học cơ sở và trung học phổ thông. Hãy để Mytour hỗ trợ bạn để có 1 chuyến đi thú vị, tiết kiệm bằng cách đặt phòng khách sạn tại khu vực Trường THPT Trần Nguyên Hãn ngay bây giờ với giá chỉ từ 171.000đ
                                    Bãi Dâu
                                     ~ 2.71km
                                    Thích Ca Phật Đài
                                     ~ 2.72km
                                    Khu du lịch Biển Đông 
                                     ~ 2.75km
                                                                Khu du lịch Biển Đông với chiều dài 750m bờ biển, nằm ngay trung tâm Bãi Sau (bãi tắm Thùy Vân) thành phố biển Vũng Tàu - một trong những bãi biển được xem là đẹp nhất Việt Nam. Hãy để Mytour hỗ trợ bạn để có 1 chuyến đi thú vị, tiết kiệm bằng cách đặt phòng khách sạn tại khu vực Khu du lịch Biển Đông ngay bây giờ với giá chỉ từ 171.000đ
                                    Bãi sau
                                     ~ 2.83km
                                    Tượng Chúa KiTo 
                                     ~ 2.86km
                                                                Tượng chúa kitô cao 32m ở Nghinh Phong – Vọng Nguyệt, Bà Rịa - Vũng Tàu. Nhờ bàn tay con người cải tạo mạn cực nam Núi Nhỏ và xây dựng nơi đây một công trình kiến trúc điêu khắc đồ sộ. Hãy để Mytour hỗ trợ bạn để có 1 chuyến đi thú vị, tiết kiệm bằng cách đặt phòng khách sạn tại khu vực Tượng Chúa Kitô ngay bây giờ với giá rẻ nhất.
                                    Tượng Quan Thế Âm Bồ Tát
                                     ~ 2.87km
                ×
                    Chính sách đảm bảo hoàn tiền của mytour
                    Bạn chưa tin tưởng việc đặt phòng khách sạn trực tuyến? Bạn e ngại rằng phòng khách sạn thực tế không đúng với thông tin trên website? Chúng tôi cam kết đưa đầy đủ và chính xác thông tin khách sạn trên website với chính sách “Đảm bảo Hoàn tiền”
                        Nếu khách hàng đặt khách sạn thành công trên Mytour nhưng khách sạn không có phòng, Mytour sẽ hoàn lại tiền cho khách và tặng kèm phiếu giảm giá có giá trị bằng với số tiền khách hàng đã trả.
                        Trong trường hợp loại phòng thực tế không đúng với loại phòng trên đơn hàng, Mytour sẽ quyết định nâng cấp miễn phí hoặc tặng phiếu giảm giá có giá trị bằng với số tiền khách hàng đã trả.
                        Trường hợp các tiện nghi phòng khách sạn (như bữa sáng, wifi…) không đúng với nội dung trên website, Mytour sẽ tặng phiếu giảm giá có giá trị bằng 10% số tiền khách đã trả (tối đa 500,000 VND)
                        Khách hàng cần gọi điện thoại 04-7309 9899 (Hà Nội), 08-7309 9899 (Hồ Chí Minh) hoặc email tới info@mytour.vn và cung cấp mã đơn hàng trong vòng 24 giờ từ lúc nhận phòng để được trợ giúp giải quyết khiếu nại (Hotline chỉ hỗ trợ trong giờ hành chính).
                        Mytour không chịu trách nhiệm bồi thường thiệt hại gián tiếp, ngẫu nhiên, hay do hậu quả phát sinh. Trong mọi trường hợp, trách nhiệm của Mytour không vượt quá tổng số tiền khách hàng thanh toán đặt phòng.
                ×
                    Đảm bảo giá tốt nhất
                    Nếu Thành viên đã đặt một phòng khách sạn được “Đảm Bảo” tại Mytour.vn và sau đó, cho Mytour.vn  thấy rằng Thành viên có thể đặt một phòng tương tự trong cùng khoảng thời gian ở mức giá tốt hơn có thể xem và đặt được trên một website khác, Mytour.vn sẽ giảm giá bằng hoặc thấp hơn mức giá đó.
                    Giá dùng để so sánh là giá sau khi áp dụng mức giảm giá công bố trên website Mytour.vn.
                    Chính sách “Đảm Bảo Giá Tốt Nhất” của Mytour.vn chỉ áp dụng cho các đặt phòng đã được xác nhận và phải thỏa mãn những điều kiện sau:
                Cùng khách sạnCùng thời gian nghỉ lạiCùng loại Phòng/GiườngCùng các yêu cầu mua Trước, yêu cầu trả trước và đặt cọc (nếu có)Cùng chính sách Hủy và Sửa Đổi
                    Phòng đó phải còn trống để được xác nhận ngay tại thời điểm các đại lý của Mytour.vn  kiểm tra phòng trống
                        Chính sách “Đảm Bảo Giá Tốt Nhất” không áp dụng cho các mức giá không công bố, như: chương trình khách hàng thân thiện.
                        Bất kỳ tổ chức nào với các mức giá dành cho nhóm cá nhân cụ thể và không nhằm mục đích áp dụng ra bên ngoài.
                        Thành viên có thể gửi khiếu nại theo địa chỉ : info@mytour.vn
                                Nêu mã đặt phòng Mytour.vn trong dòng tiêu đề thư
                                Gửi URL của website nơi Thành viên tìm thấy mức giá tốt hơn
                                Cung cấp ảnh chụp màn hình của website đối thủ cạnh tranh trong đó nêu rõ Phòng Trống, Loại Phòng, và các mức giá cho những ngày nghỉ lại theo yêu cầu của Thành viên.
                VUI LÒNG LƯU Ý: Thành viên không cần thực hiện đặt phòng trên website của đối thủ cạnh tranh, chỉ cần cho Mytour.vn thấy sự so sánh.
                ×
                Đăng Nhập
                                 Đăng nhập bằng tài khoản Facebook
                                 Đăng nhập bằng tài khoản Google
                            Hoặc đăng nhập bằng
                        Email*
                        Mật khẩu*
                        Quên mật khẩu?
                            Chưa có tài khoản/tạo tài khoản
                Đăng nhập
                         Nhớ đăng nhập
                ×
                Bản đồ
                                            Khách Sạn Sông Hương
                    Tìm đường
                        Từ: 
                        Đến: 
                            Khách sạnĐịa danh Hiển thị các khách sạn ở gần Hiển thị các khu du lịch ở gần
                ×
                Yêu Cầu Lấy Giá
                                    Ngày nhận phòng
                                    Ngày trả phòng
                        Tên khách hàng
                        Email
                        Điện thoại
                        Nhân viên chăm sóc khách hàng sẽ gọi điện cho quý khách trong thời gian sớm nhất.
                        Quý khách có thể gọi điện đến cho Mytour để được tư vấn ngay:
                        Hà Nội: (04) 7109 9999, Hồ Chí Minh: (08) 7309 9899, Support
                            English: (+84)4-7309-9899.
                    Hoàn thành
                ×
                Gửi Thông Tin
                        Tên khách hàng
                        Email
                        Điện thoại
                            Quý khách sẽ thấy giá giảm ngay trên trang sau khi gửi thông tin
                    Hoàn thành
                ×
                Nhận Giá Tốt
                                    Ngày nhận phòng
                                    Ngày trả phòng
                        Tên khách hàng
                        Email
                        Điện thoại
                        Vì giá tốt không được công bố nên hệ thống sẽ gửi giá qua email đến quý khách và nhân viên chăm
                        sóc sẽ gọi điện cho quý khách trong thời gian sớm nhất.
                        Quý khách có thể gọi điện đến cho Mytour để được tư vấn ngay:
                        Hà Nội: (04) 7109 9999, Hồ Chí Minh: (08) 7309 9899, Support
                            English: (+84)4-7309-9899.
                    Hoàn thành
                ×
                ×
                ĐÁNH GIÁ 
                        Tên
                        Tiêu đề
                        Kiểu du lịch?
                                -- Chọn --Cá nhânCặp đôiGia đìnhBạn bèDoanh nghiệp
                        Nội dung
                                Đánh giá chi tiết
                                Chỗ ở
                                5
                                Thức ăn
                                5
                                Phương tiện
                                5
                                Hướng dẫn viên
                                5
                                Lịch trình
                                5
                    Gửi đánh giá
                    Hủy Bỏ
                ×
                Gửi lại email kích hoạt
                ×
                Thông tin chi tiết giá theo phòng
                    Chọn khoảng thời gian hiển thị giá phòng
                    Hiển thị giá
                ×
                Khóa phòng theo khoảng thời gian
                            Chọn khoảng thời gian check-in cần khóa/mở phòng
                            Khóa phòng
                            Mở phòng
                ×
                THUẾ VÀ PHÍ DỊCH VỤ
                17% thuế và phí dịch vụ bao gồm:
                    - 10% thuế và 5% phí dịch vụ hoàn trả lại cho khách sạn.
                    - 2% phí giao dịch tại Mytour.
                ×
                Bạn có hài lòng về website của Mytour?
                    Thông điệp nhắn nhủ:
                Mytour luôn mong muốn cải thiện dịch vụ để bạn có trải nghiệm tốt hơn!
                            Ảnh đính kèm
                        Đóng
                        Gửi
                ×
                    Những đóng góp của bạn đã được ghi nhận. Mytour cám ơn bạn !
                Quay lại website
                            Giới thiệu Mytour
                            Đối tác khách sạn
                            Đăng nhập HMS
                            Tích lũy Vpoint
                            Điều khoản sử dụng
                            Quy chế hoạt động
                            Tuyển dụng
                            Liên hệ
                            Đăng ký nhận email
                                Đăng ký email để nhận khuyến mãi lên đến 70%
                                    Đăng
                                    ký
                    Công ty TNHH Mytour Việt Nam
                    Số ĐKKD: 0105983269 cấp ngày 30/08/2012
                    Văn phòng Hà Nội: Tầng 4, tòa nhà GP Invest, 170 Đê La Thành, Đống Đa
                    Văn phòng HCM: Tầng 5, Tòa Nhà HDTC, Số 36 Bùi Thị Xuân, Q.1
                Hotline
                        Hà Nội:
                        (04) 7109 9999
                        Tp. HCM:
                        (08) 7309 9899
                        ENGLISH SUPPORT:
                        (+84)4 7309 9899
