url:http://mytour.vn/a2725/khach-san-khu-vuc-cho-con.html
Tittle :Khách sạn gần Chợ Cồn  - Đà Nẵng giá tốt nhất - Mytour.vn
content :Đặt phòng trực tuyến, hoặc gọi
                                                            Hà Nội: (04) 7109 9999
                                                                                        - (04) 7309 9899
                                                            Hồ Chí Minh: (08) 7309 9899
                                                                                        - (08) 7109 9998
                        T2 - CN: 08:00 - 23:00
                    Toggle navigation
                                Bạn không có thông báo nào
                    |
                    ||
                                                            Tài khoản
                        Đăng nhập
                                Đăng kýKhách sạn yêu thích
                            Khách sạn
                            Tour
                            Cẩm nang du lịch
                            Thông tin
                                                Về Mytour
                                                Tin khuyến mãi
                                                Ưu đãi
                                                Hướng dẫn
                                                Liên hệ
                            Tốt nhất 2016
                ×
                Bạn có chắc muốn hủy đơn hàng?
                Lorem ipsum dolor sit amet, consectetur adipisicing elit. Iure corporis repudiandae nobis distinctio
                quae quos, officia modi, ab voluptatem pariatur ducimus mollitia, necessitatibus sed soluta dicta
                repellendus! Praesentium debitis, temporibus?
                    Đồng ý
                    Đóng
                    Khách sạnĐà NẵngHải ChâuKhách sạn gần Chợ Cồn 
                    Áp dụng
                    Đóng
            Tìm Kiếm Khách Sạn
                            Ngày nhận phòng
                            Ngày trả phòng
                    Số đêm
                    Số phòng
                        123456789101112
                    Người lớn
                        123456789101112
                    Tìm khách sạn
                                Bộ lọc tìm kiếm
                                        Theo mức giá
                                                        Dưới 500.000
                                                        500.000 - 1.000.000
                                                        1.000.000 - 1.500.000
                                                        1.500.000 - 2.000.000
                                                        2.000.000 - 2.500.000
                                                        2.500.000 - 3.000.000
                                                        Trên 3.000.000
                                    Hạng Khách Sạn
                                    Loại khách sạn
                                                    Khách sạn
                                                    Resort
                                Tiện nghi
                                                Đưa đón khách sạn sân bay
                                                Bữa sáng miễn phí
                                                Bể bơi ngoài trời
                                                Bãi đỗ xe
                                                Phòng họp
                                                Phòng tập thể thao
                                                Thang máy
                                                Thêm giường phụ
                                                Truyền hình cáp/vệ tinh
                                                Wifi miễn phí
                                                Giặt là
                                                Nhà hàng
                                                Spa
            Quận huyện
                        Hải Châu
             Giá tốt hơn so với đặt phòng trực
            tiếp tại khách sạn
             Đảm bảo 
            giá tốt nhất 
             Đảm bảo 
            hoàn tiền
             Nhân viên chăm sóc, tư vấn nhiều kinh nghiệm
             Hơn 5000 khách sạn tại Việt Nam với
            đánh giá thực
             Nhiều chương trình khuyến mãi và tích lũy điểm
             Thanh toán dễ dàng, đa dạng
                            Khách sạn gần Chợ Cồn 
                                     Xem Bản Đồ
                            Chợ Cồn tọa lạc tại phường Hải Châu 1, quận Hải Châu, Đà Nẵng. Từ đây, du khách có cơ hội đến thăm nhiều địa điểm du lịch nổi tiếng như: Đình làng Hải Châu, bảo tàng Hồ Chí Minh, đài tưởng niệm thành phố… Hãy để Mytour hỗ trợ bạn có 1 chuyến đi thú vị, tiết kiệm bằng cách đặt phòng khách sạn Chợ Cồn  ngay bây giờ với giá từ 199,000 VND.
                                Có 330
                                khách sạn ở
                                đây theo ngày đã chọn
                        Ngày nhận phòng
                        Ngày trả phòng
                Số đêm
                Số phòng
                    123456789101112
                Người lớn
                    123456789101112
                Cập nhật ngày
                             Bộ lọc
                                            Phổ biến nhất
                                     Hạng khách sạn
                                                                                                Hạng sao [5...1]
                                                                                                Hạng sao [1...5]
                                            Đánh giá cao nhất
                                            Khuyến mãi
                                     Giá
                                                                                                Giá tăng dần
                                                                                                Giá giảm dần
                            Sắp xếp:
                            Đánh giá cao nhất
                        Phổ biến nhấtĐánh giá cao nhấtGiá tăng dầnGiá giảm dầnHạng tăng dầnHạng giảm dầnKhuyến mãi
                            Khách Sạn Atlantic
                             151 Hồ Nghinh, Phước Mỹ, Sơn Trà, Đà Nẵng 
                            (Xem bản đồ)
                                                ~ 3.05km
                            Công viên Biển Đông
                                        “Khách Sạn Atlantic Đà Nẵng có thiết kế bắt mắt, nội thất sang trọng, trang thiết bị hiện đại, không gian thoáng mát, đội ngũ nhân viên thân thiện. Khách sạn nằm ở trung tâm nên thuận tiện đi lại và th...
                                        “
                                                Đảm bảo hoàn tiền
                                                Đảm bảo giá tốt nhất!
                                                            7.6
                                Đánh giá
                                    (242
                                        đánh giá)
                                Xem phòng
                            Khách Sạn Sea Wonder 
                             55-56 NGUYỄN CÔNG SÁU, P. AN HẢI BẮC, Sơn Trà, Đà Nẵng 
                            (Xem bản đồ)
                                                ~ 2.88km
                            Công viên Biển Đông
                                        “Khách Sạn Sea Wonder Đà Nẵng nằm gần công viên Biển Đông và bãi tắm Phạm Văn Đồng, là điểm đến lý tưởng cho quý khách thích tắm biển. Trang thiết bị hiện đại và được bài trí sang trọng, ấm cúng.
                                        “
                                                Đảm bảo hoàn tiền
                                                Đảm bảo giá tốt nhất!
                                                            8.0
                                Tốt
                                    (70
                                        đánh giá)
                                Xem phòng
                            Khách Sạn Gold 3 Đà Nẵng
                             27 Võ Văn Kiệt, Sơn Trà, Đà Nẵng 
                            (Xem bản đồ)
                                                ~ 3.17km
                            Công viên Biển Đông
                                        “Khách Sạn Gold 3 Đà Nẵng nằm bên bờ sông Hàn thơ mông và gần kề ngay cầu Rồng nổi tiếng của thành phố, view hướng ra cầu Rồng về đêm rất đẹp. Đây sẽ là điểm đến lý tưởng cho du khách.
                                        “
                                                Đảm bảo hoàn tiền
                                                Đảm bảo giá tốt nhất!
                                                            8.1
                                Tốt
                                    (392
                                        đánh giá)
                                Xem phòng
                            Khách Sạn Vĩnh Trung Plaza Apartments 
                             255-257 Hùng Vương, Hải Châu, Đà Nẵng 
                            (Xem bản đồ)
                                                ~ 0.16km
                            Chợ Cồn 
                                        “Khách Sạn Vĩnh Trung Plaza Apartments Đà Nẵng có thiết kế bắt mắt, nội thất được bài trí đơn giản nhưng cực kỳ sang trọng, trang thiết bị hiện đại. Nơi đây trở thành điểm đến vô cùng lý tưởng.
                                        “
                                                Đảm bảo hoàn tiền
                                                Đảm bảo giá tốt nhất!
                                                            7.8
                                Đánh giá
                                    (161
                                        đánh giá)
                                Xem phòng
                            Khách Sạn Dana Sea 
                             Lô 23,25 Loseby, Sơn Trà, Đà Nẵng 
                            (Xem bản đồ)
                                                ~ 2.9km
                            Công viên Biển Đông
                                        Khách sạn bán chạy nhất trên Mytour 2015
                                        “Khách Sạn Dana Sea Đà Nẵng nằm gần bãi tắm Phạm Văn Đồng, thuận tiện cho quý khách thích tắm biển. Phòng ốc sạch sẽ, trang thiết bị hiện đại. Đội ngũ nhân viên khách sạn phục vụ thân thiện và nhiệt tì...
                                        “
                                                Đảm bảo hoàn tiền
                                                Đảm bảo giá tốt nhất!
                                                            7.5
                                Đánh giá
                                    (347
                                        đánh giá)
                                Xem phòng
                            Khách Sạn Royal Star Đà Nẵng
                             17 Quang Trung, Phường Hải Châu 1, Hải Châu, Đà Nẵng 
                            (Xem bản đồ)
                                                ~ 1.12km
                            Cầu Sông Hàn
                                        “Khách Sạn Royal Star Đà Nẵng nằm gần con sông Hàn thơ mộng, dễ dàng đi lại và tham quan. Trang thiết bị hiện đại và không gian ấm cúng. Đội ngũ nhân viên khách sạn phục vụ thân thiện và nhiệt tình.
                                        “
                                                Đảm bảo hoàn tiền
                                                Đảm bảo giá tốt nhất!
                                                            7.3
                                Đánh giá
                                    (84
                                        đánh giá)
                                Xem phòng
                            Khách Sạn Sun River 
                             132-134-136 Bạch Đằng, Phường Hải Châu 1, Hải Châu, Đà Nẵng 
                            (Xem bản đồ)
                                                ~ 1.11km
                            Cầu Sông Hàn
                                        “Khách Sạn Sun River Đà Nẵng nằm ngay bên bờ sông Hàn, view nhìn ra cầu Rồng tuyệt đẹp. Khách sạn sang trọng, tiện nghi và dịch vụ cao cấp. Đội ngũ nhân viên khách sạn phục vụ thân thiện và nhiệt tình....
                                        “
                                                Đảm bảo hoàn tiền
                                                Đảm bảo giá tốt nhất!
                                                            8.2
                                Tốt
                                    (163
                                        đánh giá)
                                Xem phòng
                            Khách Sạn Pacific Đà Nẵng
                             92 Phan Chu Trinh, Hải Châu, Đà Nẵng 
                            (Xem bản đồ)
                                                ~ 0.66km
                            Trung Tâm Thành Phố / Sân Bay
                                        “Khách Sạn Pacific Đà Nẵng nằm ngay trung tâm thành phố, thuận tiện để tham quan. Phòng ốc sạch sẽ, nội thất tiện nghi, hiện đại. Đội ngũ nhân viên khách sạn phục vụ thân thiện và nhiệt tình.
                                        “
                                                Đảm bảo hoàn tiền
                                                Đảm bảo giá tốt nhất!
                                                            7.8
                                Đánh giá
                                    (243
                                        đánh giá)
                                Xem phòng
                            Khách Sạn Green Plaza Đà Nẵng
                             238 Bạch Đằng, Hải Châu, Đà Nẵng 
                            (Xem bản đồ)
                                                ~ 1.08km
                            Trung Tâm Thành Phố / Sân Bay
                                        “Khách Sạn Green Plaza Đà Nẵng nằm bên bờ sông Hàn thơ mộng, khung cảnh về đêm nhìn ra cầu Rồng hết sức ấn tượng, đảm bảo bạn sẽ thấy hài lòng. Đội ngũ nhân viên khách sạn phục vụ thân thiện và nhiệt t...
                                        “
                                                Đảm bảo hoàn tiền
                                                Đảm bảo giá tốt nhất!
                                                            7.7
                                Đánh giá
                                    (99
                                        đánh giá)
                                Xem phòng
                            Khách Sạn Bloom Đà Nẵng
                             204 Đường 3-2, Sông Hàn, Hải Châu, Đà Nẵng 
                            (Xem bản đồ)
                                                ~ 2.18km
                            Vịnh Đà Nẵng
                                        “Khách Sạn Bloom Đà Nẵng có đội ngũ nhân viên thân thiện, luôn vui vẻ phục vụ quý khách. Không gian lãng mạn và ấm cúng, trang thiết bị đầy đủ. Khách sạn nằm ở trung tâm nên thuận tiện đi lại và tham q...
                                        “
                                                Đảm bảo hoàn tiền
                                                Đảm bảo giá tốt nhất!
                                                            7.8
                                Đánh giá
                                    (87
                                        đánh giá)
                                Xem phòng
                            Khách Sạn Golden Sea 
                             198 Phạm Văn Đồng, Sơn Trà, Đà Nẵng 
                            (Xem bản đồ)
                                                ~ 2.46km
                            Công viên Biển Đông
                                        “Khách Sạn Golden Sea Đà Nẵng nằm ngay con đường huyết mạch Phạm Văn Đồng, thuận tiện để tham quan lẫn vui chơi tại bờ biển xinh đẹp. Đội ngũ nhân viên khách sạn phục vụ thân thiện và nhiệt tình.
                                        “
                                                Đảm bảo hoàn tiền
                                                Đảm bảo giá tốt nhất!
                                                            7.8
                                Đánh giá
                                    (87
                                        đánh giá)
                                Xem phòng
                            Khách Sạn Đà Nẵng Riverside
                             A 30, Trần Hưng Đạo, Sơn Trà, Đà Nẵng 
                            (Xem bản đồ)
                                                ~ 1.82km
                            Cầu Rồng
                                        “Khách Sạn Đà Nẵng Riverside nằm bên bờ sông Hàn thơ mông và gần kề ngay cầu Rồng nổi tiếng của thành phố, view hướng ra cầu Rồng về đêm rất đẹp. Đội ngũ nhân viên khách sạn phục vụ thân thiện và nhiệt...
                                        “
                                                Đảm bảo hoàn tiền
                                                Đảm bảo giá tốt nhất!
                                                            7.8
                                Đánh giá
                                    (87
                                        đánh giá)
                                Xem phòng
                            Khách Sạn Beautiful Beach (Trường Sơn Tùng 1 cũ ) 
                             Lô B2.2, 13-15 Khu dân cư 2 mở rộng, Phước Mỹ, Sơn Trà, Đà Nẵng 
                            (Xem bản đồ)
                                                ~ 3.26km
                            Công viên Biển Đông
                                        “Khách Sạn Trường Sơn Tùng 1 Đà Nẵng nằm ngay công viên Biển Đông và bãi tắm Phạm Văn Đồng nổi tiếng, bạn sẽ có dịp vui chơi thỏa thích tại đây. Cùng trang thiết bị hiện đại, sẽ làm hài lòng du khách....
                                        “
                                                Đảm bảo hoàn tiền
                                                Đảm bảo giá tốt nhất!
                                                            7.7
                                Đánh giá
                                    (218
                                        đánh giá)
                                Xem phòng
                            Khách Sạn ILY 
                             168 Hồ Nghinh,Phường An Hải Bắc, Sơn Trà, Đà Nẵng 
                            (Xem bản đồ)
                                                ~ 3.1km
                            Công viên Biển Đông
                                        “Khách Sạn Jimmy Đà Nẵng có thiết kế phong cách dành cho gia đình, không gian ấm cúng, trang thiết bị đầy đủ và hiện đại. Khách sạn nằm ở trung tâm nên thuận tiện đi lại và tham quan.
                                        “
                                                Đảm bảo hoàn tiền
                                                Đảm bảo giá tốt nhất!
                                                            7.5
                                Đánh giá
                                    (115
                                        đánh giá)
                                Xem phòng
                            Khách Sạn Hoàng Long Đà Nẵng
                             104 Đường 3 Tháng 2, Sông Hàn, Hải Châu, Đà Nẵng 
                            (Xem bản đồ)
                                                ~ 2.08km
                            Nhà Thờ Thanh Đức
                                        “Khách Sạn Hoàng Long Đà Nẵng nằm ở phía Bắc thành phố, gần cầu Thuận Phước và vịnh Đà Nẵng nguyên sơ. Không gian lãng mạn và ấm cúng. Đội ngũ nhân viên khách sạn phục vụ thân thiện và nhiệt tình.
                                        “
                                                Đảm bảo hoàn tiền
                                                Đảm bảo giá tốt nhất!
                                                            5.5
                                Đánh giá
                                    (3
                                        đánh giá)
                                Xem phòng
                            Khách Sạn Louis
                             121 Hùng Vương, Hải Châu, Đà Nẵng 
                            (Xem bản đồ)
                                                ~ 0.31km
                            Chợ Cồn 
                                        “Khách Sạn Louis Đà Nẵng nằm gần trung tâm thành phố, kề bên sân vận động Chi Lăng. Đội ngũ nhân viên khách sạn thân thiện và chuyên nghiệp. Trang thiết bị hiện đại và được bài trí sang trọng, ấm cúng....
                                        “
                                                Đảm bảo hoàn tiền
                                                Đảm bảo giá tốt nhất!
                                                            7.9
                                Đánh giá
                                    (43
                                        đánh giá)
                                Xem phòng
                            Khách Sạn Lotus Đà Nẵng
                             64 Lê Lợi, Hải Châu, Đà Nẵng 
                            (Xem bản đồ)
                                                ~ 1.26km
                            Nhà Thờ Thanh Đức
                                        “Khách Sạn Lotus Đà Nẵng nằm gần con sông Hàn thơ mộng và không quá xa trung tâm, thuận tiện để đi lại và tham quan cầu sông Hàn hay cầu Rồng. Đội ngũ nhân viên khách sạn phục vụ thân thiện và nhiệt tì...
                                        “
                                                Đảm bảo hoàn tiền
                                                Đảm bảo giá tốt nhất!
                                                            6.6
                                Đánh giá
                                    (1
                                        đánh giá)
                                Xem phòng
                            Khách Sạn Thanh Long
                             130 Điện Biên Phủ, Thanh Khê, Đà Nẵng 
                            (Xem bản đồ)
                                                ~ 1.62km
                            Ga Đà Nẵng
                                        “Khách Sạn Thanh Long Đà Nẵng nằm gần sân bay quốc tế Đà Nẵng, thuận tiện cho du khách đến tham quan và du lịch, thiết kế phòng đơn giản mà ấm cúng. Đội ngũ nhân viên khách sạn phục vụ thân thiện và nh...
                                        “
                                                Đảm bảo hoàn tiền
                                                Đảm bảo giá tốt nhất!
                                                            6.2
                                Đánh giá
                                    (13
                                        đánh giá)
                                Xem phòng
                            Khách Sạn Long Anh 
                             11 Lê Đình Lý, Hải Châu, Đà Nẵng 
                            (Xem bản đồ)
                                                ~ 1.07km
                            Chùa Bát Nhã 
                                        “Khách Sạn Long Anh Đà Nẵng nằm ngay trung tâm thành phố và sân bay Quốc tế Đà Nẵng, đội ngũ nhân viên chuyên nghiệp, thân thiện và nhiệt tình. Trang thiết bị hiện đại và được bài trí sang trọng, ấm cú...
                                        “
                                                Đảm bảo hoàn tiền
                                                Đảm bảo giá tốt nhất!
                                                            8.0
                                Tốt
                                    (1
                                        đánh giá)
                                Xem phòng
                            Khách Sạn Duy Anh
                             27 Nguyễn Văn Linh, Hải Châu, Đà Nẵng 
                            (Xem bản đồ)
                                                ~ 0.8km
                            Chùa Bát Nhã 
                                        “Khách Sạn Duy Anh Đà Nẵng nằm gần trung tâm thành phố, ngay trên tuyến đường chính Nguyễn Văn Linh, thuận tiện cho quý khách đi lại và tham quan. Đội ngũ nhân viên khách sạn phục vụ thân thiện và nhiệ...
                                        “
                                                Đảm bảo hoàn tiền
                                                Đảm bảo giá tốt nhất!
                                                            7.4
                                Đánh giá
                                    (6
                                        đánh giá)
                                Xem phòng
                «
                Trang trước
                1
                2
                3
                4
                5
                6
                7
                8
                    ..
                    16
                    17
                Trang sau
                »
                                Chợ Cồn 
                            Với hơn 5.000 khách sạn, resort tại 63 tỉnh/ thành phố, Mytour ngày càng được du khách tin dùng để tìm kiếm khách sạn. Mytour sẽ hỗ trợ quý khách đặt khách san Chợ Cồn với chi phí hợp lý để có chuyến đi thật thú vị và tiết kiệm. Ngoài việc cung cấp những khách sạn giá tốt nhất, bạn còn có thể tìm thấy nhiều thông tin du lịch hữu ích và thú vị khác.  Đặt phòng khách sạn Chợ Cồn giá tốt nhất tại Mytour.vn, với nhiều khuyến mãi từ website và đơn vị khách sạn tiết kiệm lên đến 70%. Hơn 150.000 đánh giá từ khách hàng đã qua sử dụng khách sạn giúp bạn đưa ra những quyết định tốt nhất cho lựa chọn của mình. Đặc biệt chính sách ĐẢM BẢO HOÀN TIỀN chỉ có tại Mytour.vn, giờ đây bạn có thể hoàn toàn tin tưởng vào dịch vụ đặt phòng trực tuyến.  Chợ Cồn là một khu chợ đã có từ lâu đời, được hình thành từ năm 1940, tọa lạc tại phường Hải Châu 1, quận Hải Châu, thành phố Đà Nẵng. Chợ Cồn mở cửa từ sáng đến tối, vào tất cả các ngảy trong tuần để phục vụ người dân địa phương và du khách tới đây mua sắm, nơi đây nổi tiếng với những món đồ ăn vặt tuyệt ngon, đủ sức để níu chân những khách hàng khó tính nhất.  Đến với Hải Châu, bạn sẽ có cơ hội tham quan các địa danh của quận như: Đình làng Hải Châu, cổ việc chàm, bảo tàng Hồ Chí Minh, bảo tàng điêu khắc Chăm, đài tưởng niệm thành phố, bạn sẽ ngỡ ngàng bởi kiến trúc tinh xảo của nhà thờ Chánh Tòa… Hàng năm thu hút hàng trăm ngàn lượt khách tới đây tham quan, vãn cảnh và khám phá.  Bạn còn chần chừ gì nữa, hãy mau đặt tour Đà Nẵng vừa tìm hiểu nét độc đáo văn hóa kết hợp du ngoạn  những thắng cảnh đẹp nơi đây….  Du lịch Đà Nẵng, du khách sẽ có những trải nghiệm thú vị và đáng nhớ. Bạn còn chần chừ gì nữa, hãy nhanh tay đặt phòng khách sạn Hải Châu qua hệ thống trực tuyến của mytour để hưởng những ưu đãi lớn từ mytour và tận hưởng kỳ nghỉ trọn vẹn, ý nghĩa và khó quên bên người thân và bạn bè bạn bạn nhé!
                ×
                    Chính sách đảm bảo hoàn tiền của mytour
                    Bạn chưa tin tưởng việc đặt phòng khách sạn trực tuyến? Bạn e ngại rằng phòng khách sạn thực tế không đúng với thông tin trên website? Chúng tôi cam kết đưa đầy đủ và chính xác thông tin khách sạn trên website với chính sách “Đảm bảo Hoàn tiền”
                        Nếu khách hàng đặt khách sạn thành công trên Mytour nhưng khách sạn không có phòng, Mytour sẽ hoàn lại tiền cho khách và tặng kèm phiếu giảm giá có giá trị bằng với số tiền khách hàng đã trả.
                        Trong trường hợp loại phòng thực tế không đúng với loại phòng trên đơn hàng, Mytour sẽ quyết định nâng cấp miễn phí hoặc tặng phiếu giảm giá có giá trị bằng với số tiền khách hàng đã trả.
                        Trường hợp các tiện nghi phòng khách sạn (như bữa sáng, wifi…) không đúng với nội dung trên website, Mytour sẽ tặng phiếu giảm giá có giá trị bằng 10% số tiền khách đã trả (tối đa 500,000 VND)
                        Khách hàng cần gọi điện thoại 04-7309 9899 (Hà Nội), 08-7309 9899 (Hồ Chí Minh) hoặc email tới info@mytour.vn và cung cấp mã đơn hàng trong vòng 24 giờ từ lúc nhận phòng để được trợ giúp giải quyết khiếu nại (Hotline chỉ hỗ trợ trong giờ hành chính).
                        Mytour không chịu trách nhiệm bồi thường thiệt hại gián tiếp, ngẫu nhiên, hay do hậu quả phát sinh. Trong mọi trường hợp, trách nhiệm của Mytour không vượt quá tổng số tiền khách hàng thanh toán đặt phòng.
                ×
                    Đảm bảo giá tốt nhất
                    Nếu Thành viên đã đặt một phòng khách sạn được “Đảm Bảo” tại Mytour.vn và sau đó, cho Mytour.vn  thấy rằng Thành viên có thể đặt một phòng tương tự trong cùng khoảng thời gian ở mức giá tốt hơn có thể xem và đặt được trên một website khác, Mytour.vn sẽ giảm giá bằng hoặc thấp hơn mức giá đó.
                    Giá dùng để so sánh là giá sau khi áp dụng mức giảm giá công bố trên website Mytour.vn.
                    Chính sách “Đảm Bảo Giá Tốt Nhất” của Mytour.vn chỉ áp dụng cho các đặt phòng đã được xác nhận và phải thỏa mãn những điều kiện sau:
                Cùng khách sạnCùng thời gian nghỉ lạiCùng loại Phòng/GiườngCùng các yêu cầu mua Trước, yêu cầu trả trước và đặt cọc (nếu có)Cùng chính sách Hủy và Sửa Đổi
                    Phòng đó phải còn trống để được xác nhận ngay tại thời điểm các đại lý của Mytour.vn  kiểm tra phòng trống
                        Chính sách “Đảm Bảo Giá Tốt Nhất” không áp dụng cho các mức giá không công bố, như: chương trình khách hàng thân thiện.
                        Bất kỳ tổ chức nào với các mức giá dành cho nhóm cá nhân cụ thể và không nhằm mục đích áp dụng ra bên ngoài.
                        Thành viên có thể gửi khiếu nại theo địa chỉ : info@mytour.vn
                                Nêu mã đặt phòng Mytour.vn trong dòng tiêu đề thư
                                Gửi URL của website nơi Thành viên tìm thấy mức giá tốt hơn
                                Cung cấp ảnh chụp màn hình của website đối thủ cạnh tranh trong đó nêu rõ Phòng Trống, Loại Phòng, và các mức giá cho những ngày nghỉ lại theo yêu cầu của Thành viên.
                VUI LÒNG LƯU Ý: Thành viên không cần thực hiện đặt phòng trên website của đối thủ cạnh tranh, chỉ cần cho Mytour.vn thấy sự so sánh.
                ×
                Đăng Nhập
                                 Đăng nhập bằng tài khoản Facebook
                                 Đăng nhập bằng tài khoản Google
                            Hoặc đăng nhập bằng
                        Email*
                        Mật khẩu*
                        Quên mật khẩu?
                            Chưa có tài khoản/tạo tài khoản
                Đăng nhập
                         Nhớ đăng nhập
                ×
                Bản đồ
                                            Chợ Cồn 
                    Tìm đường
                        Từ: 
                        Đến: 
                            Khách sạnĐịa danh Hiển thị các khách sạn ở gần Hiển thị các khu du lịch ở gần
                ×
                Yêu Cầu Lấy Giá
                                    Ngày nhận phòng
                                    Ngày trả phòng
                        Tên khách hàng
                        Email
                        Điện thoại
                        Nhân viên chăm sóc khách hàng sẽ gọi điện cho quý khách trong thời gian sớm nhất.
                        Quý khách có thể gọi điện đến cho Mytour để được tư vấn ngay:
                        Hà Nội: (04) 7109 9999, Hồ Chí Minh: (08) 7309 9899, Support
                            English: (+84)4-7309-9899.
                    Hoàn thành
                ×
                Gửi Thông Tin
                        Tên khách hàng
                        Email
                        Điện thoại
                            Quý khách sẽ thấy giá giảm ngay trên trang sau khi gửi thông tin
                    Hoàn thành
                ×
                Nhận Giá Tốt
                                    Ngày nhận phòng
                                    Ngày trả phòng
                        Tên khách hàng
                        Email
                        Điện thoại
                        Vì giá tốt không được công bố nên hệ thống sẽ gửi giá qua email đến quý khách và nhân viên chăm
                        sóc sẽ gọi điện cho quý khách trong thời gian sớm nhất.
                        Quý khách có thể gọi điện đến cho Mytour để được tư vấn ngay:
                        Hà Nội: (04) 7109 9999, Hồ Chí Minh: (08) 7309 9899, Support
                            English: (+84)4-7309-9899.
                    Hoàn thành
                ×
                ×
                ĐÁNH GIÁ 
                        Tên
                        Tiêu đề
                        Kiểu du lịch?
                                -- Chọn --Cá nhânCặp đôiGia đìnhBạn bèDoanh nghiệp
                        Nội dung
                                Đánh giá chi tiết
                                Chỗ ở
                                5
                                Thức ăn
                                5
                                Phương tiện
                                5
                                Hướng dẫn viên
                                5
                                Lịch trình
                                5
                    Gửi đánh giá
                    Hủy Bỏ
                ×
                Gửi lại email kích hoạt
                ×
                Thông tin chi tiết giá theo phòng
                    Chọn khoảng thời gian hiển thị giá phòng
                    Hiển thị giá
                ×
                Khóa phòng theo khoảng thời gian
                            Chọn khoảng thời gian check-in cần khóa/mở phòng
                            Khóa phòng
                            Mở phòng
                ×
                THUẾ VÀ PHÍ DỊCH VỤ
                17% thuế và phí dịch vụ bao gồm:
                    - 10% thuế và 5% phí dịch vụ hoàn trả lại cho khách sạn.
                    - 2% phí giao dịch tại Mytour.
                ×
                Bạn có hài lòng về website của Mytour?
                    Thông điệp nhắn nhủ:
                Mytour luôn mong muốn cải thiện dịch vụ để bạn có trải nghiệm tốt hơn!
                            Ảnh đính kèm
                        Đóng
                        Gửi
                ×
                    Những đóng góp của bạn đã được ghi nhận. Mytour cám ơn bạn !
                Quay lại website
                Du lịch Chợ Cồn 
                                Du lịch Du hí Đà Nẵng mà không cần có hướng dẫn viên du lịch
                                Du lịch 5 lý do tại sao bạn không nên đến Đà Nẵng
                                Du lịch Chùa Tam Bảo - Đà Nẵng
                                Du lịch Thành phố Đà Nẵng
                                Du lịch Chùa phổ Đà - Đà Nẵng
                                Du lịch Top 9 cây cầu độc đáo nhất hành tinh
                                Du lịch Những nơi có cảnh quan ngỡ như không phải Việt Nam
                                Du lịch Nhà hát Trưng Vương
                                Du lịch Những bức tranh non nước hữu tình say lòng người ở Đà Nẵng
                                Du lịch Thiên Cảnh Ngầm Đôi
                            Giới thiệu Mytour
                            Đối tác khách sạn
                            Đăng nhập HMS
                            Tích lũy Vpoint
                            Điều khoản sử dụng
                            Quy chế hoạt động
                            Tuyển dụng
                            Liên hệ
                            Đăng ký nhận email
                                Đăng ký email để nhận khuyến mãi lên đến 70%
                                    Đăng
                                    ký
                    Công ty TNHH Mytour Việt Nam
                    Số ĐKKD: 0105983269 cấp ngày 30/08/2012
                    Văn phòng Hà Nội: Tầng 4, tòa nhà GP Invest, 170 Đê La Thành, Đống Đa
                    Văn phòng HCM: Tầng 5, Tòa Nhà HDTC, Số 36 Bùi Thị Xuân, Q.1
                Hotline
                        Hà Nội:
                        (04) 7109 9999
                        Tp. HCM:
                        (08) 7309 9899
                        ENGLISH SUPPORT:
                        (+84)4 7309 9899
