url:http://mytour.vn/c40/khach-san-4-sao-tai-long-an.html
Tittle :Khách sạn 4 sao tại Long An giá tốt nhất - Mytour.vn
content :Đặt phòng trực tuyến, hoặc gọi
                                                            Hà Nội: (04) 7109 9999
                                                                                        - (04) 7309 9899
                                                            Hồ Chí Minh: (08) 7309 9899
                                                                                        - (08) 7109 9998
                        T2 - CN: 08:00 - 23:00
                    Toggle navigation
                                Bạn không có thông báo nào
                    |
                    ||
                                                            Tài khoản
                        Đăng nhập
                                Đăng kýKhách sạn yêu thích
                            Khách sạn
                            Tour
                            Cẩm nang du lịch
                            Thông tin
                                                Về Mytour
                                                Tin khuyến mãi
                                                Ưu đãi
                                                Hướng dẫn
                                                Liên hệ
                            Tốt nhất 2016
                ×
                Bạn có chắc muốn hủy đơn hàng?
                Lorem ipsum dolor sit amet, consectetur adipisicing elit. Iure corporis repudiandae nobis distinctio
                quae quos, officia modi, ab voluptatem pariatur ducimus mollitia, necessitatibus sed soluta dicta
                repellendus! Praesentium debitis, temporibus?
                    Đồng ý
                    Đóng
                    Khách sạnKhách sạn tại Long AnKhách sạn 4 sao tại Long An
                    Áp dụng
                    Đóng
            Tìm Kiếm Khách Sạn
                            Ngày nhận phòng
                            Ngày trả phòng
                    Số đêm
                    Số phòng
                        123456789101112
                    Người lớn
                        123456789101112
                    Tìm khách sạn
                                Bộ lọc tìm kiếm
                                        Theo mức giá
                                                        Dưới 500.000
                                                        500.000 - 1.000.000
                                                        1.000.000 - 1.500.000
                                                        1.500.000 - 2.000.000
                                                        2.000.000 - 2.500.000
                                                        2.500.000 - 3.000.000
                                                        Trên 3.000.000
                                    Hạng Khách Sạn
                                    Loại khách sạn
                                                    Khách sạn
                                                    Resort
                                Tiện nghi
                                                Đưa đón khách sạn sân bay
                                                Bữa sáng miễn phí
                                                Bể bơi ngoài trời
                                                Bãi đỗ xe
                                                Phòng họp
                                                Phòng tập thể thao
                                                Thang máy
                                                Thêm giường phụ
                                                Truyền hình cáp/vệ tinh
                                                Wifi miễn phí
                                                Giặt là
                                                Nhà hàng
                                                Spa
            Quận huyện
                        Thạnh Hóa 
                        Bến Lức 
                        Cần Đước 
                        Cần Giuộc 
                        Châu Thành 
                        Đức Hòa 
                        Đức Huệ 
                        Mộc Hóa 
                        Tân An 
                        Tân Hưng 
                        Tân Thạnh 
                        Tân Trụ 
                        Thủ Thừa 
                        Vĩnh Hưng 
            Khu vực
                        Công viên trung tâm
                        Công viên anh hùng
                        Chùa Thiên Phước
                        Công Viên Sài Gòn
                        Chợ Thủ Thừa
                        Trường Tiểu Học Mỹ An
                        Công viên Tân Trụ
                        Chợ Tầm Vu
                        Bến phà Long Sơn
                        Công viên chủ đề Happyland
                        Khu dân cư Newlife Long Kim
                        chợ Gò Đen
                        Bến đò Nhựt Ninh
                        Nhà Thờ Thuận Mỹ
                        Chợ Mới Rạch Kiến
                        Khu công nghiệp Cầu Tràm
                        Nhà Thờ Lương Bình
                        Chợ Long Thượng
                        Thị trấn Thạnh Hóa
                        Công viên Hồ Nước
                        Câu cá giải trí Gold Fish
                        Bến đò Ngã Năm
                        Nhà trăm cột
                        Khu Di Tích Lịch Sử Ngã Tư Đức Hòa
                        Cầu Thuận Bình
                        Công viên Tân Thạnh
                        Công viên Võ Tấn Đồ
                        Cửa khẩu Mỹ Quý Tây
                        Nhà Thờ Tân Lập
                        Bến xe khách Mộc Hóa
                        Chùa Nổi
                        Thị trấn Vĩnh Hưng
                        Cầu Cả Môn
                        Chợ Tân Hưng
                        Ao cá Đại đội
                        Đền thờ Nguyễn Trung Trực
             Giá tốt hơn so với đặt phòng trực
            tiếp tại khách sạn
             Đảm bảo 
            giá tốt nhất 
             Đảm bảo 
            hoàn tiền
             Nhân viên chăm sóc, tư vấn nhiều kinh nghiệm
             Hơn 5000 khách sạn tại Việt Nam với
            đánh giá thực
             Nhiều chương trình khuyến mãi và tích lũy điểm
             Thanh toán dễ dàng, đa dạng
                            Khách sạn 4 sao tại Long An
                                     Xem Bản Đồ
                            Long An là tỉnh thuộc đồng bằng sông Cửu Long. Long An hấp dẫn du khách bởi nền văn hóa Óc – Eo, cụm di tích lịch sử lâu đời như cụm di tích Bình Tả, di tích cồn Rạch Cát… Hãy để Mytour hỗ trợ bạn để có 1 chuyến đi thú vị, tiết kiệm bằng cách đặt phòng khách sạn 4 sao Long An ngay bây giờ với giá tốt nhất.
                                Có 0
                                khách sạn ở
                                đây theo ngày đã chọn
                        Ngày nhận phòng
                        Ngày trả phòng
                Số đêm
                Số phòng
                    123456789101112
                Người lớn
                    123456789101112
                Cập nhật ngày
                             Bộ lọc
                                            Phổ biến nhất
                                     Hạng khách sạn
                                                                                                Hạng sao [5...1]
                                                                                                Hạng sao [1...5]
                                            Đánh giá cao nhất
                                            Khuyến mãi
                                     Giá
                                                                                                Giá tăng dần
                                                                                                Giá giảm dần
                            Sắp xếp:
                            Đánh giá cao nhất
                        Phổ biến nhấtĐánh giá cao nhấtGiá tăng dầnGiá giảm dầnHạng tăng dầnHạng giảm dầnKhuyến mãi
                            ×
                            Không tìm thấy kết quả nào với các tiêu chí tìm kiếm của bạn.
                                Long An
                            Đặt phòng khách sạn Long An giá tốt nhất tại Mytour.vn, với nhiều khuyến mãi từ website và đơn vị khách sạn tiết kiệm lên đến 70%. Hơn 150.000 đánh giá từ khách hàng đã qua sử dụng khách sạn giúp bạn đưa ra những quyết định tốt nhất cho lựa chọn của mình. Đặc biệt chính sách ĐẢM BẢO HOÀN TIỀN chỉ có tại Mytour.vn, giờ đây bạn có thể hoàn toàn tin tưởng vào dịch vụ đặt phòng trực tuyến.Với hơn 5.000 khách sạn, resort tại 63 tỉnh/ thành phố, Mytour ngày càng được du khách tin dùng để tìm kiếm khách sạn. Mytour sẽ hỗ trợ quý khách đặt khách sạn Long An với chi phí hợp lý để có chuyến đi thật thú vị và tiết kiệm. Ngoài việc cung cấp những khách sạn giá tốt nhất, bạn có còn có thể tìm thấy nhiều thông tin du lịch hữu ích và thú vị khác.  Long An phía bắc giáp tỉnh Tây Ninh và Vương quốc Campuchia trên chiều dài biên giới 137,5 km, phía nam giáp tỉnh Tiền Giang, phía tây giáp tỉnh Đồng Tháp, phía đông giáp Thành phố Hồ Chí Minh. Hình thành và phát triển trên châu thổ sông Cửu Long từ thế kỷ 1 đến thế kỷ 6 sau Công nguyên do tiếp nhận tinh hoa văn hoá Ấn Độ. Gần 20 di tích tiền sử và gần 100 di tích văn hoá Óc Eo đã được phát hiện với 12.000 hiện vật đã thu thập. Ngoài ra Long An có trên 40 di tích lịch sử cách mạng, công trình kiến trúc và danh lam thắng cảnh quan trọng như: cụm di tích Bình Tả (Đức Hoà), di tích lăng mộ và đền thờ Nguyễn Huỳnh Đức (thị xã Long An), di tích đồn Rạch Cát, ngôi nhà trăm cột...  Khi đặt khách sạn tại Long An, Mytour với hệ thống đặt phòng có hơn 10 khách sạn được trang bị đầy đủ tiện nghi hiện đại cùng với dịch vụ chăm sóc khách hàng hoàn hảo sẽ mang lại cho bạn những trải nghiệm thú vị và hài lòng cả những du khách khó tính nhất.  Du lịch Long An bạn sẽ được tham quan những thắng cảnh nổi tiếng nơi đây như:                       Nhà Trăm Cột: Ngôi nhà "trăm cột" ở xã Long Hựu Đông (huyện Cần Đước, Long An) được xây dựng hoàn toàn bằng gỗ từ trước năm 1904. Nhà được làm theo kiểu kiến trúc thời Nguyễn, trong trang trí có nhiều họa tiết mang phong cách phương nam.  Về ấp Trung, xã Long Hựu Đông, huyện Cần Đước (Long An) hỏi thăm nhà trăm cột, không ai là không biết. Nhà hoàn toàn làm bằng gỗ, lợp ngói âm dương. Nhà chính phía trước gần như còn nguyên vẹn. Nối với nhà trước là hai dãy nhà hai bên và sau cùng là lẫm lúa - chiều dọc của nhà đến 42 m, kiểu thức kiến trúc chữ Quốc - ở giữa là sân vuông, mỗi chiều rộng 6m.  Núi Đất: Sở dĩ có tên gọi như vậy vì nó không phải là núi tự nhiên, mà do chính bàn tay của con người đắp nên. Từ thị xã Tân An (Long An) đi theo tỉnh lộ 49 khoảng 65 km đến thị trấn Mộc Hóa, gặp ngã tư Biên Phòng, rẽ trái chừng 500m là gặp Núi Đất. Chưa tới nơi mà gió núi đã phả vào mặt mát lạnh.  Vào những năm 1957 đến 1960, cùng với việc chấn chỉnh địa lý hành chính và xây dựng tỉnh lỵ Kiến Tường ở Mộc Hóa, chính quyền Ngô Đình Diệm đã bắt tù chính trị đào đất xung quanh khu vực này đắp thành những ngọn giả sơn (núi giả)  Cụm di tích Bình Tả: Cụm di tích kiến trúc nghệ thuật và khảo cổ Bình Tả (gồm Gò Xoài, Gò Ðồn và Gò Năm Tước) cách thị xã Tân An 40 km về phía đông bắc, tại ấp Bình Tả, xã Ðức Hoà Hạ, huyện Ðức Hoà, tỉnh Long An.  Nằm trong một quần thể di tích từ thời tiền sử tới sơ sử được phân bố theo các trục lộ cổ và sông Vàm Cỏ Ðông, cụm di tích này thuộc nền văn hoá Óc Eo - Phù Nam có niên đại từ thế kỷ thứ 1 đến thế kỷ thứ 7 sau Công nguyên.  Có ba di tích trong cụm đã được khai quật: di tích Gò Năm Tước, Gò Xoài và Gò Ðồn được phân bố trên một địa bàn tương đối gần nhau. Ngôi đền Gò Xoài nằm ở độ sâu 1,70 - 1,90 m có thể coi là địa điểm hành lễ của dân Phù Nam.  Bên cạnh đó, một yếu tố khác thu hút khách du lịch đó chính là nền ẩm thực phong phú và đa dạng. Lưu trú tại Long An, quý khách sẽ được thưởng thức đặc sản rượu gò đen, cá rô Long An, Mắm còng Cần Giuộc, Đậu phộng Đức Hòa, dưa hấu, cá lóc nướng,  thanh long, trâu nhúng mẻ…  Nếu bạn có kế họach đến nghỉ dưỡng hoặc công tác ở vùng đất Long An, hãy để Mytour giúp bạn chuẩn bị 1 chuyến đi dễ dàng, thú vị, và tiết kiệm nhất bạn nhé!  
            Địa danh ở gần
                                    Tịnh Xá Ngọc Tháp Long An
                                     ~ 0km
                                    Nhà trăm cột Cần Đước
                                     ~ 0.07km
                                                                Nhà trăm cột Cần Đước là địa điểm du lịch nổi tiếng thuộc tỉnh Long An. Đến với Nhà trăm cột Cần Đước, du khách có cơ hội tham quan các địa điểm du lịch như di tích Bình Tả, Chùa Tôn Thạnh... Hãy để Mytour hỗ trợ bạn để có 1 chuyến đi thú vị, tiết kiệm bằng cách đặt phòng khách sạn tại khu vực Nhà trăm cột Cần Đước ngay bây giờ với giá rẻ nhất.
                                    Tịnh Xá Ngọc Tâm 
                                     ~ 1.18km
                                                                Tịnh Xá Ngọc Tâm tọa lạc tại địa phận Tân An, tỉnh Long An. Từ đây, du khách có cơ hội đến thăm nhiều địa điểm du lịch nổi tiếng như: bảo tàng Long An, chùa Long Châu, chùa Thiên Khánh... Hãy để Mytour hỗ trợ bạn để có 1 chuyến đi thú vị, tiết kiệm bằng cách đặt phòng khách sạn khu vực Tịnh Xá Ngọc Tâm bây giờ với giá chỉ từ 280,000 VND.
                                    Khu di tích Bình Tả
                                     ~ 38.42km
                                                                Khu di tích Bình Tả là địa điểm du lịch nổi tiếng thuộc tỉnh Long An. Đến với Khu di tích Bình Tả, du khách có cơ hội tham quan các địa điểm du lịch nổi tiếng như Nhà Trăm Cột, Chùa Tôn Thạnh... Hãy để Mytour hỗ trợ bạn để có 1 chuyến đi thú vị, tiết kiệm bằng cách đặt phòng khách sạn tại khu vực Khu di tích Bình Tả ngay bây giờ với giá rẻ nhất.
                 Du lịch Long An 
                ×
                    Chính sách đảm bảo hoàn tiền của mytour
                    Bạn chưa tin tưởng việc đặt phòng khách sạn trực tuyến? Bạn e ngại rằng phòng khách sạn thực tế không đúng với thông tin trên website? Chúng tôi cam kết đưa đầy đủ và chính xác thông tin khách sạn trên website với chính sách “Đảm bảo Hoàn tiền”
                        Nếu khách hàng đặt khách sạn thành công trên Mytour nhưng khách sạn không có phòng, Mytour sẽ hoàn lại tiền cho khách và tặng kèm phiếu giảm giá có giá trị bằng với số tiền khách hàng đã trả.
                        Trong trường hợp loại phòng thực tế không đúng với loại phòng trên đơn hàng, Mytour sẽ quyết định nâng cấp miễn phí hoặc tặng phiếu giảm giá có giá trị bằng với số tiền khách hàng đã trả.
                        Trường hợp các tiện nghi phòng khách sạn (như bữa sáng, wifi…) không đúng với nội dung trên website, Mytour sẽ tặng phiếu giảm giá có giá trị bằng 10% số tiền khách đã trả (tối đa 500,000 VND)
                        Khách hàng cần gọi điện thoại 04-7309 9899 (Hà Nội), 08-7309 9899 (Hồ Chí Minh) hoặc email tới info@mytour.vn và cung cấp mã đơn hàng trong vòng 24 giờ từ lúc nhận phòng để được trợ giúp giải quyết khiếu nại (Hotline chỉ hỗ trợ trong giờ hành chính).
                        Mytour không chịu trách nhiệm bồi thường thiệt hại gián tiếp, ngẫu nhiên, hay do hậu quả phát sinh. Trong mọi trường hợp, trách nhiệm của Mytour không vượt quá tổng số tiền khách hàng thanh toán đặt phòng.
                ×
                    Đảm bảo giá tốt nhất
                    Nếu Thành viên đã đặt một phòng khách sạn được “Đảm Bảo” tại Mytour.vn và sau đó, cho Mytour.vn  thấy rằng Thành viên có thể đặt một phòng tương tự trong cùng khoảng thời gian ở mức giá tốt hơn có thể xem và đặt được trên một website khác, Mytour.vn sẽ giảm giá bằng hoặc thấp hơn mức giá đó.
                    Giá dùng để so sánh là giá sau khi áp dụng mức giảm giá công bố trên website Mytour.vn.
                    Chính sách “Đảm Bảo Giá Tốt Nhất” của Mytour.vn chỉ áp dụng cho các đặt phòng đã được xác nhận và phải thỏa mãn những điều kiện sau:
                Cùng khách sạnCùng thời gian nghỉ lạiCùng loại Phòng/GiườngCùng các yêu cầu mua Trước, yêu cầu trả trước và đặt cọc (nếu có)Cùng chính sách Hủy và Sửa Đổi
                    Phòng đó phải còn trống để được xác nhận ngay tại thời điểm các đại lý của Mytour.vn  kiểm tra phòng trống
                        Chính sách “Đảm Bảo Giá Tốt Nhất” không áp dụng cho các mức giá không công bố, như: chương trình khách hàng thân thiện.
                        Bất kỳ tổ chức nào với các mức giá dành cho nhóm cá nhân cụ thể và không nhằm mục đích áp dụng ra bên ngoài.
                        Thành viên có thể gửi khiếu nại theo địa chỉ : info@mytour.vn
                                Nêu mã đặt phòng Mytour.vn trong dòng tiêu đề thư
                                Gửi URL của website nơi Thành viên tìm thấy mức giá tốt hơn
                                Cung cấp ảnh chụp màn hình của website đối thủ cạnh tranh trong đó nêu rõ Phòng Trống, Loại Phòng, và các mức giá cho những ngày nghỉ lại theo yêu cầu của Thành viên.
                VUI LÒNG LƯU Ý: Thành viên không cần thực hiện đặt phòng trên website của đối thủ cạnh tranh, chỉ cần cho Mytour.vn thấy sự so sánh.
                ×
                Đăng Nhập
                                 Đăng nhập bằng tài khoản Facebook
                                 Đăng nhập bằng tài khoản Google
                            Hoặc đăng nhập bằng
                        Email*
                        Mật khẩu*
                        Quên mật khẩu?
                            Chưa có tài khoản/tạo tài khoản
                Đăng nhập
                         Nhớ đăng nhập
                ×
                Bản đồ
                                            Long An
                    Tìm đường
                        Từ: 
                        Đến: 
                            Khách sạnĐịa danh Hiển thị các khách sạn ở gần Hiển thị các khu du lịch ở gần
                ×
                Yêu Cầu Lấy Giá
                                    Ngày nhận phòng
                                    Ngày trả phòng
                        Tên khách hàng
                        Email
                        Điện thoại
                        Nhân viên chăm sóc khách hàng sẽ gọi điện cho quý khách trong thời gian sớm nhất.
                        Quý khách có thể gọi điện đến cho Mytour để được tư vấn ngay:
                        Hà Nội: (04) 7109 9999, Hồ Chí Minh: (08) 7309 9899, Support
                            English: (+84)4-7309-9899.
                    Hoàn thành
                ×
                Gửi Thông Tin
                        Tên khách hàng
                        Email
                        Điện thoại
                            Quý khách sẽ thấy giá giảm ngay trên trang sau khi gửi thông tin
                    Hoàn thành
                ×
                Nhận Giá Tốt
                                    Ngày nhận phòng
                                    Ngày trả phòng
                        Tên khách hàng
                        Email
                        Điện thoại
                        Vì giá tốt không được công bố nên hệ thống sẽ gửi giá qua email đến quý khách và nhân viên chăm
                        sóc sẽ gọi điện cho quý khách trong thời gian sớm nhất.
                        Quý khách có thể gọi điện đến cho Mytour để được tư vấn ngay:
                        Hà Nội: (04) 7109 9999, Hồ Chí Minh: (08) 7309 9899, Support
                            English: (+84)4-7309-9899.
                    Hoàn thành
                ×
                ×
                ĐÁNH GIÁ 
                        Tên
                        Tiêu đề
                        Kiểu du lịch?
                                -- Chọn --Cá nhânCặp đôiGia đìnhBạn bèDoanh nghiệp
                        Nội dung
                                Đánh giá chi tiết
                                Chỗ ở
                                5
                                Thức ăn
                                5
                                Phương tiện
                                5
                                Hướng dẫn viên
                                5
                                Lịch trình
                                5
                    Gửi đánh giá
                    Hủy Bỏ
                ×
                Gửi lại email kích hoạt
                ×
                Thông tin chi tiết giá theo phòng
                    Chọn khoảng thời gian hiển thị giá phòng
                    Hiển thị giá
                ×
                Khóa phòng theo khoảng thời gian
                            Chọn khoảng thời gian check-in cần khóa/mở phòng
                            Khóa phòng
                            Mở phòng
                ×
                THUẾ VÀ PHÍ DỊCH VỤ
                17% thuế và phí dịch vụ bao gồm:
                    - 10% thuế và 5% phí dịch vụ hoàn trả lại cho khách sạn.
                    - 2% phí giao dịch tại Mytour.
                ×
                Bạn có hài lòng về website của Mytour?
                    Thông điệp nhắn nhủ:
                Mytour luôn mong muốn cải thiện dịch vụ để bạn có trải nghiệm tốt hơn!
                            Ảnh đính kèm
                        Đóng
                        Gửi
                ×
                    Những đóng góp của bạn đã được ghi nhận. Mytour cám ơn bạn !
                Quay lại website
            Khách sạn theo các tỉnh thành
                        An Giang
                        Bà Rịa - Vũng Tàu
                        Bắc Giang
                        Bắc Kạn
                        Bạc Liêu
                        Bắc Ninh
                        Bến Tre
                        Bình Định
                        Bình Dương
                        Bình Phước
                        Bình Thuận
                        Cà Mau
                        Cần Thơ
                        Cao Bằng
                        Đà Lạt
                        Đà Nẵng
                        Đắk Nông
                        Đắk Lắk
                        Điện Biên
                        Đồng Nai
                        Đồng Tháp
                        Gia Lai
                        Hà Giang
                        Hạ Long
                        Hà Nam
                        Hà Nội
                        Hà Tĩnh
                        Hải Dương
                        Hải Phòng
                        Hậu Giang
                        Hồ Chí Minh
                        Hoà Bình
                        Hội An
                        Hưng Yên
                        Khánh Hòa
                        Kiên Giang
                        Kon Tum
                        Lai Châu
                        Lâm Đồng
                        Lạng Sơn
                        Lào Cai
                        Long An
                        Nam Định
                        Nghệ An
                        Nha Trang
                        Ninh Bình
                        Ninh Thuận
                        Phan Thiết
                        Phú Quốc
                        Phú Thọ
                        Phú Yên
                        Quảng Bình
                        Quảng Nam
                        Quảng Ngãi
                        Quảng Ninh
                        Quảng Trị
                        Sa Pa
                        Sóc Trăng
                        Sơn La
                        Tây Ninh
                        Thái Bình
                        Thái Nguyên
                        Thanh Hoá
                        Thành Phố Huế
                        Thừa Thiên Huế
                        Tiền Giang
                        Trà Vinh
                        Tuyên Quang
                        Vĩnh Long
                        Vĩnh Phúc
                        Vũng Tàu
                        Yên Bái
                Du lịch Long An
                                Du lịch Mộc Hóa 
                                Du lịch Tân An 
                                Du lịch Cần Giuộc 
                                Du lịch Đức Hòa 
                                Du lịch Thủ Thừa 
                                Du lịch Bến Lức 
                                Du lịch Cần Đước 
                                Du lịch Vĩnh Hưng 
                            Giới thiệu Mytour
                            Đối tác khách sạn
                            Đăng nhập HMS
                            Tích lũy Vpoint
                            Điều khoản sử dụng
                            Quy chế hoạt động
                            Tuyển dụng
                            Liên hệ
                            Đăng ký nhận email
                                Đăng ký email để nhận khuyến mãi lên đến 70%
                                    Đăng
                                    ký
                    Công ty TNHH Mytour Việt Nam
                    Số ĐKKD: 0105983269 cấp ngày 30/08/2012
                    Văn phòng Hà Nội: Tầng 4, tòa nhà GP Invest, 170 Đê La Thành, Đống Đa
                    Văn phòng HCM: Tầng 5, Tòa Nhà HDTC, Số 36 Bùi Thị Xuân, Q.1
                Hotline
                        Hà Nội:
                        (04) 7109 9999
                        Tp. HCM:
                        (08) 7309 9899
                        ENGLISH SUPPORT:
                        (+84)4 7309 9899
