url:http://mytour.vn/565-khach-san-alba-spa.html
Tittle :Khách Sạn Alba Spa - Thừa Thiên Huế giá tốt nhất - Mytour.vn
content :Đặt phòng trực tuyến, hoặc gọi
                                                            Hà Nội: (04) 7109 9999
                                                                                        - (04) 7309 9899
                                                            Hồ Chí Minh: (08) 7309 9899
                                                                                        - (08) 7109 9998
                        T2 - CN: 08:00 - 23:00
                    Toggle navigation
                                Bạn không có thông báo nào
                    |
                    ||
                                                            Tài khoản
                        Đăng nhập
                                Đăng kýKhách sạn yêu thích
                            Khách sạn
                            Tour
                            Cẩm nang du lịch
                            Thông tin
                                                Về Mytour
                                                Tin khuyến mãi
                                                Ưu đãi
                                                Hướng dẫn
                                                Liên hệ
                            Tốt nhất 2016
                ×
                Bạn có chắc muốn hủy đơn hàng?
                Lorem ipsum dolor sit amet, consectetur adipisicing elit. Iure corporis repudiandae nobis distinctio
                quae quos, officia modi, ab voluptatem pariatur ducimus mollitia, necessitatibus sed soluta dicta
                repellendus! Praesentium debitis, temporibus?
                    Đồng ý
                    Đóng
                    Khách sạnThừa Thiên HuếHuếKhách sạn gần Ga An CựuKhách Sạn Alba Spa
                    Đóng
            Tìm Kiếm Khách Sạn
                            Ngày nhận phòng
                            Ngày trả phòng
                    Số đêm
                    Số phòng
                        123456789101112
                    Người lớn
                        123456789101112
                    Tìm khách sạn
                Giá tốt hơn so với đặt phòng trực tiếp tại khách sạn
                Đảm bảo 
                giá tốt nhất
                Đảm bảo 
                hoàn tiền
                Nhân viên chăm sóc, tư vấn nhiều kinh nghiệm
                Hơn 5000 khách sạn tại Việt Nam với đánh giá thực
                Nhiều chương trình khuyến mãi và tích lũy điểm
                Thanh toán dễ dàng, đa dạng
                        Khách Sạn Alba Spa
                            (Cung cấp bởi khách sạn)
                                    Tất cả thông tin về tiêu chuẩn khách sạn trên website mytour.vn
                                    là do khách sạn tự cung cấp, chỉ mang tính chất tham khảo và không nhất thiết trùng
                                    hợp với hạng
                                    sao được cấp bởi sở Văn Hoá, Thể thao và du lịch.
                             29 Trần Quang Khải, Huế, Thừa Thiên Huế 
                                Đặt phòng ngay giữ giá tốt
                                Đã thích
                                        7.8
                                            (35
                                            đánh giá)
                                Giới thiệu về Khách Sạn Alba Spa 
                                    Khách sạn Alba Spa Huế tọa lạc ngay trong lòng cố đô, chỉ cách sông Hương vài phút đi bộ, được thiết kế sang trọng và hiện đại, sẽ là nơi dừng chân lý tưởng cho du khách sau những ngày làm việc căng thẳng và mệt mỏi. Khách sạn cách sân bay Phú Bài 20 phút lái xe và cách bến xe chừng 8 phút đi taxi.
Khách sạn Alba Spa Huế có tổng cộng 58 phòng nghỉ được trang bị tiện nghi theo tiêu chuẩn 3 sao đem đến sự thoải mái và thuận tiện dù bạn đi công tác hay đi nghỉ mát tại Huế. Đặc biệt với đội ngũ nhân viên thân thiện và phục vụ nhiệt tình chắc hẳn các bạn hoàn toàn thoải mái khi nghỉ tại khách sạn Alba Queen Huế. 
Khách sạn Alba Spa Huế được trang bị đầy đủ các tiện nghi, du khách nghỉ tại khách sạn sẽ luôn cảm thấy thoải mái, dễ chịu. Phục vụ ăn tại phòng, wi-fi ở khu vực công cộng, dịch vụ internet, người vận chuyển hành lý, dịch vụ trông xe là những tiện nghi nhằm phục vụ tốt nhất cho du khách. Các phòng nghỉ đều có ban công, trang bị két an toàn cho laptop, truy cập internet không dây, tivi, phòng không hút thuốc. Có thể nói với những tiện nghi tại đây mang lại thì bạn khó mà tìm được mức ưu đãi về giá phòng ở đâu tốt hơn Mytour, bạn sẽ có cơ hội đặt phòng giá rẻ nhất trên hệ thống của chúng tôi với sự hướng dẫn nhiệt tình, thân thiện của nhân viên Mytour.vn.
Khách sạn có nhà hàng Fig Tree tại tầng 1 với công suất 200 chỗ ngồi và các quán bar trên tầng thượng và tiền sảnh của khách sạn hân hạnh phục vụ các món ăn theo kiểu Á - Âu đa dạng cho du khách. Ngoài ra khách sạn còn có bể bơi ngoài trời, các dịch vụ spa, phòng hội thảo có sức chứa 180 người, wifi và internet miễn phí. Alba Queen Huế là lựa chọn rất thích hợp cho các chuyến đi công tác hay du lịch tới mảnh đất cố đô. 
Với vị trí thuận lợi, du khách có thể tự thiết kế riêng cho mình một lịch trình tham quan, nghỉ dưỡng hoặc đặt tour du lịch khám phá các địa danh nổi tiếng để có được chuyến đi đáng nhớ nhất. Quý khách có thể ghé thăm các địa điểm du lịch gần với khách sạn như chùa Thiên Mụ, sông Hương, núi Ngự Bình, núi Bạch Mã, bảo tàng Mỹ thuật Cung đình Huế, suối nước khoáng Mỹ An…  
Đến với Mytour.vn, quý khách sẽ có cơ hội đặt khách sạn giá rẻ nhất cùng với nhiều chương trình khuyến mại hấp dẫn chỉ dành riêng cho khách hàng của Mytour.
Còn chần chừ gì nữa, hãy nhanh tay đặt phòng khách sạn Alba Spa Huế trên Mytour và tận hưởng kì nghỉ thú vị của quý khách ngay từ bây giờ nhé!
                                        Xem thêm 
                                Chọn ngày để xem giá và phòng trống
                                    Đảm bảo giá tốt nhất
                                                                            Giá ưu đãi chỉ dành cho khách nội địa.
                                                Ngày nhận phòng
                                                Ngày trả phòng
                                        Số đêm
                                        Số phòng
                                            123456789101112
                                        Người lớn
                                            123456789101112
                                        Cập nhật giá
                                Lưu ý: Vui lòng ẩn "Cập nhật giá" để cập nhật phòng
                                Chọn phòng Khách Sạn Alba Spa
                                                Loại Phòng
                                                Giá 1 đêm
                                                Số phòng
                                                Đặt phòng
                                                                    Deluxe City View Doule
                                                                        Điều kiện hủy phòng
                                                        Phụ thu trẻ em từ 6 => 12 tuổi: 90,000đPhụ thu trẻ em trên 12 tuổi: 125,000đExtra bed: 400,000Lễ hội Festivel Huế vui lòng check với khách sạn.
sử dụng nước khoáng nóng - lạnh miễn phí
Hủy phòng trước 7 ngày freeKhông  áp dụng cho những booking cũ,
 
                                                        phòng
                                                                                                                                                                            0123456
                                                            Đặt ngay
                                                            Xác nhận ngay
                                                                    Deluxe City View Twin
                                                                        Điều kiện hủy phòng
                                                                        Thêm giường
                                                                        0
                                                                         Vui lòng chọn số lượng phòng trước! 
                                                        Phụ thu trẻ em từ 6 => 12 tuổi: 90,000đ
Phụ thu trẻ em trên 12 tuổi: 125,000đ
Extra bed: 400,000
Lễ hội Festivel Huế vui lòng check với khách sạn.
sử dụng nước khoáng nóng - lạnh miễn phí
Hủy phòng trước 7 ngày free
Không áp dụng cho những booking cũ,
 
                                                        phòng
                                                                                                                                                                            012345678910111213141516171819
                                                            Đặt ngay
                                                            Xác nhận ngay
                                                                    Deluxe Double
                                                                        Điều kiện hủy phòng
                                                                        Thêm giường
                                                                        0
                                                                         Vui lòng chọn số lượng phòng trước! 
                                                        Phụ thu trẻ em từ 6 => 12 tuổi: 90,000đ
Phụ thu trẻ em trên 12 tuổi: 125,000đ
Extra bed: 400,000
Lễ hội Festivel Huế vui lòng check với khách sạn.
sử dụng nước khoáng nóng - lạnh miễn phí
Hủy phòng trước 7 ngày free
Không áp dụng cho những booking cũ,
                                                        phòng
                                                                                                                                                                            012345678
                                                            Đặt ngay
                                                            Xác nhận ngay
                                                                    Deluxe Twin
                                                                        Điều kiện hủy phòng
                                                        Giá phòng trên không áp dụng cho các dịp Lễ, Tết (phụ thu thêm 50.000 vnd / phòng).
                                                        phòng
                                                                                                                                                                            0123
                                                            Đặt ngay
                                                            Xác nhận ngay
                                                                    Junior Suite With City View
                                                                        Điều kiện hủy phòng
                                                        phòng
                                                                                                                                                                            01234
                                                            Đặt ngay
                                                            Xác nhận ngay
                                    Tiện nghi Khách Sạn Alba Spa 
                                                Đưa đón khách sạn sân bay
                                                Bãi đỗ xe
                                                Internet
                                                Phòng hội thảo
                                                Phòng họp
                                                Thang máy
                                                Wifi miễn phí
                                                Giặt là
                                                Hỗ trợ đặt tour
                                                Nhà hàng
                                                Thuê xe, taxi
                                                Tiếp tân 24/24
                                                Gia đình
                                                Massage
                                                Tắm hơi
                                Ghi chú: Ăn sáng miễn phí (nếu có) có thể thay đổi theo phòng và ngày
                                    Chính sách Khách Sạn Alba Spa 
                                        Giờ nhận
                                        phòng: 14:00
                                        Giờ trả
                                        phòng: 12:00
            Đánh giá Khách Sạn Alba Spa
                Viết đánh giá
                        Tất cả ( 35 )
                        Công tác ( 0 )
                        Cặp đôi ( 7 )
                        Gia đình ( 3 )
                        Bạn bè ( 2 )
                        Cá nhân ( 17 )
                        Đánh giá
                        7.8
                            Tất cả
                    Chi tiết điểm  (từ
                        35
                        nhận xét)
                            Vị trí
                                7.9
                                    % Complete
                            7.9
                            Phục vụ
                                7.9
                                    % Complete
                            7.9
                            Tiện nghi
                                7.9
                                    % Complete
                            7.9
                            Giá cả
                                7.8
                                    % Complete
                            7.8
                            Vệ sinh
                                7.7
                                    % Complete
                            7.7
                                    “Theo đánh giá cá nhân của Tôi thì dịch vụ này khá tốt có phòng ốc khang trang và sạch sẽ, Tôi được nhanh chóng nhận phòng và hỗ trợ nhiệt tình chu đáo về các dịch vụ trong quá trình nghỉ lại và tham quan nơi này. Sẽ tiếp ục ủng hộ nếu có dịp.
                                    “
                                Nguyen Thi Thuy Dung
                                30/07/2016
                        Đánh giá
                        0
                            Công tác
                    Chi tiết điểm  (từ
                        0
                        nhận xét)
                            Vị trí
                                0
                                    % Complete
                            0
                            Phục vụ
                                0
                                    % Complete
                            0
                            Tiện nghi
                                0
                                    % Complete
                            0
                            Giá cả
                                0
                                    % Complete
                            0
                            Vệ sinh
                                0
                                    % Complete
                            0
                        Đánh giá
                        7.8
                            Cặp đôi
                    Chi tiết điểm  (từ
                        7
                        nhận xét)
                            Vị trí
                                8
                                    % Complete
                            8
                            Phục vụ
                                8.1
                                    % Complete
                            8.1
                            Tiện nghi
                                8.1
                                    % Complete
                            8.1
                            Giá cả
                                7.7
                                    % Complete
                            7.7
                            Vệ sinh
                                7.7
                                    % Complete
                            7.7
                                    “Tôi rất hài lòng khi ở đây, mọi thứ đều rất ổn. Nhân viên rất nhiệt tình và thân thiện. Phòng rộng rãi, thoáng mát, khang trang. Giá phòng khi đặt qua Mytour thì rất vừa phải, hợp lý.
                                    “
                                Bich Hao Nguyen
                                19/08/2014
                        Đánh giá
                        7.7
                            Gia đình
                    Chi tiết điểm  (từ
                        3
                        nhận xét)
                            Vị trí
                                6.7
                                    % Complete
                            6.7
                            Phục vụ
                                8
                                    % Complete
                            8
                            Tiện nghi
                                8
                                    % Complete
                            8
                            Giá cả
                                8
                                    % Complete
                            8
                            Vệ sinh
                                7.7
                                    % Complete
                            7.7
                                    “Phục vụ tốt
Ks sạch sẽ
Không có hồ bơi
                                    “
                                Bách
                                17/07/2016
                        Đánh giá
                        7.4
                            Bạn bè
                    Chi tiết điểm  (từ
                        2
                        nhận xét)
                            Vị trí
                                7.5
                                    % Complete
                            7.5
                            Phục vụ
                                7.5
                                    % Complete
                            7.5
                            Tiện nghi
                                7.5
                                    % Complete
                            7.5
                            Giá cả
                                7.5
                                    % Complete
                            7.5
                            Vệ sinh
                                7.5
                                    % Complete
                            7.5
                                    “Nhân viên rất đáng yêu và ân cầ. Họ cũng khuyên bạn những nơi tuyệt vời để ăn và mua sắm. Thức ăn rất tốt với giá cả hợp lý. Ngoài ra còn có nhiều cửa hàng quần áo khá đẹp tại đây.
                                    “
                                Chong S.
                                27/04/2012
                        Đánh giá
                        7.8
                            Cá nhân
                    Chi tiết điểm  (từ
                        17
                        nhận xét)
                            Vị trí
                                7.9
                                    % Complete
                            7.9
                            Phục vụ
                                7.7
                                    % Complete
                            7.7
                            Tiện nghi
                                7.6
                                    % Complete
                            7.6
                            Giá cả
                                7.8
                                    % Complete
                            7.8
                            Vệ sinh
                                7.7
                                    % Complete
                            7.7
                                    “Theo đánh giá cá nhân của Tôi thì dịch vụ này khá tốt có phòng ốc khang trang và sạch sẽ, Tôi được nhanh chóng nhận phòng và hỗ trợ nhiệt tình chu đáo về các dịch vụ trong quá trình nghỉ lại và tham quan nơi này. Sẽ tiếp ục ủng hộ nếu có dịp.
                                    “
                                Nguyen Thi Thuy Dung
                                30/07/2016
                                Từ ngày mới đến cũ
                                Từ ngày cũ đến mới
                                Điểm từ thấp đến cao
                                Điểm từ cao đến thấp
                                Nguyen Thi Thuy Dung
                                30-07-2016
                                            Tốt
                                            8
                                        "Tốt "
                                                Vị trí
                                                    8 .0
                                                Phục vụ
                                                8 .0
                                                Tiện nghi
                                                8 .0
                                                Giá cả
                                                8 .0
                                                Vệ sinh
                                                8 .0
                                                “Theo đánh giá cá nhân của Tôi thì dịch vụ này khá tốt có phòng ốc khang trang và sạch sẽ, Tôi được nhanh chóng nhận phòng và hỗ trợ nhiệt tình chu đáo về các dịch vụ trong quá trình nghỉ lại và tham quan nơi này. Sẽ tiếp ục ủng hộ nếu có dịp.” 
                                Bách
                                17-07-2016
                                            Tốt
                                            8
                                        "Phục vụ tốt "
                                                Vị trí
                                                    5 .0
                                                Phục vụ
                                                9 .0
                                                Tiện nghi
                                                9 .0
                                                Giá cả
                                                9 .0
                                                Vệ sinh
                                                8 .0
                                                “Phục vụ tốt
Ks sạch sẽ
Không có hồ bơi” 
                                nguyễn anh thu
                                14-07-2016
                                            Tốt
                                            8.2
                                        "tot "
                                                Vị trí
                                                    9 .0
                                                Phục vụ
                                                9 .0
                                                Tiện nghi
                                                9 .0
                                                Giá cả
                                                7 .0
                                                Vệ sinh
                                                7 .0
                                                “Nhân viên nhiệt tình, phóng sách sẽ, có bốn tâm jacuzzi” 
                                phần ngọc son
                                14-07-2016
                                            Tốt
                                            8.2
                                        "alba "
                                                Vị trí
                                                    8 .0
                                                Phục vụ
                                                8 .0
                                                Tiện nghi
                                                9 .0
                                                Giá cả
                                                8 .0
                                                Vệ sinh
                                                8 .0
                                                “Phóng sách sẽ day du tiên nghĩ. Có an sang buffet, có tâm sưởi nuoc nong” 
                                Đặng Thu Thuỷ
                                12-07-2016
                                            Tốt
                                            8.4
                                        "Khách sạn nhỏ, yên tĩnh "
                                                Vị trí
                                                    8 .0
                                                Phục vụ
                                                8 .0
                                                Tiện nghi
                                                8 .0
                                                Giá cả
                                                9 .0
                                                Vệ sinh
                                                9 .0
                                                “Khách sạn nhỏ, kín đáo, sạch sẽ, yên tĩnh. Thái độ phục vụ của nhân viên tốt.” 
                    Xem tất cả đánh giá ( 35 )
                                Đặt phòng ngay giữ giá tốt
            Khách hàng đã xem khách sạn này thường tham khảo thêm
                Được đề xuất cho bạn
            Khách sạn 4 sao có cùng tiện nghi
            Có thể bạn muốn xem
                    Khách sạn 4 sao tại Thừa Thiên Huế
                        Khách sạn có Đưa đón khách sạn sân bay tại Thừa Thiên Huế
                        Khách sạn có nhà hàng tại Thừa Thiên Huế
                        Khách sạn có giặt là tại Thừa Thiên Huế
            Địa danh ở gần
                                    Bệnh viện trung ương Huế
                                     ~ 0.92km
                                                                Bệnh Viện Trung Ương Huế tọa lạc tại thành phố Huế. Đến với Bệnh Viện Trung Ương Huế, du khách có cơ hội tham quan các địa điểm nổi tiếngnhư Chùa Thiên Mụ, Lăng Tự Đức, Kinh thành Huế...Hãy để Mytour hỗ trợ bạn để có 1 chuyến đi thú vị, tiết kiệm bằng cách đặt phòng khách sạn tại khu vực Bệnh Viện Trung Ương Huế ngay bây giờ với giá rẻ nhất.
                                    Cầu Tràng Tiền
                                     ~ 1.09km
                                                                Cầu Tràng Tiền in sâu trong lòng mỗi người dân nơi đây và cả những du khách như một biểu tượng của đất Cố đô. Gần cầu Tràng Tiền có các địa danh như: Lăng Khải Định, Cửu Đỉnh, Thế Miếu, sông Hương. Hãy để Mytour hỗ trợ bạn để có 1 chuyến đi thú vị, tiết kiệm bằng cách đặt phòng khách sạn gần cầu Tràng Tiền ngay bây giờ với giá rẻ nhất.
                                    Sông Hương
                                     ~ 1.16km
                                    Nhà thờ Chính tòa Phú Cam
                                     ~ 1.16km
                                                                Nhà thờ Chính tòa Phú Cam là nhà thờ chính tòa của Tổng Giáo phận Huế, tọa lạc trên đồi Phước Quả, thành phố Huế. Gần nhà thờ Chính tòa Phú Cam có các địa danh như: cố đô Huế, Cửu Đỉnh, Thế Miếu. Hãy để Mytour hỗ trợ bạn để có 1 chuyến đi thú vị, tiết kiệm bằng cách đặt phòng khách sạn gần nhà thờ Chính tòa Phú Cam ngay bây giờ với giá rẻ nhất.
                                    Thành phố Huế
                                     ~ 1.16km
                                                                Thành phố Huế là trung tâm văn hoá du lịch Việt Nam, đặc biệt có dòng sông Hương chảy ngang qua tạo nên nét độc đáo cho cố đô. Tại thành phố Huế có các địa danh như: vườn An Hiên, phố cổ Gia Hội - Chi Lăng. Hãy để Mytour hỗ trợ bạn để có 1 chuyến đi thú vị, tiết kiệm bằng cách đặt phòng khách sạn tại thành phố Huế ngay bây giờ với giá rẻ nhất.
                                    Sông Hương Huế
                                     ~ 1.31km
                                                                Sông Hương là con sông lớn chảy qua giữa lòng Thành phố Huế, nổi tiếng có vẻ đẹp thơ mộng, trữ tình. Gần sông Hương có các địa danh như: kinh thành Huế, Cửu Đỉnh, Lăng Khải Định, Lăng Minh Mạng, Thế Miếu. ãy để Mytour hỗ trợ bạn để có 1 chuyến đi thú vị, tiết kiệm bằng cách đặt phòng khách sạn gần sông Hương ngay bây giờ với giá rẻ nhất.
                                    Kỳ Ðài
                                     ~ 1.61km
                                                                Kỳ Đài luôn là điểm di tích thu hút đông đảo khách du lịch trong nước và quốc tế đến tham quan hàng năm. Gần Kỳ Đài có các điểm tham quan hấp dẫn như: Kinh thành Huế, Cửu Đỉnh, Thế Miếu, Hiển Lâm Các. Hãy để Mytour hỗ trợ bạn để có 1 chuyến đi thú vị, tiết kiệm bằng cách đặt phòng khách sạn gần Kỳ Đài ngay bây giờ với giá rẻ nhất.
                                    Ngọ Môn Huế
                                     ~ 1.75km
                                                                Ngọ Môn Huế là một trong những công trình kiến trúc cổ tiêu biểu của miền quê núi Ngự và là nơi chứng kiến nhiều sự kiện lịch sử quan trọng. Gần Ngọ Môn Huế có các địa danh như: Hiển Lâm Các, Cửu Đỉnh, Thế Miếu. Hãy để Mytour hỗ trợ bạn để có 1 chuyến đi thú vị, tiết kiệm bằng cách đặt phòng khách sạn gần Ngọ Môn Huế ngay bây giờ với giá rẻ nhất.
                                    Điện Thái Hòa
                                     ~ 1.86km
                                                                Điện Thái Hòa là công trình quan trọng nhất trong khu vực đại nội của kinh thành Huế - nơi các vị vua Nguyễn ngự trên ngai vàng cai trị đất nước. Gần Điện Thái Hòa có các địa danh: Hiển Lâm Các, Điện Phụng Tiên. Hãy để Mytour hỗ trợ bạn để có 1 chuyến đi thú vị, tiết kiệm bằng cách đặt phòng khách sạn gần Điện Thái Hòa ngay bây giờ với giá rẻ nhất.
                                    Hiển Lâm Các
                                     ~ 1.95km
                                                                Hiển Lâm Các Là một trong những công trình kiến trúc cổ đẹp nhất của quần thể di tích cố đô Huế, có giá trị cả về kỹ thuật lẫn thẩm mỹ. Gần Hiển Lâm Các có các địa danh như: Cổng Ngọ Môn, Điện Thái Hoà, Cửu Đỉnh. Hãy để Mytour hỗ trợ bạn để có 1 chuyến đi thú vị, tiết kiệm bằng cách đặt phòng khách sạn gần Hiển Lâm Các ngay bây giờ với giá rẻ nhất.
                                    Đại Nội
                                     ~ 1.96km
                                                                Đại Nội bao gồm Hoàng Thành và Tử Cấm Thành, được bao bọc bởi hai bức tường thành dày là Ngoại Thành và Nội Thành, thuộc cố đô Huế. Gần Đại Nội có các địa danh như: Lăng Minh Mạng, Cửu Đỉnh, Thế Miếu. Hãy để Mytour hỗ trợ bạn để có 1 chuyến đi thú vị, tiết kiệm bằng cách đặt phòng khách sạn gần Đại Nội ngay bây giờ với giá rẻ nhất.
                                    Cửu Đỉnh
                                     ~ 1.98km
                                                                Cửu Đỉnh là bộ 9 chiếc đỉnh đồng lớn nhất Việt Nam đúc năm 1836 thời Minh Mạng được đặt dưới bóng Hiển Lâm Các, trước sân Thế Miếu. Gần Cửu Đỉnh có các địa danh như: cổng Ngọ Môn, Hưng Tổ Miếu, Điện Phụng Tiên. Hãy để Mytour hỗ trợ bạn để có 1 chuyến đi thú vị, tiết kiệm bằng cách đặt phòng khách sạn gần Cửu Đỉnh ngay bây giờ với giá rẻ nhất.
                                    Kinh thành triều Nguyễn
                                     ~ 1.99km
                                                                Kinh thành triều Nguyễn nằm ở Bắc sông Hương, thành phố Huế tổng thể kiến trúc bao gồm Kinh thành, Hoàng thành và Tử Cấm thành. Gần kinh thành triều Nguyễn có các địa dah như: Lăng Minh Mạng, Cửu Đỉnh. Hãy để Mytour hỗ trợ bạn để có 1 chuyến đi thú vị, tiết kiệm bằng cách đặt phòng khách sạn gần kinh thành triều Nguyễn ngay bây giờ với giá rẻ nhất.
                                    Thế Miếu
                                     ~ 2km
                                                                Thế Miếu là nơi thờ cúng các vua Nguyễn, đây là một trong những công trình to lớn bậc nhất so với các miếu, điện ở Việt Nam. Gần Thế Miếu có các địa danh như: Cung Diên Thọ, Cung Trường Sanh, Hiển Lâm Các. Hãy để Mytour hỗ trợ bạn để có 1 chuyến đi thú vị, tiết kiệm bằng cách đặt phòng khách sạn gần Thế Miếu ngay bây giờ với giá rẻ nhất.
                                    Ga Huế
                                     ~ 2.11km
                                                                Ga Huế là trung tâm di chuyển của thành phố Huế. Đến với Ga Huế, du khách có cơ hội tham quan các địa điểm du lịch nổi tiếng của nơi này như Chùa Thiên Mụ, Lăng Tự Đức, Sông Hương, Kinh thành Huế...Hãy để Mytour hỗ trợ bạn để có 1 chuyến đi thú vị, tiết kiệm bằng cách đặt phòng khách sạn tại khu vực Ga Huế ngay bây giờ với giá rẻ nhất.
                                    Cung Trường Sanh
                                     ~ 2.23km
                                    Tịnh Xá Ngọc Kinh    
                                     ~ 2.37km
                                    Kinh thành Huế
                                     ~ 2.62km
                                                                Kinh Thành Huế nằm tại thành phố Huế, tỉnh Thừa Thiên Huế. Từ đây, du khách có cơ hội đến thăm nhiều địa điểm nổi tiếng như: Kỳ Đài, trường Quốc Tử Giám, Điện Long An, bảo tàng mỹ thuật Cung đình Huế… Hãy để Mytour hỗ trợ bạn để có 1 chuyến đi thú vị, tiết kiệm bằng cách đặt phòng khách sạn khu vực Kinh Thành Huế bây giờ với giá chỉ từ 115,000 VND.
                                    Chùa Linh Quang - Huế
                                     ~ 2.93km
                                    Tịnh Xá Ngọc Hương   
                                     ~ 2.98km
                ×
                    Chính sách đảm bảo hoàn tiền của mytour
                    Bạn chưa tin tưởng việc đặt phòng khách sạn trực tuyến? Bạn e ngại rằng phòng khách sạn thực tế không đúng với thông tin trên website? Chúng tôi cam kết đưa đầy đủ và chính xác thông tin khách sạn trên website với chính sách “Đảm bảo Hoàn tiền”
                        Nếu khách hàng đặt khách sạn thành công trên Mytour nhưng khách sạn không có phòng, Mytour sẽ hoàn lại tiền cho khách và tặng kèm phiếu giảm giá có giá trị bằng với số tiền khách hàng đã trả.
                        Trong trường hợp loại phòng thực tế không đúng với loại phòng trên đơn hàng, Mytour sẽ quyết định nâng cấp miễn phí hoặc tặng phiếu giảm giá có giá trị bằng với số tiền khách hàng đã trả.
                        Trường hợp các tiện nghi phòng khách sạn (như bữa sáng, wifi…) không đúng với nội dung trên website, Mytour sẽ tặng phiếu giảm giá có giá trị bằng 10% số tiền khách đã trả (tối đa 500,000 VND)
                        Khách hàng cần gọi điện thoại 04-7309 9899 (Hà Nội), 08-7309 9899 (Hồ Chí Minh) hoặc email tới info@mytour.vn và cung cấp mã đơn hàng trong vòng 24 giờ từ lúc nhận phòng để được trợ giúp giải quyết khiếu nại (Hotline chỉ hỗ trợ trong giờ hành chính).
                        Mytour không chịu trách nhiệm bồi thường thiệt hại gián tiếp, ngẫu nhiên, hay do hậu quả phát sinh. Trong mọi trường hợp, trách nhiệm của Mytour không vượt quá tổng số tiền khách hàng thanh toán đặt phòng.
                ×
                    Đảm bảo giá tốt nhất
                    Nếu Thành viên đã đặt một phòng khách sạn được “Đảm Bảo” tại Mytour.vn và sau đó, cho Mytour.vn  thấy rằng Thành viên có thể đặt một phòng tương tự trong cùng khoảng thời gian ở mức giá tốt hơn có thể xem và đặt được trên một website khác, Mytour.vn sẽ giảm giá bằng hoặc thấp hơn mức giá đó.
                    Giá dùng để so sánh là giá sau khi áp dụng mức giảm giá công bố trên website Mytour.vn.
                    Chính sách “Đảm Bảo Giá Tốt Nhất” của Mytour.vn chỉ áp dụng cho các đặt phòng đã được xác nhận và phải thỏa mãn những điều kiện sau:
                Cùng khách sạnCùng thời gian nghỉ lạiCùng loại Phòng/GiườngCùng các yêu cầu mua Trước, yêu cầu trả trước và đặt cọc (nếu có)Cùng chính sách Hủy và Sửa Đổi
                    Phòng đó phải còn trống để được xác nhận ngay tại thời điểm các đại lý của Mytour.vn  kiểm tra phòng trống
                        Chính sách “Đảm Bảo Giá Tốt Nhất” không áp dụng cho các mức giá không công bố, như: chương trình khách hàng thân thiện.
                        Bất kỳ tổ chức nào với các mức giá dành cho nhóm cá nhân cụ thể và không nhằm mục đích áp dụng ra bên ngoài.
                        Thành viên có thể gửi khiếu nại theo địa chỉ : info@mytour.vn
                                Nêu mã đặt phòng Mytour.vn trong dòng tiêu đề thư
                                Gửi URL của website nơi Thành viên tìm thấy mức giá tốt hơn
                                Cung cấp ảnh chụp màn hình của website đối thủ cạnh tranh trong đó nêu rõ Phòng Trống, Loại Phòng, và các mức giá cho những ngày nghỉ lại theo yêu cầu của Thành viên.
                VUI LÒNG LƯU Ý: Thành viên không cần thực hiện đặt phòng trên website của đối thủ cạnh tranh, chỉ cần cho Mytour.vn thấy sự so sánh.
                ×
                Đăng Nhập
                                 Đăng nhập bằng tài khoản Facebook
                                 Đăng nhập bằng tài khoản Google
                            Hoặc đăng nhập bằng
                        Email*
                        Mật khẩu*
                        Quên mật khẩu?
                            Chưa có tài khoản/tạo tài khoản
                Đăng nhập
                         Nhớ đăng nhập
                ×
                Bản đồ
                                            Khách Sạn Alba Spa
                    Tìm đường
                        Từ: 
                        Đến: 
                            Khách sạnĐịa danh Hiển thị các khách sạn ở gần Hiển thị các khu du lịch ở gần
                ×
                Yêu Cầu Lấy Giá
                                    Ngày nhận phòng
                                    Ngày trả phòng
                        Tên khách hàng
                        Email
                        Điện thoại
                        Nhân viên chăm sóc khách hàng sẽ gọi điện cho quý khách trong thời gian sớm nhất.
                        Quý khách có thể gọi điện đến cho Mytour để được tư vấn ngay:
                        Hà Nội: (04) 7109 9999, Hồ Chí Minh: (08) 7309 9899, Support
                            English: (+84)4-7309-9899.
                    Hoàn thành
                ×
                Gửi Thông Tin
                        Tên khách hàng
                        Email
                        Điện thoại
                            Quý khách sẽ thấy giá giảm ngay trên trang sau khi gửi thông tin
                    Hoàn thành
                ×
                Nhận Giá Tốt
                                    Ngày nhận phòng
                                    Ngày trả phòng
                        Tên khách hàng
                        Email
                        Điện thoại
                        Vì giá tốt không được công bố nên hệ thống sẽ gửi giá qua email đến quý khách và nhân viên chăm
                        sóc sẽ gọi điện cho quý khách trong thời gian sớm nhất.
                        Quý khách có thể gọi điện đến cho Mytour để được tư vấn ngay:
                        Hà Nội: (04) 7109 9999, Hồ Chí Minh: (08) 7309 9899, Support
                            English: (+84)4-7309-9899.
                    Hoàn thành
                ×
                ×
                ĐÁNH GIÁ 
                        Tên
                        Tiêu đề
                        Kiểu du lịch?
                                -- Chọn --Cá nhânCặp đôiGia đìnhBạn bèDoanh nghiệp
                        Nội dung
                                Đánh giá chi tiết
                                Chỗ ở
                                5
                                Thức ăn
                                5
                                Phương tiện
                                5
                                Hướng dẫn viên
                                5
                                Lịch trình
                                5
                    Gửi đánh giá
                    Hủy Bỏ
                ×
                Gửi lại email kích hoạt
                ×
                Thông tin chi tiết giá theo phòng
                    Chọn khoảng thời gian hiển thị giá phòng
                    Hiển thị giá
                ×
                Khóa phòng theo khoảng thời gian
                            Chọn khoảng thời gian check-in cần khóa/mở phòng
                            Khóa phòng
                            Mở phòng
                ×
                THUẾ VÀ PHÍ DỊCH VỤ
                17% thuế và phí dịch vụ bao gồm:
                    - 10% thuế và 5% phí dịch vụ hoàn trả lại cho khách sạn.
                    - 2% phí giao dịch tại Mytour.
                ×
                Bạn có hài lòng về website của Mytour?
                    Thông điệp nhắn nhủ:
                Mytour luôn mong muốn cải thiện dịch vụ để bạn có trải nghiệm tốt hơn!
                            Ảnh đính kèm
                        Đóng
                        Gửi
                ×
                    Những đóng góp của bạn đã được ghi nhận. Mytour cám ơn bạn !
                Quay lại website
                            Giới thiệu Mytour
                            Đối tác khách sạn
                            Đăng nhập HMS
                            Tích lũy Vpoint
                            Điều khoản sử dụng
                            Quy chế hoạt động
                            Tuyển dụng
                            Liên hệ
                            Đăng ký nhận email
                                Đăng ký email để nhận khuyến mãi lên đến 70%
                                    Đăng
                                    ký
                    Công ty TNHH Mytour Việt Nam
                    Số ĐKKD: 0105983269 cấp ngày 30/08/2012
                    Văn phòng Hà Nội: Tầng 4, tòa nhà GP Invest, 170 Đê La Thành, Đống Đa
                    Văn phòng HCM: Tầng 5, Tòa Nhà HDTC, Số 36 Bùi Thị Xuân, Q.1
                Hotline
                        Hà Nội:
                        (04) 7109 9999
                        Tp. HCM:
                        (08) 7309 9899
                        ENGLISH SUPPORT:
                        (+84)4 7309 9899
