url:http://mytour.vn/3525-khach-san-saphir-da-lat.html
Tittle :Khách Sạn Saphir Đà Lạt - Lâm Đồng giá tốt nhất - Mytour.vn
content :Đặt phòng trực tuyến, hoặc gọi
                                                            Hà Nội: (04) 7109 9999
                                                                                        - (04) 7309 9899
                                                            Hồ Chí Minh: (08) 7309 9899
                                                                                        - (08) 7109 9998
                        T2 - CN: 08:00 - 23:00
                    Toggle navigation
                                Bạn không có thông báo nào
                    |
                    ||
                                                            Tài khoản
                        Đăng nhập
                                Đăng kýKhách sạn yêu thích
                            Khách sạn
                            Tour
                            Cẩm nang du lịch
                            Thông tin
                                                Về Mytour
                                                Tin khuyến mãi
                                                Ưu đãi
                                                Hướng dẫn
                                                Liên hệ
                            Tốt nhất 2016
                ×
                Bạn có chắc muốn hủy đơn hàng?
                Lorem ipsum dolor sit amet, consectetur adipisicing elit. Iure corporis repudiandae nobis distinctio
                quae quos, officia modi, ab voluptatem pariatur ducimus mollitia, necessitatibus sed soluta dicta
                repellendus! Praesentium debitis, temporibus?
                    Đồng ý
                    Đóng
                    Khách sạnLâm ĐồngĐà LạtKhách sạn gần Trung Tâm Thành Phố Đà LạtKhách Sạn Saphir Đà Lạt
                    Đóng
            Tìm Kiếm Khách Sạn
                            Ngày nhận phòng
                            Ngày trả phòng
                    Số đêm
                    Số phòng
                        123456789101112
                    Người lớn
                        123456789101112
                    Tìm khách sạn
                Giá tốt hơn so với đặt phòng trực tiếp tại khách sạn
                Đảm bảo 
                giá tốt nhất
                Đảm bảo 
                hoàn tiền
                Nhân viên chăm sóc, tư vấn nhiều kinh nghiệm
                Hơn 5000 khách sạn tại Việt Nam với đánh giá thực
                Nhiều chương trình khuyến mãi và tích lũy điểm
                Thanh toán dễ dàng, đa dạng
                        Khách Sạn Saphir Đà Lạt
                            (Cung cấp bởi khách sạn)
                                    Tất cả thông tin về tiêu chuẩn khách sạn trên website mytour.vn
                                    là do khách sạn tự cung cấp, chỉ mang tính chất tham khảo và không nhất thiết trùng
                                    hợp với hạng
                                    sao được cấp bởi sở Văn Hoá, Thể thao và du lịch.
                             9 Phan Như Thạch , Phường 1, Đà Lạt, Lâm Đồng 
                                Đặt phòng ngay giữ giá tốt
                                Đã thích
                                        7.6
                                            (267
                                            đánh giá)
                                Giới thiệu về Khách Sạn Saphir Đà Lạt 
                                    Khách sạn Saphir Đà Lạt tọa lạc tại trung tâm thành phố Đà Lạt, là nơi nghỉ ngơi chất lượng nổi tiếng phục vụ cho cả khách nghỉ dưỡng và các doanh nhân. Bằng ô tô/ xe buýt từ Sài Gòn, mất khoảng 7 tiếng đến Đà Lạt (hoặc 9 tiếng nếu giao thông đông đúc), quý khách có thể đón xe tốc hành tại Mai Lình hoặc Phương Trang để tới khách sạn hay nếu quý khách đi bằng máy bay thì khách sạn chỉ cách sân bay 30 phút lái xe. Quý khách cũng có thể đón các chuyến bay hàng ngày của Vietnam Airline/ Air Mekong từ thành phố Hồ Chí Minh, Đà Nẵng, Hà Nội.
Khách sạn Saphir Đà Lạt theo tiêu chuẩn 4 sao, được thiết kế tiện nghi, hiện đại và kiến trúc theo phong cách Pháp, nằm ngay trung tâm thành phố, rất thuận tiện ghé thăm các điểm tham quan du lịch nổi tiếng tại Đà Lạt.
Khách sạn Saphir Đà Lạt có 79 phòng ngủ tiện nghi và sang trọng với nhiều loại như phòng Superior, phòng Deluxe, phòng Junior Suite, phòng Executive Suite. Mỗi phòng đều có cửa sổ, tiện nghi thông thoáng. Ngay khi bước vào bên trong khách sạn, bạn sẽ hoàn toàn bị bất ngờ với không gian nội thất được thiết kế đồng bộ, sàn và trần gỗ, cùng màu vàng nhạt của tường tạo nên một không gian ấm áp, sang trọng, tạo ra cảm giác thoải mái cho bạn trong suốt những ngày nghỉ dưỡng tại đây. Khách sạn đầu tư chăm chút từ những vật dụng nhỏ nhất, chắc chắn bạn sẽ bất ngờ khi được khám phá những đồ đạc, thiết bị cổ như điện thoại, đồng hồ, radio… được sưu tầm và bày trí đặc biệt ngay trong căn phòng của mình hay trên những hành lang, khuôn viên trong khách sạn, tất cả đều là mục đích của chủ nhân khách sạn muốn làm tăng thêm vẻ quen thuộc cho bạn, để mỗi giờ phút bạn lưu trú tại đây đều là những khoảng thời gian thoải mái nhất của bạn.
Du khách sẽ càng hài lòng hơn với các dịch vụ tại đây cùng nhiều món ăn Âu, Á được đầu bếp chế biến chất lượng, độc đáo và hợp vệ sinh hay tận hưởng không khí trong lành, ngắm Đà Lạt thơ mộng bên tách cafe thơm ngon.
Ngoài ra, khi book phòng  khách sạn Saphir Đà lạt, quý khách còn có thể sử dụng phòng tập thể dục và khu vực giải trí với nhiều hình thức như: bi - a, bóng bàn, phóng phi tiêu…và nhiều dịch vụ tiện ích khác dành cho du khách như dịch vụ đưa đón khách, dịch vụ đặt vé máy bay hay các hoạt động lữ hành… Tất cả sẽ mang đến bạn một kỳ nghỉ lý tưởng và tuyệt vời nhất.
Khách sạn Saphir Đà Lạt gần với các địa danh nổi tiếng như thung lũng Tình yêu, đồi Mộng Mơ, chợ Đà Lạt, nhà thờ Con Gà và các khu du lịch dã ngoại như núi Langbiang, thác Datanla, hồ Xuân Hương…
Khách sạn Saphir Đà Lạt xứng đáng là lựa chọn cho du khách khi tới thành phố Đà Lạt xinh đẹp mộng mơ này.
Khi đặt phòng khách sạn hoặc đặt tour qua hệ thống đặt phòng trực tuyến của Mytour.vn, bạn sẽ có cơ hội sở hữu phòng nghỉ tại những khách sạn giá rẻ hay cao cấp. Hãy sử dụng dịch vụ của Mytour.vn để có cơ hội đặt những phòng khách sạn giá rẻ nhất với chất lượng tuyệt vời bạn nhé!
                                        Xem thêm 
                                Chọn ngày để xem giá và phòng trống
                                    Đảm bảo giá tốt nhất
                                                Ngày nhận phòng
                                                Ngày trả phòng
                                        Số đêm
                                        Số phòng
                                            123456789101112
                                        Người lớn
                                            123456789101112
                                        Cập nhật giá
                                Lưu ý: Vui lòng ẩn "Cập nhật giá" để cập nhật phòng
                                Chọn phòng Khách Sạn Saphir Đà Lạt
                                                Loại Phòng
                                                Giá 1 đêm
                                                Số phòng
                                                Đặt phòng
                                                                    Standard corner (CHƯA VAT)
                                                                        Điều kiện hủy phòng
                                                                        Thêm giường
                                                                        0
                                                                         Vui lòng chọn số lượng phòng trước! 
                                                        GIƯỜNG PHỤ:
Mùa thấp điểm: 350.000/1 giường/1 đêmMùa hè:              + Đầu tuần: 550.000/ 1 giường/ 1 đêm
             + Cuối tuần: 600.000/ 1 giường/ 1 đêm
Lễ, tết: 1.200.000/1 giường/ 1 đêmCHÍNH SÁCH CHO TRẺ EM:
PHÒNG Ở:
Một trẻ em dưới 10 tuổi ở chung phòng với bố mẹ sẽ được miễn phí tiền phòng (chưa bao gồm phí ăn sáng) trong trường hợp khách không yêu cầu thêm giường phụ (giường phụ được tính theo giá đã được thông báo, bao gồm cả ăn sáng).Trẻ em từ 10 tuổi trở lên bắt buộc kê thêm giường phụ (tính bằng một người lớn)ĂN SÁNG:
Trẻ em dưới 4 tuổi được miễn phí ăn sáng.Trẻ em từ 4-11 tuổi bắt buộc mua phiếu ăn sáng.CHÍNH SÁCH HOÀN HỦY
Hủy dịch vụ từ 30 ngày trở lên trước ngày nhận phòng: việc đặt phòng có thể được hủy mà không tính phí hủy dịch vụ.Hủy dịch vụ trong khoảng từ 21 đến 14 ngày trước ngày nhận phòng: phải thanh toán một đêm tiền phòng đã đặt.Hủy dịch vụ trong khoảng từ 14 đến 7 ngày trước ngày nhận phòng: phải thanh toán 50% trên tổng số tiền cho phòng đã đặt.Hủy dịch vụ 7 ngày trước ngày nhận phòng hoặc trong trường hợp không thực hiện dịch vụ đã đặt: phải thanh toán toàn bộ số tiền cho phòng đã đặt.CÁC NGÀY LỄ TẾT:
Tết DL 28/12/2016-> 03/1/2017(Tết ÂL: 27/01->hết 5/2/2017;Giổ tổ Hùng Vương: 6/4-> hết 9/4/2017;Giải phóng, Quốc Tế lao Động: 28/4->hết 1/5/2017;Quốc khánh: 1/9->hết 4/9/2017 
                                                        phòng
                                                                                                                                                                            012345
                                                            Đặt ngay
                                                            Xác nhận ngay
                                                                    Superior twin (CHƯA VAT)
                                                                        Điều kiện hủy phòng
                                                        GIƯỜNG PHỤ:
Mùa thấp điểm: 350.000/1 giường/1 đêmMùa hè:              + Đầu tuần: 550.000/ 1 giường/ 1 đêm
             + Cuối tuần: 600.000/ 1 giường/ 1 đêm
Lễ, tết: 1.200.000/1 giường/ 1 đêmCHÍNH SÁCH CHO TRẺ EM:
PHÒNG Ở:
Một trẻ em dưới 10 tuổi ở chung phòng với bố mẹ sẽ được miễn phí tiền phòng (chưa bao gồm phí ăn sáng) trong trường hợp khách không yêu cầu thêm giường phụ (giường phụ được tính theo giá đã được thông báo, bao gồm cả ăn sáng).Trẻ em từ 10 tuổi trở lên bắt buộc kê thêm giường phụ (tính bằng một người lớn)ĂN SÁNG:
Trẻ em dưới 4 tuổi được miễn phí ăn sáng.Trẻ em từ 4-11 tuổi bắt buộc mua phiếu ăn sáng.CHÍNH SÁCH HOÀN HỦY
Hủy dịch vụ từ 30 ngày trở lên trước ngày nhận phòng: việc đặt phòng có thể được hủy mà không tính phí hủy dịch vụ.Hủy dịch vụ trong khoảng từ 21 đến 14 ngày trước ngày nhận phòng: phải thanh toán một đêm tiền phòng đã đặt.Hủy dịch vụ trong khoảng từ 14 đến 7 ngày trước ngày nhận phòng: phải thanh toán 50% trên tổng số tiền cho phòng đã đặt.Hủy dịch vụ 7 ngày trước ngày nhận phòng hoặc trong trường hợp không thực hiện dịch vụ đã đặt: phải thanh toán toàn bộ số tiền cho phòng đã đặt.CÁC NGÀY LỄ TẾT:
Tết DL 28/12/2016-> 03/1/2017(Tết ÂL: 27/01->hết 5/2/2017;Giổ tổ Hùng Vương: 6/4-> hết 9/4/2017;Giải phóng, Quốc Tế lao Động: 28/4->hết 1/5/2017;Quốc khánh: 1/9->hết 4/9/2017  
                                                        phòng
                                                                                                                                                                            012345678910111213141516171819202122232425262728293031323334353637
                                                            Đặt ngay
                                                            Xác nhận ngay
                                                                    Deluxe B (CHƯA VAT)
                                                                        Điều kiện hủy phòng
                                                        GIƯỜNG PHỤ:
Mùa thấp điểm: 350.000/1 giường/1 đêmMùa hè:              + Đầu tuần: 550.000/ 1 giường/ 1 đêm
             + Cuối tuần: 600.000/ 1 giường/ 1 đêm
Lễ, tết: 1.200.000/1 giường/ 1 đêmCHÍNH SÁCH CHO TRẺ EM:
PHÒNG Ở:
Một trẻ em dưới 10 tuổi ở chung phòng với bố mẹ sẽ được miễn phí tiền phòng (chưa bao gồm phí ăn sáng) trong trường hợp khách không yêu cầu thêm giường phụ (giường phụ được tính theo giá đã được thông báo, bao gồm cả ăn sáng).Trẻ em từ 10 tuổi trở lên bắt buộc kê thêm giường phụ (tính bằng một người lớn)ĂN SÁNG:
Trẻ em dưới 4 tuổi được miễn phí ăn sáng.Trẻ em từ 4-11 tuổi bắt buộc mua phiếu ăn sáng.CHÍNH SÁCH HOÀN HỦY
Hủy dịch vụ từ 30 ngày trở lên trước ngày nhận phòng: việc đặt phòng có thể được hủy mà không tính phí hủy dịch vụ.Hủy dịch vụ trong khoảng từ 21 đến 14 ngày trước ngày nhận phòng: phải thanh toán một đêm tiền phòng đã đặt.Hủy dịch vụ trong khoảng từ 14 đến 7 ngày trước ngày nhận phòng: phải thanh toán 50% trên tổng số tiền cho phòng đã đặt.Hủy dịch vụ 7 ngày trước ngày nhận phòng hoặc trong trường hợp không thực hiện dịch vụ đã đặt: phải thanh toán toàn bộ số tiền cho phòng đã đặt.CÁC NGÀY LỄ TẾT:
Tết DL 28/12/2016-> 03/1/2017(Tết ÂL: 27/01->hết 5/2/2017;Giổ tổ Hùng Vương: 6/4-> hết 9/4/2017;Giải phóng, Quốc Tế lao Động: 28/4->hết 1/5/2017;Quốc khánh: 1/9->hết 4/9/2017 
                                                        phòng
                                                                                                                                                                            012345678910
                                                            Đặt ngay
                                                            Xác nhận ngay
                                                                    Deluxe Twin (CHƯA VAT)
                                                                        Điều kiện hủy phòng
                                                        GIƯỜNG PHỤ:
Mùa thấp điểm: 350.000/1 giường/1 đêmMùa hè:              + Đầu tuần: 550.000/ 1 giường/ 1 đêm
             + Cuối tuần: 600.000/ 1 giường/ 1 đêm
Lễ, tết: 1.200.000/1 giường/ 1 đêmCHÍNH SÁCH CHO TRẺ EM:
PHÒNG Ở:
Một trẻ em dưới 10 tuổi ở chung phòng với bố mẹ sẽ được miễn phí tiền phòng (chưa bao gồm phí ăn sáng) trong trường hợp khách không yêu cầu thêm giường phụ (giường phụ được tính theo giá đã được thông báo, bao gồm cả ăn sáng).Trẻ em từ 10 tuổi trở lên bắt buộc kê thêm giường phụ (tính bằng một người lớn)ĂN SÁNG:
Trẻ em dưới 4 tuổi được miễn phí ăn sáng.Trẻ em từ 4-11 tuổi bắt buộc mua phiếu ăn sáng.CHÍNH SÁCH HOÀN HỦY
Hủy dịch vụ từ 30 ngày trở lên trước ngày nhận phòng: việc đặt phòng có thể được hủy mà không tính phí hủy dịch vụ.Hủy dịch vụ trong khoảng từ 21 đến 14 ngày trước ngày nhận phòng: phải thanh toán một đêm tiền phòng đã đặt.Hủy dịch vụ trong khoảng từ 14 đến 7 ngày trước ngày nhận phòng: phải thanh toán 50% trên tổng số tiền cho phòng đã đặt.Hủy dịch vụ 7 ngày trước ngày nhận phòng hoặc trong trường hợp không thực hiện dịch vụ đã đặt: phải thanh toán toàn bộ số tiền cho phòng đã đặt.CÁC NGÀY LỄ TẾT:
Tết DL 28/12/2016-> 03/1/2017(Tết ÂL: 27/01->hết 5/2/2017;Giổ tổ Hùng Vương: 6/4-> hết 9/4/2017;Giải phóng, Quốc Tế lao Động: 28/4->hết 1/5/2017;Quốc khánh: 1/9->hết 4/9/2017 
                                                        phòng
                                                                                                                                                                            012345
                                                            Đặt ngay
                                                            Xác nhận ngay
                                                                    Deluxe A (CHƯA VAT)
                                                                        Điều kiện hủy phòng
                                                        GIƯỜNG PHỤ:
Mùa thấp điểm: 350.000/1 giường/1 đêmMùa hè:              + Đầu tuần: 550.000/ 1 giường/ 1 đêm
             + Cuối tuần: 600.000/ 1 giường/ 1 đêm
Lễ, tết: 1.200.000/1 giường/ 1 đêmCHÍNH SÁCH CHO TRẺ EM:
PHÒNG Ở:
Một trẻ em dưới 10 tuổi ở chung phòng với bố mẹ sẽ được miễn phí tiền phòng (chưa bao gồm phí ăn sáng) trong trường hợp khách không yêu cầu thêm giường phụ (giường phụ được tính theo giá đã được thông báo, bao gồm cả ăn sáng).Trẻ em từ 10 tuổi trở lên bắt buộc kê thêm giường phụ (tính bằng một người lớn)ĂN SÁNG:
Trẻ em dưới 4 tuổi được miễn phí ăn sáng.Trẻ em từ 4-11 tuổi bắt buộc mua phiếu ăn sáng.CHÍNH SÁCH HOÀN HỦY
Hủy dịch vụ từ 30 ngày trở lên trước ngày nhận phòng: việc đặt phòng có thể được hủy mà không tính phí hủy dịch vụ.Hủy dịch vụ trong khoảng từ 21 đến 14 ngày trước ngày nhận phòng: phải thanh toán một đêm tiền phòng đã đặt.Hủy dịch vụ trong khoảng từ 14 đến 7 ngày trước ngày nhận phòng: phải thanh toán 50% trên tổng số tiền cho phòng đã đặt.Hủy dịch vụ 7 ngày trước ngày nhận phòng hoặc trong trường hợp không thực hiện dịch vụ đã đặt: phải thanh toán toàn bộ số tiền cho phòng đã đặt.CÁC NGÀY LỄ TẾT:
Tết DL 28/12/2016-> 03/1/2017(Tết ÂL: 27/01->hết 5/2/2017;Giổ tổ Hùng Vương: 6/4-> hết 9/4/2017;Giải phóng, Quốc Tế lao Động: 28/4->hết 1/5/2017;Quốc khánh: 1/9->hết 4/9/2017 
                                                        phòng
                                                                                                                                                                            01234
                                                            Đặt ngay
                                                            Xác nhận ngay
                                                                    Superior double (CHƯA VAT)
                                                                        Điều kiện hủy phòng
                                                        GIƯỜNG PHỤ:
Mùa thấp điểm: 350.000/1 giường/1 đêmMùa hè:              + Đầu tuần: 550.000/ 1 giường/ 1 đêm
             + Cuối tuần: 600.000/ 1 giường/ 1 đêm
Lễ, tết: 1.200.000/1 giường/ 1 đêmCHÍNH SÁCH CHO TRẺ EM:
PHÒNG Ở:
Một trẻ em dưới 10 tuổi ở chung phòng với bố mẹ sẽ được miễn phí tiền phòng (chưa bao gồm phí ăn sáng) trong trường hợp khách không yêu cầu thêm giường phụ (giường phụ được tính theo giá đã được thông báo, bao gồm cả ăn sáng).Trẻ em từ 10 tuổi trở lên bắt buộc kê thêm giường phụ (tính bằng một người lớn)ĂN SÁNG:
Trẻ em dưới 4 tuổi được miễn phí ăn sáng.Trẻ em từ 4-11 tuổi bắt buộc mua phiếu ăn sáng.CHÍNH SÁCH HOÀN HỦY
Hủy dịch vụ từ 30 ngày trở lên trước ngày nhận phòng: việc đặt phòng có thể được hủy mà không tính phí hủy dịch vụ.Hủy dịch vụ trong khoảng từ 21 đến 14 ngày trước ngày nhận phòng: phải thanh toán một đêm tiền phòng đã đặt.Hủy dịch vụ trong khoảng từ 14 đến 7 ngày trước ngày nhận phòng: phải thanh toán 50% trên tổng số tiền cho phòng đã đặt.Hủy dịch vụ 7 ngày trước ngày nhận phòng hoặc trong trường hợp không thực hiện dịch vụ đã đặt: phải thanh toán toàn bộ số tiền cho phòng đã đặt.CÁC NGÀY LỄ TẾT:
Tết DL 28/12/2016-> 03/1/2017(Tết ÂL: 27/01->hết 5/2/2017;Giổ tổ Hùng Vương: 6/4-> hết 9/4/2017;Giải phóng, Quốc Tế lao Động: 28/4->hết 1/5/2017;Quốc khánh: 1/9->hết 4/9/2017 
                                                        phòng
                                                                                                                                                                            012345678910
                                                            Đặt ngay
                                                            Xác nhận ngay
                                                                    Standard (CHƯA VAT)
                                                                        Điều kiện hủy phòng
                                                        GIƯỜNG PHỤ:
Mùa thấp điểm: 350.000/1 giường/1 đêmMùa hè:              + Đầu tuần: 550.000/ 1 giường/ 1 đêm
             + Cuối tuần: 600.000/ 1 giường/ 1 đêm
Lễ, tết: 1.200.000/1 giường/ 1 đêmCHÍNH SÁCH CHO TRẺ EM:
PHÒNG Ở:
Một trẻ em dưới 10 tuổi ở chung phòng với bố mẹ sẽ được miễn phí tiền phòng (chưa bao gồm phí ăn sáng) trong trường hợp khách không yêu cầu thêm giường phụ (giường phụ được tính theo giá đã được thông báo, bao gồm cả ăn sáng).Trẻ em từ 10 tuổi trở lên bắt buộc kê thêm giường phụ (tính bằng một người lớn)ĂN SÁNG:
Trẻ em dưới 4 tuổi được miễn phí ăn sáng.Trẻ em từ 4-11 tuổi bắt buộc mua phiếu ăn sáng.CHÍNH SÁCH HOÀN HỦY
Hủy dịch vụ từ 30 ngày trở lên trước ngày nhận phòng: việc đặt phòng có thể được hủy mà không tính phí hủy dịch vụ.Hủy dịch vụ trong khoảng từ 21 đến 14 ngày trước ngày nhận phòng: phải thanh toán một đêm tiền phòng đã đặt.Hủy dịch vụ trong khoảng từ 14 đến 7 ngày trước ngày nhận phòng: phải thanh toán 50% trên tổng số tiền cho phòng đã đặt.Hủy dịch vụ 7 ngày trước ngày nhận phòng hoặc trong trường hợp không thực hiện dịch vụ đã đặt: phải thanh toán toàn bộ số tiền cho phòng đã đặt.CÁC NGÀY LỄ TẾT:
Tết DL 28/12/2016-> 03/1/2017(Tết ÂL: 27/01->hết 5/2/2017;Giổ tổ Hùng Vương: 6/4-> hết 9/4/2017;Giải phóng, Quốc Tế lao Động: 28/4->hết 1/5/2017;Quốc khánh: 1/9->hết 4/9/2017  
                                                        phòng
                                                                                                                                                                            012
                                                            Đặt ngay
                                                            Xác nhận ngay
                                                                    Deluxe B corner(chưa VAT)
                                                                        Điều kiện hủy phòng
                                                        phòng
                                                                                                                                                                            0123
                                                            Đặt ngay
                                                            Xác nhận ngay
                                    Tiện nghi Khách Sạn Saphir Đà Lạt 
                                                Đưa đón khách sạn sân bay
                                                Bữa sáng miễn phí
                                                Bãi đỗ xe
                                                Internet
                                                Phòng hội thảo
                                                Phòng họp
                                                Thang máy
                                                Thêm giường phụ
                                                Truyền hình cáp/vệ tinh
                                                Wifi miễn phí
                                                Giặt là
                                                Hỗ trợ đặt tour
                                                Nhà hàng
                                                Quán cafe
                                                Tiếp tân 24/24
                                                Trông trẻ
                                                vé tàu xe, máy bay
                                                Massage
                                Ghi chú: Ăn sáng miễn phí (nếu có) có thể thay đổi theo phòng và ngày
                                    Chính sách Khách Sạn Saphir Đà Lạt 
                                        Giờ nhận
                                        phòng: 14:00
                                        Giờ trả
                                        phòng: 12:00
            Đánh giá Khách Sạn Saphir Đà Lạt
                Viết đánh giá
                        Tất cả ( 267 )
                        Công tác ( 2 )
                        Cặp đôi ( 34 )
                        Gia đình ( 32 )
                        Bạn bè ( 8 )
                        Cá nhân ( 191 )
                        Đánh giá
                        7.6
                            Tất cả
                    Chi tiết điểm  (từ
                        267
                        nhận xét)
                            Vị trí
                                7.7
                                    % Complete
                            7.7
                            Phục vụ
                                7.5
                                    % Complete
                            7.5
                            Tiện nghi
                                7.6
                                    % Complete
                            7.6
                            Giá cả
                                7.6
                                    % Complete
                            7.6
                            Vệ sinh
                                7.5
                                    % Complete
                            7.5
                                    “Trong chuyến du lịch đến Đà Lạt vừa rồi, tôi đã chọn dịch vụ mà khách sạn Saphir. Nhận xét của tôi về khách sạn này là tốt. Phòng ốc được trang bị đầy đủ tiện nghi, vệ sinh sạch sẽ, nhân viên vui vẻ và nhiệt tình. Không có vấn đề gì khiến tôi phiền lòng khi nghỉ tại đây.
                                    “
                                Doan Ba Lam
                                10/07/2016
                        Đánh giá
                        5.7
                            Công tác
                    Chi tiết điểm  (từ
                        2
                        nhận xét)
                            Vị trí
                                6
                                    % Complete
                            6
                            Phục vụ
                                5.5
                                    % Complete
                            5.5
                            Tiện nghi
                                5.5
                                    % Complete
                            5.5
                            Giá cả
                                5.5
                                    % Complete
                            5.5
                            Vệ sinh
                                5.5
                                    % Complete
                            5.5
                                    “Phòng 111 có nhiều gián, phải đổi sang phòng 001 trong đêm, dịch vụ hát cho nhau nghe của khách sạn (8:00pm-10:00pm)không có cách âm nên tiếng ồn ảnh hưởng đến các phòng khách lưu trú, ở trong phòng mà âm thanh nghe như trong quán karaoke. Tôi không thể ngủ sớm được, chăn nệm có mùi mốc, nhân viên hút thuốc khắp nơi, tụ tập nói chuyện ồn. Thiết bị hư hỏng (đèn bật không sáng, không bật thì tự sáng, vòi xịt khóa vẫn chảy nước làm ướt hết), đồ dùng trong phòng là loại rẻ tiền nhất, không có gì trong tủ lạnh (cả hai phòng mà tôi vào)...nhìn chung, mọi thứ dưới tiêu chuẩn của một khách sạn 4 sao, ngoại trừ hình thức bề ngoài, không tương xứng với giá tiền kể cả sau khi được giảm giá. Tôi sẽ không quay lại khach sạn này và cũng không khuyên ai nên lưu trú tại đây. Cám ơn!
                                    “
                                Tường Vy
                                09/11/2013
                        Đánh giá
                        7.7
                            Cặp đôi
                    Chi tiết điểm  (từ
                        34
                        nhận xét)
                            Vị trí
                                8
                                    % Complete
                            8
                            Phục vụ
                                7.6
                                    % Complete
                            7.6
                            Tiện nghi
                                7.9
                                    % Complete
                            7.9
                            Giá cả
                                7.8
                                    % Complete
                            7.8
                            Vệ sinh
                                7.6
                                    % Complete
                            7.6
                                    “Rất hài lòng về khách sạn này từ nhân viên, cách phục vụ, vị trí, bố cục của khách sạn...
                                    “
                                VÕ NGỌC THANH PHƯƠNG
                                20/11/2015
                        Đánh giá
                        7.5
                            Gia đình
                    Chi tiết điểm  (từ
                        32
                        nhận xét)
                            Vị trí
                                7.7
                                    % Complete
                            7.7
                            Phục vụ
                                7.3
                                    % Complete
                            7.3
                            Tiện nghi
                                7.7
                                    % Complete
                            7.7
                            Giá cả
                                7.7
                                    % Complete
                            7.7
                            Vệ sinh
                                7.4
                                    % Complete
                            7.4
                                    “Khách sạn thiết kế đẹp theo kiểu pháp cổ, có đường tắt đến chợ rất gần, tuy nhiên phòng ốc hơi ẩm, nhà vệ sinh không có bồn tắm, các thiết bị đều kiểu cổ như ti vi đời cũ, dùng phích thay bình siêu tốc, nước uống miễn phí để trong chai thuỷ tinh.
                                    “
                                Chu Lê Thuỳ Trâm
                                21/09/2016
                        Đánh giá
                        7.7
                            Bạn bè
                    Chi tiết điểm  (từ
                        8
                        nhận xét)
                            Vị trí
                                8.3
                                    % Complete
                            8.3
                            Phục vụ
                                7.9
                                    % Complete
                            7.9
                            Tiện nghi
                                8
                                    % Complete
                            8
                            Giá cả
                                7.6
                                    % Complete
                            7.6
                            Vệ sinh
                                7.5
                                    % Complete
                            7.5
                                    “Vệ sinh phòng tốt nhưng ăn sáng dưới tầng hầm không thoáng, nên chuyển lên quầy Bar để View đẹp và thoáng.
                                    “
                                Huyen Pham
                                28/10/2015
                        Đánh giá
                        7.6
                            Cá nhân
                    Chi tiết điểm  (từ
                        191
                        nhận xét)
                            Vị trí
                                7.6
                                    % Complete
                            7.6
                            Phục vụ
                                7.5
                                    % Complete
                            7.5
                            Tiện nghi
                                7.5
                                    % Complete
                            7.5
                            Giá cả
                                7.6
                                    % Complete
                            7.6
                            Vệ sinh
                                7.5
                                    % Complete
                            7.5
                                    “Khách Sạn Saphir Đà Lạt phục vụ bữa sáng không được đa dạng, chỉ có mấy món, kể cả người nước ngoài cũng không dùng được. Còn về thái độ đón tiếp, phục vụ cũng như chất lượng phòng ốc thì tôi thấy được.
                                    “
                                Chị Huệ
                                08/09/2016
                                Từ ngày mới đến cũ
                                Từ ngày cũ đến mới
                                Điểm từ thấp đến cao
                                Điểm từ cao đến thấp
                                Nguyen Ngoc Mai
                                11-11-2016
                                            Rất tốt
                                            9
                                        "Dịch vụ ok "
                                                Vị trí
                                                    9 .0
                                                Phục vụ
                                                9 .0
                                                Tiện nghi
                                                9 .0
                                                Giá cả
                                                9 .0
                                                Vệ sinh
                                                9 .0
                                                “Tôi có cơ hội đến Đà Lạt và chọn đặt phòng ở khách sạn Saphir Đà Lạt, dịch vụ mà khách sạn này cung cấp tôi thấy rất ok, nhân viên chuyên nghiệp, thân thiện với khách hàng, phòng ở thì được dọn dẹp vệ sinh sạch sẽ và tiện nghi đầy đủ.” 
                                Trịnh Minh Giang
                                05-11-2016
                                            Đánh giá
                                            6
                                        "Phòng chật và bí "
                                                Vị trí
                                                    6 .0
                                                Phục vụ
                                                6 .0
                                                Tiện nghi
                                                6 .0
                                                Giá cả
                                                6 .0
                                                Vệ sinh
                                                6 .0
                                                “Khách sạn Saphir Đà Lạt có dịch vụ không đúng với 4 sao, tiện nghi bình thường, diện tích phòng thì chật chội, không gian bí nên chưa thoải mái. Nếu với mức giá như thế là không xứng đáng, chuyến này tôi chẳng hài lòng.” 
                                CHị THẢO
                                04-11-2016
                                            Đánh giá
                                            7
                                        "Tương đối hài lòng "
                                                Vị trí
                                                    7 .0
                                                Phục vụ
                                                7 .0
                                                Tiện nghi
                                                7 .0
                                                Giá cả
                                                7 .0
                                                Vệ sinh
                                                7 .0
                                                “Tôi có đặt phòng ở khách sạn Saphir Đà Lạt tôi thấy khách sạn cũng tương đối tốt nhân viên cũng nhiệt tình, thân thiện, trang thiết bị được cung cấp đầy đủ nhưng so với các khách sạn bốn sao khác tôi thấy hơi cũ.” 
                                Chu Lê Thuỳ Trâm
                                21-09-2016
                                            Đánh giá
                                            6.6
                                        "Tạm ổn "
                                                Vị trí
                                                    8 .0
                                                Phục vụ
                                                5 .0
                                                Tiện nghi
                                                8 .0
                                                Giá cả
                                                7 .0
                                                Vệ sinh
                                                5 .0
                                                “Khách sạn thiết kế đẹp theo kiểu pháp cổ, có đường tắt đến chợ rất gần, tuy nhiên phòng ốc hơi ẩm, nhà vệ sinh không có bồn tắm, các thiết bị đều kiểu cổ như ti vi đời cũ, dùng phích thay bình siêu tốc, nước uống miễn phí để trong chai thuỷ tinh.” 
                                Chị Huệ
                                08-09-2016
                                            Đánh giá
                                            7
                                        "Bữa sáng không đa dạng "
                                                Vị trí
                                                    7 .0
                                                Phục vụ
                                                7 .0
                                                Tiện nghi
                                                7 .0
                                                Giá cả
                                                7 .0
                                                Vệ sinh
                                                7 .0
                                                “Khách Sạn Saphir Đà Lạt phục vụ bữa sáng không được đa dạng, chỉ có mấy món, kể cả người nước ngoài cũng không dùng được. Còn về thái độ đón tiếp, phục vụ cũng như chất lượng phòng ốc thì tôi thấy được.” 
                    Xem tất cả đánh giá ( 267 )
                                Đặt phòng ngay giữ giá tốt
            Khách hàng đã xem khách sạn này thường tham khảo thêm
                Được đề xuất cho bạn
            Khách sạn 4 sao có cùng tiện nghi
            Có thể bạn muốn xem
                    Khách sạn 4 sao tại Lâm Đồng
                        Khách sạn có Đưa đón khách sạn sân bay tại Lâm Đồng
                        Khách sạn có nhà hàng tại Lâm Đồng
                        Khách sạn có giặt là tại Lâm Đồng
            Địa danh ở gần
                                    Chợ Âm Phủ Đà Lạt
                                     ~ 0.2km
                                                                Chợ  m Phủ Đà Lạt còn gọi là chợ đêm Đà Lạt nằm tọa lạc tại trung tâm thành phố Đà Lạt, là một nơi lý tưởng cho các du khách thư giản. Gần chợ  m Phủ Đà Lạt có các địa danh như: hồ Xuân Hương, Dinh Bảo Đại. Hãy để Mytour hỗ trợ bạn để có 1 chuyến đi thú vị, tiết kiệm bằng cách đặt phòng khách sạn gần chợ  m Phủ Đà Lạt ngay bây giờ với giá rẻ nhất.
                                    Chợ Đà Lạt
                                     ~ 0.23km
                                                                Chợ Đà Lạt là nơi tập trung buôn bán của người dân tại Đà Lạt, du khách có thể tìm thấy các mặt hàng cần thiết cho mình. Gần chợ Đà Lạt có các địa danh như: vườn hoa Đà Lạt, hồ Xuân Hương, thung lũng Tình Yêu. Hãy để Mytour hỗ trợ bạn để có 1 chuyến đi thú vị, tiết kiệm bằng cách đặt phòng khách sạn gần chợ Đà Lạt ngay bây giờ với giá rẻ nhất.
                                    Nhà thờ Con Gà
                                     ~ 0.73km
                                                                Nhà thờ Con Gà là nhà thờ lớn nhất ở thành phố Đà Lạt, luôn mang nét cổ kính trầm lặng bởi phong cách kiến trúc Châu  u đặc trưng. Gần nhà thờ Con Gà có các địa danh như: hồ Xuân Hương, thác Cam Ly. Hãy để Mytour hỗ trợ bạn để có 1 chuyến đi thú vị, tiết kiệm bằng cách đặt phòng khách sạn gần nhà thờ Con Gà ngay bây giờ với giá rẻ nhất.
                                    Làng Biệt Thự Cổ
                                     ~ 0.9km
                                                                Làng Biệt Thự Cổ là một quần thể biệt thự Pháp liền kề nhau, trải dài trên một khu đất rộng với những kiến trúc cổ kính từ lâu đời. Gần làng Biệt Thự Cổ có các địa danh như: hồ Xuân Hương, nhà thờ Con Gà. Hãy để Mytour hỗ trợ bạn để có 1 chuyến đi thú vị, tiết kiệm bằng cách đặt phòng khách sạn gần làng Biệt Thự Cổ ngay bây giờ với giá rẻ nhất.
                                    Bảo tàng Lâm Đồng
                                     ~ 0.91km
                                                                Bảo tàng Lâm Đồng là nơi lưu giữ, trưng bầy, giới thiệu hiện vật truyền thống văn hóa và lịch sử của địa phương. Gần bảo tàng Lâm Đồng có các địa danh như: thác Cam Ly, hồ Xuân Hương, hồ Tuyền Lâm. Hãy để Mytour hỗ trợ bạn để có 1 chuyến đi thú vị, tiết kiệm bằng cách đặt phòng khách sạn gần bảo tàng Lâm Đồng ngay bây giờ với giá rẻ nhất.
                                    Câu lạc bộ golf Ðà Lạt
                                     ~ 0.91km
                                                                Câu lạc bộ golf Ðà Lạt nằm tại trung tâm thành phố Đà Lạt, là nơi giải trí của giới thượng lưu trong và ngoài nước. Gần câu lạc bộ golf Đà Lạt có các danh thắng như: vườn hoa Đà Lạt, hồ Xuân Hương. Hãy để Mytour hỗ trợ bạn để có 1 chuyến đi thú vị, tiết kiệm bằng cách đặt phòng khách sạn gần câu lạc bộ golf Đà Lạt ngay bây giờ với giá rẻ nhất.
                                    Những ngôi nhà ma ở Đà Lạt
                                     ~ 0.91km
                                                                Những ngôi nhà ma ở Đà Lạt nay trở thành biệt thự nghỉ dưỡng hạng sang giữa rừng thông lãng mạn của Đà Lạt. Gần những ngôi biệt thự này có các địa danh như: đồi Mộng Mơ, hồ Xuân Hương, chùa Linh Ấn. Hãy để Mytour hỗ trợ bạn để có 1 chuyến đi thú vị, tiết kiệm bằng cách đặt phòng khách sạn gần những ngôi nhà ma Đà Lạt ngay bây giờ với giá rẻ nhất.
                                    Thành phố Đà Lạt
                                     ~ 0.91km
                                                                Thành phố Đà Lạt là trung tâm của tỉnh Lâm Đồng nằm trên Cao nguyên Lâm Viên thuộc vùng Tây Nguyên nước Việt Nam. Tại thành phố Đà Lạt có các địa danh như: hồ Xuân Hương, vườn hòa Đà Lạt, thung lũng tình yêu. Hãy để Mytour hỗ trợ bạn để có 1 chuyến đi thú vị, tiết kiệm bằng cách đặt phòng khách sạn tại thành phố Đà Lạt ngay bây giờ với giá rẻ nhất.
                                    Chùa Linh Sơn Đà Lạt
                                     ~ 1.01km
                                                                Chùa Linh Sơn là một danh lam thắng cảnh bậc nhất của Đà Lạt, thu hút hàng vạn du khách, Phật tử đến tham quan. Gần chùa Linh Sơn có các địa danh như: nhà thờ Con Gà, hồ Xuân Hương. chợ  m Phủ. Hãy để Mytour hỗ trợ bạn để có 1 chuyến đi thú vị, tiết kiệm bằng cách đặt phòng khách sạn gần chùa Linh Sơn Đà Lạt ngay bây giờ với giá rẻ nhất.
                                    Nhà thờ Domain de Marie 
                                     ~ 1.07km
                                                                Nhà thờ Domain de Marie là một công trình kiến trúc độc đáo mang hình thức kiến trúc Châu  u nổi bật tại Đà Lạt. Gần nhà thờ Domain de Marie có các địa danh như: hồ Tuyền Lâm, nhà thờ Con Gà. Hãy để Mytour hỗ trợ bạn để có 1 chuyến đi thú vị, tiết kiệm bằng cách đặt phòng khách sạn gần nhà thờ Domain de Marie ngay bây giờ với giá rẻ nhất.
                                    Nhà Thờ Gỗ Cam Ly
                                     ~ 1.16km
                                                                Nhà thờ gỗ Cam Ly nằm trên một quả đồi rất gần thác Cam Ly, thuộc thành phố Đà Lạt, được xây dựng vào năm 1959. Gần nhà thờ gỗ Cam Ly có các địa danh như: hồ Xuân Hương, chợ Hoa Đà Lạt, nhà thờ Con Gà. Hãy để Mytour hỗ trợ bạn để có 1 chuyến đi thú vị, tiết kiệm bằng cách đặt phòng khách sạn gần nhà thờ gỗ Cam Ly ngay bây giờ với giá rẻ nhất.
                                    Đồi Cù Đà Lạt
                                     ~ 1.35km
                                                                Đồi Cù Đà Lạt là khu đồi nằm tại trung tâm thành phố, kế bên Hồ Xuân Hương, được ví như là lá phổi xanh của thành phố Đà Lạt. Gần đồi Cù Đà Lạt có các địa danh như: suối Cẩm Lệ, hồ Xuân Hương, Dinh Bảo Đại. Hãy để Mytour hỗ trợ bạn để có 1 chuyến đi thú vị, tiết kiệm bằng cách đặt phòng khách sạn gần đồi Cù Đà Lạt ngay bây giờ với giá rẻ nhất.
                                    Nhà thờ Cam Ly
                                     ~ 1.39km
                                                                Nhà thờ Cam Ly là địa điểm du lịch nổi tiếng của Đà Lạt, Lâm Đồng. Đến với Nhà thờ Cam Ly , du khách có cơ hội tham quan các địa điểm du lịch nổi tiếng  như Nhà thờ Con Gà, Thung Lũng Tình Yêu...Hãy để Mytour hỗ trợ bạn để có 1 chuyến đi thú vị, tiết kiệm bằng cách đặt phòng khách sạn tại khu vực Nhà thờ Cam Ly  ngay bây giờ với giá rẻ nhất.
                                    Sân khấu nhạc nước Cam Ly 
                                     ~ 1.64km
                                                                Sân khấu nhạc nước Cam Ly là một sân khấu nhạc nước hiện đại, quy mô lớn, một thắng cảnh nổi tiếng của Đà Lạt. Gần sân khấu nhạc nước Cam Ly có các địa danh như: hồ Xuân Hương, thung lũng Tình Yêu. Hãy để Mytour hỗ trợ bạn để có 1 chuyến đi thú vị, tiết kiệm bằng cách đặt phòng khách sạn gần sân khấu nhạc nước Cam Ly ngay bây giờ với giá rẻ nhất.
                                    Thác Cam Ly
                                     ~ 1.68km
                                                                Thác Cam Ly nằm trên dòng suối Cẩm Lệ, thác có độ cao khoảng 30m, vào mùa mưa thác cuồn cuộn tung bọt trắng xóa như sương khói. Gần thác Cam Ly có các địa danh như: nhà thờ Con Gà, Dinh Bảo Đại, hồ Xuân Hương. Hãy để Mytour hỗ trợ bạn để có 1 chuyến đi thú vị, tiết kiệm bằng cách đặt phòng khách sạn gần thác Cam Ly ngay bây giờ với giá rẻ nhất.
                                    Dinh II Đà Lạt
                                     ~ 1.69km
                                                                Dinh II Đà Lạt là một trong những công trình kiến trúc đẹp của Đà Lạt, mang nhiều dấu ấn gắn liền với lịch sử của đất nước. Gần Dinh II Đà Lạt có các địa danh như: hồ Xuân Hương, hồ Tuyền Lâm, cáp treo Đà Lạt. Hãy để Mytour hỗ trợ bạn để có 1 chuyến đi thú vị, tiết kiệm bằng cách đặt phòng khách sạn gần Dinh II Đà Lạt ngay bây giờ với giá rẻ nhất.
                                    Chùa Linh Quang
                                     ~ 1.79km
                                                                Chùa Linh Quang có lối kiến trúc cổ, mái cong, trên mái hình long, lân, quy, phụng được gắn bằng những mảnh sành đủ màu sắc. Gần chùa Linh Quang có các địa danh như: chùa Linh Ấn, cáp treo Đà Lạt, đèo Tà Nung. Hãy để Mytour hỗ trợ bạn để có 1 chuyến đi thú vị, tiết kiệm bằng cách đặt phòng khách sạn gần chùa Linh Quang ngay bây giờ với giá rẻ nhất.
                                    Chùa Linh Quang Đà Lạt
                                     ~ 1.82km
                                    Nhà thờ Du Sinh
                                     ~ 1.84km
                                                                Nhà thờ Du Sinh là ngôi nhà thờ duy nhất ở Đà Lạt được xây dựng theo lối kiến trúc Á Đông, rất gần gũi với dân tộc ta. Gần nhà thờ Du Sinh có các địa danh như: thác Cam Ly, hồ Tuyền Lâm, hồ Xuân Hương. Hãy để Mytour hỗ trợ bạn để có 1 chuyến đi thú vị, tiết kiệm bằng cách đặt phòng khách sạn gần nhà thờ Du Sinh ngay bây giờ với giá rẻ nhất.
                                    Vườn hoa Đà Lạt
                                     ~ 1.95km
                                                                Vườn hoa Đà Lạt có trên 300 loài hoa, trong đó có tới hàng trăm loài hoa như hồng, cúc, lay ơn, hoa lan, cẩm tú cầu, mimôda nở quanh năm. Gần vườn hoa Đà Lạt có các địa danh như: thác Cam Ly, nhà thờ Con Gà. Hãy để Mytour hỗ trợ bạn để có 1 chuyến đi thú vị, tiết kiệm bằng cách đặt phòng khách sạn gần vườn hoa Đà Lạt ngay bây giờ với giá rẻ nhất.
                ×
                    Chính sách đảm bảo hoàn tiền của mytour
                    Bạn chưa tin tưởng việc đặt phòng khách sạn trực tuyến? Bạn e ngại rằng phòng khách sạn thực tế không đúng với thông tin trên website? Chúng tôi cam kết đưa đầy đủ và chính xác thông tin khách sạn trên website với chính sách “Đảm bảo Hoàn tiền”
                        Nếu khách hàng đặt khách sạn thành công trên Mytour nhưng khách sạn không có phòng, Mytour sẽ hoàn lại tiền cho khách và tặng kèm phiếu giảm giá có giá trị bằng với số tiền khách hàng đã trả.
                        Trong trường hợp loại phòng thực tế không đúng với loại phòng trên đơn hàng, Mytour sẽ quyết định nâng cấp miễn phí hoặc tặng phiếu giảm giá có giá trị bằng với số tiền khách hàng đã trả.
                        Trường hợp các tiện nghi phòng khách sạn (như bữa sáng, wifi…) không đúng với nội dung trên website, Mytour sẽ tặng phiếu giảm giá có giá trị bằng 10% số tiền khách đã trả (tối đa 500,000 VND)
                        Khách hàng cần gọi điện thoại 04-7309 9899 (Hà Nội), 08-7309 9899 (Hồ Chí Minh) hoặc email tới info@mytour.vn và cung cấp mã đơn hàng trong vòng 24 giờ từ lúc nhận phòng để được trợ giúp giải quyết khiếu nại (Hotline chỉ hỗ trợ trong giờ hành chính).
                        Mytour không chịu trách nhiệm bồi thường thiệt hại gián tiếp, ngẫu nhiên, hay do hậu quả phát sinh. Trong mọi trường hợp, trách nhiệm của Mytour không vượt quá tổng số tiền khách hàng thanh toán đặt phòng.
                ×
                    Đảm bảo giá tốt nhất
                    Nếu Thành viên đã đặt một phòng khách sạn được “Đảm Bảo” tại Mytour.vn và sau đó, cho Mytour.vn  thấy rằng Thành viên có thể đặt một phòng tương tự trong cùng khoảng thời gian ở mức giá tốt hơn có thể xem và đặt được trên một website khác, Mytour.vn sẽ giảm giá bằng hoặc thấp hơn mức giá đó.
                    Giá dùng để so sánh là giá sau khi áp dụng mức giảm giá công bố trên website Mytour.vn.
                    Chính sách “Đảm Bảo Giá Tốt Nhất” của Mytour.vn chỉ áp dụng cho các đặt phòng đã được xác nhận và phải thỏa mãn những điều kiện sau:
                Cùng khách sạnCùng thời gian nghỉ lạiCùng loại Phòng/GiườngCùng các yêu cầu mua Trước, yêu cầu trả trước và đặt cọc (nếu có)Cùng chính sách Hủy và Sửa Đổi
                    Phòng đó phải còn trống để được xác nhận ngay tại thời điểm các đại lý của Mytour.vn  kiểm tra phòng trống
                        Chính sách “Đảm Bảo Giá Tốt Nhất” không áp dụng cho các mức giá không công bố, như: chương trình khách hàng thân thiện.
                        Bất kỳ tổ chức nào với các mức giá dành cho nhóm cá nhân cụ thể và không nhằm mục đích áp dụng ra bên ngoài.
                        Thành viên có thể gửi khiếu nại theo địa chỉ : info@mytour.vn
                                Nêu mã đặt phòng Mytour.vn trong dòng tiêu đề thư
                                Gửi URL của website nơi Thành viên tìm thấy mức giá tốt hơn
                                Cung cấp ảnh chụp màn hình của website đối thủ cạnh tranh trong đó nêu rõ Phòng Trống, Loại Phòng, và các mức giá cho những ngày nghỉ lại theo yêu cầu của Thành viên.
                VUI LÒNG LƯU Ý: Thành viên không cần thực hiện đặt phòng trên website của đối thủ cạnh tranh, chỉ cần cho Mytour.vn thấy sự so sánh.
                ×
                Đăng Nhập
                                 Đăng nhập bằng tài khoản Facebook
                                 Đăng nhập bằng tài khoản Google
                            Hoặc đăng nhập bằng
                        Email*
                        Mật khẩu*
                        Quên mật khẩu?
                            Chưa có tài khoản/tạo tài khoản
                Đăng nhập
                         Nhớ đăng nhập
                ×
                Bản đồ
                                            Khách Sạn Saphir Đà Lạt
                    Tìm đường
                        Từ: 
                        Đến: 
                            Khách sạnĐịa danh Hiển thị các khách sạn ở gần Hiển thị các khu du lịch ở gần
                ×
                Yêu Cầu Lấy Giá
                                    Ngày nhận phòng
                                    Ngày trả phòng
                        Tên khách hàng
                        Email
                        Điện thoại
                        Nhân viên chăm sóc khách hàng sẽ gọi điện cho quý khách trong thời gian sớm nhất.
                        Quý khách có thể gọi điện đến cho Mytour để được tư vấn ngay:
                        Hà Nội: (04) 7109 9999, Hồ Chí Minh: (08) 7309 9899, Support
                            English: (+84)4-7309-9899.
                    Hoàn thành
                ×
                Gửi Thông Tin
                        Tên khách hàng
                        Email
                        Điện thoại
                            Quý khách sẽ thấy giá giảm ngay trên trang sau khi gửi thông tin
                    Hoàn thành
                ×
                Nhận Giá Tốt
                                    Ngày nhận phòng
                                    Ngày trả phòng
                        Tên khách hàng
                        Email
                        Điện thoại
                        Vì giá tốt không được công bố nên hệ thống sẽ gửi giá qua email đến quý khách và nhân viên chăm
                        sóc sẽ gọi điện cho quý khách trong thời gian sớm nhất.
                        Quý khách có thể gọi điện đến cho Mytour để được tư vấn ngay:
                        Hà Nội: (04) 7109 9999, Hồ Chí Minh: (08) 7309 9899, Support
                            English: (+84)4-7309-9899.
                    Hoàn thành
                ×
                ×
                ĐÁNH GIÁ 
                        Tên
                        Tiêu đề
                        Kiểu du lịch?
                                -- Chọn --Cá nhânCặp đôiGia đìnhBạn bèDoanh nghiệp
                        Nội dung
                                Đánh giá chi tiết
                                Chỗ ở
                                5
                                Thức ăn
                                5
                                Phương tiện
                                5
                                Hướng dẫn viên
                                5
                                Lịch trình
                                5
                    Gửi đánh giá
                    Hủy Bỏ
                ×
                Gửi lại email kích hoạt
                ×
                Thông tin chi tiết giá theo phòng
                    Chọn khoảng thời gian hiển thị giá phòng
                    Hiển thị giá
                ×
                Khóa phòng theo khoảng thời gian
                            Chọn khoảng thời gian check-in cần khóa/mở phòng
                            Khóa phòng
                            Mở phòng
                ×
                THUẾ VÀ PHÍ DỊCH VỤ
                17% thuế và phí dịch vụ bao gồm:
                    - 10% thuế và 5% phí dịch vụ hoàn trả lại cho khách sạn.
                    - 2% phí giao dịch tại Mytour.
                ×
                Bạn có hài lòng về website của Mytour?
                    Thông điệp nhắn nhủ:
                Mytour luôn mong muốn cải thiện dịch vụ để bạn có trải nghiệm tốt hơn!
                            Ảnh đính kèm
                        Đóng
                        Gửi
                ×
                    Những đóng góp của bạn đã được ghi nhận. Mytour cám ơn bạn !
                Quay lại website
                            Giới thiệu Mytour
                            Đối tác khách sạn
                            Đăng nhập HMS
                            Tích lũy Vpoint
                            Điều khoản sử dụng
                            Quy chế hoạt động
                            Tuyển dụng
                            Liên hệ
                            Đăng ký nhận email
                                Đăng ký email để nhận khuyến mãi lên đến 70%
                                    Đăng
                                    ký
                    Công ty TNHH Mytour Việt Nam
                    Số ĐKKD: 0105983269 cấp ngày 30/08/2012
                    Văn phòng Hà Nội: Tầng 4, tòa nhà GP Invest, 170 Đê La Thành, Đống Đa
                    Văn phòng HCM: Tầng 5, Tòa Nhà HDTC, Số 36 Bùi Thị Xuân, Q.1
                Hotline
                        Hà Nội:
                        (04) 7109 9999
                        Tp. HCM:
                        (08) 7309 9899
                        ENGLISH SUPPORT:
                        (+84)4 7309 9899
