url:http://mytour.vn/c52/khach-san-tai-tay-ninh.html
Tittle :Khách sạn Tây Ninh giá tốt nhất - Mytour.vn
content :Đặt phòng trực tuyến, hoặc gọi
                                                            Hà Nội: (04) 7109 9999
                                                                                        - (04) 7309 9899
                                                            Hồ Chí Minh: (08) 7309 9899
                                                                                        - (08) 7109 9998
                        T2 - CN: 08:00 - 23:00
                    Toggle navigation
                                Bạn không có thông báo nào
                    |
                    ||
                                                            Tài khoản
                        Đăng nhập
                                Đăng kýKhách sạn yêu thích
                            Khách sạn
                            Tour
                            Cẩm nang du lịch
                            Thông tin
                                                Về Mytour
                                                Tin khuyến mãi
                                                Ưu đãi
                                                Hướng dẫn
                                                Liên hệ
                            Tốt nhất 2016
                ×
                Bạn có chắc muốn hủy đơn hàng?
                Lorem ipsum dolor sit amet, consectetur adipisicing elit. Iure corporis repudiandae nobis distinctio
                quae quos, officia modi, ab voluptatem pariatur ducimus mollitia, necessitatibus sed soluta dicta
                repellendus! Praesentium debitis, temporibus?
                    Đồng ý
                    Đóng
                    Khách sạnKhách sạn tại Tây Ninh
                    Áp dụng
                    Đóng
            Tìm Kiếm Khách Sạn
                            Ngày nhận phòng
                            Ngày trả phòng
                    Số đêm
                    Số phòng
                        123456789101112
                    Người lớn
                        123456789101112
                    Tìm khách sạn
                                Bộ lọc tìm kiếm
                                        Theo mức giá
                                                        Dưới 500.000
                                                        500.000 - 1.000.000
                                                        1.000.000 - 1.500.000
                                                        1.500.000 - 2.000.000
                                                        2.000.000 - 2.500.000
                                                        2.500.000 - 3.000.000
                                                        Trên 3.000.000
                                    Hạng Khách Sạn
                                    Loại khách sạn
                                                    Khách sạn
                                                    Resort
                                Tiện nghi
                                                Đưa đón khách sạn sân bay
                                                Bữa sáng miễn phí
                                                Bể bơi ngoài trời
                                                Bãi đỗ xe
                                                Phòng họp
                                                Phòng tập thể thao
                                                Thang máy
                                                Thêm giường phụ
                                                Truyền hình cáp/vệ tinh
                                                Wifi miễn phí
                                                Giặt là
                                                Nhà hàng
                                                Spa
            Quận huyện
                        Thị xã Tây Ninh
                        Bến Cầu 
                        Châu Thành 
                        Dương Minh Châu 
                        Gò Dầu 
                        Hòa Thành 
                        Tân Biên 
                        Tân Châu 
                        Trảng Bàng 
            Khu vực
                        Khu du lịch Long Điền Sơn
                        Chợ Chồm Hổm
                        Ma Thiên Lãnh
                        Chợ Thạnh Tân
                        Khu du lịch núi Bà Đen
                        Bến xe khách Tây Ninh
                        Chợ Bàu Năng
                        Chợ Long Hoa
                        Chợ Dương Minh Châu
                        Nhà thờ Thánh Tuân
                        Cảng Bến Kéo
                        Chợ Mỏ Công
                        Chợ Trường Lưu
                        Chùa Cẩm Phong
                        Bến xe khách Tân Châu 
                        Chợ Tân Biên
                        Chợ Cầu Long Thuận
                        Cửa khẩu Phước Tân
                        Cửa khẩu Mộc Bài
                        Khu công nghiệp Phước Đông
                        Lò Gò - Xa Mát
                        Chợ Gò Dầu
                        Đông hồ Dầu Tiếng
                        Cửa khẩu Kà Tum
                        Chợ Trảng Bàng
             Giá tốt hơn so với đặt phòng trực
            tiếp tại khách sạn
             Đảm bảo 
            giá tốt nhất 
             Đảm bảo 
            hoàn tiền
             Nhân viên chăm sóc, tư vấn nhiều kinh nghiệm
             Hơn 5000 khách sạn tại Việt Nam với
            đánh giá thực
             Nhiều chương trình khuyến mãi và tích lũy điểm
             Thanh toán dễ dàng, đa dạng
                            Khách sạn tại Tây Ninh
                                     Xem Bản Đồ
                            Tây Ninh là tỉnh ở Đông Nam Bộ, Việt Nam, nằm ở vị trí cầu nối giữa Thành phố Hồ Chí Minh và Campuchia. Tây Ninh nổi tiếng với những điểm du lịch nổi tiếng như Tòa thánh Tây Ninh, núi Bà Đen, các căn cứ chính trị. Hãy để Mytour hỗ trợ bạn để có 1 chuyến đi thú vị, tiết kiệm bằng cách đặt phòng khách sạn Tây Ninh ngay bây giờ với giá từ 215,000 VND.
                                Có 17
                                khách sạn ở
                                đây theo ngày đã chọn
                        Ngày nhận phòng
                        Ngày trả phòng
                Số đêm
                Số phòng
                    123456789101112
                Người lớn
                    123456789101112
                Cập nhật ngày
                             Bộ lọc
                                            Phổ biến nhất
                                     Hạng khách sạn
                                                                                                Hạng sao [5...1]
                                                                                                Hạng sao [1...5]
                                            Đánh giá cao nhất
                                            Khuyến mãi
                                     Giá
                                                                                                Giá tăng dần
                                                                                                Giá giảm dần
                            Sắp xếp:
                            Đánh giá cao nhất
                        Phổ biến nhấtĐánh giá cao nhấtGiá tăng dầnGiá giảm dầnHạng tăng dầnHạng giảm dầnKhuyến mãi
                            Khách Sạn Thảo My Tây Ninh
                             313 Trần Hưng Đạo, Phường 1, Thị xã Tây Ninh, Tây Ninh 
                            (Xem bản đồ)
                            Bến xe khách Tây Ninh
                                        “Khách Sạn Thảo My Tây Ninh có đội ngũ nhân viên được đào tạo chuyên nghiệp và phục vụ tận tình. Đầy đủ tiện nghi, phòng thoáng mát và sạch sẽ. Trang thiết bị hiện đại và được bài trí sang trọng, ấm cú...
                                        “
                                                Đảm bảo hoàn tiền
                                                Đảm bảo giá tốt nhất!
                                                            7.8
                                Đánh giá
                                    (8
                                        đánh giá)
                                Xem phòng
                            Khách Sạn Hoà Bình (Khách sạn tạm ngưng hoạt động để sửa chữa)
                             436  Đường 30 Tháng 4, Thị xã Tây Ninh, Tây Ninh 
                            (Xem bản đồ)
                            Bến xe khách Tây Ninh
                                        “Khách Sạn Hoà Bình Tây Ninh là lựa chọn lý tưởng cho bạn để đi du lịch hay công tác với giá cả hợp lí. Các phòng nghỉ đầy đủ tiện nghi hiện đại. Đội ngũ nhân viên khách sạn phục vụ thân thiện và nhiệt...
                                        “
                                                Đảm bảo hoàn tiền
                                                Đảm bảo giá tốt nhất!
                                                            7.4
                                Đánh giá
                                    (6
                                        đánh giá)
                                Xem phòng
                            Khách Sạn Nhất Quý ( Sông Lam cũ)
                             353 Đại Lộ 30 Tháng 4, Khu Phố 1, Phường 1, Thị xã Tây Ninh, Tây Ninh 
                            (Xem bản đồ)
                            Chợ Chồm Hổm
                                        “Khách Sạn Nhất Quý Tây Ninh có đội ngũ nhân viên được đào tạo chuyên nghiệp và tận tình. Phòng ốc thoáng mát, đầy đủ tiện nghi cần thiết. Trang thiết bị hiện đại và được bài trí sang trọng, ấm cúng.
                                        “
                                                Đảm bảo hoàn tiền
                                                Đảm bảo giá tốt nhất!
                                                            8.0
                                Tốt
                                    (2
                                        đánh giá)
                                Xem phòng
                            Khách Sạn Hồng Liên
                             Tổ 9 Ấp Ninh Phú, Xã Bàu Năng, Dương Minh Châu , Tây Ninh 
                            (Xem bản đồ)
                            Chợ Bàu Năng
                                        “Khách Sạn Hồng Liên Tây Ninh có đội ngũ nhân viên được đào tạo chuyên nghiệp và tận tình. Phòng ốc thoáng mát, đầy đủ tiện nghi cần thiết. Trang thiết bị hiện đại và được bài trí sang trọng, ấm cúng....
                                        “
                                                Đảm bảo hoàn tiền
                                                Đảm bảo giá tốt nhất!
                                                            9.0
                                Rất tốt
                                    (2
                                        đánh giá)
                                Xem phòng
                            Khách Sạn Việt Phương
                             1b Kp1 Đường 30 Tháng 4, Phường 3, Thị xã Tây Ninh, Tây Ninh 
                            (Xem bản đồ)
                            Bến xe khách Tây Ninh
                                        “Khách Sạn Việt Phương Tây Ninh có phong cách phục vụ chu đáo, nhiệt tình chắc chắn sẽ làm quý khách hài lòng và mang đến cảm giác ấm cúng. Trang thiết bị hiện đại và được bài trí sang trọng, hòa nhã....
                                        “
                                                Đảm bảo hoàn tiền
                                                Đảm bảo giá tốt nhất!
                                Xem phòng
                            Khách sạn Anh Đào
                             1436 Đường 30 Tháng 4, Phường 1, Thị xã Tây Ninh, Tây Ninh 
                            (Xem bản đồ)
                            Chợ Chồm Hổm
                                                                    Khách sạn đang chờ duyệt giá.
                                Xem phòng
                            Khách sạn Yến Anh
                             367 Tôn Đức Thắng, Ấp Long Chí, Xã Long Thành Trung, Hòa Thành , Tây Ninh 
                            (Xem bản đồ)
                            Chợ Long Hoa
                                                                    Khách sạn đang chờ duyệt giá.
                                                            8.0
                                Tốt
                                    (1
                                        đánh giá)
                                Xem phòng
                            Khách Sạn Quyên
                             Ấp Ninh Phước, Xã Ninh Thạnh, Thị xã Tây Ninh, Tây Ninh 
                            (Xem bản đồ)
                            Chợ Chồm Hổm
                                                                    Khách sạn đang chờ duyệt giá.
                                Xem phòng
                            Khách Sạn Khánh Huy
                             Ô 1 Ấp Long Chí, Xã Long Thành Trung, Hòa Thành , Tây Ninh 
                            (Xem bản đồ)
                            Cảng Bến Kéo
                                                                    Khách sạn đang chờ duyệt giá.
                                Xem phòng
                            Khách Sạn Thiên Ngân
                             815b KP Hiệp Bình Cách Mạng Tháng Tám, Phường Hiệp Ninh, Thị xã Tây Ninh, Tây Ninh 
                            (Xem bản đồ)
                            Chợ Chồm Hổm
                                                                    Khách sạn đang chờ duyệt giá.
                                Xem phòng
                            Khách Sạn Lưu Luyến Tây Ninh
                             1602A2 Ql22, Ấp An Bình, Xã  An Tịnh, Trảng Bàng , Tây Ninh 
                            (Xem bản đồ)
                            Chợ Trảng Bàng
                                                                    Khách sạn đang chờ duyệt giá.
                                Xem phòng
                            Khách Sạn Song Quê
                             9/2A Kp2 Cách Mạng Tháng Tám, Phường 3, Thị xã Tây Ninh, Tây Ninh 
                            (Xem bản đồ)
                            Bến xe khách Tây Ninh
                                                                    Khách sạn đang chờ duyệt giá.
                                Xem phòng
                            Vạn Phước - Cty Tnhh Vạn Phước
                             157 Kp1 Đường 30 Tháng 4, P.1, Tx.Tây Ninh, Tây Ninh 
                            (Xem bản đồ)
                            Bến xe khách Tây Ninh
                                                                    Khách sạn đang chờ duyệt giá.
                                Xem phòng
                            Khách Sạn Ý Ý
                             277 Ấp Hiệp Long, X.Hiệp Tân, H.Hòa Thành, Tây Ninh 
                            (Xem bản đồ)
                            Chợ Long Hoa
                                                                    Khách sạn đang chờ duyệt giá.
                                Xem phòng
                            Hoa Đăng - Cty Tnhh Hoa Đăng
                             C1/7a Châu Văn Liêm, Ấp Hiệp Long, X.Hiệp Tân, H.Hòa Thành, Tây Ninh 
                            (Xem bản đồ)
                            Chợ Long Hoa
                                                                    Khách sạn đang chờ duyệt giá.
                                Xem phòng
                            Khách Sạn Triệu Đức
                             114 Kp5 Trưng Nữ Vương, P.1, Tx.Tây Ninh, Tây Ninh 
                            (Xem bản đồ)
                            Bến xe khách Tây Ninh
                                                                    Khách sạn đang chờ duyệt giá.
                                Xem phòng
                            Khách sạn Hương Sen
                             34, Nguyễn Hữu Thọ, phường 3, thành phố Tây Ninh 
                            (Xem bản đồ)
                                                                    Khách sạn đang chờ duyệt giá.
                                Xem phòng
                                Tây Ninh
                            Đặt phòng khách sạn Tây Ninh giá tốt nhất tại Mytour.vn, với nhiều khuyến mãi từ website và đơn vị khách sạn tiết kiệm lên đến 70%. Hơn 150.000 đánh giá từ khách hàng đã qua sử dụng khách sạn giúp bạn đưa ra những quyết định tốt nhất cho lựa chọn của mình. Đặc biệt chính sách ĐẢM BẢO HOÀN TIỀN chỉ có tại Mytour.vn, giờ đây bạn có thể hoàn toàn tin tưởng vào dịch vụ đặt phòng trực tuyến.Với hơn 5.000 khách sạn, resort tại 63 tỉnh/ thành phố, Mytour ngày càng được du khách tin dùng để tìm kiếm khách sạn. Mytour sẽ hỗ trợ quý khách đặt khách sạn Tây Ninh với chi phí hợp lý để có chuyến đi thật thú vị và tiết kiệm. Ngoài việc cung cấp những khách sạn giá tốt nhất, bạn có còn có thể tìm thấy nhiều thông tin du lịch hữu ích và thú vị khác.  Tây Ninh là một tỉnh ở Đông Nam Bộ, phía Tây và Tây Bắc giáp với Vương quốc Campuchia; phía Đông giáp với tỉnh Bình Dương và Bình Phước; phía Nam giáp Thành phố Hồ Chí Minh và tỉnh Long An.Tỉnh có hai cửa khẩu quốc gia là Mộc Bài và Sa Mát.  Khi đặt khách sạn tại Tây Ninh, Mytour với hệ thống đặt phòng có hơn 16 khách sạn được trang bị đầy đủ tiện nghi hiện đại cùng với dịch vụ chăm sóc khách hàng hoàn hảo sẽ mang lại cho bạn những trải nghiệm thú vị và hài lòng cả những du khách khó tính nhất.  Du lịch Tây Ninh bạn sẽ được tham quan những thắng cảnh nổi tiếng nơi đây như:                     Khu du lịch Ma Thiên Lãnh: Từ chân núi, men theo con đường nhựa trải dài uốn lượn trên một sườn đồi thơ mộng một bên là núi và một bên là cheo leo vực thẳm, văng vẳng bên tai đâu đó là tiếng chim kêu, vượn hú, tiếng suối róc rách giữa đại ngàn bao la cùng một bầu không khí trong lành đến tuyệt vời. Nằm cách thị xã Tây Ninh chưa đầy 30 phút ôtô, được che mình bởi núi Lớn (hay còn gọi là núi Bà), núi Phụng và núi Heo, Ma Thiên Lãnh hiện ra như một quần thể địa danh được kiến tạo bởi hang Ông Hổ, suối vàng, hầm đá...  Mộc Bài: Mộc Bài là cửa khẩu quốc tế đường bộ lớn nhất phía Nam trên tuyến biên giới đất liền Việt Nam - Campuchia. Cửa khẩu Mộc Bài không chỉ là một cửa ngõ của Tỉnh Tây Ninh trong việc phát triển giao lưu thương mại với Campuchia mà còn giữ vai trò quan trọng trong xây dựng, phát triển kinh tế hướng ngoại, trở thành trung tâm giao dịch thương mại quốc tế, thực hiện chương trình hợp tác tiểu vùng trong chiến lược phát triển kinh tế ở Nam Việt Nam. So với các cửa khẩu khác trên tuyến biên giới Việt Nam - Campuchia, cửa khẩu Mộc Bài có lợi thế đặc biệt vì nằm trên đường xuyên Á (con đường bắt đầu từ Myanmar, qua Thái Lan, Lào, Việt Nam, Campuchia và kết thúc ở Quảng Tây -Trung Quốc).  Căn cứ Trung Ương cục: Trung Ương Cục: Nằm cách thị xã Tây Ninh 64 km, từ năm 1962 - khu vực rộng 70 ha sát biên giới này là căn cứ Trung ương cục - gọi tắt là R: Bộ phận đầu não chỉ đạo trực tiếp cách mạng miền Nam. Từ cửa khẩu Sa Mát, con đường nhỏ rải nhựa len lỏi giữa rừng nhiệt đới luôn đầy ắp hương rừng. Rừng ở đây có giá tỵ (tếch), căm xe, gõ, trắc, đinh hương, bằng lăng, k’nia (cày)... nhưng nhiều nhất là họ Dầu. Thấp thoáng dưới tán cây là những căn nhà đơn sơ lợp lá trung quân. Lá được hái lúc còn xanh, gập đôi đan thành tấm lợp, vừa nhẹ vừa mát. Ðặc biệt lá trung quân gặp lửa là tự ngún chứ không cháy lan. Men theo những con đường mòn lốm đốm hoa nắng và hoa rừng khoe sắc là nhà làm việc của các cán bộ lãnh đạo R. Những mái nhà đơn sơ luôn rộn rã tiếng ve và ríu rít tiếng chim là những tên tuổi đã đi vào lịch sử cách mạng: Nguyễn Văn Linh, Nguyễn Chí Thanh, Phạm Hùng, Võ Văn Kiệt, Phan Văn Ðáng, Trần Nam Trung, Phạm Thái Bường... Vật dụng trong nhà giản dị với chõng tre; với những súc gỗ cưa tròn: nhỏ làm ghế, lớn làm bàn; với tủ và kệ bằng ván... Tất cả đều là sản vật của rừng dâng tặng. Dưới nền nhà là những căn hầm kiên cố được nối kết bởi hệ thống giao thông hào dài hàng chục km. Cạnh nhà vô số hố bom. Có hố sâu 5- 7 m, rộng 15 - 20 m được sử dụng như những ao cá nhỏ.  Nếu mỏi chân, khách có thể ngồi nghỉ cạnh những mái lều dã chiến hay ngả lưng trên những chiếc võng dù. Khi bụng cồn cào, xin mời ghé bếp Hoàng Cầm dùng thử bữa trưa với thực đơn: canh chua cá khô lá bứa, gà rừng xào lá giang, thịt heo kho măng...  Tòa thánh Tây Ninh: Đạo Cao Đài Tây Ninh ra đời cuối năm 1926 tại Tây Ninh do một số người đứng ra thành lập, mà đứng đầu là ông Phạm Công Tắc. Biểu tượng của đạo Cao Đài là Thiên Nhãn. Ngoài việc thờ Thiên Nhãn họ còn thờ các vị như Phật Thích Ca, chúa Giê su, Khổng Tử, Lão tử, Phật Bà Quan Âm... Tòa Thánh Tây Ninh được xây dựng quy mô tại một địa điểm cách thị xã Tây Ninh 5 km về phía Đông Nam. Bắt đầu khởi công năm 1933. Năm 1947 thì hoàn thành công việc xây dựng. Nhưng mãi đến năm 1955 mới khánh thành. Nội ô của tòa thánh rộng 1 km2, trong đó còn có đền thờ Phật mẫu, có vườn kiểng đoàn kết, có rừng thiên nhiên.  Bên cạnh đó, một yếu tố khác thu hút khách du lịch đó chính là nền ẩm thực phong phú và đa dạng. Lưu trú tại Tây Ninh, quý khách sẽ được thưởng thức đặc sản muối tôm Tây Ninh, bánh tráng phơi sương Trảng Bàng, bánh canh Trảng Bàng, vịt tiềm, heo quay, bánh ú lá tre, kẹo đậu phộng…  Hãy đến với dịch vụ đặt tour tại Tây Ninh qua hệ thống đặt phòng, đặt tour trực tuyến của Mytour để chúng tôi có thể hỗ trợ quý khách có một chuyến đi thật thú vị và tiết kiệm với chi phí hợp lý nhất!
            Địa danh ở gần
                                    Hồ Dầu Tiếng
                                     ~ 0km
                                    Tháp cổ Bình Thạnh
                                     ~ 0km
                                    Núi Bà Đen
                                     ~ 0km
                                                                Núi Bà Đen tọa lạc tại thành phố Tây Ninh, tỉnh Tây Ninh. Ngoài ra, du khách còn có cơ hội đến thăm nhiều địa điểm du lịch nổi tiếng như: chùa Điện Bà, KDL Long Điền Sơn, đền Quan lớn Trà Vong… Hãy để Mytour hỗ trợ bạn để có 1 chuyến đi thú vị, tiết kiệm bằng cách đặt phòng khách sạn khu vực núi Bà Đen ngay bây giờ với giá rẻ nhất.
                                    Chùa Bà Đen
                                     ~ 5.16km
                                                                Chùa Bà Đen tọa lạc trên núi Bà Đen, tp. Tây Ninh, tỉnh Tây Ninh. Ngoài ra, du khách còn có cơ hội đến thăm nhiều địa điểm du lịch nổi tiếng như: KDL Long Điền Sơn, chùa Điện Bà, đền Quan lớn Trà Vong… Hãy để Mytour hỗ trợ bạn để có 1 chuyến đi thú vị, tiết kiệm bằng cách đặt phòng khách sạn khu vực chùa Bà Đen ngay bây giờ với giá rẻ nhất.
                                    Núi Bà Đen
                                     ~ 5.51km
                                                                Núi Bà Đen tọa lạc tại thành phố Tây Ninh, tỉnh Tây Ninh. Ngoài ra, du khách còn có cơ hội đến thăm nhiều địa điểm du lịch nổi tiếng như: chùa Điện Bà, KDL Long Điền Sơn, đền Quan lớn Trà Vong… Hãy để Mytour hỗ trợ bạn để có 1 chuyến đi thú vị, tiết kiệm bằng cách đặt phòng khách sạn khu vực núi Bà Đen ngay bây giờ với giá rẻ nhất.
                                    Tòa thánh Cao Đài
                                     ~ 7.24km
                                                                Toà thánh Cao Đài tọa lạc tại huyện Hòa Thành, tỉnh Tây Ninh. Ngoài ra, du khách còn có cơ hội đến thăm nhiều địa điểm du lịch nổi tiếng như: Rừng Bà Sáu Mẹt, chợ Long Hoa, Công viên Hòa Thành … Hãy để Mytour hỗ trợ bạn để có 1 chuyến đi thú vị, tiết kiệm bằng cách đặt phòng khách sạn khu vực Toà thánh Cao Đài ngay bây giờ với giá rẻ nhất.
                                    Tòa thánh Tây Ninh 
                                     ~ 7.59km
                                                                Tòa thánh Tây Ninh tọa lạc tại tp. Tây Ninh, tỉnh Tây Ninh. Ngoài ra, du khách còn có cơ hội đến thăm nhiều địa điểm du lịch nổi tiếng như: núi Bà Đen, chùa Điện Bà, đền Quan lớn Trà Vong… Hãy để Mytour hỗ trợ bạn để có 1 chuyến đi thú vị, tiết kiệm bằng cách đặt phòng khách sạn khu vực Tòa thánh Tây Ninh ngay bây giờ với giá rẻ nhất.
                                    Toà thánh Cao Đài
                                     ~ 7.63km
                                                                Toà thánh Cao Đài tọa lạc tại huyện Hòa Thành, tỉnh Tây Ninh. Ngoài ra, du khách còn có cơ hội đến thăm nhiều địa điểm du lịch nổi tiếng như: Rừng Bà Sáu Mẹt, chợ Long Hoa, Công viên Hòa Thành … Hãy để Mytour hỗ trợ bạn để có 1 chuyến đi thú vị, tiết kiệm bằng cách đặt phòng khách sạn khu vực Toà thánh Cao Đài ngay bây giờ với giá rẻ nhất.
                                    Rừng Chàng Riệc
                                     ~ 7.78km
                                                                Rừng Chàng Riệc tọa lạc tại huyện Tân Biên, Tây Ninh. Ngoài ra, du khách còn có cơ hội đến thăm nhiều địa điểm nổi tiếng như: vườn Quốc gia Lò Gò – Xa Mát, di tích chiến thắng Tua Hai, Căn cứ Trung ương cục… Hãy để Mytour hỗ trợ bạn có 1 chuyến đi thú vị, tiết kiệm bằng cách đặt phòng khách sạn khu vực Rừng Chàng Riệc ngay bây giờ với giá rẻ nhất.
                                    Căn cứ Trung ương cục Tây Ninh
                                     ~ 7.78km
                                                                Căn cứ Trung ương cục Tây Ninh tọa lạc tại huyện Tân Biên, Tây Ninh. Ngoài ra, du khách còn có cơ hội đến thăm nhiều địa điểm nổi tiếng như: vườn Quốc gia Lò Gò – Xa Mát, di tích chiến thắng Tua Hai… Hãy để Mytour hỗ trợ bạn để có 1 chuyến đi thú vị, tiết kiệm bằng cách đặt phòng khách sạn khu vực Căn cứ Trung ương cục ngay bây giờ với giá rẻ nhất.
                                    Long Điền Sơn
                                     ~ 7.78km
                                                                Long Điền Sơn tọa lạc tại thành phố Tây Ninh, tỉnh Tây Ninh. Ngoài ra, du khách còn có cơ hội đến thăm nhiều địa điểm du lịch nổi tiếng như: núi Bà Đen, chùa Điện Bà, đền Quan lớn Trà Vong… Hãy để Mytour hỗ trợ bạn để có 1 chuyến đi thú vị, tiết kiệm bằng cách đặt phòng khách sạn khu vực Long Điền Sơn ngay bây giờ với giá rẻ nhất.
                                    Thung lũng Ma Thiên Lãnh
                                     ~ 7.78km
                                                                Thung lũng Ma Thiên Lãnh tọa lạc tại tp. Tây Ninh. Ngoài ra, du khách còn có cơ hội đến thăm nhiều địa điểm du lịch nổi tiếng như: núi Bà Đen, KDL Long Điền Sơn, chùa Điện Bà, đền Quan lớn Trà Vong… Hãy để Mytour hỗ trợ bạn có 1 chuyến đi thú vị, tiết kiệm bằng cách đặt phòng khách sạn khu vực Thung lũng Ma Thiên Lãnh ngay bây giờ với giá rẻ nhất.
                                    Công viên Hòa Thành
                                     ~ 9.04km
                                                                Công viên Hòa Thành thuộc huyện Hòa Thành, tỉnh Tây Ninh. Ngoài ra, du khách còn có cơ hội đến thăm nhiều địa điểm du lịch nổi tiếng như: Rừng Bà Sáu Mẹt, chợ Long Hoa, tòa thánh Cao Đài… Hãy để Mytour hỗ trợ bạn để có 1 chuyến đi thú vị, tiết kiệm bằng cách đặt phòng khách sạn khu vực Công viên Hòa Thành ngay bây giờ với giá rẻ nhất.
                                    Chùa Giác Ngạn
                                     ~ 9.88km
                                                                Chùa Giác Ngạn nằm trên địa phận huyện Châu Thành, tỉnh Tây Ninh. Ngoài ra, du khách còn có cơ hội đến thăm nhiều địa điểm du lịch nổi tiếng nơi đây như: sông Vàm Cỏ, sông Đình, chợ Hòa Bình… Hãy để Mytour hỗ trợ bạn để có 1 chuyến đi thú vị, tiết kiệm bằng cách đặt phòng khách sạn khu vực chùa Giác Ngạn ngay bây giờ với giá rẻ nhất.
                                    Chùa Thiền Lâm Tây Ninh
                                     ~ 10.55km
                                                                Chùa Thiền Lâm tọa lạc tại tp. Tây Ninh, tỉnh Tây Ninh. Ngoài ra, du khách còn có cơ hội đến thăm nhiều địa điểm du lịch nổi tiếng như: núi Bà Đen, KDL Long Điền Sơn, chùa Điện Bà, đền Quan lớn Trà Vong… Hãy để Mytour hỗ trợ bạn để có 1 chuyến đi thú vị, tiết kiệm bằng cách đặt phòng khách sạn khu vực chùa Thiền Lâm ngay bây giờ với giá rẻ nhất.
                                    Rừng Bà Sáu Mẹt
                                     ~ 13.07km
                                                                Rừng Bà Sáu Mẹt thuộc huyện Hòa Thành, tỉnh Tây Ninh. Ngoài ra, du khách còn có cơ hội đến thăm nhiều địa điểm du lịch nổi tiếng như: Công viên Hòa Thành, chợ Long Hoa, tòa thánh Cao Đài… Hãy để Mytour hỗ trợ bạn để có 1 chuyến đi thú vị, tiết kiệm bằng cách đặt phòng khách sạn khu vực Rừng Bà Sáu Mẹt ngay bây giờ với giá rẻ nhất.
                                    Cửa khẩu Mộc Bài
                                     ~ 32.87km
                                                                Cửa khẩu Mộc Bài thuộc huyện Bến Cầu và Trảng Bàng, tỉnh Tây Ninh. Đến đây, du khách có cơ hội đến thăm nhiều địa điểm du lịch nổi tiếng như: Siêu thị miễn thuế Mộc Bài, rừng Rong, địa đạo An Thới… Hãy để Mytour hỗ trợ bạn để có 1 chuyến đi thú vị, tiết kiệm bằng cách đặt phòng khách sạn khu vực Cửa khẩu Mộc Bài ngay bây giờ với giá rẻ nhất.
                 Du lịch Tây Ninh 
                ×
                    Chính sách đảm bảo hoàn tiền của mytour
                    Bạn chưa tin tưởng việc đặt phòng khách sạn trực tuyến? Bạn e ngại rằng phòng khách sạn thực tế không đúng với thông tin trên website? Chúng tôi cam kết đưa đầy đủ và chính xác thông tin khách sạn trên website với chính sách “Đảm bảo Hoàn tiền”
                        Nếu khách hàng đặt khách sạn thành công trên Mytour nhưng khách sạn không có phòng, Mytour sẽ hoàn lại tiền cho khách và tặng kèm phiếu giảm giá có giá trị bằng với số tiền khách hàng đã trả.
                        Trong trường hợp loại phòng thực tế không đúng với loại phòng trên đơn hàng, Mytour sẽ quyết định nâng cấp miễn phí hoặc tặng phiếu giảm giá có giá trị bằng với số tiền khách hàng đã trả.
                        Trường hợp các tiện nghi phòng khách sạn (như bữa sáng, wifi…) không đúng với nội dung trên website, Mytour sẽ tặng phiếu giảm giá có giá trị bằng 10% số tiền khách đã trả (tối đa 500,000 VND)
                        Khách hàng cần gọi điện thoại 04-7309 9899 (Hà Nội), 08-7309 9899 (Hồ Chí Minh) hoặc email tới info@mytour.vn và cung cấp mã đơn hàng trong vòng 24 giờ từ lúc nhận phòng để được trợ giúp giải quyết khiếu nại (Hotline chỉ hỗ trợ trong giờ hành chính).
                        Mytour không chịu trách nhiệm bồi thường thiệt hại gián tiếp, ngẫu nhiên, hay do hậu quả phát sinh. Trong mọi trường hợp, trách nhiệm của Mytour không vượt quá tổng số tiền khách hàng thanh toán đặt phòng.
                ×
                    Đảm bảo giá tốt nhất
                    Nếu Thành viên đã đặt một phòng khách sạn được “Đảm Bảo” tại Mytour.vn và sau đó, cho Mytour.vn  thấy rằng Thành viên có thể đặt một phòng tương tự trong cùng khoảng thời gian ở mức giá tốt hơn có thể xem và đặt được trên một website khác, Mytour.vn sẽ giảm giá bằng hoặc thấp hơn mức giá đó.
                    Giá dùng để so sánh là giá sau khi áp dụng mức giảm giá công bố trên website Mytour.vn.
                    Chính sách “Đảm Bảo Giá Tốt Nhất” của Mytour.vn chỉ áp dụng cho các đặt phòng đã được xác nhận và phải thỏa mãn những điều kiện sau:
                Cùng khách sạnCùng thời gian nghỉ lạiCùng loại Phòng/GiườngCùng các yêu cầu mua Trước, yêu cầu trả trước và đặt cọc (nếu có)Cùng chính sách Hủy và Sửa Đổi
                    Phòng đó phải còn trống để được xác nhận ngay tại thời điểm các đại lý của Mytour.vn  kiểm tra phòng trống
                        Chính sách “Đảm Bảo Giá Tốt Nhất” không áp dụng cho các mức giá không công bố, như: chương trình khách hàng thân thiện.
                        Bất kỳ tổ chức nào với các mức giá dành cho nhóm cá nhân cụ thể và không nhằm mục đích áp dụng ra bên ngoài.
                        Thành viên có thể gửi khiếu nại theo địa chỉ : info@mytour.vn
                                Nêu mã đặt phòng Mytour.vn trong dòng tiêu đề thư
                                Gửi URL của website nơi Thành viên tìm thấy mức giá tốt hơn
                                Cung cấp ảnh chụp màn hình của website đối thủ cạnh tranh trong đó nêu rõ Phòng Trống, Loại Phòng, và các mức giá cho những ngày nghỉ lại theo yêu cầu của Thành viên.
                VUI LÒNG LƯU Ý: Thành viên không cần thực hiện đặt phòng trên website của đối thủ cạnh tranh, chỉ cần cho Mytour.vn thấy sự so sánh.
                ×
                Đăng Nhập
                                 Đăng nhập bằng tài khoản Facebook
                                 Đăng nhập bằng tài khoản Google
                            Hoặc đăng nhập bằng
                        Email*
                        Mật khẩu*
                        Quên mật khẩu?
                            Chưa có tài khoản/tạo tài khoản
                Đăng nhập
                         Nhớ đăng nhập
                ×
                Bản đồ
                                            Tây Ninh
                    Tìm đường
                        Từ: 
                        Đến: 
                            Khách sạnĐịa danh Hiển thị các khách sạn ở gần Hiển thị các khu du lịch ở gần
                ×
                Yêu Cầu Lấy Giá
                                    Ngày nhận phòng
                                    Ngày trả phòng
                        Tên khách hàng
                        Email
                        Điện thoại
                        Nhân viên chăm sóc khách hàng sẽ gọi điện cho quý khách trong thời gian sớm nhất.
                        Quý khách có thể gọi điện đến cho Mytour để được tư vấn ngay:
                        Hà Nội: (04) 7109 9999, Hồ Chí Minh: (08) 7309 9899, Support
                            English: (+84)4-7309-9899.
                    Hoàn thành
                ×
                Gửi Thông Tin
                        Tên khách hàng
                        Email
                        Điện thoại
                            Quý khách sẽ thấy giá giảm ngay trên trang sau khi gửi thông tin
                    Hoàn thành
                ×
                Nhận Giá Tốt
                                    Ngày nhận phòng
                                    Ngày trả phòng
                        Tên khách hàng
                        Email
                        Điện thoại
                        Vì giá tốt không được công bố nên hệ thống sẽ gửi giá qua email đến quý khách và nhân viên chăm
                        sóc sẽ gọi điện cho quý khách trong thời gian sớm nhất.
                        Quý khách có thể gọi điện đến cho Mytour để được tư vấn ngay:
                        Hà Nội: (04) 7109 9999, Hồ Chí Minh: (08) 7309 9899, Support
                            English: (+84)4-7309-9899.
                    Hoàn thành
                ×
                ×
                ĐÁNH GIÁ 
                        Tên
                        Tiêu đề
                        Kiểu du lịch?
                                -- Chọn --Cá nhânCặp đôiGia đìnhBạn bèDoanh nghiệp
                        Nội dung
                                Đánh giá chi tiết
                                Chỗ ở
                                5
                                Thức ăn
                                5
                                Phương tiện
                                5
                                Hướng dẫn viên
                                5
                                Lịch trình
                                5
                    Gửi đánh giá
                    Hủy Bỏ
                ×
                Gửi lại email kích hoạt
                ×
                Thông tin chi tiết giá theo phòng
                    Chọn khoảng thời gian hiển thị giá phòng
                    Hiển thị giá
                ×
                Khóa phòng theo khoảng thời gian
                            Chọn khoảng thời gian check-in cần khóa/mở phòng
                            Khóa phòng
                            Mở phòng
                ×
                THUẾ VÀ PHÍ DỊCH VỤ
                17% thuế và phí dịch vụ bao gồm:
                    - 10% thuế và 5% phí dịch vụ hoàn trả lại cho khách sạn.
                    - 2% phí giao dịch tại Mytour.
                ×
                Bạn có hài lòng về website của Mytour?
                    Thông điệp nhắn nhủ:
                Mytour luôn mong muốn cải thiện dịch vụ để bạn có trải nghiệm tốt hơn!
                            Ảnh đính kèm
                        Đóng
                        Gửi
                ×
                    Những đóng góp của bạn đã được ghi nhận. Mytour cám ơn bạn !
                Quay lại website
            Khách sạn theo các tỉnh thành
                        An Giang
                        Bà Rịa - Vũng Tàu
                        Bắc Giang
                        Bắc Kạn
                        Bạc Liêu
                        Bắc Ninh
                        Bến Tre
                        Bình Định
                        Bình Dương
                        Bình Phước
                        Bình Thuận
                        Cà Mau
                        Cần Thơ
                        Cao Bằng
                        Đà Lạt
                        Đà Nẵng
                        Đắk Nông
                        Đắk Lắk
                        Điện Biên
                        Đồng Nai
                        Đồng Tháp
                        Gia Lai
                        Hà Giang
                        Hạ Long
                        Hà Nam
                        Hà Nội
                        Hà Tĩnh
                        Hải Dương
                        Hải Phòng
                        Hậu Giang
                        Hồ Chí Minh
                        Hoà Bình
                        Hội An
                        Hưng Yên
                        Khánh Hòa
                        Kiên Giang
                        Kon Tum
                        Lai Châu
                        Lâm Đồng
                        Lạng Sơn
                        Lào Cai
                        Long An
                        Nam Định
                        Nghệ An
                        Nha Trang
                        Ninh Bình
                        Ninh Thuận
                        Phan Thiết
                        Phú Quốc
                        Phú Thọ
                        Phú Yên
                        Quảng Bình
                        Quảng Nam
                        Quảng Ngãi
                        Quảng Ninh
                        Quảng Trị
                        Sa Pa
                        Sóc Trăng
                        Sơn La
                        Tây Ninh
                        Thái Bình
                        Thái Nguyên
                        Thanh Hoá
                        Thành Phố Huế
                        Thừa Thiên Huế
                        Tiền Giang
                        Trà Vinh
                        Tuyên Quang
                        Vĩnh Long
                        Vĩnh Phúc
                        Vũng Tàu
                        Yên Bái
                Du lịch Tây Ninh
                                Du lịch Hòa Thành 
                                Du lịch Thị xã Tây Ninh
                                Du lịch Tân Biên 
                                Du lịch Trảng Bàng 
                                Du lịch Bến Cầu 
                                Du lịch Châu Thành 
                                Du lịch Dương Minh Châu 
                            Giới thiệu Mytour
                            Đối tác khách sạn
                            Đăng nhập HMS
                            Tích lũy Vpoint
                            Điều khoản sử dụng
                            Quy chế hoạt động
                            Tuyển dụng
                            Liên hệ
                            Đăng ký nhận email
                                Đăng ký email để nhận khuyến mãi lên đến 70%
                                    Đăng
                                    ký
                    Công ty TNHH Mytour Việt Nam
                    Số ĐKKD: 0105983269 cấp ngày 30/08/2012
                    Văn phòng Hà Nội: Tầng 4, tòa nhà GP Invest, 170 Đê La Thành, Đống Đa
                    Văn phòng HCM: Tầng 5, Tòa Nhà HDTC, Số 36 Bùi Thị Xuân, Q.1
                Hotline
                        Hà Nội:
                        (04) 7109 9999
                        Tp. HCM:
                        (08) 7309 9899
                        ENGLISH SUPPORT:
                        (+84)4 7309 9899
