url:http://mytour.vn/a941/khach-san-khu-vuc-ga-an-cuu.html
Tittle :Khách sạn gần Ga An Cựu - Thừa Thiên Huế giá tốt nhất - Mytour.vn
content :Đặt phòng trực tuyến, hoặc gọi
                                                            Hà Nội: (04) 7109 9999
                                                                                        - (04) 7309 9899
                                                            Hồ Chí Minh: (08) 7309 9899
                                                                                        - (08) 7109 9998
                        T2 - CN: 08:00 - 23:00
                    Toggle navigation
                                Bạn không có thông báo nào
                    |
                    ||
                                                            Tài khoản
                        Đăng nhập
                                Đăng kýKhách sạn yêu thích
                            Khách sạn
                            Tour
                            Cẩm nang du lịch
                            Thông tin
                                                Về Mytour
                                                Tin khuyến mãi
                                                Ưu đãi
                                                Hướng dẫn
                                                Liên hệ
                            Tốt nhất 2016
                ×
                Bạn có chắc muốn hủy đơn hàng?
                Lorem ipsum dolor sit amet, consectetur adipisicing elit. Iure corporis repudiandae nobis distinctio
                quae quos, officia modi, ab voluptatem pariatur ducimus mollitia, necessitatibus sed soluta dicta
                repellendus! Praesentium debitis, temporibus?
                    Đồng ý
                    Đóng
                    Khách sạnThừa Thiên HuếHuếKhách sạn gần Ga An Cựu
                    Áp dụng
                    Đóng
            Tìm Kiếm Khách Sạn
                            Ngày nhận phòng
                            Ngày trả phòng
                    Số đêm
                    Số phòng
                        123456789101112
                    Người lớn
                        123456789101112
                    Tìm khách sạn
                                Bộ lọc tìm kiếm
                                        Theo mức giá
                                                        Dưới 500.000
                                                        500.000 - 1.000.000
                                                        1.000.000 - 1.500.000
                                                        1.500.000 - 2.000.000
                                                        2.000.000 - 2.500.000
                                                        2.500.000 - 3.000.000
                                                        Trên 3.000.000
                                    Hạng Khách Sạn
                                    Loại khách sạn
                                                    Khách sạn
                                                    Resort
                                Tiện nghi
                                                Đưa đón khách sạn sân bay
                                                Bữa sáng miễn phí
                                                Bể bơi ngoài trời
                                                Bãi đỗ xe
                                                Phòng họp
                                                Phòng tập thể thao
                                                Thang máy
                                                Thêm giường phụ
                                                Truyền hình cáp/vệ tinh
                                                Wifi miễn phí
                                                Giặt là
                                                Nhà hàng
                                                Spa
            Quận huyện
                        Huế
             Giá tốt hơn so với đặt phòng trực
            tiếp tại khách sạn
             Đảm bảo 
            giá tốt nhất 
             Đảm bảo 
            hoàn tiền
             Nhân viên chăm sóc, tư vấn nhiều kinh nghiệm
             Hơn 5000 khách sạn tại Việt Nam với
            đánh giá thực
             Nhiều chương trình khuyến mãi và tích lũy điểm
             Thanh toán dễ dàng, đa dạng
                            Khách sạn gần Ga An Cựu
                                     Xem Bản Đồ
                            Ga An Cựu nằm ở thành phố Huế, tỉnh Thừa Thiên Huế, là một nhà ga khá nổi tiếng của thành phố Huế. Nhà Ga có vị trí không xa trung tâm thành phố, nằm trên trục đường chính và có lối kiến trúc khá thoáng đãng. Hãy để Mytour hỗ trợ bạn để có 1 chuyến đi thú vị, tiết kiệm bằng cách đặt phòng khách sạn Ga An Cựu ngay bây giờ với giá từ 354,000 VND.
                                Có 157
                                khách sạn ở
                                đây theo ngày đã chọn
                        Ngày nhận phòng
                        Ngày trả phòng
                Số đêm
                Số phòng
                    123456789101112
                Người lớn
                    123456789101112
                Cập nhật ngày
                             Bộ lọc
                                            Phổ biến nhất
                                     Hạng khách sạn
                                                                                                Hạng sao [5...1]
                                                                                                Hạng sao [1...5]
                                            Đánh giá cao nhất
                                            Khuyến mãi
                                     Giá
                                                                                                Giá tăng dần
                                                                                                Giá giảm dần
                            Sắp xếp:
                            Đánh giá cao nhất
                        Phổ biến nhấtĐánh giá cao nhấtGiá tăng dầnGiá giảm dầnHạng tăng dầnHạng giảm dầnKhuyến mãi
                            Khách Sạn Asia Huế
                             17 Phạm Ngũ Lão, Huế, Thừa Thiên Huế 
                            (Xem bản đồ)
                                                ~ 2.01km
                            Ven Sông / Sông Hương
                                        “Khách Sạn Asia Huế nằm ngay tại trung tâm Huế với view nhìn ra dòng sông Hương thơ mộng, gần cây cầu Tràng Tiền lịch sử và chợ Đông Ba. Đội ngũ nhân viên khách sạn phục vụ thân thiện và nhiệt tình.
                                        “
                                                Đảm bảo hoàn tiền
                                                Đảm bảo giá tốt nhất!
                                                            8.1
                                Tốt
                                    (48
                                        đánh giá)
                                Xem phòng
                            Khách Sạn Thanh Lịch 1
                             33 Hai Bà Trưng, Huế, Thừa Thiên Huế 
                            (Xem bản đồ)
                                                ~ 1.3km
                            Ga An Cựu
                                        “Khách Sạn Thanh Lịch 1 Huế mang lại dịch vụ cao cấp cho khách và một loạt những tiện nghi hiện đại sẽ đem đến cho bạn một kì nghỉ thoải mái nhất. Đội ngũ nhân viên khách sạn phục vụ thân thiện và nhiệ...
                                        “
                                                Đảm bảo hoàn tiền
                                                Đảm bảo giá tốt nhất!
                                                            7.8
                                Đánh giá
                                    (31
                                        đánh giá)
                                Xem phòng
                            Khách Sạn Emm Huế
                             15 Lý Thường Kiệt, Huế, Thừa Thiên Huế 
                            (Xem bản đồ)
                                                ~ 1.24km
                            Ga An Cựu
                                        “Khách Sạn Festival Huế có phong cách phục vụ chuyên nghiệp và thân thiện, bạn sẽ được nghỉ ngơi thoải mái sau những ngày làm việc căng thẳng. Trang thiết bị hiện đại và được bài trí sang trọng, ấm cún...
                                        “
                                                Đảm bảo hoàn tiền
                                                Đảm bảo giá tốt nhất!
                                                            7.9
                                Đánh giá
                                    (17
                                        đánh giá)
                                Xem phòng
                            Khách Sạn Imperial Huế 
                             8 Hùng Vương, Huế, Thừa Thiên Huế 
                            (Xem bản đồ)
                                                ~ 1.78km
                            Kinh thành Huế
                                        “Khách Sạn Imperial Huế có thiết kế cực kỳ sang trọng, bài trí mang đậm phong cách hoàng gia. Đội ngũ nhân viên phục vụ tận tình và chu đáo. Khách sạn nằm ở trung tâm nên thuận tiện đi lại và tham quan...
                                        “
                                                Đảm bảo hoàn tiền
                                                Đảm bảo giá tốt nhất!
                                                            8.4
                                Tốt
                                    (90
                                        đánh giá)
                                Xem phòng
                            Khách Sạn Park View 
                             09 Ngô Quyền, Huế, Thừa Thiên Huế 
                            (Xem bản đồ)
                                                ~ 1.58km
                            Kinh thành Huế
                                        “Khách Sạn Park View Huế tọa lạc tại ngay bên dòng Hương Giang thơ mộng, chỉ cách trung tâm văn hóa, mua sắm của cố đô 10 phút đi bộ. Đội ngũ nhân viên khách sạn phục vụ thân thiện và nhiệt tình.
                                        “
                                                Đảm bảo hoàn tiền
                                                Đảm bảo giá tốt nhất!
                                                            8.1
                                Tốt
                                    (46
                                        đánh giá)
                                Xem phòng
                            Khách Sạn Century Riverside Huế
                             49 Lê Lợi, Huế, Thừa Thiên Huế 
                            (Xem bản đồ)
                                                ~ 2.1km
                            Ven Sông / Sông Hương
                                        Khách sạn bán chạy nhất trên Mytour 2015
                                        “Khách Sạn Century Riverside Huế có hệ thống phòng ngủ sang trọng, các dịch vụ phong phú, hoàn hảo cùng với phong cách phục vụ ân cần, lịch sự.
                                        “
                                                Đảm bảo hoàn tiền
                                                Đảm bảo giá tốt nhất!
                                                            7.7
                                Đánh giá
                                    (158
                                        đánh giá)
                                Xem phòng
                            Khách Sạn Sài Gòn Morin
                             30 Lê Lợi, Huế, Thừa Thiên Huế 
                            (Xem bản đồ)
                                                ~ 1.87km
                            Kinh thành Huế
                                        “Khách Sạn Sài Gòn Morin Huế rất thoáng mát, phòng ốc sạch sẽ, trang thiết bị đầy đủ và tiện nghi. Nhân viên lại vô cùng thân thiện, nhiệt tình. Khách sạn nằm ở trung tâm nên thuận tiện đi lại và tham...
                                        “
                                                Đảm bảo hoàn tiền
                                                Đảm bảo giá tốt nhất!
                                                            8.5
                                Tốt
                                    (19
                                        đánh giá)
                                Xem phòng
                            Khách Sạn Thành Nội
                             57 Đặng Dung, Huế, Thừa Thiên Huế 
                            (Xem bản đồ)
                                                ~ 3.13km
                            Kinh thành Huế
                                        “Khách Sạn Thành Nội Huế nằm ở khu vườn thơ mộng của trung tâm thành phố Huế. Đường phố đều yên tĩnh và thuận tiện để du khách tham quan. Trang thiết bị hiện đại và được bài trí sang trọng, ấm cúng.
                                        “
                                                Đảm bảo hoàn tiền
                                                Đảm bảo giá tốt nhất!
                                                            7.3
                                Đánh giá
                                    (19
                                        đánh giá)
                                Xem phòng
                            Khách Sạn Duy Tân 1
                             12 Hùng Vương, Huế, Thừa Thiên Huế 
                            (Xem bản đồ)
                                                ~ 1.63km
                            Kinh thành Huế
                                        “Khách Sạn Duy Tân 1 Huế có phong cách phục vụ chuyên nghiệp và thân thiện của nhân viên, du khách sẽ được nghỉ ngơi, nghỉ dưỡng hết sức thoải mái. Trang thiết bị hiện đại và được bài trí sang trọng, ấ...
                                        “
                                                Đảm bảo hoàn tiền
                                                Đảm bảo giá tốt nhất!
                                                            7.9
                                Đánh giá
                                    (64
                                        đánh giá)
                                Xem phòng
                            Khách Sạn Jasmine Huế 
                             8-10 Chu Văn An, Huế, Thừa Thiên Huế 
                            (Xem bản đồ)
                                                ~ 2.08km
                            Ven Sông / Sông Hương
                                        “Khách Sạn Jasmine Huế được thiết kế với kiến trúc mang vẻ thanh lịch kết hợp với không gian hiện đại và sang trọng, nổi bật giữa sông Hương êm đềm. Đội ngũ nhân viên khách sạn phục vụ thân thiện và nh...
                                        “
                                                Đảm bảo hoàn tiền
                                                Đảm bảo giá tốt nhất!
                                                            7.9
                                Đánh giá
                                    (59
                                        đánh giá)
                                Xem phòng
                            Hương Giang Resort & Spa
                             51 Lê Lợi, Huế, Thừa Thiên Huế 
                            (Xem bản đồ)
                                                ~ 2.21km
                            Ven Sông / Sông Hương
                                        “Hương Giang Resort & Spa Huế nằm ở trung tâm thành phố, bên dòng sông Hương thơ mộng với sân vườn trong xanh. Nhân viên rất nhiệt tình và chu đáo. Trang thiết bị hiện đại và được bài trí sang trọng, ấ...
                                        “
                                                Đảm bảo hoàn tiền
                                                Đảm bảo giá tốt nhất!
                                                            8.1
                                Tốt
                                    (183
                                        đánh giá)
                                Xem phòng
                            Khách Sạn Alba Spa
                             29 Trần Quang Khải, Huế, Thừa Thiên Huế 
                            (Xem bản đồ)
                                                ~ 1.5km
                            Ga An Cựu
                                        “Khách Sạn Alba Spa Huế tọa lạc ngay trong lòng cố đô, gần sông Hương, có thiết kế sang trọng và hiện đại, là lựa sự chọn hoàn hảo để khám phá Huế. Đội ngũ nhân viên khách sạn phục vụ thân thiện và nhi...
                                        “
                                                Đảm bảo hoàn tiền
                                                Đảm bảo giá tốt nhất!
                                                            7.8
                                Đánh giá
                                    (35
                                        đánh giá)
                                Xem phòng
                            Khách Sạn Cherish Huế
                             57-59 Bến Nghé, Huế, Thừa Thiên Huế 
                            (Xem bản đồ)
                                                ~ 1.55km
                            Ga An Cựu
                                        “Khách Sạn Cherish Huế nằm ở trung tâm với cảnh quan tuyệt vời nhìn ra thành phố và con sông xinh đẹp. Nội thất được trang bị đầy đủ và tiện nghi. Đội ngũ nhân viên khách sạn phục vụ thân thiện và nhiệ...
                                        “
                                                Đảm bảo hoàn tiền
                                                Đảm bảo giá tốt nhất!
                                                            8.0
                                Tốt
                                    (41
                                        đánh giá)
                                Xem phòng
                            Khách Sạn Alba 
                             12 Nguyễn Văn Cừ, Huế, Thừa Thiên Huế 
                            (Xem bản đồ)
                                                ~ 1.43km
                            Kinh thành Huế
                                        “Khách Sạn Alba Huế có phong cách phục vụ chuyên nghiệp và thân thiện, bạn sẽ được nghỉ ngơi thoải mái sau những ngày làm việc căng thẳng. Trang thiết bị hiện đại và được bài trí sang trọng, ấm cúng.
                                        “
                                                Đảm bảo hoàn tiền
                                                Đảm bảo giá tốt nhất!
                                                            7.9
                                Đánh giá
                                    (19
                                        đánh giá)
                                Xem phòng
                            Pilgrimage Village Hue Boutique Resort & Spa
                             130 Minh Mạng, Huế, Thừa Thiên Huế 
                            (Xem bản đồ)
                                                ~ 3.71km
                            Đàn Nam Giao
                                        “Pilgrimage Village Hue Boutique Resort & Spa có nội thất trang nhã, ấm cúng, cùng với vị trí cực kì thuận lợi, đây hứa hẹn là nơi nghỉ dưỡng tuyệt vời. Đây chắc chắn là một điểm đến không thể bỏ qua....
                                        “
                                                Đảm bảo hoàn tiền
                                                Đảm bảo giá tốt nhất!
                                                            8.3
                                Tốt
                                    (24
                                        đánh giá)
                                Xem phòng
                            Khách Sạn Hoàng Tuấn
                             Lô B16, B17 Phạm Văn Đồng, Huế, Thừa Thiên Huế 
                            (Xem bản đồ)
                                                ~ 3.31km
                            Ven Sông / Sông Hương
                                        “Khách Sạn Hoàng Tuấn Huế có sự đầu tư cơ sở vật chất, với đội ngũ nhân viên nhiệt tình, giàu kinh nghiệm mang đến những trải nghiệm tuyệt vời nhất. Trang thiết bị hiện đại và được bài trí sang trọng,...
                                        “
                                                Đảm bảo hoàn tiền
                                                Đảm bảo giá tốt nhất!
                                                            7.2
                                Đánh giá
                                    (4
                                        đánh giá)
                                Xem phòng
                            Khách Sạn Thái Ý
                             10 Phạm Văn Đồng, Phường Vĩ Dạ, Huế, Thừa Thiên Huế 
                            (Xem bản đồ)
                                                ~ 2.25km
                            Ven Sông / Sông Hương
                                        “Khách Sạn Thái Ý Huế nằm ngay chân cầu Vĩ Dạ thơ mộng, cơ sở vật chất hiện đại, phòng nghỉ đầy đủ tiện nghi hứa hẹn là một nơi nghỉ ngơi lý tưởng. Đội ngũ nhân viên khách sạn phục vụ thân thiện và nhi...
                                        “
                                                Đảm bảo hoàn tiền
                                                Đảm bảo giá tốt nhất!
                                                            7.4
                                Đánh giá
                                    (5
                                        đánh giá)
                                Xem phòng
                            Khách Sạn Ngự Bình
                             130 Trần Phú, Huế, Thừa Thiên Huế 
                            (Xem bản đồ)
                                                ~ 1.11km
                            Ga An Cựu
                                        “Khách Sạn Ngự Bình tọa lạc ngay tại trung tâm thành phố Huế, gần bờ sông Hương thơ mộng, hiền hòa, tựa vào ngọn núi Ngự Bình hùng vĩ. Trang thiết bị hiện đại và được bài trí sang trọng, ấm cúng.
                                        “
                                                Đảm bảo hoàn tiền
                                                Đảm bảo giá tốt nhất!
                                                            7.4
                                Đánh giá
                                    (4
                                        đánh giá)
                                Xem phòng
                            Khách Sạn Thăng Long
                             18 Hùng Vương, Huế, Thừa Thiên Huế 
                            (Xem bản đồ)
                                                ~ 1.19km
                            Ga An Cựu
                                        “Khách Sạn Thăng Long có cơ sở vật chất hiện đại, đầy đủ tiện nghi hứa hẹn là một nơi nghỉ ngơi lý tưởng cho quý khách khi đến thăm thành phố Huế. Đội ngũ nhân viên khách sạn phục vụ thân thiện và nhiệ...
                                        “
                                                Đảm bảo hoàn tiền
                                                Đảm bảo giá tốt nhất!
                                                            7.7
                                Đánh giá
                                    (2
                                        đánh giá)
                                Xem phòng
                            Khách Sạn Cố Đô
                             32 Trường Chinh, Tp. Huế 
                            (Xem bản đồ)
                                                ~ 1.1km
                            Ga An Cựu
                                        “Khách Sạn Cố Đô Huế nằm ở trung tâm của thành phố Huế, một thành phố nhỏ nhưng là nơi có nhiều di tích lịch sử, nhiều thắng cảnh đẹp và nổi tiếng. Đội ngũ nhân viên khách sạn phục vụ thân thiện và nhi...
                                        “
                                                Đảm bảo hoàn tiền
                                                Đảm bảo giá tốt nhất!
                                                            8.0
                                Tốt
                                    (1
                                        đánh giá)
                                Xem phòng
                «
                Trang trước
                1
                2
                3
                4
                5
                6
                7
                8
                Trang sau
                »
                                Ga An Cựu
                            Với hơn 5.000 khách sạn, resort tại 63 tỉnh/ thành phố, Mytour ngày càng được du khách tin dùng để đặt khách sạn. Mytour sẽ hỗ trợ quý khách du lịch thành phố Huế với chi phí hợp lý để có chuyến đi thật thú vị và tiết kiệm. Ngoài việc cung cấp những khách sạn giá tốt nhất, bạn còn có thể tìm thấy nhiều thông tin du lịch hữu ích và thú vị khác.  Du lịch thành phố Huế giá tốt nhất tại Mytour.vn, với nhiều khuyến mãi từ website và đơn vị khách sạn tiết kiệm lên đến 70%. Hơn 150.000 đánh giá từ khách hàng đã qua sử dụng khách sạn giúp bạn đưa ra những quyết định tốt nhất cho lựa chọn của mình. Đặc biệt chính sách ĐẢM BẢO HOÀN TIỀN chỉ có tại Mytour.vn, giờ đây bạn có thể hoàn toàn tin tưởng vào dịch vụ đặt phòng trực tuyến.  Ga An Cựu nằm trên đường Ngự Bình, thành phố Huế, tỉnh Thừa Thiên Huế, Việt Nam là một nhà ga khá nổi tiếng của thành phố Huế. Nhà Ga có vị trí không xa trung tâm thành phố, nằm trên trục đường chính và có lối kiến trúc khá thoáng đãng. Chính vì thế mà khá nhiều người chọn nới đây làm điểm đến hay điểm khởi hành, cũng như là một điểm tham quan, chụp ảnh khá lý tưởng. Qua thời gian, cách ngành dịch vụ đi kèm như nhà hàng, khách sạn cũng phát triển xung quanh khiến khu vực này trở nên rất rộn ràng, náo nhiệt. Có thể nới, Ga An Cựu là điểm đến, điểm tham quan, nghỉ ngơi rất lý tưởng nếu bạn đến với xứ Huế.  Ghé thăm Ga An Cựu, ghé thăm thành phố Huế, bạn sẽ được thưởng thức  những đặc sản như món mắm ruốc khó quên, món cơm hến lạ kỳ, món bánh canh Bà Đợi đậm đà, hay món bún bò vang danh bốn bể. Chưa dừng lại ở đó, bạn sẽ được tham quan khám phá những địa danh tuyệt vời như Chùa Thiên Mụ, Đại Nội Huế, Lăng Tự Đức, sông Hương hay núi Bạch Mã, đảm bảo sẽ mang bạn đi lên hành trình của sự chuyển giao cảm xúc, của lòng thành kính và những lời thì thầm của lịch sử.  Đừng ngần ngại mà hãy thưởng cho mình những khoảnh khắc để đời bằng cách nhanh tay book tour du lịch Thừa Thiên Huế, và cũng đừng quên đặt phòng khách sạn Thừa Thiên Huế qua hệ thống trực tuyến của Mytour để được hưởng những ưu đãi không thể chối từ bạn nhé.
                ×
                    Chính sách đảm bảo hoàn tiền của mytour
                    Bạn chưa tin tưởng việc đặt phòng khách sạn trực tuyến? Bạn e ngại rằng phòng khách sạn thực tế không đúng với thông tin trên website? Chúng tôi cam kết đưa đầy đủ và chính xác thông tin khách sạn trên website với chính sách “Đảm bảo Hoàn tiền”
                        Nếu khách hàng đặt khách sạn thành công trên Mytour nhưng khách sạn không có phòng, Mytour sẽ hoàn lại tiền cho khách và tặng kèm phiếu giảm giá có giá trị bằng với số tiền khách hàng đã trả.
                        Trong trường hợp loại phòng thực tế không đúng với loại phòng trên đơn hàng, Mytour sẽ quyết định nâng cấp miễn phí hoặc tặng phiếu giảm giá có giá trị bằng với số tiền khách hàng đã trả.
                        Trường hợp các tiện nghi phòng khách sạn (như bữa sáng, wifi…) không đúng với nội dung trên website, Mytour sẽ tặng phiếu giảm giá có giá trị bằng 10% số tiền khách đã trả (tối đa 500,000 VND)
                        Khách hàng cần gọi điện thoại 04-7309 9899 (Hà Nội), 08-7309 9899 (Hồ Chí Minh) hoặc email tới info@mytour.vn và cung cấp mã đơn hàng trong vòng 24 giờ từ lúc nhận phòng để được trợ giúp giải quyết khiếu nại (Hotline chỉ hỗ trợ trong giờ hành chính).
                        Mytour không chịu trách nhiệm bồi thường thiệt hại gián tiếp, ngẫu nhiên, hay do hậu quả phát sinh. Trong mọi trường hợp, trách nhiệm của Mytour không vượt quá tổng số tiền khách hàng thanh toán đặt phòng.
                ×
                    Đảm bảo giá tốt nhất
                    Nếu Thành viên đã đặt một phòng khách sạn được “Đảm Bảo” tại Mytour.vn và sau đó, cho Mytour.vn  thấy rằng Thành viên có thể đặt một phòng tương tự trong cùng khoảng thời gian ở mức giá tốt hơn có thể xem và đặt được trên một website khác, Mytour.vn sẽ giảm giá bằng hoặc thấp hơn mức giá đó.
                    Giá dùng để so sánh là giá sau khi áp dụng mức giảm giá công bố trên website Mytour.vn.
                    Chính sách “Đảm Bảo Giá Tốt Nhất” của Mytour.vn chỉ áp dụng cho các đặt phòng đã được xác nhận và phải thỏa mãn những điều kiện sau:
                Cùng khách sạnCùng thời gian nghỉ lạiCùng loại Phòng/GiườngCùng các yêu cầu mua Trước, yêu cầu trả trước và đặt cọc (nếu có)Cùng chính sách Hủy và Sửa Đổi
                    Phòng đó phải còn trống để được xác nhận ngay tại thời điểm các đại lý của Mytour.vn  kiểm tra phòng trống
                        Chính sách “Đảm Bảo Giá Tốt Nhất” không áp dụng cho các mức giá không công bố, như: chương trình khách hàng thân thiện.
                        Bất kỳ tổ chức nào với các mức giá dành cho nhóm cá nhân cụ thể và không nhằm mục đích áp dụng ra bên ngoài.
                        Thành viên có thể gửi khiếu nại theo địa chỉ : info@mytour.vn
                                Nêu mã đặt phòng Mytour.vn trong dòng tiêu đề thư
                                Gửi URL của website nơi Thành viên tìm thấy mức giá tốt hơn
                                Cung cấp ảnh chụp màn hình của website đối thủ cạnh tranh trong đó nêu rõ Phòng Trống, Loại Phòng, và các mức giá cho những ngày nghỉ lại theo yêu cầu của Thành viên.
                VUI LÒNG LƯU Ý: Thành viên không cần thực hiện đặt phòng trên website của đối thủ cạnh tranh, chỉ cần cho Mytour.vn thấy sự so sánh.
                ×
                Đăng Nhập
                                 Đăng nhập bằng tài khoản Facebook
                                 Đăng nhập bằng tài khoản Google
                            Hoặc đăng nhập bằng
                        Email*
                        Mật khẩu*
                        Quên mật khẩu?
                            Chưa có tài khoản/tạo tài khoản
                Đăng nhập
                         Nhớ đăng nhập
                ×
                Bản đồ
                                            Ga An Cựu
                    Tìm đường
                        Từ: 
                        Đến: 
                            Khách sạnĐịa danh Hiển thị các khách sạn ở gần Hiển thị các khu du lịch ở gần
                ×
                Yêu Cầu Lấy Giá
                                    Ngày nhận phòng
                                    Ngày trả phòng
                        Tên khách hàng
                        Email
                        Điện thoại
                        Nhân viên chăm sóc khách hàng sẽ gọi điện cho quý khách trong thời gian sớm nhất.
                        Quý khách có thể gọi điện đến cho Mytour để được tư vấn ngay:
                        Hà Nội: (04) 7109 9999, Hồ Chí Minh: (08) 7309 9899, Support
                            English: (+84)4-7309-9899.
                    Hoàn thành
                ×
                Gửi Thông Tin
                        Tên khách hàng
                        Email
                        Điện thoại
                            Quý khách sẽ thấy giá giảm ngay trên trang sau khi gửi thông tin
                    Hoàn thành
                ×
                Nhận Giá Tốt
                                    Ngày nhận phòng
                                    Ngày trả phòng
                        Tên khách hàng
                        Email
                        Điện thoại
                        Vì giá tốt không được công bố nên hệ thống sẽ gửi giá qua email đến quý khách và nhân viên chăm
                        sóc sẽ gọi điện cho quý khách trong thời gian sớm nhất.
                        Quý khách có thể gọi điện đến cho Mytour để được tư vấn ngay:
                        Hà Nội: (04) 7109 9999, Hồ Chí Minh: (08) 7309 9899, Support
                            English: (+84)4-7309-9899.
                    Hoàn thành
                ×
                ×
                ĐÁNH GIÁ 
                        Tên
                        Tiêu đề
                        Kiểu du lịch?
                                -- Chọn --Cá nhânCặp đôiGia đìnhBạn bèDoanh nghiệp
                        Nội dung
                                Đánh giá chi tiết
                                Chỗ ở
                                5
                                Thức ăn
                                5
                                Phương tiện
                                5
                                Hướng dẫn viên
                                5
                                Lịch trình
                                5
                    Gửi đánh giá
                    Hủy Bỏ
                ×
                Gửi lại email kích hoạt
                ×
                Thông tin chi tiết giá theo phòng
                    Chọn khoảng thời gian hiển thị giá phòng
                    Hiển thị giá
                ×
                Khóa phòng theo khoảng thời gian
                            Chọn khoảng thời gian check-in cần khóa/mở phòng
                            Khóa phòng
                            Mở phòng
                ×
                THUẾ VÀ PHÍ DỊCH VỤ
                17% thuế và phí dịch vụ bao gồm:
                    - 10% thuế và 5% phí dịch vụ hoàn trả lại cho khách sạn.
                    - 2% phí giao dịch tại Mytour.
                ×
                Bạn có hài lòng về website của Mytour?
                    Thông điệp nhắn nhủ:
                Mytour luôn mong muốn cải thiện dịch vụ để bạn có trải nghiệm tốt hơn!
                            Ảnh đính kèm
                        Đóng
                        Gửi
                ×
                    Những đóng góp của bạn đã được ghi nhận. Mytour cám ơn bạn !
                Quay lại website
                Du lịch Ga An Cựu
                                Du lịch Thác Đỗ Quyên - Nàng tiên ngủ quên giữa rừng Bạch Mã
                                Du lịch Núi Ngự Bình
                                Du lịch Chùa Từ Đàm
                                Du lịch Tà áo dài Việt trên khắp mọi miền Tổ quốc
                                Du lịch Chùa Kim Quang
                                Du lịch Những địa điểm khơi gợi nhiều cảm xúc nhất Việt Nam - Kỳ 1
                                Du lịch Lập An mộng mơ và cuộc sống bên những thân hàu
                                Du lịch 5 đường đèo không thể bỏ lỡ khi về miền Trung – Tây Nguyên
                                Du lịch Bạn đã bao giờ du lịch Huế vào mùa mưa?
                                Du lịch Thừa Thiên Huế: Lễ hội làng Chuồn
                            Giới thiệu Mytour
                            Đối tác khách sạn
                            Đăng nhập HMS
                            Tích lũy Vpoint
                            Điều khoản sử dụng
                            Quy chế hoạt động
                            Tuyển dụng
                            Liên hệ
                            Đăng ký nhận email
                                Đăng ký email để nhận khuyến mãi lên đến 70%
                                    Đăng
                                    ký
                    Công ty TNHH Mytour Việt Nam
                    Số ĐKKD: 0105983269 cấp ngày 30/08/2012
                    Văn phòng Hà Nội: Tầng 4, tòa nhà GP Invest, 170 Đê La Thành, Đống Đa
                    Văn phòng HCM: Tầng 5, Tòa Nhà HDTC, Số 36 Bùi Thị Xuân, Q.1
                Hotline
                        Hà Nội:
                        (04) 7109 9999
                        Tp. HCM:
                        (08) 7309 9899
                        ENGLISH SUPPORT:
                        (+84)4 7309 9899
