url:http://mytour.vn/11916-khach-san-red.html
Tittle :Khách Sạn Red - Bà Rịa - Vũng Tàu giá tốt nhất - Mytour.vn
content :Đặt phòng trực tuyến, hoặc gọi
                                                            Hà Nội: (04) 7109 9999
                                                                                        - (04) 7309 9899
                                                            Hồ Chí Minh: (08) 7309 9899
                                                                                        - (08) 7109 9998
                        T2 - CN: 08:00 - 23:00
                    Toggle navigation
                                Bạn không có thông báo nào
                    |
                    ||
                                                            Tài khoản
                        Đăng nhập
                                Đăng kýKhách sạn yêu thích
                            Khách sạn
                            Tour
                            Cẩm nang du lịch
                            Thông tin
                                                Về Mytour
                                                Tin khuyến mãi
                                                Ưu đãi
                                                Hướng dẫn
                                                Liên hệ
                            Tốt nhất 2016
                ×
                Bạn có chắc muốn hủy đơn hàng?
                Lorem ipsum dolor sit amet, consectetur adipisicing elit. Iure corporis repudiandae nobis distinctio
                quae quos, officia modi, ab voluptatem pariatur ducimus mollitia, necessitatibus sed soluta dicta
                repellendus! Praesentium debitis, temporibus?
                    Đồng ý
                    Đóng
                    Khách sạnBà Rịa - Vũng TàuCôn ĐảoKhách sạn gần Bãi Lò VoiKhách Sạn Red
                    Đóng
            Tìm Kiếm Khách Sạn
                            Ngày nhận phòng
                            Ngày trả phòng
                    Số đêm
                    Số phòng
                        123456789101112
                    Người lớn
                        123456789101112
                    Tìm khách sạn
                Giá tốt hơn so với đặt phòng trực tiếp tại khách sạn
                Đảm bảo 
                giá tốt nhất
                Đảm bảo 
                hoàn tiền
                Nhân viên chăm sóc, tư vấn nhiều kinh nghiệm
                Hơn 5000 khách sạn tại Việt Nam với đánh giá thực
                Nhiều chương trình khuyến mãi và tích lũy điểm
                Thanh toán dễ dàng, đa dạng
                        Khách Sạn Red
                            (Cung cấp bởi khách sạn)
                                    Tất cả thông tin về tiêu chuẩn khách sạn trên website mytour.vn
                                    là do khách sạn tự cung cấp, chỉ mang tính chất tham khảo và không nhất thiết trùng
                                    hợp với hạng
                                    sao được cấp bởi sở Văn Hoá, Thể thao và du lịch.
                             17 Nguyễn Anh Ninh, Côn Đảo, Bà Rịa Vũng Tàu 
                                Đặt phòng ngay giữ giá tốt
                                Đã thích
                                        0
                                            (0
                                            đánh giá)
                                Giới thiệu về Khách Sạn Red 
                                    Khách Sạn Red tọa lạc tại 17 Nguyễn Anh Ninh, Côn Đảo, Bà Rịa Vũng Tàu, cách phố chợ đêm chỉ vài bước chân, cách bãi tắm, bảo tàng Côn Đảo, và nhà tưởng niệm cô Võ Thị Sáu khỏang 100m, cách chợ Côn Đảo khoảng 250m. Với vị trí thuận lợi, Khách Sạn Red hứa hẹn là một điểm đến lý tưởng cho những ai muốn khám phá vẻ đẹp của Côn Đảo.
Khách Sạn Red với tiêu chuẩn 1 sao cùng lối thiết kế trang nhã, sang trọng, pha trộn giữa nét cổ điển và hiện đại đã tạo nên một không gian ấm cúng, sảng khoái cho du khách. Cùng với hệ thống phòng nghỉ được trang bị với đầy đủ tiện nghi như máy điều hòa, TV, truyền hình cáp, internet wifi , máy nước nóng, lạnh và các dịch vụ tiện ích như giặt ủi, lễ tân 24 giờ, dịch vụ cho thuê xe máy, dịch vụ hỗ trợ Tour, dịch vụ đưa đón sân bay... chắc chắn sẽ mang đến cho du khách một chuyến nghỉ dưỡng thoải mái và khó quên.
Đến với Côn Đảo, đến với Khách Sạn Red, du khách có thể tự thiết kế riêng cho mình một lịch trình tham quan, nghỉ dưỡng hoặc đặt tour du lịch khám phá các địa danh nổi tiếng như Nhà Tù Côn Đảo, bảo tàng Côn Đảo, nhà tưởng niệm cô Võ Thị Sáu, nghĩa trang Hàng Dương…
Với đội ngũ nhân viên giàu kinh nghiệm, làm việc theo phong cách chuyên nghiệp, phục vụ suốt 24/7 và các tiện nghi hiện đại, chuyến du lịch của bạn sẽ trọn vẹn và ý nghĩa hơn khi đến với Khách Sạn Red.
Còn chần chờ gì nữa, hãy nhanh tay đặt phòng tại Khách Sạn Red trên My Tour để có cơ hội đặt phòng giá rẻ nhất cùng với nhiều chương trình khuyến mại hấp dẫn chỉ dành riêng cho khách hàng của Mytour.
                                        Xem thêm 
                                Chọn ngày để xem giá và phòng trống
                                    Đảm bảo giá tốt nhất
                                                Ngày nhận phòng
                                                Ngày trả phòng
                                        Số đêm
                                        Số phòng
                                            123456789101112
                                        Người lớn
                                            123456789101112
                                        Cập nhật giá
                                Lưu ý: Vui lòng ẩn "Cập nhật giá" để cập nhật phòng
                                Chọn phòng Khách Sạn Red
                                                Loại Phòng
                                                Giá 1 đêm
                                                Số phòng
                                                Đặt phòng
                                                                    Phòng đôi 1 giường
                                                                        Điều kiện hủy phòng
                                                        - Trẻ em dưới 5 tuổi thu thêm 50.000đ / người / ngày.
- Trẻ em trên 5 tuổi thu thêm 100.000đ/ người/ ngày.
                                                        phòng
                                                                                                                                                                            01
                                                            Đặt ngay
                                                            Xác nhận ngay
                                                                    Phòng đôi 2 giường
                                                                        Điều kiện hủy phòng
                                                        - Trẻ em dưới 5 tuổi thu thêm 50.000đ / người / ngày.
- Trẻ em trên 5 tuổi thu thêm 100.000đ/ người/ ngày.
                                                        phòng
                                                                                                                                                                            01
                                                            Đặt ngay
                                                            Xác nhận ngay
                                                                    Phòng ba 3 giường 
                                                                        Điều kiện hủy phòng
                                                        - Trẻ em dưới 5 tuổi thu thêm 50.000đ / người / ngày.
- Trẻ em trên 5 tuổi thu thêm 100.000đ/ người/ ngày.
                                                        phòng
                                                                                                                                                                            01
                                                            Đặt ngay
                                                            Xác nhận ngay
                                                                    Phòng VIP 1 giường 1m6
                                                                        Điều kiện hủy phòng
                                                        - Trẻ em dưới 5 tuổi thu thêm 50.000đ / người / ngày.
- Trẻ em trên 5 tuổi thu thêm 100.000đ/ người/ ngày.
                                                        phòng
                                                                                                                                                                            01
                                                            Đặt ngay
                                                            Xác nhận ngay
                                                                    Phòng đơn 1 giường 
                                                                        Điều kiện hủy phòng
                                                        - Trẻ em dưới 5 tuổi thu thêm 50.000đ / người / ngày.
- Trẻ em trên 5 tuổi thu thêm 100.000đ/ người/ ngày.
                                                        phòng
                                                                                                                                                                            01
                                                            Đặt ngay
                                                            Xác nhận ngay
                                                                    Phòng VIP 1 giường 2m
                                                                        Điều kiện hủy phòng
                                                        - Trẻ em dưới 5 tuổi thu thêm 50.000đ / người / ngày.
- Trẻ em trên 5 tuổi thu thêm 100.000đ/ người/ ngày.
                                                        phòng
                                                                                                                                                                            01
                                                            Đặt ngay
                                                            Xác nhận ngay
                                                                    Phòng VIP 1 giường 2m (3 pax)
                                                                        Điều kiện hủy phòng
                                                        - Trẻ em dưới 5 tuổi thu thêm 50.000đ / người / ngày.
- Trẻ em trên 5 tuổi thu thêm 100.000đ/ người/ ngày.
                                                        phòng
                                                                                                                                                                            01
                                                            Đặt ngay
                                                            Xác nhận ngay
                                                                    Phòng tập thể giường tầng
                                                                        Điều kiện hủy phòng
                                                        - Trẻ em dưới 5 tuổi thu thêm 50.000đ / người / ngày.
- Trẻ em trên 5 tuổi thu thêm 100.000đ/ người/ ngày.
                                                        phòng
                                                                                                                                                                            01
                                                            Đặt ngay
                                                            Xác nhận ngay
                                                                    Phòng 2 Giường Đơn
                                                                        Điều kiện hủy phòng
                                                        phòng
                                                                                                                                                                            0123
                                                            Đặt ngay
                                                            Xác nhận ngay
                                    Tiện nghi Khách Sạn Red 
                                                Thuê xe, taxi
                                Ghi chú: Ăn sáng miễn phí (nếu có) có thể thay đổi theo phòng và ngày
                                    Chính sách Khách Sạn Red 
                                        Giờ nhận
                                        phòng: 14:00
                                        Giờ trả
                                        phòng: 12:00
            Đánh giá Khách Sạn Red
                Viết đánh giá
                        Tất cả ( 0 )
                        Công tác ( 0 )
                        Cặp đôi ( 0 )
                        Gia đình ( 0 )
                        Bạn bè ( 0 )
                        Cá nhân ( 0 )
                        Đánh giá
                        0
                            Tất cả
                    Chi tiết điểm  (từ
                        0
                        nhận xét)
                            Vị trí
                                0
                                    % Complete
                            0
                            Phục vụ
                                0
                                    % Complete
                            0
                            Tiện nghi
                                0
                                    % Complete
                            0
                            Giá cả
                                0
                                    % Complete
                            0
                            Vệ sinh
                                0
                                    % Complete
                            0
                        Đánh giá
                        0
                            Công tác
                    Chi tiết điểm  (từ
                        0
                        nhận xét)
                            Vị trí
                                0
                                    % Complete
                            0
                            Phục vụ
                                0
                                    % Complete
                            0
                            Tiện nghi
                                0
                                    % Complete
                            0
                            Giá cả
                                0
                                    % Complete
                            0
                            Vệ sinh
                                0
                                    % Complete
                            0
                        Đánh giá
                        0
                            Cặp đôi
                    Chi tiết điểm  (từ
                        0
                        nhận xét)
                            Vị trí
                                0
                                    % Complete
                            0
                            Phục vụ
                                0
                                    % Complete
                            0
                            Tiện nghi
                                0
                                    % Complete
                            0
                            Giá cả
                                0
                                    % Complete
                            0
                            Vệ sinh
                                0
                                    % Complete
                            0
                        Đánh giá
                        0
                            Gia đình
                    Chi tiết điểm  (từ
                        0
                        nhận xét)
                            Vị trí
                                0
                                    % Complete
                            0
                            Phục vụ
                                0
                                    % Complete
                            0
                            Tiện nghi
                                0
                                    % Complete
                            0
                            Giá cả
                                0
                                    % Complete
                            0
                            Vệ sinh
                                0
                                    % Complete
                            0
                        Đánh giá
                        0
                            Bạn bè
                    Chi tiết điểm  (từ
                        0
                        nhận xét)
                            Vị trí
                                0
                                    % Complete
                            0
                            Phục vụ
                                0
                                    % Complete
                            0
                            Tiện nghi
                                0
                                    % Complete
                            0
                            Giá cả
                                0
                                    % Complete
                            0
                            Vệ sinh
                                0
                                    % Complete
                            0
                        Đánh giá
                        0
                            Cá nhân
                    Chi tiết điểm  (từ
                        0
                        nhận xét)
                            Vị trí
                                0
                                    % Complete
                            0
                            Phục vụ
                                0
                                    % Complete
                            0
                            Tiện nghi
                                0
                                    % Complete
                            0
                            Giá cả
                                0
                                    % Complete
                            0
                            Vệ sinh
                                0
                                    % Complete
                            0
                                Từ ngày mới đến cũ
                                Từ ngày cũ đến mới
                                Điểm từ thấp đến cao
                                Điểm từ cao đến thấp
                    Xem tất cả đánh giá ( 0 )
                                Đặt phòng ngay giữ giá tốt
            Khách hàng đã xem khách sạn này thường tham khảo thêm
            Địa danh ở gần
                                    Nghĩa trang Hàng Dương
                                     ~ 0.17km
                                                                Nghĩa trang Hàng Dương là nghĩa trang lớn nhất ở Côn Đảo. Đây là nơi chôn cất hàng vạn chiến sĩ cách mạng và người yêu nước Việt Nam qua nhiều thế hệ bị tù đày, kéo dài từ năm 1862 đến năm 1975. Hãy để Mytour hỗ trợ bạn để có 1 chuyến đi thú vị, tiết kiệm bằng cách đặt phòng khách sạn tại khu vực Nghĩa trang Hàng Dương ngay bây giờ với giá rẻ nhất.
                                    Chuồng cọp kiểu Mỹ (trại Phú Bình)
                                     ~ 0.31km
                                                                Trại Phú Bình còn gọi là Chuồng Cọp Mỹ, do Mỹ ngụy xây dựng năm 1971 nằm trong hệ thống   Nhà tù Côn Đảo. Trại Phú Bình – Chuồng Cọp Mỹ là kiểu nhà giam bằng bê tông không có bệ nằm. Hãy để Mytour hỗ trợ bạn để có 1 chuyến đi thú vị, tiết kiệm bằng cách đặt phòng khách sạn tại khu vực Chuồng cọp kiểu Mỹ (trại Phú Bình) ngay bây giờ với giá rẻ nhất.
                                    Chuồng cọp kiểu Pháp (trại Phú Tường)
                                     ~ 0.52km
                                                                Chuồng cọp kiểu Pháp (trại Phu Tường) nằm trong hệ thống nhà tù ở Côn Đảo. Trại giam Phú Tường được xây dựng năm 1940, gồm 120 phòng giao và 60 phòng “tắm nắng” không có mái che. Hãy để Mytour hỗ trợ bạn để có 1 chuyến đi thú vị, tiết kiệm bằng cách đặt phòng khách sạn tại khu vực Chuồng cọp kiểu Pháp (trại Phú Tường) ngay bây giờ với giá rẻ nhất.
                                    Bảo Tàng Côn Đảo
                                     ~ 0.66km
                                                                Bảo tàng Côn Đảo nằm đối diện với Di tích lịch sử Cầu Tàu 914. Trước ngày giải phóng Bảo tàng là nơi làm việc và nhà của 53 đời chúa đảo, được xây dựng trên một khu đất rộng khoảng 2ha. Hãy để Mytour hỗ trợ bạn để có 1 chuyến đi thú vị, tiết kiệm bằng cách đặt phòng khách sạn tại khu vực Bảo Tàng Côn Đảo ngay bây giờ với giá chỉ từ 488.000đ
                                    Bảo tàng Côn Đảo
                                     ~ 0.68km
                                    Bãi Lò Voi
                                     ~ 0.86km
                                    Rừng nguyên sinh Ông Đụng
                                     ~ 0.88km
                                                                Rừng nguyên sinh Ông Đụng là điểm du lịch hấp dẫn nằm trên đảo Côn Sơn, cách trung tâm Vườn khoảng 3 km về phía Tây, có cảnh quan thiên nhiên đẹp, hoang sơ, môi trường trong lành. Hãy để Mytour hỗ trợ bạn để có 1 chuyến đi thú vị, tiết kiệm bằng cách đặt phòng khách sạn tại khu vực Rừng nguyên sinh Ông Đụng ngay bây giờ với giá chỉ từ 488.000đ
                                    Chợ Côn Đảo
                                     ~ 1.02km
                                                                Chợ Côn Đảo tọa lạc ở huyện Côn Đảo, Bà Rịa - Vũng Tàu. Tại đây có bán hầu hết các món ăn sáng như bánh mỳ, bánh giò, ngoài ra du khách muốn mua quà lưu niệm cho người thân cũng có thể mua tại đây. Hãy để Mytour hỗ trợ bạn để có 1 chuyến đi thú vị, tiết kiệm bằng cách đặt phòng khách sạn tại khu vực Chợ Côn Đảo ngay bây giờ với giá rẻ nhất.
                                    Trại Phú Hải
                                     ~ 1.14km
                                                                Trại phú hải là một trại giám lớn và cổ nhất của hệ thống nhà tù Côn Đảo do Thực Dân Pháp xây dựng nhằm giam giữ, khám xét những chiến sỹ cách mạng Việt Nam trong cuộc kháng chiến chống Pháp của nước ta. Hãy để Mytour hỗ trợ bạn để có 1 chuyến đi thú vị, tiết kiệm bằng cách đặt phòng khách sạn tại khu vực Trại Phú Hải ngay bây giờ với giá rẻ nhất.
                                    Dinh Chúa Đảo
                                     ~ 1.36km
                                    Bãi Đất Dốc
                                     ~ 1.79km
                                    Di tích cầu tàu Ma Thiên Lãnh
                                     ~ 2.13km
                                                                Di tích Cầu Ma Thiên lãnh là điểm du lịch lý tưởng của nhiều du khách yêu thích vẻ đẹp thiên nhiên, cũng là nơi yêu thích của những "phượt thủ" trên khắp mọi miền đất nước. Hãy để Mytour hỗ trợ bạn để có 1 chuyến đi thú vị, tiết kiệm bằng cách đặt phòng khách sạn tại khu vực Di tích cầu tàu Ma Thiên Lãnh ngay bây giờ với giá chỉ từ 488.000đ
                                    Bãi An Hải
                                     ~ 2.5km
                                    Chùa Núi Một
                                     ~ 2.95km
                                    Vân Sơn tự
                                     ~ 2.96km
                                    Chùa Núi Một
                                     ~ 2.96km
                                                                Chùa Núi Một là một di tích gắn liền với địa danh Côn Đảo. Chùa Núi Một là một kiến trúc uy nghi nằm trên đỉnh núi, là một danh lam thắng cảnh tuyệt đẹp không thể bỏ qua khi đến Côn Đảo. Hãy để Mytour hỗ trợ bạn để có 1 chuyến đi thú vị, tiết kiệm bằng cách đặt phòng khách sạn tại khu vực Chùa Núi Một ngay bây giờ với giá chỉ từ 488.000đ
                                    Miếu bà Phi Yến (An Sơn Miếu)
                                     ~ 3.01km
                                                                Miếu bà Phi Yến là ngôi miếu rất linh thiêng, gắn liền với câu chuyện bi thương của người phụ nữ tài sắc, đức hạnh và giàu lòng yêu nước. Sau khi Bà mất, nhân dân trên đảo thương tiếc đã lập miếu thờ. Hãy để Mytour hỗ trợ bạn để có 1 chuyến đi thú vị, tiết kiệm bằng cách đặt phòng khách sạn tại khu vực Miếu bà Phi Yến ngay bây giờ với giá rẻ nhất.
                                    Miếu Hoàng Tử Cải
                                     ~ 3.01km
                                                                Miếu hoàng tử Cải ở Côn Đảo, Bà Rịa - Vũng Tàu. Hoàng tử Cải là con của vua Gia Long và Phi Yến. Hoàng tử bị cha giết lúc 4 tuổi, xác hoàng tử được dân làng chôn cất tại miếu và thờ cúng hàng năm. Hãy để Mytour hỗ trợ bạn để có 1 chuyến đi thú vị, tiết kiệm bằng cách đặt phòng khách sạn tại khu vực Miếu Hoàng Tử Cải ngay bây giờ với giá rẻ nhất.
                                    An Sơn Miếu
                                     ~ 3.01km
                                    Suối Ớt
                                     ~ 3.32km
                ×
                    Chính sách đảm bảo hoàn tiền của mytour
                    Bạn chưa tin tưởng việc đặt phòng khách sạn trực tuyến? Bạn e ngại rằng phòng khách sạn thực tế không đúng với thông tin trên website? Chúng tôi cam kết đưa đầy đủ và chính xác thông tin khách sạn trên website với chính sách “Đảm bảo Hoàn tiền”
                        Nếu khách hàng đặt khách sạn thành công trên Mytour nhưng khách sạn không có phòng, Mytour sẽ hoàn lại tiền cho khách và tặng kèm phiếu giảm giá có giá trị bằng với số tiền khách hàng đã trả.
                        Trong trường hợp loại phòng thực tế không đúng với loại phòng trên đơn hàng, Mytour sẽ quyết định nâng cấp miễn phí hoặc tặng phiếu giảm giá có giá trị bằng với số tiền khách hàng đã trả.
                        Trường hợp các tiện nghi phòng khách sạn (như bữa sáng, wifi…) không đúng với nội dung trên website, Mytour sẽ tặng phiếu giảm giá có giá trị bằng 10% số tiền khách đã trả (tối đa 500,000 VND)
                        Khách hàng cần gọi điện thoại 04-7309 9899 (Hà Nội), 08-7309 9899 (Hồ Chí Minh) hoặc email tới info@mytour.vn và cung cấp mã đơn hàng trong vòng 24 giờ từ lúc nhận phòng để được trợ giúp giải quyết khiếu nại (Hotline chỉ hỗ trợ trong giờ hành chính).
                        Mytour không chịu trách nhiệm bồi thường thiệt hại gián tiếp, ngẫu nhiên, hay do hậu quả phát sinh. Trong mọi trường hợp, trách nhiệm của Mytour không vượt quá tổng số tiền khách hàng thanh toán đặt phòng.
                ×
                    Đảm bảo giá tốt nhất
                    Nếu Thành viên đã đặt một phòng khách sạn được “Đảm Bảo” tại Mytour.vn và sau đó, cho Mytour.vn  thấy rằng Thành viên có thể đặt một phòng tương tự trong cùng khoảng thời gian ở mức giá tốt hơn có thể xem và đặt được trên một website khác, Mytour.vn sẽ giảm giá bằng hoặc thấp hơn mức giá đó.
                    Giá dùng để so sánh là giá sau khi áp dụng mức giảm giá công bố trên website Mytour.vn.
                    Chính sách “Đảm Bảo Giá Tốt Nhất” của Mytour.vn chỉ áp dụng cho các đặt phòng đã được xác nhận và phải thỏa mãn những điều kiện sau:
                Cùng khách sạnCùng thời gian nghỉ lạiCùng loại Phòng/GiườngCùng các yêu cầu mua Trước, yêu cầu trả trước và đặt cọc (nếu có)Cùng chính sách Hủy và Sửa Đổi
                    Phòng đó phải còn trống để được xác nhận ngay tại thời điểm các đại lý của Mytour.vn  kiểm tra phòng trống
                        Chính sách “Đảm Bảo Giá Tốt Nhất” không áp dụng cho các mức giá không công bố, như: chương trình khách hàng thân thiện.
                        Bất kỳ tổ chức nào với các mức giá dành cho nhóm cá nhân cụ thể và không nhằm mục đích áp dụng ra bên ngoài.
                        Thành viên có thể gửi khiếu nại theo địa chỉ : info@mytour.vn
                                Nêu mã đặt phòng Mytour.vn trong dòng tiêu đề thư
                                Gửi URL của website nơi Thành viên tìm thấy mức giá tốt hơn
                                Cung cấp ảnh chụp màn hình của website đối thủ cạnh tranh trong đó nêu rõ Phòng Trống, Loại Phòng, và các mức giá cho những ngày nghỉ lại theo yêu cầu của Thành viên.
                VUI LÒNG LƯU Ý: Thành viên không cần thực hiện đặt phòng trên website của đối thủ cạnh tranh, chỉ cần cho Mytour.vn thấy sự so sánh.
                ×
                Đăng Nhập
                                 Đăng nhập bằng tài khoản Facebook
                                 Đăng nhập bằng tài khoản Google
                            Hoặc đăng nhập bằng
                        Email*
                        Mật khẩu*
                        Quên mật khẩu?
                            Chưa có tài khoản/tạo tài khoản
                Đăng nhập
                         Nhớ đăng nhập
                ×
                Bản đồ
                                            Khách Sạn Red
                    Tìm đường
                        Từ: 
                        Đến: 
                            Khách sạnĐịa danh Hiển thị các khách sạn ở gần Hiển thị các khu du lịch ở gần
                ×
                Yêu Cầu Lấy Giá
                                    Ngày nhận phòng
                                    Ngày trả phòng
                        Tên khách hàng
                        Email
                        Điện thoại
                        Nhân viên chăm sóc khách hàng sẽ gọi điện cho quý khách trong thời gian sớm nhất.
                        Quý khách có thể gọi điện đến cho Mytour để được tư vấn ngay:
                        Hà Nội: (04) 7109 9999, Hồ Chí Minh: (08) 7309 9899, Support
                            English: (+84)4-7309-9899.
                    Hoàn thành
                ×
                Gửi Thông Tin
                        Tên khách hàng
                        Email
                        Điện thoại
                            Quý khách sẽ thấy giá giảm ngay trên trang sau khi gửi thông tin
                    Hoàn thành
                ×
                Nhận Giá Tốt
                                    Ngày nhận phòng
                                    Ngày trả phòng
                        Tên khách hàng
                        Email
                        Điện thoại
                        Vì giá tốt không được công bố nên hệ thống sẽ gửi giá qua email đến quý khách và nhân viên chăm
                        sóc sẽ gọi điện cho quý khách trong thời gian sớm nhất.
                        Quý khách có thể gọi điện đến cho Mytour để được tư vấn ngay:
                        Hà Nội: (04) 7109 9999, Hồ Chí Minh: (08) 7309 9899, Support
                            English: (+84)4-7309-9899.
                    Hoàn thành
                ×
                ×
                ĐÁNH GIÁ 
                        Tên
                        Tiêu đề
                        Kiểu du lịch?
                                -- Chọn --Cá nhânCặp đôiGia đìnhBạn bèDoanh nghiệp
                        Nội dung
                                Đánh giá chi tiết
                                Chỗ ở
                                5
                                Thức ăn
                                5
                                Phương tiện
                                5
                                Hướng dẫn viên
                                5
                                Lịch trình
                                5
                    Gửi đánh giá
                    Hủy Bỏ
                ×
                Gửi lại email kích hoạt
                ×
                Thông tin chi tiết giá theo phòng
                    Chọn khoảng thời gian hiển thị giá phòng
                    Hiển thị giá
                ×
                Khóa phòng theo khoảng thời gian
                            Chọn khoảng thời gian check-in cần khóa/mở phòng
                            Khóa phòng
                            Mở phòng
                ×
                THUẾ VÀ PHÍ DỊCH VỤ
                17% thuế và phí dịch vụ bao gồm:
                    - 10% thuế và 5% phí dịch vụ hoàn trả lại cho khách sạn.
                    - 2% phí giao dịch tại Mytour.
                ×
                Bạn có hài lòng về website của Mytour?
                    Thông điệp nhắn nhủ:
                Mytour luôn mong muốn cải thiện dịch vụ để bạn có trải nghiệm tốt hơn!
                            Ảnh đính kèm
                        Đóng
                        Gửi
                ×
                    Những đóng góp của bạn đã được ghi nhận. Mytour cám ơn bạn !
                Quay lại website
                            Giới thiệu Mytour
                            Đối tác khách sạn
                            Đăng nhập HMS
                            Tích lũy Vpoint
                            Điều khoản sử dụng
                            Quy chế hoạt động
                            Tuyển dụng
                            Liên hệ
                            Đăng ký nhận email
                                Đăng ký email để nhận khuyến mãi lên đến 70%
                                    Đăng
                                    ký
                    Công ty TNHH Mytour Việt Nam
                    Số ĐKKD: 0105983269 cấp ngày 30/08/2012
                    Văn phòng Hà Nội: Tầng 4, tòa nhà GP Invest, 170 Đê La Thành, Đống Đa
                    Văn phòng HCM: Tầng 5, Tòa Nhà HDTC, Số 36 Bùi Thị Xuân, Q.1
                Hotline
                        Hà Nội:
                        (04) 7109 9999
                        Tp. HCM:
                        (08) 7309 9899
                        ENGLISH SUPPORT:
                        (+84)4 7309 9899
