url:http://mytour.vn/c5/khach-san-2-sao-tai-ba-ria-vung-tau.html
Tittle :Khách sạn 2 sao tại Bà Rịa - Vũng Tàu giá tốt nhất - Mytour.vn
content :Đặt phòng trực tuyến, hoặc gọi
                                                            Hà Nội: (04) 7109 9999
                                                                                        - (04) 7309 9899
                                                            Hồ Chí Minh: (08) 7309 9899
                                                                                        - (08) 7109 9998
                        T2 - CN: 08:00 - 23:00
                    Toggle navigation
                                Bạn không có thông báo nào
                    |
                    ||
                                                            Tài khoản
                        Đăng nhập
                                Đăng kýKhách sạn yêu thích
                            Khách sạn
                            Tour
                            Cẩm nang du lịch
                            Thông tin
                                                Về Mytour
                                                Tin khuyến mãi
                                                Ưu đãi
                                                Hướng dẫn
                                                Liên hệ
                            Tốt nhất 2016
                ×
                Bạn có chắc muốn hủy đơn hàng?
                Lorem ipsum dolor sit amet, consectetur adipisicing elit. Iure corporis repudiandae nobis distinctio
                quae quos, officia modi, ab voluptatem pariatur ducimus mollitia, necessitatibus sed soluta dicta
                repellendus! Praesentium debitis, temporibus?
                    Đồng ý
                    Đóng
                    Khách sạnKhách sạn tại Bà Rịa - Vũng TàuKhách sạn 2 sao tại Bà Rịa - Vũng Tàu
                    Áp dụng
                    Đóng
            Tìm Kiếm Khách Sạn
                            Ngày nhận phòng
                            Ngày trả phòng
                    Số đêm
                    Số phòng
                        123456789101112
                    Người lớn
                        123456789101112
                    Tìm khách sạn
                                Bộ lọc tìm kiếm
                                        Theo mức giá
                                                        Dưới 500.000
                                                        500.000 - 1.000.000
                                                        1.000.000 - 1.500.000
                                                        1.500.000 - 2.000.000
                                                        2.000.000 - 2.500.000
                                                        2.500.000 - 3.000.000
                                                        Trên 3.000.000
                                    Hạng Khách Sạn
                                    Loại khách sạn
                                                    Khách sạn
                                                    Resort
                                Tiện nghi
                                                Đưa đón khách sạn sân bay
                                                Bữa sáng miễn phí
                                                Bể bơi ngoài trời
                                                Bãi đỗ xe
                                                Phòng họp
                                                Phòng tập thể thao
                                                Thang máy
                                                Thêm giường phụ
                                                Truyền hình cáp/vệ tinh
                                                Wifi miễn phí
                                                Giặt là
                                                Nhà hàng
                                                Spa
            Quận huyện
                        Vũng Tàu
                        Xuyên Mộc
                        Côn Đảo
                        Long Điền
                        Đất Đỏ
                        Tân Thành
                        Châu Đức
                        Bà Rịa
            Khu vực
                        Chợ Bà Rịa
                        Chợ Phước Tân
                        Chợ Long Điền
                        Thị trấn Long Điền
                        Chợ Kim Hải
                        Chợ An Ngãi
                        Khu di tích Địa Đạo Long Phước
                        Chùa Thiên Thai
                        Chợ Chu Hải
                        Dinh Cố
                        Thiền viện Viên Không
                        Tịnh thất Thanh Châu
                        Chợ Châu Pha
                        Miếu Bà
                        Thị trấn Đất Đỏ
                        Chùa Phật Linh
                        khu Nhà Lớn Đạo Ông Trần
                        Bến tàu đi Côn Đảo
                        Nhà thờ Giáo xứ Long Hải
                        Thị trấn Long Hải
                        Khu di tích lịch sử Minh Đạm
                        Chùa Niết Bàn
                        Dinh Cô
                        Bãi biển Long Hải
                        Chợ Phước Hải
                        Khu Du Lịch Kawasami
                        Mộ Cô
                        Phú Mỹ
                        Biển Long Hải
                        Khu du lịch Đèo Nước Ngọt
                        Bãi Thùy Vân
                        Hồ Suối Môn
                        Chùa Đại Tòng Lâm
                        Chợ Lộc An
                        Sân golf Paradise Vũng Tàu
                        Hồ Suối Rao
                        Sân bay Vũng Tàu
                        Biển Phước Hải
                        Chợ Phường 5
                        Thích Ca Phật Đài
                        Bãi pháo cổ
                        Chùa Quan Âm Các
                        Chùa Hòa Bình
                        Tượng Quan Thế Âm Bồ Tát
                        Trung Tâm Thành Phố Vũng Tàu
                        Chùa Chơn Không
                        Chùa Phật Bửu Tự
                        Biển Hồ Tràm
                        Bãi Sau
                        Bãi Dâu
                        Bạch Dinh
                        Nhà thờ Giáo xứ Kim Long
                        Nhà thờ Giáo xứ Xuân Sơn
                        Bãi Trước
                        Bến tàu Cánh ngầm
                        Bãi Trước / Ga Tốc Hành
                        Tượng chúa Giêsu Kitô
                        Hồ Quảng Thành
                        Bãi Dứa
                        Chợ Hòa Bình
                        Chùa Phước Duyên
                        Chợ Bàu Lâm
                        Khu bảo tồn thiên nhiên Bình Châu - Phước Bửu
                        Chợ Hòa Hiệp
                        Hồ Suối Các
                        Suối nước nóng Bình Châu
                        Hồ Cốc
                        Sân bay Cỏ Ống
                        Bãi Đầm Trầu
                        Suối Ớt
                        Biển Đất Dốc
                        Mũi Tà Bê
                        Bãi Đất Dốc
                        Bãi Lò Voi
                        Biển An Hải
                        Biển Lò Vôi
                        Hòn Tre Lớn
                        Dinh Chúa Đảo
                        Bãi An Hải
                        An Sơn Miếu
                        Vân Sơn tự
                        Hòn Trọc
                        Mũi Cá Mập
                        Hòn Tài
                        Hòn Trác
                        Hòn Bà
             Giá tốt hơn so với đặt phòng trực
            tiếp tại khách sạn
             Đảm bảo 
            giá tốt nhất 
             Đảm bảo 
            hoàn tiền
             Nhân viên chăm sóc, tư vấn nhiều kinh nghiệm
             Hơn 5000 khách sạn tại Việt Nam với
            đánh giá thực
             Nhiều chương trình khuyến mãi và tích lũy điểm
             Thanh toán dễ dàng, đa dạng
                            Khách sạn 2 sao tại Bà Rịa - Vũng Tàu
                                     Xem Bản Đồ
                            Bà Rịa - Vũng Tàu là một tỉnh cửa ngõ ra biển Đông. Nơi đây được biết đến với các địa điểm du lịch nổi tiếng Bạch Dinh, Tượng chúa Kito, suối nước nóng Bình Châu, ngọn Hải Đăng… Hãy để Mytour hỗ trợ bạn để có 1 chuyến đi thú vị, tiết kiệm bằng cách đặt phòng khách sạn 2 sao Bà Rịa - Vũng Tàu ngay bây giờ với giá từ 161,000 VND.
                                Có 66
                                khách sạn ở
                                đây theo ngày đã chọn
                        Ngày nhận phòng
                        Ngày trả phòng
                Số đêm
                Số phòng
                    123456789101112
                Người lớn
                    123456789101112
                Cập nhật ngày
                             Bộ lọc
                                            Phổ biến nhất
                                     Hạng khách sạn
                                                                                                Hạng sao [5...1]
                                                                                                Hạng sao [1...5]
                                            Đánh giá cao nhất
                                            Khuyến mãi
                                     Giá
                                                                                                Giá tăng dần
                                                                                                Giá giảm dần
                            Sắp xếp:
                            Đánh giá cao nhất
                        Phổ biến nhấtĐánh giá cao nhấtGiá tăng dầnGiá giảm dầnHạng tăng dầnHạng giảm dầnKhuyến mãi
                            Khách Sạn Dương Đông
                             170 Bình Giã, Vũng Tàu, Bà Rịa - Vũng Tàu 
                            (Xem bản đồ)
                            Trung Tâm Thành Phố Vũng Tàu
                                        “Khách Sạn Dương Đông - Vũng Tàu tọa lạc tại một vị trí đắc địa của thành phố. Du khách hay nhanh chân đến khách sạn, để được thụ hưởng những dịch vụ tốt nhất và giá cả không thể phải chăng hơn. 
                                        “
                                                Đảm bảo hoàn tiền
                                                Đảm bảo giá tốt nhất!
                                                            7.2
                                Đánh giá
                                    (23
                                        đánh giá)
                                Xem phòng
                            Khách Sạn Minh Hiếu
                             Số 5 Phó Đức Chính, Phường Thắng Tam, Vũng Tàu, Bà Rịa - Vũng Tàu 
                            (Xem bản đồ)
                            Bãi Sau
                                        “Với vị trí thuận để bạn đễ dàng đi lại cho việc tham quan địa điểm tham quan nổi tiếng nổi tiếng và thưởng thức những món đặc sản của nơi đây. Khách Sạn Minh Hiếu Vũng Tàu quả thật là một điểm đến đán...
                                        “
                                                Đảm bảo hoàn tiền
                                                Đảm bảo giá tốt nhất!
                                                            8.0
                                Tốt
                                    (51
                                        đánh giá)
                                Xem phòng
                            Khách Sạn Vũng Tàu Victory
                             149 Thùy Vân, Vũng Tàu, Bà Rịa - Vũng Tàu 
                            (Xem bản đồ)
                            Bãi Sau
                                        “Khách Sạn Vũng Tàu Victory nằm bãi sau rất thích hợp cho vui chơi, tham quan và tắm biển, đội ngũ nhân viên rất nhiệt tình và thân thiện. Trang thiết bị hiện đại và được bài trí sang trọng, ấm cúng.
                                        “
                                                Đảm bảo hoàn tiền
                                                Đảm bảo giá tốt nhất!
                                                            7.4
                                Đánh giá
                                    (68
                                        đánh giá)
                                Xem phòng
                            Khách Sạn Tháng Mười 
                             151 Thùy Vân, Vũng Tàu, Bà Rịa - Vũng Tàu 
                            (Xem bản đồ)
                            Bãi Sau
                                        “Khách Sạn Tháng Mười Vũng Tàu nằm trên con đường Thùy Vân sầm uất nhất Vũng Tàu, ngay trên bãi sau, thuận tiện vui chơi và tắm biển. Đội ngũ nhân viên khách sạn phục vụ thân thiện và nhiệt tình.
                                        “
                                                Đảm bảo hoàn tiền
                                                Đảm bảo giá tốt nhất!
                                                            7.4
                                Đánh giá
                                    (171
                                        đánh giá)
                                Xem phòng
                            Lộc An 2 Resort
                             Ấp An Hòa , Xã Lộc An, Vũng Tàu, Bà Rịa - Vũng Tàu 
                            (Xem bản đồ)
                            Miếu Bà
                                        “Lộc An 2 Resort - Vũng Tàu tọa lạc ngay trung tâm thành phố. Với hệ thống trang thiết bị hiện đại, đội ngũ nhân viên nhiệt tình, chuyên nghiệp hứa hẹn sẽ là một điểm dừng chân hoàn hảo du khách.
                                        “
                                                Đảm bảo hoàn tiền
                                                Đảm bảo giá tốt nhất!
                                                            5.9
                                Đánh giá
                                    (5
                                        đánh giá)
                                Xem phòng
                            Khách Sạn Long Cung
                             01 Lê Hồng Phong, Phường Thắng Tam, Tp. Vũng Tàu 
                            (Xem bản đồ)
                            Trung Tâm Thành Phố Vũng Tàu
                                        “Khách Sạn Long Cung Vũng Tàu, một chốn nghỉ dưỡng tuyệt vời, với tiện nghi chuẩn quốc tế và thiết kế thanh nhã cùng đội ngũ nhân viên chuyên nghiệp, hứa hẹn là điểm đến không thể bỏ qua cho bất kì ai....
                                        “
                                                Đảm bảo hoàn tiền
                                                Đảm bảo giá tốt nhất!
                                                            8.5
                                Tốt
                                    (5
                                        đánh giá)
                                Xem phòng
                            Khách Sạn Công Đoàn Vũng Tàu
                             4 Trần Hưng Đạo, Vũng Tàu, Bà Rịa - Vũng Tàu 
                            (Xem bản đồ)
                            Bãi Trước
                                        “Khách Sạn Công Đoàn Vũng Tàu phòng ốc thoáng mát và sạch sẽ, nhân viên thân thiện và nhiệt tình, gần bãi trước nên dễ dàng tham quan, tắm biển. Trang thiết bị hiện đại và được bài trí sang trọng, ấm c...
                                        “
                                                Đảm bảo hoàn tiền
                                                Đảm bảo giá tốt nhất!
                                                            7.4
                                Đánh giá
                                    (109
                                        đánh giá)
                                Xem phòng
                            Khách Sạn Petrosetco Vũng Tàu
                             12 Trương Công Định, Vũng Tàu, Bà Rịa - Vũng Tàu 
                            (Xem bản đồ)
                            Bãi Trước
                                        “Khách Sạn Petrosetco - Vũng Tàu có không gian thoáng mát, nội thất bắt mắt, có đội ngũ nhân viên thân thiện và nghiệp vụ chuyên nghiệp. Nơi đây là điểm dừng chân tuyệt vời cho du khách.
                                        “
                                                Đảm bảo hoàn tiền
                                                Đảm bảo giá tốt nhất!
                                                            7.8
                                Đánh giá
                                    (117
                                        đánh giá)
                                Xem phòng
                            Khách Sạn Thùy Dương Vũng Tàu 
                             4 Thùy Vân, Phường 2, Vũng Tàu, Bà Rịa - Vũng Tàu 
                            (Xem bản đồ)
                            Trung Tâm Thành Phố Vũng Tàu
                                        “Khách Sạn Thùy Dương Vũng Tàu có vị trị khá thuận lợi để du khách tham quan du lịch lẫn công tác. Tại đây có các dịch vụ chu đáo và tiện nghi dễ chịu. Đây chắc chắn là một điểm đến không thể bỏ qua.
                                        “
                                                Đảm bảo hoàn tiền
                                                Đảm bảo giá tốt nhất!
                                                            7.0
                                Đánh giá
                                    (196
                                        đánh giá)
                                Xem phòng
                            Khách Sạn Long Hải
                             Khu Phố Hải Hà 2, Thị Trấn Long Hải, Long Điền, Bà Rịa - Vũng Tàu 
                            (Xem bản đồ)
                            Nhà thờ Giáo xứ Long Hải
                                        “Khách Sạn Long Hải Vũng Tàu nằm gần khu du lịch biển Long Hải, thuận tiện vui chơi và tắm biển, đội ngũ nhân viên thân thiện và nhiệt tình. Trang thiết bị hiện đại và được bài trí sang trọng, ấm cúng....
                                        “
                                                Đảm bảo hoàn tiền
                                                Đảm bảo giá tốt nhất!
                                                            6.9
                                Đánh giá
                                    (112
                                        đánh giá)
                                Xem phòng
                            Villa Sapphire Hồ Tràm
                             Ấp Hồ Tràm, Xã Phước Thuận, Xuyên Mộc, Bà Rịa - Vũng Tàu 
                            (Xem bản đồ)
                            Khu bảo tồn thiên nhiên Bình Châu - Phước Bửu
                                        “Villa Sapphire Hồ Tràm Vũng Tàu được nhiều du khách biết đến và lựa chọn bởi trang thiết bị tiện nghi, hiện đại, đội ngũ nhân viên nhiệt tình, chuyên nghiệp và các chương trình ưu đãi đặc biệt cho mọi...
                                        “
                                                Đảm bảo hoàn tiền
                                                Đảm bảo giá tốt nhất!
                                                            7.3
                                Đánh giá
                                    (16
                                        đánh giá)
                                Xem phòng
                            Khách Sạn Hạ Long Vũng Tàu
                             102 Hạ Long, Vũng Tàu, Bà Rịa - Vũng Tàu 
                            (Xem bản đồ)
                            Bãi Trước / Ga Tốc Hành
                                        “Khách Sạn Hạ Long - Vũng Tàu nằm tại trung tâm thành phố, với dịch vụ hoàn hảo và thiết bị tối tân tạo nên một kì nghỉ khó quên cho du khách. Hãy đến và tận hưởng kỳ nghỉ tuyệt vời của mình tại đây.
                                        “
                                                Đảm bảo hoàn tiền
                                                Đảm bảo giá tốt nhất!
                                                            7.6
                                Đánh giá
                                    (83
                                        đánh giá)
                                Xem phòng
                            Khách Sạn Đồi Dừa
                             300 Phan Chu Trinh, Phường2, Vũng Tàu, Bà Rịa - Vũng Tàu 
                            (Xem bản đồ)
                            Tượng chúa Giêsu Kitô
                                                Đảm bảo hoàn tiền
                                                Đảm bảo giá tốt nhất!
                                                            6.9
                                Đánh giá
                                    (59
                                        đánh giá)
                                Xem phòng
                            Khách Sạn Lam Sơn
                             7 Lê Ngọc Hân, Phường 1, Vũng Tàu, Bà Rịa - Vũng Tàu 
                            (Xem bản đồ)
                            Bạch Dinh
                                        “Khách Sạn Lam Sơn Vũng Tàu nằm gần bãi trước, thuận tiện đi lại tham quan và tắm biển, đội ngũ nhân viên thân thiện và nhiệt tình. Trang thiết bị hiện đại và được bài trí sang trọng, ấm cúng.
                                        “
                                                Đảm bảo hoàn tiền
                                                Đảm bảo giá tốt nhất!
                                                            7.4
                                Đánh giá
                                    (104
                                        đánh giá)
                                Xem phòng
                            Khách Sạn Du Lịch Điện Lực Vũng Tàu
                             147 Phan Chu Trinh, Phường 2, Vũng Tàu, Bà Rịa - Vũng Tàu 
                            (Xem bản đồ)
                            Tượng chúa Giêsu Kitô
                                        “Khách Sạn Du Lịch Điện Lực Vũng Tàu đạt tiêu chuẩn quốc tế với nội thất phong cách hiện đại và ấm áp. Du khách sẽ được nghỉ ngơi thư giãn với đội ngũ nhân viên thân thiện và dịch vụ chu đáo tận tâm.
                                        “
                                                Đảm bảo hoàn tiền
                                                Đảm bảo giá tốt nhất!
                                                            7.5
                                Đánh giá
                                    (15
                                        đánh giá)
                                Xem phòng
                            Lộc An 1 Resort
                             Lộc An , Đất Đỏ, Vũng Tàu, Bà Rịa - Vũng Tàu 
                            (Xem bản đồ)
                            Miếu Bà
                                        “Lộc An 1 Resort - Vũng Tàu được nhiều du khách biết đến và lựa chọn bởi trang thiết bị tiện nghi, hiện đại, đội ngũ nhân viên nhiệt tình, chuyên nghiệp và các chương trình ưu đãi đặc biệt cho mọi du k...
                                        “
                                                Đảm bảo hoàn tiền
                                                Đảm bảo giá tốt nhất!
                                                            7.8
                                Đánh giá
                                    (36
                                        đánh giá)
                                Xem phòng
                            Khách Sạn Nam Việt Vũng Tàu
                             27/12-14 Phó Đức Chính, Vũng Tàu, Bà Rịa - Vũng Tàu 
                            (Xem bản đồ)
                            Bãi Sau
                                        “Khách Sạn Nam Việt - Vũng Tàu nằm ở trung tâm thành phố với đội ngũ nhân viên chu đáo, tận tình. Du khách hãy nhanh chân đến khách sạn, để được thụ hưởng những dịch vụ tốt nhất và giá cả ưu đãi hấp dẫ...
                                        “
                                                Đảm bảo hoàn tiền
                                                Đảm bảo giá tốt nhất!
                                                            7.6
                                Đánh giá
                                    (112
                                        đánh giá)
                                Xem phòng
                            Khách Sạn Buffalo Inn 
                             252 Ba Cu, Vũng Tàu, Bà Rịa - Vũng Tàu 
                            (Xem bản đồ)
                            Chùa Phật Bửu Tự
                                        “Khách Sạn Buffalo Inn Vũng Tàu có vị trị khá thuận lợi để du khách tham quan du lịch lẫn công tác. Tại đây có các dịch vụ chu đáo và tiện nghi dễ chịu. Đây chắc chắn là một điểm đến không thể bỏ qua....
                                        “
                                                Đảm bảo hoàn tiền
                                                Đảm bảo giá tốt nhất!
                                                            8.0
                                Tốt
                                    (4
                                        đánh giá)
                                            (3
                                            Reviews)
                                Xem phòng
                            Khách Sạn Thùy Vân
                             115 Thùy Vân, Vũng Tàu, Bà Rịa - Vũng Tàu 
                            (Xem bản đồ)
                            Tượng chúa Giêsu Kitô
                                        “Khách Sạn Thùy Vân - Vũng Tàu được nhiều du khách biết đến và lựa chọn bởi trang thiết bị tiện nghi, hiện đại, đội ngũ nhân viên nhiệt tình, chuyên nghiệp và các chương trình ưu đãi đặc biệt cho mọi d...
                                        “
                                                Đảm bảo hoàn tiền
                                                Đảm bảo giá tốt nhất!
                                                            7.4
                                Đánh giá
                                    (59
                                        đánh giá)
                                Xem phòng
                            Khách Sạn Sông Hương
                             9 Trương Vĩnh Ký, Vũng Tàu, Bà Rịa - Vũng Tàu 
                            (Xem bản đồ)
                            Bạch Dinh
                                        “Khách Sạn Sông Hương Vũng Tàu có thiết kế ấm cúng, nội thất sang trọng cùng nhiều tiện nghi như sân tennis, hồ bơi, phòng tập thể thao. Đội ngũ nhân viên khách sạn phục vụ thân thiện và nhiệt tình.
                                        “
                                                Đảm bảo hoàn tiền
                                                Đảm bảo giá tốt nhất!
                                                            6.6
                                Đánh giá
                                    (17
                                        đánh giá)
                                Xem phòng
                «
                Trang trước
                1
                2
                3
                4
                Trang sau
                »
                                Bà Rịa - Vũng Tàu
                            Đặt phòng khách sạn Bà Rịa - Vũng Tàu giá tốt nhất tại Mytour.vn, với nhiều khuyến mãi từ website và đơn vị khách sạn tiết kiệm lên đến 70%. Hơn 150.000 đánh giá từ khách hàng đã qua sử dụng khách sạn giúp bạn đưa ra những quyết định tốt nhất cho lựa chọn của mình. Đặc biệt chính sách ĐẢM BẢO HOÀN TIỀN chỉ có tại Mytour.vn, giờ đây bạn có thể hoàn toàn tin tưởng vào dịch vụ đặt phòng trực tuyến.   Ngoài ra, chúng tôi cũng trân trọng giới thiệu đến bạn những khách sạn Bà Rịa - Vũng Tàu tốt nhất 2016 trong các hạng mục Best Seller và Top Review trên website Mytour.vn. Đây là những khách sạn đạt tiêu chuẩn rất cao và làm hài lòng cả những vị khách khó tính nhất.Với hơn 5.000 khách sạn, resort tại 63 tỉnh/ thành phố, Mytour ngày càng được du khách tin dùng để tìm kiếm khách sạn. Mytour sẽ hỗ trợ quý khách đặt khách sạn Bà Rịa - Vũng Tàu với chi phí hợp lý để có chuyến đi thật thú vị và tiết kiệm. Ngoài việc cung cấp những khách sạn giá tốt nhất, bạn có còn có thể tìm thấy nhiều thông tin du lịch hữu ích và thú vị khác.  Vũng Tàu là thành phố thuộc tỉnh Bà Rịa – Vũng Tàu nằm ở vùng Đông Nam Bộ. Vũng Tàu là điểm đến hấp dẫn cho du khách trong và ngoài nước.  Vũng Tàu là thành phố được bao bọc bởi biển, có các cánh rừng nguyên sinh, các ngọn núi cao, ngoài ra còn có sông và nhiều hồ nước lớn giúp khí hậu nơi đây quanh năm mát mẻ ôn hòa. Trong thành phố cây xanh và hoa được trồng ở mọi nơi. Được hưởng những sự ưu ái thiên nhiên, Vũng Tàu ngày nay đã trở thành một trong những địa điểm du lịch nổi tiếng của Việt Nam. Từ thành phố Hồ Chí Minh chỉ mất khoảng hơn 2 tiếng bạn đã có thể đến được với địa phận thành phố Vũng Tàu.  Khi đặt khách sạn tại Vũng Tàu, Mytour với hệ thống đặt phòng có hơn 110 khách sạn được trang bị đầy đủ tiện nghi hiện đại cùng với dịch vụ chăm sóc khách hàng hoàn hảo sẽ mang lại cho bạn những trải nghiệm thú vị.  Đến với Vũng Tàu, bạn sẽ được tham quan những thắng cảnh nổi tiếng nơi đây cũng như đắm mình dưới làn nước trong xanh, cát trắng mịn màng của bãi biển tuyệt đẹp. Du lịch Vũng Tàu nổi tiếng với các điểm du lịch thú vị, các bãi tắm đẹp mà thiên nhiên ban tặng như bảo tàng Côn Đảo, suối nước khoáng nóng Bình Châu là một liệu pháp chăm sóc rất tốt cho sức khỏe và sắc đẹp, Bãi Dâu thơ mộng và yên ả; Bãi Dứa còn gọi là bãi Hương Phong, một bãi tắm nhỏ nhưng khá xinh xắn; Bãi Trước hình vòng cung, còn có tên gọi khác bãi Tầm Dương vì ở đây du khách có thể ngắm mặt trời lặn vào mỗi buổi chiều, Bãi Trước hấp dẫn khách du lịch bởi nó giống như một vịnh nhỏ ít sóng, có bờ cát dài phẳng mịn  và những hàng dừa chạy dọc theo bờ biển; Bãi Sau nằm phía Nam Vũng Tàu, chạy dài gần 10 km, là một trong những bãi biển đẹp, có sức hút rất mạnh đối với khách du lịch cả trong và ngoài nước; hay tham quan ngọn núi Minh Đạm là điểm du lịch sinh thái lý tưởng và căn cứ kháng chiến trong hai cuộc kháng chiến chống Pháp và Mỹ. Không chỉ hấp dẫn du khách gần xa bởi các bãi tắm đẹp, những khu vui chơi giải trí, mà Vũng Tàu còn cuốn hút bạn bởi các lễ hội đặc sắc, mang màu sắc riêng của thành phố biển như: Lễ hội Dinh Cô, Lễ hội Nghinh Ông, Lễ hội Đình thần Thắng Tam, Đại lễ kính Đức Maria, mẹ Thiên Chúa.  Bên cạnh đó, một yếu tố khác để du khách vẫn lưu luyến và muốn ghé thăm lại thành phố biển Vũng Tàu chính là nền ẩm thực phong phú và đa dạng. Du khách có thể thưởng thức món bánh Khọt ngon nổi tiếng, hải sản tươi sống được bán và chế biến ngay tại bãi biển, món mứt hạt bàng – đặc sản của vùng Côn Đảo, bánh xèo…  Hãy nhanh tay đặt tour tại Vũng Tàu qua hệ thống đặt phòng, đặt tour trực tuyến của Mytour để chúng tôi có thể hỗ trợ quý khách có một chuyến đi thật thú vị và tiết kiệm với chi phí hợp lý nhất!  Đến với Mytour.vn, bạn sẽ có cơ hội đặt phòng khách sạn giá rẻ tại Vũng Tàu cùng nhiều chương trình khuyến mại hấp dẫn chỉ dành riêng cho khách hàng Mytour nữa đấy!
            Địa danh ở gần
                                    Tượng chúa Jesus
                                     ~ 0km
                                    Mũi Nghinh Phong
                                     ~ 0km
                                    Bãi tắm Long Hải
                                     ~ 0km
                                    Khu du lịch Bình An
                                     ~ 0km
                                    Chùa Hải Vân
                                     ~ 0km
                                    Nhà Thờ Chánh Tòa Bà Rịa
                                     ~ 0km
                                    Chùa Khỉ
                                     ~ 0km
                                    Lăng Cá Ông
                                     ~ 0km
                                    Miếu Bà Ngũ Hành
                                     ~ 0km
                                    Đình thần Thắng Tam
                                     ~ 0km
                                    Hòa mình vào thiên nhiện thơ mộng của Vũng Tàu Paradise
                                     ~ 0km
                                    Tổ đình Thiên Thai 
                                     ~ 0km
                                    Bãi Đầm Trầu
                                     ~ 0km
                                    Chùa Thiên Bửu Tháp
                                     ~ 0km
                                    Hải đăng Bảy Cạnh
                                     ~ 0km
                                    Chùa Núi Một
                                     ~ 0km
                                    Bảo tàng Côn Đảo
                                     ~ 0km
                                    Mũi Cá Mập
                                     ~ 0km
                                    Chùa Phước Duyên
                                     ~ 0km
                                    Nhà thờ Giáo xứ Xuân Sơn
                                     ~ 0km
                                    Tịnh thất Thanh Châu
                                     ~ 0km
                                    Hồ Quảng Thành
                                     ~ 0km
                                    Hồ Suối Rao
                                     ~ 0km
                                    Sân bay Cỏ Ống
                                     ~ 0km
                                    Suối Ớt
                                     ~ 0km
                                    Mũi Tà Bê
                                     ~ 0km
                                    Bãi Đất Dốc
                                     ~ 0km
                                    Bãi Lò Voi
                                     ~ 0km
                                    Bãi An Hải
                                     ~ 0km
                                    Vân Sơn tự
                                     ~ 0km
                 Du lịch Bà Rịa - Vũng Tàu 
                  Đến Vũng Tàu nên chọn gì về làm quà?   Chơi gì ở Vũng Tàu - thành phố biển xinh đẹp của miền Nam?   Những thông tin cần lưu ý khi du lịch biển Vũng Tàu   Cẩm nang du lịch Vũng Tàu từ A tới Z   Du lịch phố biển Vũng Tàu nên chọn khách sạn nào?   Khám phá vẻ đẹp văn hóa – con người phố biển Vũng Tàu   Du lịch Vũng Tàu mùa nào lý tưởng nhất?   Mê mẩn với những món ăn ngon Vũng Tàu   Các phương tiện thông dụng khi du lịch biển Vũng Tàu  
                ×
                    Chính sách đảm bảo hoàn tiền của mytour
                    Bạn chưa tin tưởng việc đặt phòng khách sạn trực tuyến? Bạn e ngại rằng phòng khách sạn thực tế không đúng với thông tin trên website? Chúng tôi cam kết đưa đầy đủ và chính xác thông tin khách sạn trên website với chính sách “Đảm bảo Hoàn tiền”
                        Nếu khách hàng đặt khách sạn thành công trên Mytour nhưng khách sạn không có phòng, Mytour sẽ hoàn lại tiền cho khách và tặng kèm phiếu giảm giá có giá trị bằng với số tiền khách hàng đã trả.
                        Trong trường hợp loại phòng thực tế không đúng với loại phòng trên đơn hàng, Mytour sẽ quyết định nâng cấp miễn phí hoặc tặng phiếu giảm giá có giá trị bằng với số tiền khách hàng đã trả.
                        Trường hợp các tiện nghi phòng khách sạn (như bữa sáng, wifi…) không đúng với nội dung trên website, Mytour sẽ tặng phiếu giảm giá có giá trị bằng 10% số tiền khách đã trả (tối đa 500,000 VND)
                        Khách hàng cần gọi điện thoại 04-7309 9899 (Hà Nội), 08-7309 9899 (Hồ Chí Minh) hoặc email tới info@mytour.vn và cung cấp mã đơn hàng trong vòng 24 giờ từ lúc nhận phòng để được trợ giúp giải quyết khiếu nại (Hotline chỉ hỗ trợ trong giờ hành chính).
                        Mytour không chịu trách nhiệm bồi thường thiệt hại gián tiếp, ngẫu nhiên, hay do hậu quả phát sinh. Trong mọi trường hợp, trách nhiệm của Mytour không vượt quá tổng số tiền khách hàng thanh toán đặt phòng.
                ×
                    Đảm bảo giá tốt nhất
                    Nếu Thành viên đã đặt một phòng khách sạn được “Đảm Bảo” tại Mytour.vn và sau đó, cho Mytour.vn  thấy rằng Thành viên có thể đặt một phòng tương tự trong cùng khoảng thời gian ở mức giá tốt hơn có thể xem và đặt được trên một website khác, Mytour.vn sẽ giảm giá bằng hoặc thấp hơn mức giá đó.
                    Giá dùng để so sánh là giá sau khi áp dụng mức giảm giá công bố trên website Mytour.vn.
                    Chính sách “Đảm Bảo Giá Tốt Nhất” của Mytour.vn chỉ áp dụng cho các đặt phòng đã được xác nhận và phải thỏa mãn những điều kiện sau:
                Cùng khách sạnCùng thời gian nghỉ lạiCùng loại Phòng/GiườngCùng các yêu cầu mua Trước, yêu cầu trả trước và đặt cọc (nếu có)Cùng chính sách Hủy và Sửa Đổi
                    Phòng đó phải còn trống để được xác nhận ngay tại thời điểm các đại lý của Mytour.vn  kiểm tra phòng trống
                        Chính sách “Đảm Bảo Giá Tốt Nhất” không áp dụng cho các mức giá không công bố, như: chương trình khách hàng thân thiện.
                        Bất kỳ tổ chức nào với các mức giá dành cho nhóm cá nhân cụ thể và không nhằm mục đích áp dụng ra bên ngoài.
                        Thành viên có thể gửi khiếu nại theo địa chỉ : info@mytour.vn
                                Nêu mã đặt phòng Mytour.vn trong dòng tiêu đề thư
                                Gửi URL của website nơi Thành viên tìm thấy mức giá tốt hơn
                                Cung cấp ảnh chụp màn hình của website đối thủ cạnh tranh trong đó nêu rõ Phòng Trống, Loại Phòng, và các mức giá cho những ngày nghỉ lại theo yêu cầu của Thành viên.
                VUI LÒNG LƯU Ý: Thành viên không cần thực hiện đặt phòng trên website của đối thủ cạnh tranh, chỉ cần cho Mytour.vn thấy sự so sánh.
                ×
                Đăng Nhập
                                 Đăng nhập bằng tài khoản Facebook
                                 Đăng nhập bằng tài khoản Google
                            Hoặc đăng nhập bằng
                        Email*
                        Mật khẩu*
                        Quên mật khẩu?
                            Chưa có tài khoản/tạo tài khoản
                Đăng nhập
                         Nhớ đăng nhập
                ×
                Bản đồ
                                            Bà Rịa - Vũng Tàu
                    Tìm đường
                        Từ: 
                        Đến: 
                            Khách sạnĐịa danh Hiển thị các khách sạn ở gần Hiển thị các khu du lịch ở gần
                ×
                Yêu Cầu Lấy Giá
                                    Ngày nhận phòng
                                    Ngày trả phòng
                        Tên khách hàng
                        Email
                        Điện thoại
                        Nhân viên chăm sóc khách hàng sẽ gọi điện cho quý khách trong thời gian sớm nhất.
                        Quý khách có thể gọi điện đến cho Mytour để được tư vấn ngay:
                        Hà Nội: (04) 7109 9999, Hồ Chí Minh: (08) 7309 9899, Support
                            English: (+84)4-7309-9899.
                    Hoàn thành
                ×
                Gửi Thông Tin
                        Tên khách hàng
                        Email
                        Điện thoại
                            Quý khách sẽ thấy giá giảm ngay trên trang sau khi gửi thông tin
                    Hoàn thành
                ×
                Nhận Giá Tốt
                                    Ngày nhận phòng
                                    Ngày trả phòng
                        Tên khách hàng
                        Email
                        Điện thoại
                        Vì giá tốt không được công bố nên hệ thống sẽ gửi giá qua email đến quý khách và nhân viên chăm
                        sóc sẽ gọi điện cho quý khách trong thời gian sớm nhất.
                        Quý khách có thể gọi điện đến cho Mytour để được tư vấn ngay:
                        Hà Nội: (04) 7109 9999, Hồ Chí Minh: (08) 7309 9899, Support
                            English: (+84)4-7309-9899.
                    Hoàn thành
                ×
                ×
                ĐÁNH GIÁ 
                        Tên
                        Tiêu đề
                        Kiểu du lịch?
                                -- Chọn --Cá nhânCặp đôiGia đìnhBạn bèDoanh nghiệp
                        Nội dung
                                Đánh giá chi tiết
                                Chỗ ở
                                5
                                Thức ăn
                                5
                                Phương tiện
                                5
                                Hướng dẫn viên
                                5
                                Lịch trình
                                5
                    Gửi đánh giá
                    Hủy Bỏ
                ×
                Gửi lại email kích hoạt
                ×
                Thông tin chi tiết giá theo phòng
                    Chọn khoảng thời gian hiển thị giá phòng
                    Hiển thị giá
                ×
                Khóa phòng theo khoảng thời gian
                            Chọn khoảng thời gian check-in cần khóa/mở phòng
                            Khóa phòng
                            Mở phòng
                ×
                THUẾ VÀ PHÍ DỊCH VỤ
                17% thuế và phí dịch vụ bao gồm:
                    - 10% thuế và 5% phí dịch vụ hoàn trả lại cho khách sạn.
                    - 2% phí giao dịch tại Mytour.
                ×
                Bạn có hài lòng về website của Mytour?
                    Thông điệp nhắn nhủ:
                Mytour luôn mong muốn cải thiện dịch vụ để bạn có trải nghiệm tốt hơn!
                            Ảnh đính kèm
                        Đóng
                        Gửi
                ×
                    Những đóng góp của bạn đã được ghi nhận. Mytour cám ơn bạn !
                Quay lại website
            Khách sạn theo các tỉnh thành
                        An Giang
                        Bà Rịa - Vũng Tàu
                        Bắc Giang
                        Bắc Kạn
                        Bạc Liêu
                        Bắc Ninh
                        Bến Tre
                        Bình Định
                        Bình Dương
                        Bình Phước
                        Bình Thuận
                        Cà Mau
                        Cần Thơ
                        Cao Bằng
                        Đà Lạt
                        Đà Nẵng
                        Đắk Nông
                        Đắk Lắk
                        Điện Biên
                        Đồng Nai
                        Đồng Tháp
                        Gia Lai
                        Hà Giang
                        Hạ Long
                        Hà Nam
                        Hà Nội
                        Hà Tĩnh
                        Hải Dương
                        Hải Phòng
                        Hậu Giang
                        Hồ Chí Minh
                        Hoà Bình
                        Hội An
                        Hưng Yên
                        Khánh Hòa
                        Kiên Giang
                        Kon Tum
                        Lai Châu
                        Lâm Đồng
                        Lạng Sơn
                        Lào Cai
                        Long An
                        Nam Định
                        Nghệ An
                        Nha Trang
                        Ninh Bình
                        Ninh Thuận
                        Phan Thiết
                        Phú Quốc
                        Phú Thọ
                        Phú Yên
                        Quảng Bình
                        Quảng Nam
                        Quảng Ngãi
                        Quảng Ninh
                        Quảng Trị
                        Sa Pa
                        Sóc Trăng
                        Sơn La
                        Tây Ninh
                        Thái Bình
                        Thái Nguyên
                        Thanh Hoá
                        Thành Phố Huế
                        Thừa Thiên Huế
                        Tiền Giang
                        Trà Vinh
                        Tuyên Quang
                        Vĩnh Long
                        Vĩnh Phúc
                        Vũng Tàu
                        Yên Bái
                Du lịch Bà Rịa - Vũng Tàu
                                Du lịch Côn Đảo
                                Du lịch Vũng Tàu
                                Du lịch Long Điền
                                Du lịch Xuyên Mộc
                                Du lịch Tân Thành
                                Du lịch Bà Rịa
                                Du lịch Châu Đức
                                Du lịch Đất Đỏ
                            Giới thiệu Mytour
                            Đối tác khách sạn
                            Đăng nhập HMS
                            Tích lũy Vpoint
                            Điều khoản sử dụng
                            Quy chế hoạt động
                            Tuyển dụng
                            Liên hệ
                            Đăng ký nhận email
                                Đăng ký email để nhận khuyến mãi lên đến 70%
                                    Đăng
                                    ký
                    Công ty TNHH Mytour Việt Nam
                    Số ĐKKD: 0105983269 cấp ngày 30/08/2012
                    Văn phòng Hà Nội: Tầng 4, tòa nhà GP Invest, 170 Đê La Thành, Đống Đa
                    Văn phòng HCM: Tầng 5, Tòa Nhà HDTC, Số 36 Bùi Thị Xuân, Q.1
                Hotline
                        Hà Nội:
                        (04) 7109 9999
                        Tp. HCM:
                        (08) 7309 9899
                        ENGLISH SUPPORT:
                        (+84)4 7309 9899
