url:http://mytour.vn/657-khach-san-buu-dien-ha-long.html
Tittle :Khách Sạn Bưu Điện Hạ Long  - Quảng Ninh giá tốt nhất - Mytour.vn
content :Đặt phòng trực tuyến, hoặc gọi
                                                            Hà Nội: (04) 7109 9999
                                                                                        - (04) 7309 9899
                                                            Hồ Chí Minh: (08) 7309 9899
                                                                                        - (08) 7109 9998
                        T2 - CN: 08:00 - 23:00
                    Toggle navigation
                                Bạn không có thông báo nào
                    |
                    ||
                                                            Tài khoản
                        Đăng nhập
                                Đăng kýKhách sạn yêu thích
                            Khách sạn
                            Tour
                            Cẩm nang du lịch
                            Thông tin
                                                Về Mytour
                                                Tin khuyến mãi
                                                Ưu đãi
                                                Hướng dẫn
                                                Liên hệ
                            Tốt nhất 2016
                ×
                Bạn có chắc muốn hủy đơn hàng?
                Lorem ipsum dolor sit amet, consectetur adipisicing elit. Iure corporis repudiandae nobis distinctio
                quae quos, officia modi, ab voluptatem pariatur ducimus mollitia, necessitatibus sed soluta dicta
                repellendus! Praesentium debitis, temporibus?
                    Đồng ý
                    Đóng
                    Khách sạnQuảng NinhHạ Long Khách sạn gần Chợ Bãi CháyKhách Sạn Bưu Điện Hạ Long 
                    Đóng
            Tìm Kiếm Khách Sạn
                            Ngày nhận phòng
                            Ngày trả phòng
                    Số đêm
                    Số phòng
                        123456789101112
                    Người lớn
                        123456789101112
                    Tìm khách sạn
                Giá tốt hơn so với đặt phòng trực tiếp tại khách sạn
                Đảm bảo 
                giá tốt nhất
                Đảm bảo 
                hoàn tiền
                Nhân viên chăm sóc, tư vấn nhiều kinh nghiệm
                Hơn 5000 khách sạn tại Việt Nam với đánh giá thực
                Nhiều chương trình khuyến mãi và tích lũy điểm
                Thanh toán dễ dàng, đa dạng
                        Khách Sạn Bưu Điện Hạ Long 
                            (Cung cấp bởi khách sạn)
                                    Tất cả thông tin về tiêu chuẩn khách sạn trên website mytour.vn
                                    là do khách sạn tự cung cấp, chỉ mang tính chất tham khảo và không nhất thiết trùng
                                    hợp với hạng
                                    sao được cấp bởi sở Văn Hoá, Thể thao và du lịch.
                             Đường Hạ Long, Bãi Cháy, Hạ Long , Quảng Ninh 
                                Đặt phòng ngay giữ giá tốt
                                Đã thích
                                        6.7
                                            (31
                                            đánh giá)
                                Giới thiệu về Khách Sạn Bưu Điện Hạ Long  
                                    Khách sạn Bưu Điện Hạ Long đạt tiêu chuẩn quốc tế 3 sao và là một trong những công trình kiến trúc hoàn hảo tại đây. Khách sạn gồm 9 tầng, được trang bị hệ thống thang máy, điều hoà trung tâm, điện thoại trực tiếp quốc tế và nhiều kênh truyền hình thu từ vệ tinh.
Khách sạn Bưu Điện Hạ Long với 111 phòng nghỉ thiết kế độc lập, phong phú về kiểu dáng kiến trúc, cảnh quan hướng biển hoặc hướng phố. Trang thiết bị phòng ngủ hiện đại, ấm cúng, đủ tiêu chuẩn khách sạn quốc tế 3 sao. Hệ thống điện thoại quốc tế (IDD) quay trực tiếp tiện ích, truyền hình vệ tinh, tủ lạnh, quầy rượu, máy sấy, … Du khách sẽ có cảm giác thoải mái như ở nhà mình, bất kể những gì du khách cần trong sinh hoạt hàng ngày đều có sẵn trong phòng. Đứng trên tầng cao của khách sạn, du khách có thể phóng tầm mắt ngắm nhìn toàn cảnh Hạ Long. Mytour sẽ tư vấn đặt phòng phù hợp với mục đích chuyến đi của bạn.
Khối nhà hàng và khu vực phòng ăn phục vụ đồng thời 500 - 600 khách với các món ăn Âu - Á, đặc sản Việt Nam qua bàn tay sáng tạo tài tình của đội ngũ đầu bếp lành nghề sẽ làm hài lòng quý khách.
Các quầy bar của khách sạn Bưu Điện Hạ Long đặt ở các tầng với nhiều loại cocktail, đồ uống phong phú mang lại những giây phút khó quên giữa khung cảnh nên thơ, kỳ vĩ của Hạ Long.
Khu phòng họp lớn, phòng họp nhỏ, được trang bị ánh sáng, âm thanh hiện đại phục vụ tốt các hội nghị, hội thảo, ký kết hợp đồng, …
Ngoài ra khách sạn còn có các dịch vụ : cho thuê văn phòng, tổ chức đặt tour lữ hành nội địa và quốc tế, đổi tiền, đặt vé máy bay, làm hộ chiếu, cho thuê xe du lịch.
Từ khách sạn bạn có thể tham quan các địa danh nổi tiếng như: đảo Cô Tô, đảo Tuần Châu, Hang Sửng Sốt, làng chài Cửa Vạn….
Với rất nhiều dịch vụ cùng không gian nghỉ dưỡng tiện nghi, đặt phòng Khách sạn Bưu Điện Hạ Long chính là lựa chọn đúng đắn cho kỳ nghỉ ngơi và thư giãn của bạn.
Với sự hỗ trợ của Mytour, bạn sẽ có cơ hội đặt phòng giá rẻ nhấtcùng nhiều chương trình khuyến mại dành riêng cho khách hàng của Mytour.
                                        Xem thêm 
                                Chọn ngày để xem giá và phòng trống
                                    Đảm bảo giá tốt nhất
                                                Ngày nhận phòng
                                                Ngày trả phòng
                                        Số đêm
                                        Số phòng
                                            123456789101112
                                        Người lớn
                                            123456789101112
                                        Cập nhật giá
                                Lưu ý: Vui lòng ẩn "Cập nhật giá" để cập nhật phòng
                                Chọn phòng Khách Sạn Bưu Điện Hạ Long 
                                                Loại Phòng
                                                Giá 1 đêm
                                                Số phòng
                                                Đặt phòng
                                                                    Supperior Double/ Twin
                                                                        Điều kiện hủy phòng
                                                        Một trẻ em dưới 10 tuổi ở chung phòng với bố mẹ sẽ được miễn phí tiền phòng (chưa bao gồm phí ăn sáng )
Trẻ em từ 10 tuổi bắt buộc thuê phòng có thêm giường.Tính tiền theo người thứ 3 ở cùng phòng.
Miễn phí 01 phòng cho mỗi đoàn từ 16 phòng trở lên, không quá 03 phòng miễn phí cho mỗi đoàn.
Không hoàn tiền phiếu ăn sáng nếu khách không sử dụng.
                                                        phòng
                                                                                                                                                                            01234567
                                                            Đặt ngay
                                                            Xác nhận ngay
                                                                    Vip 
                                                                        Điều kiện hủy phòng
                                                        Một trẻ em dưới 10 tuổi ở chung phòng với bố mẹ sẽ được miễn phí tiền phòng (chưa bao gồm phí ăn sáng )
Trẻ em từ 10 tuổi bắt buộc thuê phòng có thêm giường.Tính tiền theo người thứ 3 ở cùng phòng.
Miễn phí 01 phòng cho mỗi đoàn từ 16 phòng trở lên, không quá 03 phòng miễn phí cho mỗi đoàn.
Không hoàn tiền phiếu ăn sáng nếu khách không sử dụng.
                                                        phòng
                                                                                                                                                                            0123
                                                            Đặt ngay
                                                            Xác nhận ngay
                                                                    Deluxe Double/ Twin
                                                                        Điều kiện hủy phòng
                                                        Một trẻ em dưới 10 tuổi ở chung phòng với bố mẹ sẽ được miễn phí tiền phòng (chưa bao gồm phí ăn sáng )
Trẻ em từ 10 tuổi bắt buộc thuê phòng có thêm giường.Tính tiền theo người thứ 3 ở cùng phòng.
Miễn phí 01 phòng cho mỗi đoàn từ 16 phòng trở lên, không quá 03 phòng miễn phí cho mỗi đoàn.
Không hoàn tiền phiếu ăn sáng nếu khách không sử dụng.
                                                        phòng
                                                                                                                                                                            012345
                                                            Đặt ngay
                                                            Xác nhận ngay
                                                                    Deluxe Triple
                                                                        Điều kiện hủy phòng
                                                        Một trẻ em dưới 10 tuổi ở chung phòng với bố mẹ sẽ được miễn phí tiền phòng (chưa bao gồm phí ăn sáng )
Trẻ em từ 10 tuổi bắt buộc thuê phòng có thêm giường.Tính tiền theo người thứ 3 ở cùng phòng.
Miễn phí 01 phòng cho mỗi đoàn từ 16 phòng trở lên, không quá 03 phòng miễn phí cho mỗi đoàn.
Không hoàn tiền phiếu ăn sáng nếu khách không sử dụng.
                                                        phòng
                                                                                                                                                                            012345
                                                            Đặt ngay
                                                            Xác nhận ngay
                                    Tiện nghi Khách Sạn Bưu Điện Hạ Long  
                                                Bữa sáng miễn phí
                                                Bể bơi ngoài trời
                                                Bãi đỗ xe
                                                Internet
                                                Phòng hút thuốc
                                                Wifi miễn phí
                                                Giặt là
                                                Nhà hàng
                                                Quán cafe
                                                Tiếp tân 24/24
                                                Bể bơi trong nhà
                                                Gia đình
                                Ghi chú: Ăn sáng miễn phí (nếu có) có thể thay đổi theo phòng và ngày
                                    Chính sách Khách Sạn Bưu Điện Hạ Long  
                                        Giờ nhận
                                        phòng: 14:00
                                        Giờ trả
                                        phòng: 12:00
            Đánh giá Khách Sạn Bưu Điện Hạ Long 
                Viết đánh giá
                        Tất cả ( 31 )
                        Công tác ( 1 )
                        Cặp đôi ( 3 )
                        Gia đình ( 6 )
                        Bạn bè ( 2 )
                        Cá nhân ( 19 )
                        Đánh giá
                        6.7
                            Tất cả
                    Chi tiết điểm  (từ
                        31
                        nhận xét)
                            Vị trí
                                6.9
                                    % Complete
                            6.9
                            Phục vụ
                                6.6
                                    % Complete
                            6.6
                            Tiện nghi
                                6.5
                                    % Complete
                            6.5
                            Giá cả
                                6.5
                                    % Complete
                            6.5
                            Vệ sinh
                                6.7
                                    % Complete
                            6.7
                                    “Tôi đánh giá tốt dịch vụ ở khách sạn Bưu Điện Hạ Long này, mọi thứ đều ổn, giá cả hợp lý, vị trí đẹp, nhân viên vui vẻ, phòng ốc đạt tiêu chuẩn, không có gì để phàn nàn cả. Vệ sinh phòng sạch sẽ, gọn gàng, ở khá thoải mái, cảm ơn mytour đã hỗ trợ tôi đặt phòng nhanh chóng và giá tốt. Tôi hài lòng khi nghỉ tại đây.
                                    “
                                Nguyễn Việt Tiệp
                                23/08/2016
                        Rất tốt
                        9.2
                            Công tác
                    Chi tiết điểm  (từ
                        1
                        nhận xét)
                            Vị trí
                                9
                                    % Complete
                            9
                            Phục vụ
                                9
                                    % Complete
                            9
                            Tiện nghi
                                8
                                    % Complete
                            8
                            Giá cả
                                10
                                    % Complete
                            10
                            Vệ sinh
                                9
                                    % Complete
                            9
                                    “
Khách sạn được thiết kế đẹp mắt. Nhân viên đáp ứng được mọi yêu cầu của chúng tôi.
Tôi thấy rất an tâm vì khách sạn rất an toàn. Tôi sẽ trở lại
                                    “
                                Minh Hoàng Nghĩa
                                02/11/2013
                        Đánh giá
                        6.5
                            Cặp đôi
                    Chi tiết điểm  (từ
                        3
                        nhận xét)
                            Vị trí
                                6.7
                                    % Complete
                            6.7
                            Phục vụ
                                6.3
                                    % Complete
                            6.3
                            Tiện nghi
                                6
                                    % Complete
                            6
                            Giá cả
                                6
                                    % Complete
                            6
                            Vệ sinh
                                6.7
                                    % Complete
                            6.7
                                    “Đây là ý kiến của riêng tôi: Nhân viên ở đây có thái độ tương đối tốt và phục vụ nhanh nhẹn. Vệ sinh sạch sẽ mang lại không gian mát mẻ, thông thoáng, phòng ốc rộng rãi và đặc biệt là đồ ăn ở đây tôi thấy khá ngon, hợp khẩu vị với chúng tôi, cách trưng bày đẹp mắt, hấp dẫn.
                                    “
                                Ms Lan Hương
                                27/06/2015
                        Đánh giá
                        6.7
                            Gia đình
                    Chi tiết điểm  (từ
                        6
                        nhận xét)
                            Vị trí
                                7.3
                                    % Complete
                            7.3
                            Phục vụ
                                6.3
                                    % Complete
                            6.3
                            Tiện nghi
                                6.4
                                    % Complete
                            6.4
                            Giá cả
                                6
                                    % Complete
                            6
                            Vệ sinh
                                6.7
                                    % Complete
                            6.7
                                    “KS có vị trí đẹp. Phòng hơi cữ nhưng sạch sẽ. KS rất vắng khách nên lần nào cần lễ tân cũng phải gọi hay đi tìm. KS có bể bơi nhưng đang sửa nên coi như không có.
                                    “
                                Nguyen Quang Trung
                                19/09/2015
                        Đánh giá
                        7.9
                            Bạn bè
                    Chi tiết điểm  (từ
                        2
                        nhận xét)
                            Vị trí
                                8
                                    % Complete
                            8
                            Phục vụ
                                7.5
                                    % Complete
                            7.5
                            Tiện nghi
                                8
                                    % Complete
                            8
                            Giá cả
                                8
                                    % Complete
                            8
                            Vệ sinh
                                8
                                    % Complete
                            8
                                    “KS phòng không còn mới nhưng cũng sạch sẽ và chấp nhận được. Thái độ phục vụ của nhân viên KS cũng tạm được, do tôi đi vào ngày cuối tuần nên hơi đông khách. Kinh nghiệm là nên đặt phòng sớm vào những ngày cuối tuần (thứ 6 + thứ 7) nếu muốn ở những KS gần biển như thế này.
                                    “
                                Nguyễn Hoàng Đức
                                30/06/2014
                        Đánh giá
                        6.4
                            Cá nhân
                    Chi tiết điểm  (từ
                        19
                        nhận xét)
                            Vị trí
                                6.6
                                    % Complete
                            6.6
                            Phục vụ
                                6.5
                                    % Complete
                            6.5
                            Tiện nghi
                                6.4
                                    % Complete
                            6.4
                            Giá cả
                                6.3
                                    % Complete
                            6.3
                            Vệ sinh
                                6.4
                                    % Complete
                            6.4
                                    “Tôi đặt giúp cho các đối tác nghỉ lại 1 đêm trong chuyến đi công tác và nhận được phản hồi khách sạn khá đầy đủ tiện nghi và đón tiếp tốt. Tuy nhiên vẫn chưa thấy ưng ý về vệ sinh phòng ốc cảm thấy chưa sạch sẽ cho lắm và chưa hài lòng về điểm này.
                                    “
                                Ms Nguyễn Thị Thái Thanh - Mr Lại Quốc Hưng -Mr Nguyễn Quang Trung
                                23/09/2016
                                Từ ngày mới đến cũ
                                Từ ngày cũ đến mới
                                Điểm từ thấp đến cao
                                Điểm từ cao đến thấp
                                PHUONG TUYET NGUYEN
                                12-11-2016
                                            Đánh giá
                                            6.8
                                        "Vị trí tốt "
                                                Vị trí
                                                    8 .0
                                                Phục vụ
                                                8 .0
                                                Tiện nghi
                                                5 .0
                                                Giá cả
                                                6 .0
                                                Vệ sinh
                                                7 .0
                                                “Tôi đánh giá khách sạn này như sau: Ưu điểm vị trí ngay trung tâm, vệ sinh phòng sạch sẽ,  thái độ phục vụ nhiệt tình chu đáo. Nhươc điểm: Vòi nước nóng chảy yếu không tiện lợi khi sử dụng. Phòng cách âm không tốt rất ồn ào và không yên tĩnh bởi khách đoàn kế bên. Ăn sáng quá dở luôn. Nhìn chung chưa ấn tượng được nhiều khi chọn dịch vụ khách sạn này.” 
                                Ms Nguyễn Thị Thái Thanh - Mr Lại Quốc Hưng -Mr Nguyễn Quang Trung
                                23-09-2016
                                            Đánh giá
                                            7.6
                                        "Tạm ổn "
                                                Vị trí
                                                    8 .0
                                                Phục vụ
                                                8 .0
                                                Tiện nghi
                                                8 .0
                                                Giá cả
                                                8 .0
                                                Vệ sinh
                                                6 .0
                                                “Tôi đặt giúp cho các đối tác nghỉ lại 1 đêm trong chuyến đi công tác và nhận được phản hồi khách sạn khá đầy đủ tiện nghi và đón tiếp tốt. Tuy nhiên vẫn chưa thấy ưng ý về vệ sinh phòng ốc cảm thấy chưa sạch sẽ cho lắm và chưa hài lòng về điểm này.” 
                                Nguyễn Việt Tiệp
                                23-08-2016
                                            Rất tốt
                                            9
                                        "Tốt, dịch vụ đạt tiêu chuẩn "
                                                Vị trí
                                                    9 .0
                                                Phục vụ
                                                9 .0
                                                Tiện nghi
                                                9 .0
                                                Giá cả
                                                9 .0
                                                Vệ sinh
                                                9 .0
                                                “Tôi đánh giá tốt dịch vụ ở khách sạn Bưu Điện Hạ Long này, mọi thứ đều ổn, giá cả hợp lý, vị trí đẹp, nhân viên vui vẻ, phòng ốc đạt tiêu chuẩn, không có gì để phàn nàn cả. Vệ sinh phòng sạch sẽ, gọn gàng, ở khá thoải mái, cảm ơn mytour đã hỗ trợ tôi đặt phòng nhanh chóng và giá tốt. Tôi hài lòng khi nghỉ tại đây.” 
                                Lã Đức Hiếu
                                11-08-2016
                                            Tốt
                                            8
                                        "Tôi chẳng chê trách "
                                                Vị trí
                                                    8 .0
                                                Phục vụ
                                                8 .0
                                                Tiện nghi
                                                8 .0
                                                Giá cả
                                                8 .0
                                                Vệ sinh
                                                8 .0
                                                “Bưu Điện Hạ Long là một khách sạn khá tốt, tôi chẳng chê trách về con người lẫn điều kiện vật chất ở đây. Lễ tân cũng lịch sự, hỗ trợ khách tích cực và phòng của tôi được dọn dẹp kĩ, giường bố trí theo đúng yêu cầu. Giá tiền phù hợp, tôi hài lòng với lựa chọn của mình.” 
                                Nguyễn Hồng Thái
                                03-08-2016
                                            Đánh giá
                                            4
                                        "Tệ cực kì, không còn gì để nói "
                                                Vị trí
                                                    4 .0
                                                Phục vụ
                                                4 .0
                                                Tiện nghi
                                                4 .0
                                                Giá cả
                                                4 .0
                                                Vệ sinh
                                                4 .0
                                                “Thật ra đã lỡ đặt rồi chứ khi vừa nhận phòng tại khách sạn tôi đã muốn trả ngay lập tức, chất lượng còn không bằng một nhà nghỉ bình dân. Cơ sở vật chất xuống cấp, đồ đạc cũ lâu đời lắm rồi, vệ sinh kém, toilet nhìn bẩn. Đồ ăn sáng cũng thế chẳng ra gì cả, vài món sơ sài. Không bao giờ tôi dám quay lại đây.” 
                    Xem tất cả đánh giá ( 31 )
                                Đặt phòng ngay giữ giá tốt
            Khách hàng đã xem khách sạn này thường tham khảo thêm
                Được đề xuất cho bạn
            Khách sạn 3 sao có cùng tiện nghi
            Có thể bạn muốn xem
                    Khách sạn 3 sao tại Quảng Ninh
                        Khách sạn có nhà hàng tại Quảng Ninh
                        Khách sạn có giặt là tại Quảng Ninh
                        Khách sạn có wifi miễn phí tại Quảng Ninh
            Địa danh ở gần
                                    Chợ đêm Hạ Long
                                     ~ 0.24km
                                                                Chợ đêm Hạ Long gần bến phà Bãi Cháy và đi ngang qua sông Cửa Lục, Quảng Ninh. Chợ bắt đầu họp chờ từ 6h chiều, lúc này những người bán hàng đã dọn dẹp xong hàng quán của mình và mở cửa bán. Hãy để Mytour hỗ trợ bạn để có 1 chuyến đi thú vị, tiết kiệm bằng cách đặt phòng khách sạn tại khu vực Chợ đêm Hạ Long ngay bây giờ với giá rẻ nhất.
                                    Chợ Bãi Cháy
                                     ~ 0.46km
                                    Công viên Quốc tế Hoàng Gia
                                     ~ 0.72km
                                                                Công viên quốc tế Hoàng Gia nằm dọc theo bãi biển Bãi Cháy, chạy dài từ Cảng tàu du lịch Bãi Cháy đến sát khu chợ đêm Hạ Long. Đây là khu vui chơi giải trí liên hợp, diện tích khoảng 10 ha. Hãy để Mytour hỗ trợ bạn để có 1 chuyến đi thú vị, tiết kiệm bằng cách đặt phòng khách sạn tại khu vực Công viên Quốc tế Hoàng Gia ngay bây giờ với giá rẻ nhất.
                                    Đảo Ti Tốp
                                     ~ 0.72km
                                                                Đảo Ti Tốp nằm ở khu vực trung tâm di sản, kỳ quan thiên thế giới Vịnh Hạ Long. Đảo Ti Tốp là một trong những điểm đến hấp dẫn nhất được nhiều du khách lựa chọn trong hành trình tham quan Vịnh của mình. Hãy để Mytour hỗ trợ bạn để có 1 chuyến đi thú vị, tiết kiệm bằng cách đặt phòng khách sạn tại khu vực Đảo Ti Tốp ngay bây giờ với giá rẻ nhất.
                                    Đảo Rều
                                     ~ 0.72km
                                                                Đảo Rều (còn được gọi là đảo Khỉ) ở thành phố Cẩm Phả. Nơi đây là cuộc sống bán hoang dã của hơn ngàn con khỉ, cùng với một thiên nhiên gần như hoang vu có nhiều cây to hơn vòng tay người ôm cao lớn sừng sững. Hãy để Mytour hỗ trợ bạn để có 1 chuyến đi thú vị, tiết kiệm bằng cách đặt phòng khách sạn tại khu vực Đảo Rều ngay bây giờ với giá rẻ nhất.
                                    Bãi Cháy
                                     ~ 0.88km
                                                                Bãi Cháy là một phường có vị trí kinh tế và xã hội quan trọng của thành phố Hạ Long, tỉnh Quảng Ninh. Bãi Cháy nguyên là một đảo hình thoi dài 6 km, là nơi có bãi biển nổi tiếng của miền Bắc Việt Nam. Hãy để Mytour hỗ trợ bạn để có 1 chuyến đi thú vị, tiết kiệm bằng cách đặt phòng khách sạn tại khu vực Bãi Cháy ngay bây giờ với giá rẻ nhất.
                                    Bãi tắm Bãi Cháy
                                     ~ 1.3km
                                                                Bãi tắm Bãi Cháy là một bãi tắm nhân tạo, nằm dọc vịnh Hạ Long có bãi cát trải dài. Đây là bãi tắm thu hút rất đông du khách vào mùa du lịch biển, là một bãi biển nổi tiếng của miền Bắc Việt Nam. Hãy để Mytour hỗ trợ bạn để có 1 chuyến đi thú vị, tiết kiệm bằng cách đặt phòng khách sạn tại khu vực Bãi tắm Bãi Cháy ngay bây giờ với giá rẻ nhất.
                                    Chợ Hạ Long 
                                     ~ 1.56km
                                                                Chợ Hạ Long là chợ đầu mối thương mại của tỉnh Quảng Ninh nằm giữa trung tâm thành phố Hạ Long. Chợ được xây dựng khang trang, du khách rất dễ dàng tìm được những mặt hàng theo nhu cầu. Hãy để Mytour hỗ trợ bạn để có 1 chuyến đi thú vị, tiết kiệm bằng cách đặt phòng khách sạn tại khu vực Chợ Hạ Long ngay bây giờ với giá rẻ nhất.
                                    Cầu Bãi Cháy 
                                     ~ 1.77km
                                                                Cầu Bãi Cháy nối Hòn Gai với Bãi Cháy qua eo Cửa Lục, ngăn cách vịnh Cửa Lục với vịnh Hạ Long, tỉnh Quảng Ninh. Đây là loại cầu dây văng một mặt phẳng dây, dầm hộp bê tông cốt thép dự ứng lực. Hãy để Mytour hỗ trợ bạn để có 1 chuyến đi thú vị, tiết kiệm bằng cách đặt phòng khách sạn tại khu vực Cầu Bãi Cháy ngay bây giờ với giá rẻ nhất.
                                    Làng chài Cửa Vạn 
                                     ~ 2.1km
                                                                Làng chài Cửa Vạn nằm trong lòng Vịnh Hạ Long - Di sản thiên nhiên thế giới đã 2 lần được UNESCO công nhận từ nhiều năm nay, đã trở thành điểm du lịch hấp dẫn với du khách trong và ngoài nước. Hãy để Mytour hỗ trợ bạn để có 1 chuyến đi thú vị, tiết kiệm bằng cách đặt phòng khách sạn tại khu vực Làng chài Cửa Vạn ngay bây giờ với giá rẻ nhất.
                                    Động Kim Quy
                                     ~ 2.1km
                                                                Động Kim Quy nằm trên hòn Dầm Nam ở tỉnh Quảng Ninh, có đỉnh núi cao 187m. Phía trước là hòn Dầm Bắc, phía sau là đảo Soi Sim. Động dài 100m, rộng từ 5 – 10m trải dài theo hướng Bắc Nam. Hãy để Mytour hỗ trợ bạn để có 1 chuyến đi thú vị, tiết kiệm bằng cách đặt phòng khách sạn tại khu vực Động Kim Quy ngay bây giờ với giá rẻ nhất.
                                    Làng chài Cửa Vạn
                                     ~ 2.74km
                                    Núi Bài Thơ
                                     ~ 3.09km
                                                                Núi Bài Thơ là địa danh nổi tiếng trong danh mục du lịch Quảng Ninh và trong quần thể danh thắng vịnh Hạ Long. Có lẽ, dù có thể không biết nó thuộc tỉnh nào, nhưng ai cũng đã từng nghe cái tên núi Bài Thơ. Hãy để Mytour hỗ trợ bạn để có 1 chuyến đi thú vị, tiết kiệm bằng cách đặt phòng khách sạn tại khu vực Núi Bài Thơ ngay bây giờ với giá rẻ nhất.
                                    Chùa Long Tiên
                                     ~ 3.19km
                                                                Chùa Long Tiên là ngôi chùa tọa lạc tại phố Long Tiên, thành phố Hạ Long, Quảng Ninh, là di tích lịch sử với thắng cảnh nổi tiếng và cũng là ngôi chùa lớn nhất tại thành phố Hạ Long. Hãy để Mytour hỗ trợ bạn để có 1 chuyến đi thú vị, tiết kiệm bằng cách đặt phòng khách sạn tại khu vực Chùa Long Tiên ngay bây giờ với giá rẻ nhất.
                                    Chùa Long Tiên
                                     ~ 3.22km
                ×
                    Chính sách đảm bảo hoàn tiền của mytour
                    Bạn chưa tin tưởng việc đặt phòng khách sạn trực tuyến? Bạn e ngại rằng phòng khách sạn thực tế không đúng với thông tin trên website? Chúng tôi cam kết đưa đầy đủ và chính xác thông tin khách sạn trên website với chính sách “Đảm bảo Hoàn tiền”
                        Nếu khách hàng đặt khách sạn thành công trên Mytour nhưng khách sạn không có phòng, Mytour sẽ hoàn lại tiền cho khách và tặng kèm phiếu giảm giá có giá trị bằng với số tiền khách hàng đã trả.
                        Trong trường hợp loại phòng thực tế không đúng với loại phòng trên đơn hàng, Mytour sẽ quyết định nâng cấp miễn phí hoặc tặng phiếu giảm giá có giá trị bằng với số tiền khách hàng đã trả.
                        Trường hợp các tiện nghi phòng khách sạn (như bữa sáng, wifi…) không đúng với nội dung trên website, Mytour sẽ tặng phiếu giảm giá có giá trị bằng 10% số tiền khách đã trả (tối đa 500,000 VND)
                        Khách hàng cần gọi điện thoại 04-7309 9899 (Hà Nội), 08-7309 9899 (Hồ Chí Minh) hoặc email tới info@mytour.vn và cung cấp mã đơn hàng trong vòng 24 giờ từ lúc nhận phòng để được trợ giúp giải quyết khiếu nại (Hotline chỉ hỗ trợ trong giờ hành chính).
                        Mytour không chịu trách nhiệm bồi thường thiệt hại gián tiếp, ngẫu nhiên, hay do hậu quả phát sinh. Trong mọi trường hợp, trách nhiệm của Mytour không vượt quá tổng số tiền khách hàng thanh toán đặt phòng.
                ×
                    Đảm bảo giá tốt nhất
                    Nếu Thành viên đã đặt một phòng khách sạn được “Đảm Bảo” tại Mytour.vn và sau đó, cho Mytour.vn  thấy rằng Thành viên có thể đặt một phòng tương tự trong cùng khoảng thời gian ở mức giá tốt hơn có thể xem và đặt được trên một website khác, Mytour.vn sẽ giảm giá bằng hoặc thấp hơn mức giá đó.
                    Giá dùng để so sánh là giá sau khi áp dụng mức giảm giá công bố trên website Mytour.vn.
                    Chính sách “Đảm Bảo Giá Tốt Nhất” của Mytour.vn chỉ áp dụng cho các đặt phòng đã được xác nhận và phải thỏa mãn những điều kiện sau:
                Cùng khách sạnCùng thời gian nghỉ lạiCùng loại Phòng/GiườngCùng các yêu cầu mua Trước, yêu cầu trả trước và đặt cọc (nếu có)Cùng chính sách Hủy và Sửa Đổi
                    Phòng đó phải còn trống để được xác nhận ngay tại thời điểm các đại lý của Mytour.vn  kiểm tra phòng trống
                        Chính sách “Đảm Bảo Giá Tốt Nhất” không áp dụng cho các mức giá không công bố, như: chương trình khách hàng thân thiện.
                        Bất kỳ tổ chức nào với các mức giá dành cho nhóm cá nhân cụ thể và không nhằm mục đích áp dụng ra bên ngoài.
                        Thành viên có thể gửi khiếu nại theo địa chỉ : info@mytour.vn
                                Nêu mã đặt phòng Mytour.vn trong dòng tiêu đề thư
                                Gửi URL của website nơi Thành viên tìm thấy mức giá tốt hơn
                                Cung cấp ảnh chụp màn hình của website đối thủ cạnh tranh trong đó nêu rõ Phòng Trống, Loại Phòng, và các mức giá cho những ngày nghỉ lại theo yêu cầu của Thành viên.
                VUI LÒNG LƯU Ý: Thành viên không cần thực hiện đặt phòng trên website của đối thủ cạnh tranh, chỉ cần cho Mytour.vn thấy sự so sánh.
                ×
                Đăng Nhập
                                 Đăng nhập bằng tài khoản Facebook
                                 Đăng nhập bằng tài khoản Google
                            Hoặc đăng nhập bằng
                        Email*
                        Mật khẩu*
                        Quên mật khẩu?
                            Chưa có tài khoản/tạo tài khoản
                Đăng nhập
                         Nhớ đăng nhập
                ×
                Bản đồ
                                            Khách Sạn Bưu Điện Hạ Long 
                    Tìm đường
                        Từ: 
                        Đến: 
                            Khách sạnĐịa danh Hiển thị các khách sạn ở gần Hiển thị các khu du lịch ở gần
                ×
                Yêu Cầu Lấy Giá
                                    Ngày nhận phòng
                                    Ngày trả phòng
                        Tên khách hàng
                        Email
                        Điện thoại
                        Nhân viên chăm sóc khách hàng sẽ gọi điện cho quý khách trong thời gian sớm nhất.
                        Quý khách có thể gọi điện đến cho Mytour để được tư vấn ngay:
                        Hà Nội: (04) 7109 9999, Hồ Chí Minh: (08) 7309 9899, Support
                            English: (+84)4-7309-9899.
                    Hoàn thành
                ×
                Gửi Thông Tin
                        Tên khách hàng
                        Email
                        Điện thoại
                            Quý khách sẽ thấy giá giảm ngay trên trang sau khi gửi thông tin
                    Hoàn thành
                ×
                Nhận Giá Tốt
                                    Ngày nhận phòng
                                    Ngày trả phòng
                        Tên khách hàng
                        Email
                        Điện thoại
                        Vì giá tốt không được công bố nên hệ thống sẽ gửi giá qua email đến quý khách và nhân viên chăm
                        sóc sẽ gọi điện cho quý khách trong thời gian sớm nhất.
                        Quý khách có thể gọi điện đến cho Mytour để được tư vấn ngay:
                        Hà Nội: (04) 7109 9999, Hồ Chí Minh: (08) 7309 9899, Support
                            English: (+84)4-7309-9899.
                    Hoàn thành
                ×
                ×
                ĐÁNH GIÁ 
                        Tên
                        Tiêu đề
                        Kiểu du lịch?
                                -- Chọn --Cá nhânCặp đôiGia đìnhBạn bèDoanh nghiệp
                        Nội dung
                                Đánh giá chi tiết
                                Chỗ ở
                                5
                                Thức ăn
                                5
                                Phương tiện
                                5
                                Hướng dẫn viên
                                5
                                Lịch trình
                                5
                    Gửi đánh giá
                    Hủy Bỏ
                ×
                Gửi lại email kích hoạt
                ×
                Thông tin chi tiết giá theo phòng
                    Chọn khoảng thời gian hiển thị giá phòng
                    Hiển thị giá
                ×
                Khóa phòng theo khoảng thời gian
                            Chọn khoảng thời gian check-in cần khóa/mở phòng
                            Khóa phòng
                            Mở phòng
                ×
                THUẾ VÀ PHÍ DỊCH VỤ
                17% thuế và phí dịch vụ bao gồm:
                    - 10% thuế và 5% phí dịch vụ hoàn trả lại cho khách sạn.
                    - 2% phí giao dịch tại Mytour.
                ×
                Bạn có hài lòng về website của Mytour?
                    Thông điệp nhắn nhủ:
                Mytour luôn mong muốn cải thiện dịch vụ để bạn có trải nghiệm tốt hơn!
                            Ảnh đính kèm
                        Đóng
                        Gửi
                ×
                    Những đóng góp của bạn đã được ghi nhận. Mytour cám ơn bạn !
                Quay lại website
                            Giới thiệu Mytour
                            Đối tác khách sạn
                            Đăng nhập HMS
                            Tích lũy Vpoint
                            Điều khoản sử dụng
                            Quy chế hoạt động
                            Tuyển dụng
                            Liên hệ
                            Đăng ký nhận email
                                Đăng ký email để nhận khuyến mãi lên đến 70%
                                    Đăng
                                    ký
                    Công ty TNHH Mytour Việt Nam
                    Số ĐKKD: 0105983269 cấp ngày 30/08/2012
                    Văn phòng Hà Nội: Tầng 4, tòa nhà GP Invest, 170 Đê La Thành, Đống Đa
                    Văn phòng HCM: Tầng 5, Tòa Nhà HDTC, Số 36 Bùi Thị Xuân, Q.1
                Hotline
                        Hà Nội:
                        (04) 7109 9999
                        Tp. HCM:
                        (08) 7309 9899
                        ENGLISH SUPPORT:
                        (+84)4 7309 9899
