url:http://mytour.vn/12189-khu-nghi-duong-lang-co.html
Tittle :Khu Nghỉ Dưỡng Lăng Cô - Thừa Thiên Huế giá tốt nhất - Mytour.vn
content :Đặt phòng trực tuyến, hoặc gọi
                                                            Hà Nội: (04) 7109 9999
                                                                                        - (04) 7309 9899
                                                            Hồ Chí Minh: (08) 7309 9899
                                                                                        - (08) 7109 9998
                        T2 - CN: 08:00 - 23:00
                    Toggle navigation
                                Bạn không có thông báo nào
                    |
                    ||
                                                            Tài khoản
                        Đăng nhập
                                Đăng kýKhách sạn yêu thích
                            Khách sạn
                            Tour
                            Cẩm nang du lịch
                            Thông tin
                                                Về Mytour
                                                Tin khuyến mãi
                                                Ưu đãi
                                                Hướng dẫn
                                                Liên hệ
                            Tốt nhất 2016
                ×
                Bạn có chắc muốn hủy đơn hàng?
                Lorem ipsum dolor sit amet, consectetur adipisicing elit. Iure corporis repudiandae nobis distinctio
                quae quos, officia modi, ab voluptatem pariatur ducimus mollitia, necessitatibus sed soluta dicta
                repellendus! Praesentium debitis, temporibus?
                    Đồng ý
                    Đóng
                    Khách sạnThừa Thiên HuếPhú LộcKhách sạn gần Lăng Cô Beach ResortKhu Nghỉ Dưỡng Lăng Cô
                    Đóng
            Tìm Kiếm Khách Sạn
                            Ngày nhận phòng
                            Ngày trả phòng
                    Số đêm
                    Số phòng
                        123456789101112
                    Người lớn
                        123456789101112
                    Tìm khách sạn
                Giá tốt hơn so với đặt phòng trực tiếp tại khách sạn
                Đảm bảo 
                giá tốt nhất
                Đảm bảo 
                hoàn tiền
                Nhân viên chăm sóc, tư vấn nhiều kinh nghiệm
                Hơn 5000 khách sạn tại Việt Nam với đánh giá thực
                Nhiều chương trình khuyến mãi và tích lũy điểm
                Thanh toán dễ dàng, đa dạng
                        Khu Nghỉ Dưỡng Lăng Cô
                            (Cung cấp bởi khách sạn)
                                    Tất cả thông tin về tiêu chuẩn khách sạn trên website mytour.vn
                                    là do khách sạn tự cung cấp, chỉ mang tính chất tham khảo và không nhất thiết trùng
                                    hợp với hạng
                                    sao được cấp bởi sở Văn Hoá, Thể thao và du lịch.
                             493 Lạc Long Quân, TT Lăng Cô, Huyện Phú Lộc, Thừa Thiên Huế, Phú Lộc, Thừa Thiên Huế 
                                Đặt phòng ngay giữ giá tốt
                                Đã thích
                                        8.8
                                            (2
                                            đánh giá)
                                Giới thiệu về Khu Nghỉ Dưỡng Lăng Cô 
                                    Ẩn mình trong thị trấn Lăng Cô thuộc huyện Phú Lộc tỉnh Thừa Thiên Huế, nơi ghi dấu trong lịch sử là điểm nghỉ ngơi ưa thích của hoàng gia Việt Nam xưa, nơi này nổi tiếng với các huyền thoại và vẻ đẹp hoang sơ tự nhiên mà chỉ cách sân bay Đà Nẵng và Huế một giờ lái xe. Vịnh Lăng Cô được đánh giá là một trong những vịnh đẹp nhất trong Câu lạc bộ Các Vịnh Đẹp Nhất Thế Giới.
Bãi biển cát vàng nguyên sơ và làn nước ngọc lam lấp lánh được bao quanh bởi những ngọn đồi xanh tươi, cùng những dãy núi cao vút tận mây xanh; tất cả góp phần tạo nên một trong những khung cảnh thiên nhiên tươi đẹp nhất Việt Nam. Khu nghỉ dưỡng Lăng Cô tọa lạc tại một vị trí đắc địa, là điểm kết nối trên con dường Di Sản Miền Trung với các di sản văn hóa thế giới được UNESCO công nhận như Cố Đô Huế bên dòng sông Hương thơ mộng, phố cổ Hội An duyên dáng và thánh địa Mỹ Sơn.
Với số lượng hơn 60 phòng nghỉ (bao gồm các loại phòng Double, Twin, Villa) được trang bị tiện nghi đầy đủ, hồ bơi rộng 400m2, khu Y tế, phòng tập đa năng…Khu nghỉ dưỡng với không gian rộng rãi ,thoáng mát, cùng với đội ngũ nhân viên luôn ân cần chu đáo, nhiệt tình sẽ mang lại cho quý khách 1 kỳ nghỉ thoải mái như đang ở chính ngôi nhà của mình. Vì vậy Khu nghỉ dưỡng Lăng Cô sẽ là sự lựa chọn hàng đầu cho quý khách khi đến với Vịnh Lăng Cô .
                                        Xem thêm 
                                Chọn ngày để xem giá và phòng trống
                                    Đảm bảo giá tốt nhất
                                                Ngày nhận phòng
                                                Ngày trả phòng
                                        Số đêm
                                        Số phòng
                                            123456789101112
                                        Người lớn
                                            123456789101112
                                        Cập nhật giá
                                Lưu ý: Vui lòng ẩn "Cập nhật giá" để cập nhật phòng
                                Chọn phòng Khu Nghỉ Dưỡng Lăng Cô
                                                Loại Phòng
                                                Giá 1 đêm
                                                Số phòng
                                                Đặt phòng
                                                                    Standard Twin
                                                                        Điều kiện hủy phòng
                                                        phòng
                                                                                                                                                                            012345
                                                            Đặt ngay
                                                            Xác nhận ngay
                                                                    Twin (Hướng vườn)
                                                                        Điều kiện hủy phòng
                                                        phòng
                                                                                                                                                                            01
                                                            Đặt ngay
                                                            Xác nhận ngay
                                    Tiện nghi Khu Nghỉ Dưỡng Lăng Cô 
                                                Bữa sáng miễn phí
                                                Bể bơi ngoài trời
                                                Bãi đỗ xe
                                                Cửa hàng
                                                Internet (không dây)
                                                Phòng hội thảo
                                                Phòng họp
                                                Thêm giường phụ
                                                Truyền hình cáp/vệ tinh
                                                Giặt là
                                                Nhà hàng
                                                Thuê xe, taxi
                                                Tiếp tân 24/24
                                Ghi chú: Ăn sáng miễn phí (nếu có) có thể thay đổi theo phòng và ngày
                                    Chính sách Khu Nghỉ Dưỡng Lăng Cô 
                                        Giờ nhận
                                        phòng: 14:00
                                        Giờ trả
                                        phòng: 12:00
            Đánh giá Khu Nghỉ Dưỡng Lăng Cô
                Viết đánh giá
                        Tất cả ( 2 )
                        Công tác ( 0 )
                        Cặp đôi ( 0 )
                        Gia đình ( 1 )
                        Bạn bè ( 0 )
                        Cá nhân ( 1 )
                        Tốt
                        8.8
                            Tất cả
                    Chi tiết điểm  (từ
                        2
                        nhận xét)
                            Vị trí
                                9
                                    % Complete
                            9
                            Phục vụ
                                9
                                    % Complete
                            9
                            Tiện nghi
                                8.5
                                    % Complete
                            8.5
                            Giá cả
                                9
                                    % Complete
                            9
                            Vệ sinh
                                8.5
                                    % Complete
                            8.5
                                    “Với sự trải nghiệm vừa rồi thì tôi nhận thấy chất lượng dịch vụ của Khu nghỉ dưỡng Lăng Cô cũng được, không gian ở đây tương đối thoáng mát, gần biển. Phòng ốc chưa đẹp lắm nhưng lại đầy đủ tiện nghi và sạch sẽ. Nhân viên làm việc chính xác, nhanh nhẹn. Nếu xét theo giá tiền đã trả, tôi đánh giá điểm 8.
                                    “
                                Nguyễn Mạnh Tuấn
                                30/08/2016
                        Đánh giá
                        0
                            Công tác
                    Chi tiết điểm  (từ
                        0
                        nhận xét)
                            Vị trí
                                0
                                    % Complete
                            0
                            Phục vụ
                                0
                                    % Complete
                            0
                            Tiện nghi
                                0
                                    % Complete
                            0
                            Giá cả
                                0
                                    % Complete
                            0
                            Vệ sinh
                                0
                                    % Complete
                            0
                        Đánh giá
                        0
                            Cặp đôi
                    Chi tiết điểm  (từ
                        0
                        nhận xét)
                            Vị trí
                                0
                                    % Complete
                            0
                            Phục vụ
                                0
                                    % Complete
                            0
                            Tiện nghi
                                0
                                    % Complete
                            0
                            Giá cả
                                0
                                    % Complete
                            0
                            Vệ sinh
                                0
                                    % Complete
                            0
                        Rất tốt
                        9
                            Gia đình
                    Chi tiết điểm  (từ
                        1
                        nhận xét)
                            Vị trí
                                9
                                    % Complete
                            9
                            Phục vụ
                                9
                                    % Complete
                            9
                            Tiện nghi
                                9
                                    % Complete
                            9
                            Giá cả
                                9
                                    % Complete
                            9
                            Vệ sinh
                                9
                                    % Complete
                            9
                                    “khu nghỉ dưỡng sạch sẽ, tiện nghi, gần biển, nhân viên nhiệt tình, món ăn ngon, lần sau chắc chắn mình sẽ quay lại đây
                                    “
                                nguyễn minh ngọc
                                21/06/2016
                        Đánh giá
                        0
                            Bạn bè
                    Chi tiết điểm  (từ
                        0
                        nhận xét)
                            Vị trí
                                0
                                    % Complete
                            0
                            Phục vụ
                                0
                                    % Complete
                            0
                            Tiện nghi
                                0
                                    % Complete
                            0
                            Giá cả
                                0
                                    % Complete
                            0
                            Vệ sinh
                                0
                                    % Complete
                            0
                        Tốt
                        8.6
                            Cá nhân
                    Chi tiết điểm  (từ
                        1
                        nhận xét)
                            Vị trí
                                9
                                    % Complete
                            9
                            Phục vụ
                                9
                                    % Complete
                            9
                            Tiện nghi
                                8
                                    % Complete
                            8
                            Giá cả
                                9
                                    % Complete
                            9
                            Vệ sinh
                                8
                                    % Complete
                            8
                                    “Với sự trải nghiệm vừa rồi thì tôi nhận thấy chất lượng dịch vụ của Khu nghỉ dưỡng Lăng Cô cũng được, không gian ở đây tương đối thoáng mát, gần biển. Phòng ốc chưa đẹp lắm nhưng lại đầy đủ tiện nghi và sạch sẽ. Nhân viên làm việc chính xác, nhanh nhẹn. Nếu xét theo giá tiền đã trả, tôi đánh giá điểm 8.
                                    “
                                Nguyễn Mạnh Tuấn
                                30/08/2016
                                Từ ngày mới đến cũ
                                Từ ngày cũ đến mới
                                Điểm từ thấp đến cao
                                Điểm từ cao đến thấp
                                Nguyễn Mạnh Tuấn
                                30-08-2016
                                            Tốt
                                            8
                                        "Cũng được "
                                                Vị trí
                                                    8 .0
                                                Phục vụ
                                                8 .0
                                                Tiện nghi
                                                8 .0
                                                Giá cả
                                                8 .0
                                                Vệ sinh
                                                8 .0
                                                “Với sự trải nghiệm vừa rồi thì tôi nhận thấy chất lượng dịch vụ của Khu nghỉ dưỡng Lăng Cô cũng được, không gian ở đây tương đối thoáng mát, gần biển. Phòng ốc chưa đẹp lắm nhưng lại đầy đủ tiện nghi và sạch sẽ. Nhân viên làm việc chính xác, nhanh nhẹn. Nếu xét theo giá tiền đã trả, tôi đánh giá điểm 8.” 
                                Phạm Bích Ngọc
                                08-07-2016
                                            Đánh giá
                                            3
                                        "Không sạch sẽ "
                                                Vị trí
                                                    3 .0
                                                Phục vụ
                                                3 .0
                                                Tiện nghi
                                                3 .0
                                                Giá cả
                                                3 .0
                                                Vệ sinh
                                                3 .0
                                                “Căn phòng tôi ở tại Khu Nghỉ Dưỡng Lăng Cô không được sạch sẽ, trông bẩn thỉu. Nhân viên phục vụ cũng không được nhanh chóng và nhiệt tình lắm. Còn về bữa sáng thì tôi cũng không dùng. Nói chung dịch vụ kém.” 
                                Nguyen Dang Lam
                                02-07-2016
                                            Rất tốt
                                            9
                                        "Bãi biển đẹp, vui chơi thoải mái "
                                                Vị trí
                                                    9 .0
                                                Phục vụ
                                                9 .0
                                                Tiện nghi
                                                9 .0
                                                Giá cả
                                                9 .0
                                                Vệ sinh
                                                9 .0
                                                “Tôi thích không khí tại khu nghĩ dưỡng Lăng Cô, rất trong lành và thân thiện với môi trường. Bãi biển đẹp, chúng tôi chơi thoải mái. Phòng ốc thì ok, tương xứng giá tiền tôi đã trả. Ngoài ra nhân viên cũng tiếp đón vui vẻ, nhiệt tình. Tóm lại là tốt.” 
                                Nguyen Thanh Tuan
                                02-07-2016
                                            Rất tốt
                                            9
                                        "Hài lòng "
                                                Vị trí
                                                    9 .0
                                                Phục vụ
                                                9 .0
                                                Tiện nghi
                                                9 .0
                                                Giá cả
                                                9 .0
                                                Vệ sinh
                                                9 .0
                                                “Tôi đã có khoảng thời gian thật thoải mái và hài lòng khi trải nghiệm dịch vụ của Khu Nghỉ Dưỡng Lăng Cô này. Dịch vụ phòng ốc đạt tiêu chuẩn, dọn phòng tươm tất, cộng với thái độ phục vụ nhân viên lịch sự nữa.” 
                                nguyễn minh ngọc
                                21-06-2016
                                            Rất tốt
                                            9.2
                                        "một nơi nghỉ dưỡng tuyệt vời "
                                                Vị trí
                                                    10 .0
                                                Phục vụ
                                                9 .0
                                                Tiện nghi
                                                9 .0
                                                Giá cả
                                                9 .0
                                                Vệ sinh
                                                9 .0
                                                “khu nghỉ dưỡng sạch sẽ, tiện nghi, gần biển, nhân viên nhiệt tình, món ăn ngon, lần sau chắc chắn mình sẽ quay lại đây” 
                    Xem tất cả đánh giá ( 2 )
                                Đặt phòng ngay giữ giá tốt
            Khách hàng đã xem khách sạn này thường tham khảo thêm
                Được đề xuất cho bạn
            Khách sạn 3 sao có cùng tiện nghi
            Có thể bạn muốn xem
                    Khách sạn 3 sao tại Thừa Thiên Huế
                        Khách sạn có nhà hàng tại Thừa Thiên Huế
                        Khách sạn có giặt là tại Thừa Thiên Huế
                        Khách sạn có truyền hình cáp/vệ tinh tại Thừa Thiên Huế
                ×
                    Chính sách đảm bảo hoàn tiền của mytour
                    Bạn chưa tin tưởng việc đặt phòng khách sạn trực tuyến? Bạn e ngại rằng phòng khách sạn thực tế không đúng với thông tin trên website? Chúng tôi cam kết đưa đầy đủ và chính xác thông tin khách sạn trên website với chính sách “Đảm bảo Hoàn tiền”
                        Nếu khách hàng đặt khách sạn thành công trên Mytour nhưng khách sạn không có phòng, Mytour sẽ hoàn lại tiền cho khách và tặng kèm phiếu giảm giá có giá trị bằng với số tiền khách hàng đã trả.
                        Trong trường hợp loại phòng thực tế không đúng với loại phòng trên đơn hàng, Mytour sẽ quyết định nâng cấp miễn phí hoặc tặng phiếu giảm giá có giá trị bằng với số tiền khách hàng đã trả.
                        Trường hợp các tiện nghi phòng khách sạn (như bữa sáng, wifi…) không đúng với nội dung trên website, Mytour sẽ tặng phiếu giảm giá có giá trị bằng 10% số tiền khách đã trả (tối đa 500,000 VND)
                        Khách hàng cần gọi điện thoại 04-7309 9899 (Hà Nội), 08-7309 9899 (Hồ Chí Minh) hoặc email tới info@mytour.vn và cung cấp mã đơn hàng trong vòng 24 giờ từ lúc nhận phòng để được trợ giúp giải quyết khiếu nại (Hotline chỉ hỗ trợ trong giờ hành chính).
                        Mytour không chịu trách nhiệm bồi thường thiệt hại gián tiếp, ngẫu nhiên, hay do hậu quả phát sinh. Trong mọi trường hợp, trách nhiệm của Mytour không vượt quá tổng số tiền khách hàng thanh toán đặt phòng.
                ×
                    Đảm bảo giá tốt nhất
                    Nếu Thành viên đã đặt một phòng khách sạn được “Đảm Bảo” tại Mytour.vn và sau đó, cho Mytour.vn  thấy rằng Thành viên có thể đặt một phòng tương tự trong cùng khoảng thời gian ở mức giá tốt hơn có thể xem và đặt được trên một website khác, Mytour.vn sẽ giảm giá bằng hoặc thấp hơn mức giá đó.
                    Giá dùng để so sánh là giá sau khi áp dụng mức giảm giá công bố trên website Mytour.vn.
                    Chính sách “Đảm Bảo Giá Tốt Nhất” của Mytour.vn chỉ áp dụng cho các đặt phòng đã được xác nhận và phải thỏa mãn những điều kiện sau:
                Cùng khách sạnCùng thời gian nghỉ lạiCùng loại Phòng/GiườngCùng các yêu cầu mua Trước, yêu cầu trả trước và đặt cọc (nếu có)Cùng chính sách Hủy và Sửa Đổi
                    Phòng đó phải còn trống để được xác nhận ngay tại thời điểm các đại lý của Mytour.vn  kiểm tra phòng trống
                        Chính sách “Đảm Bảo Giá Tốt Nhất” không áp dụng cho các mức giá không công bố, như: chương trình khách hàng thân thiện.
                        Bất kỳ tổ chức nào với các mức giá dành cho nhóm cá nhân cụ thể và không nhằm mục đích áp dụng ra bên ngoài.
                        Thành viên có thể gửi khiếu nại theo địa chỉ : info@mytour.vn
                                Nêu mã đặt phòng Mytour.vn trong dòng tiêu đề thư
                                Gửi URL của website nơi Thành viên tìm thấy mức giá tốt hơn
                                Cung cấp ảnh chụp màn hình của website đối thủ cạnh tranh trong đó nêu rõ Phòng Trống, Loại Phòng, và các mức giá cho những ngày nghỉ lại theo yêu cầu của Thành viên.
                VUI LÒNG LƯU Ý: Thành viên không cần thực hiện đặt phòng trên website của đối thủ cạnh tranh, chỉ cần cho Mytour.vn thấy sự so sánh.
                ×
                Đăng Nhập
                                 Đăng nhập bằng tài khoản Facebook
                                 Đăng nhập bằng tài khoản Google
                            Hoặc đăng nhập bằng
                        Email*
                        Mật khẩu*
                        Quên mật khẩu?
                            Chưa có tài khoản/tạo tài khoản
                Đăng nhập
                         Nhớ đăng nhập
                ×
                Bản đồ
                                            Khu Nghỉ Dưỡng Lăng Cô
                    Tìm đường
                        Từ: 
                        Đến: 
                            Khách sạnĐịa danh Hiển thị các khách sạn ở gần Hiển thị các khu du lịch ở gần
                ×
                Yêu Cầu Lấy Giá
                                    Ngày nhận phòng
                                    Ngày trả phòng
                        Tên khách hàng
                        Email
                        Điện thoại
                        Nhân viên chăm sóc khách hàng sẽ gọi điện cho quý khách trong thời gian sớm nhất.
                        Quý khách có thể gọi điện đến cho Mytour để được tư vấn ngay:
                        Hà Nội: (04) 7109 9999, Hồ Chí Minh: (08) 7309 9899, Support
                            English: (+84)4-7309-9899.
                    Hoàn thành
                ×
                Gửi Thông Tin
                        Tên khách hàng
                        Email
                        Điện thoại
                            Quý khách sẽ thấy giá giảm ngay trên trang sau khi gửi thông tin
                    Hoàn thành
                ×
                Nhận Giá Tốt
                                    Ngày nhận phòng
                                    Ngày trả phòng
                        Tên khách hàng
                        Email
                        Điện thoại
                        Vì giá tốt không được công bố nên hệ thống sẽ gửi giá qua email đến quý khách và nhân viên chăm
                        sóc sẽ gọi điện cho quý khách trong thời gian sớm nhất.
                        Quý khách có thể gọi điện đến cho Mytour để được tư vấn ngay:
                        Hà Nội: (04) 7109 9999, Hồ Chí Minh: (08) 7309 9899, Support
                            English: (+84)4-7309-9899.
                    Hoàn thành
                ×
                ×
                ĐÁNH GIÁ 
                        Tên
                        Tiêu đề
                        Kiểu du lịch?
                                -- Chọn --Cá nhânCặp đôiGia đìnhBạn bèDoanh nghiệp
                        Nội dung
                                Đánh giá chi tiết
                                Chỗ ở
                                5
                                Thức ăn
                                5
                                Phương tiện
                                5
                                Hướng dẫn viên
                                5
                                Lịch trình
                                5
                    Gửi đánh giá
                    Hủy Bỏ
                ×
                Gửi lại email kích hoạt
                ×
                Thông tin chi tiết giá theo phòng
                    Chọn khoảng thời gian hiển thị giá phòng
                    Hiển thị giá
                ×
                Khóa phòng theo khoảng thời gian
                            Chọn khoảng thời gian check-in cần khóa/mở phòng
                            Khóa phòng
                            Mở phòng
                ×
                THUẾ VÀ PHÍ DỊCH VỤ
                17% thuế và phí dịch vụ bao gồm:
                    - 10% thuế và 5% phí dịch vụ hoàn trả lại cho khách sạn.
                    - 2% phí giao dịch tại Mytour.
                ×
                Bạn có hài lòng về website của Mytour?
                    Thông điệp nhắn nhủ:
                Mytour luôn mong muốn cải thiện dịch vụ để bạn có trải nghiệm tốt hơn!
                            Ảnh đính kèm
                        Đóng
                        Gửi
                ×
                    Những đóng góp của bạn đã được ghi nhận. Mytour cám ơn bạn !
                Quay lại website
                            Giới thiệu Mytour
                            Đối tác khách sạn
                            Đăng nhập HMS
                            Tích lũy Vpoint
                            Điều khoản sử dụng
                            Quy chế hoạt động
                            Tuyển dụng
                            Liên hệ
                            Đăng ký nhận email
                                Đăng ký email để nhận khuyến mãi lên đến 70%
                                    Đăng
                                    ký
                    Công ty TNHH Mytour Việt Nam
                    Số ĐKKD: 0105983269 cấp ngày 30/08/2012
                    Văn phòng Hà Nội: Tầng 4, tòa nhà GP Invest, 170 Đê La Thành, Đống Đa
                    Văn phòng HCM: Tầng 5, Tòa Nhà HDTC, Số 36 Bùi Thị Xuân, Q.1
                Hotline
                        Hà Nội:
                        (04) 7109 9999
                        Tp. HCM:
                        (08) 7309 9899
                        ENGLISH SUPPORT:
                        (+84)4 7309 9899
