url:http://mytour.vn/a911/khach-san-khu-vuc-den-tho-an-duong-vuong.html
Tittle :Khách sạn gần Đền thờ An Dương Vương - Thanh Hoá giá tốt nhất - Mytour.vn
content :Đặt phòng trực tuyến, hoặc gọi
                                                            Hà Nội: (04) 7109 9999
                                                                                        - (04) 7309 9899
                                                            Hồ Chí Minh: (08) 7309 9899
                                                                                        - (08) 7109 9998
                        T2 - CN: 08:00 - 23:00
                    Toggle navigation
                                Bạn không có thông báo nào
                    |
                    ||
                                                            Tài khoản
                        Đăng nhập
                                Đăng kýKhách sạn yêu thích
                            Khách sạn
                            Tour
                            Cẩm nang du lịch
                            Thông tin
                                                Về Mytour
                                                Tin khuyến mãi
                                                Ưu đãi
                                                Hướng dẫn
                                                Liên hệ
                            Tốt nhất 2016
                ×
                Bạn có chắc muốn hủy đơn hàng?
                Lorem ipsum dolor sit amet, consectetur adipisicing elit. Iure corporis repudiandae nobis distinctio
                quae quos, officia modi, ab voluptatem pariatur ducimus mollitia, necessitatibus sed soluta dicta
                repellendus! Praesentium debitis, temporibus?
                    Đồng ý
                    Đóng
                    Khách sạnThanh HoáQuảng Xương Khách sạn gần Đền thờ An Dương Vương
                    Áp dụng
                    Đóng
            Tìm Kiếm Khách Sạn
                            Ngày nhận phòng
                            Ngày trả phòng
                    Số đêm
                    Số phòng
                        123456789101112
                    Người lớn
                        123456789101112
                    Tìm khách sạn
                                Bộ lọc tìm kiếm
                                        Theo mức giá
                                                        Dưới 500.000
                                                        500.000 - 1.000.000
                                                        1.000.000 - 1.500.000
                                                        1.500.000 - 2.000.000
                                                        2.000.000 - 2.500.000
                                                        2.500.000 - 3.000.000
                                                        Trên 3.000.000
                                    Hạng Khách Sạn
                                    Loại khách sạn
                                                    Khách sạn
                                                    Resort
                                Tiện nghi
                                                Đưa đón khách sạn sân bay
                                                Bữa sáng miễn phí
                                                Bể bơi ngoài trời
                                                Bãi đỗ xe
                                                Phòng họp
                                                Phòng tập thể thao
                                                Thang máy
                                                Thêm giường phụ
                                                Truyền hình cáp/vệ tinh
                                                Wifi miễn phí
                                                Giặt là
                                                Nhà hàng
                                                Spa
            Quận huyện
                        Quảng Xương 
             Giá tốt hơn so với đặt phòng trực
            tiếp tại khách sạn
             Đảm bảo 
            giá tốt nhất 
             Đảm bảo 
            hoàn tiền
             Nhân viên chăm sóc, tư vấn nhiều kinh nghiệm
             Hơn 5000 khách sạn tại Việt Nam với
            đánh giá thực
             Nhiều chương trình khuyến mãi và tích lũy điểm
             Thanh toán dễ dàng, đa dạng
                            Khách sạn gần Đền thờ An Dương Vương
                                     Xem Bản Đồ
                            Đền thờ An Dương Vương nằm ở Quảng Châu, Quảng Xương, Thanh Hóa. Đây là nơi có cảnh quan thiên nhiên đẹp đẽ đầy sức quyến rũ lòng người, đặc biệt lại có quy mô khá lớn theo bố cục của thành Cổ Loa. Hãy để Mytour hỗ trợ bạn để có 1 chuyến đi thú vị, tiết kiệm bằng cách đặt phòng khách sạn Đền thờ An Dương Vương ngay bây giờ với giá từ 444,000 VND.
                                Có 44
                                khách sạn ở
                                đây theo ngày đã chọn
                        Ngày nhận phòng
                        Ngày trả phòng
                Số đêm
                Số phòng
                    123456789101112
                Người lớn
                    123456789101112
                Cập nhật ngày
                             Bộ lọc
                                            Phổ biến nhất
                                     Hạng khách sạn
                                                                                                Hạng sao [5...1]
                                                                                                Hạng sao [1...5]
                                            Đánh giá cao nhất
                                            Khuyến mãi
                                     Giá
                                                                                                Giá tăng dần
                                                                                                Giá giảm dần
                            Sắp xếp:
                            Đánh giá cao nhất
                        Phổ biến nhấtĐánh giá cao nhấtGiá tăng dầnGiá giảm dầnHạng tăng dầnHạng giảm dầnKhuyến mãi
                            Khách Sạn Thái Bình Dương
                             10 Lê Lai, Bắc Sơn, Sầm Sơn , Thanh Hoá 
                            (Xem bản đồ)
                                                ~ 2.44km
                            Chợ Mới
                                        “Khách Sạn Thái Bình Dương Thanh Hóa có vị trí thuận lợi để khám phá vẻ đẹp Sầm Sơn. Đến với khách sạn, du khách sẽ nhận được những dịch vụ chu đáo trong một không gian đầy sang trọng, thanh lịch và ấm...
                                        “
                                                Đảm bảo hoàn tiền
                                                Đảm bảo giá tốt nhất!
                                                            5.4
                                Đánh giá
                                    (8
                                        đánh giá)
                                Xem phòng
                            Khách Sạn Dragon Sea
                             43 Đường Hồ Xuân Hương, Phường Trường Sơn, Sầm Sơn , Thanh Hoá 
                            (Xem bản đồ)
                                                ~ 2.91km
                            Chợ Mới
                                        “Khách Sạn Dragon Sea Thanh Hóa, một chốn nghỉ dưỡng tuyệt vời, với tiện nghi chuẩn quốc tế và thiết kế thanh nhã cùng đội ngũ nhân viên chuyên nghiệp, hứa hẹn là điểm đến không thể bỏ qua cho bất kì a...
                                        “
                                                Đảm bảo hoàn tiền
                                                Đảm bảo giá tốt nhất!
                                                            8.1
                                Tốt
                                    (35
                                        đánh giá)
                                Xem phòng
                            Khách Sạn Biển Nhớ
                             Khu A Hồ Xuân Hương, Phường Trường Sơn, Sầm Sơn , Thanh Hoá 
                            (Xem bản đồ)
                                                ~ 2.8km
                            Chợ Mới
                                        Khách sạn bán chạy nhất trên Mytour 2015
                                        “Khách Sạn Biển Nhớ Thanh Hóa sẽ làm hài lòng du khách bằng một đội ngũ phục vụ mến khách, nhiệt tình. Với những dịch vụ tận tâm và cơ sở vật chất tiện nghi thoải mái, đây chính là địa điểm dừng chân l...
                                        “
                                                Đảm bảo hoàn tiền
                                                Đảm bảo giá tốt nhất!
                                                            7.1
                                Đánh giá
                                    (36
                                        đánh giá)
                                Xem phòng
                            Khách Sạn Công Đoàn Thanh Hóa
                             2 Bà Triệu, Phường Bắc Sơn, Sầm Sơn , Thanh Hoá 
                            (Xem bản đồ)
                                                ~ 2.8km
                            Chợ Mới
                                        “Khách Sạn Công Đoàn Thanh Hóa nằm trên bãi biển Sầm Sơn, thích hợp vui chơi và tắm biển. Đội ngũ nhân viên thân thiện, phục vụ chuyên nghiệp. Trang thiết bị hiện đại và được bài trí sang trọng, ấm cún...
                                        “
                                                Đảm bảo hoàn tiền
                                                Đảm bảo giá tốt nhất!
                                                            6.0
                                Đánh giá
                                    (4
                                        đánh giá)
                                Xem phòng
                            Khách Sạn Trung Hiếu
                             35 Tống Duy Tân, Phường Bắc Sơn, Sầm Sơn , Thanh Hoá 
                            (Xem bản đồ)
                                                ~ 3.02km
                            Chợ Mới
                                        “Khách Sạn Trung Hiếu Thanh Hóa nằm tại trung tâm thành phố, với dịch vụ hoàn hảo và thiết bị tối tân tạo nên một kì nghỉ khó quên cho du khách. Hãy đến và tận hưởng kỳ nghỉ tuyệt vời của mình tại đây....
                                        “
                                                Đảm bảo hoàn tiền
                                                Đảm bảo giá tốt nhất!
                                Xem phòng
                            Khách Sạn Hoàng Long
                             28 Đường Thanh Niên, Phường Trường Sơn, Sầm Sơn , Thanh Hoá 
                            (Xem bản đồ)
                                                ~ 2.54km
                            Chợ Mới
                                        “Với vị trí thuận để bạn đễ dàng đi lại cho việc tham quan địa điểm tham quan nổi tiếng và thưởng thức những món đặc sản của nơi đây. Khách sạn Hoàng Long Thanh Hóa quả thật là một điểm đến đáng tin cậ...
                                        “
                                                Đảm bảo hoàn tiền
                                                Đảm bảo giá tốt nhất!
                                                            7.0
                                Đánh giá
                                    (2
                                        đánh giá)
                                Xem phòng
                            Khách Sạn Hồ Gươm
                             31 Hồ Xuân Hương, Phường Trường Sơn, Sầm Sơn , Thanh Hoá 
                            (Xem bản đồ)
                                                ~ 3.03km
                            Chợ Mới
                                        “Khách Sạn Hồ Gươm Thanh Hóa có các phòng nghỉ được trang trí theo phong cách hiện đại và hệ thống ánh sáng ấm áp, trang bị tiện nghi sang trọng. 
                                        “
                                                Đảm bảo hoàn tiền
                                                Đảm bảo giá tốt nhất!
                                Xem phòng
                            Khách Sạn Vũ Sơn
                             Khu du lịch Vạn Chài, đường Hồ Xuân Hương, Thị xã Sầm Sơn, Thanh Hóa 
                            (Xem bản đồ)
                                                ~ 3.04km
                            Chợ Mới
                                        “Khách Sạn Vũ Sơn Thanh Hóa nằm tại trung tâm thành phố, với dịch vụ hoàn hảo và thiết bị tối tân tạo nên một kì nghỉ khó quên cho du khách. Hãy đến và tận hưởng kỳ nghỉ tuyệt vời của mình tại đây.
                                        “
                                                Đảm bảo hoàn tiền
                                                Đảm bảo giá tốt nhất!
                                Xem phòng
                            Khách Sạn Việt Hưng
                             07-09 Đường Lê Lợi, Phường Trường Sơn, Sầm Sơn , Thanh Hoá 
                            (Xem bản đồ)
                                                ~ 2.52km
                            Chợ Mới
                                        “Khách Sạn Việt Hưng Thanh Hóa, một chốn nghỉ dưỡng tuyệt vời, với tiện nghi chuẩn quốc tế và thiết kế thanh nhã cùng đội ngũ nhân viên chuyên nghiệp, hứa hẹn là điểm đến không thể bỏ qua cho bất kì ai...
                                        “
                                                Đảm bảo hoàn tiền
                                                Đảm bảo giá tốt nhất!
                                                            8.2
                                Tốt
                                    (5
                                        đánh giá)
                                Xem phòng
                            Khách Sạn Newstar Sầm Sơn
                             Số 13 đường Lê Thánh Tông, P .Bắc Sơn, Sầm Sơn , Thanh Hoá 
                            (Xem bản đồ)
                                                ~ 2.68km
                                                Đảm bảo hoàn tiền
                                                Đảm bảo giá tốt nhất!
                                Xem phòng
                            Khách Sạn Biển Đợi
                             45 Hồ Xuân Hương, Bãi biển Sầm Sơn, Sầm Sơn , Thanh Hoá 
                            (Xem bản đồ)
                                                ~ 2.44km
                            Chợ Mới
                                        Khách sạn bán chạy nhất trên Mytour 2015
                                        “Khách Sạn Biển Đợi Thanh Hóa nằm gần bãi biển Sầm Sơn, phòng ốc sáng sủa, nội thất bằng gỗ sang trọng, thoáng mát, tiện nghi hiện đại. Đội ngũ nhân viên khách sạn phục vụ thân thiện và nhiệt tình.
                                        “
                                                                    Khách sạn đang chờ duyệt giá.
                                                            6.9
                                Đánh giá
                                    (20
                                        đánh giá)
                                Xem phòng
                            Khách sạn Hương Biển 
                             37 Hồ Xuân Hương, Tx. Sầm Sơn  
                            (Xem bản đồ)
                                                ~ 2.92km
                                                                    Khách sạn đang chờ duyệt giá.
                                                            9.0
                                Rất tốt
                                    (1
                                        đánh giá)
                                Xem phòng
                            Khách sạn Bộ Xây Dựng
                             Đường Hồ Xuân Hương, Tx. Sầm Sơn 
                            (Xem bản đồ)
                                                ~ 2.4km
                                                                    Khách sạn đang chờ duyệt giá.
                                Xem phòng
                            Khách sạn Lê Lợi
                             Đường Lê Lợi, P. Trường Sơn, Thị Xã Sầm Sơn, Thanh Hóa 
                            (Xem bản đồ)
                                                ~ 2.4km
                                                                    Khách sạn đang chờ duyệt giá.
                                Xem phòng
                            Khách sạn Hải Quan
                             15 Hồ Xuân Hương, Tx. Sầm Sơn , Thanh Hóa 
                            (Xem bản đồ)
                                                ~ 2.4km
                                                                    Khách sạn đang chờ duyệt giá.
                                Xem phòng
                            Khách sạn Hoa Hồng
                             Số 5 Đường Tây Sơn, Trường Sơn, TX Sầm Sơn, Thanh Hóa 
                            (Xem bản đồ)
                                                ~ 2.85km
                                                                    Khách sạn đang chờ duyệt giá.
                                Xem phòng
                            Khách sạn Bông Sen Thanh Hoá
                             Phường Trường Sơn, Tx. Sầm Sơn Thanh Hoá 
                            (Xem bản đồ)
                                                ~ 2.4km
                                                                    Khách sạn đang chờ duyệt giá.
                                Xem phòng
                            Khách sạn Bộ Kế Hoạch Đầu Tư
                             Đường Tây Sơn - TX Sầm Sơn - Thanh Hóa 
                            (Xem bản đồ)
                                                ~ 2.4km
                                                                    Khách sạn đang chờ duyệt giá.
                                Xem phòng
                            Khách Sạn Hoa Hồng 1
                             Số 35 Bãi tắm A Hồ Xuân Hương, P.Trung Sơn, Tx.Sầm Sơn, Thanh Hóa 
                            (Xem bản đồ)
                                                ~ 2.8km
                                                                    Khách sạn đang chờ duyệt giá.
                                Xem phòng
                            Khách sạn Bưu Điện Sầm Sơn 
                             45 Nguyễn Du, P. Trường Sơn, TX. Sầm Sơn, Thanh Hóa 
                            (Xem bản đồ)
                                                ~ 2.46km
                                                                    Khách sạn đang chờ duyệt giá.
                                            (1
                                            Reviews)
                                Xem phòng
                «
                Trang trước
                1
                2
                3
                Trang sau
                »
                                Đền thờ An Dương Vương
                            Với hơn 5.000 khách sạn, resort tại 63 tỉnh/ thành phố, Mytour ngày càng được du khách tin dùng để đặt khách sạn. Mytour sẽ hỗ trợ quý khách đặt khách sạn Đền thờ An Dương Vương với chi phí hợp lý để có chuyến đi thật thú vị và tiết kiệm. Ngoài việc cung cấp những khách sạn giá tốt nhất, bạn còn có thể tìm thấy nhiều thông tin du lịch hữu ích và thú vị khác.  Đặt phòng khách sạn Đền thờ An Dương Vương giá tốt nhất tại Mytour.vn, với nhiều khuyến mãi từ website và đơn vị khách sạn tiết kiệm lên đến 70%. Hơn 150.000 đánh giá từ khách hàng đã qua sử dụng khách sạn giúp bạn đưa ra những quyết định tốt nhất cho lựa chọn của mình. Đặc biệt chính sách ĐẢM BẢO HOÀN TIỀN chỉ có tại Mytour.vn, giờ đây bạn có thể hoàn toàn tin tưởng vào dịch vụ đặt phòng trực tuyến.  Đền thờ An Dương Vương nằm trên địa phận xã Quảng Châu, huyện Quảng Xương, tỉnh Thanh Hóa. Đây là nơi có cảnh quan thiên nhiên đẹp đẽ đầy sức quyến rũ lòng người, đặc biệt lại có quy mô khá lớn, có lẽ người đời xưa đã dụng ý mô phỏng theo cách bố cục của thành Cổ Loa (Hà Nội).  Trước đây, hàng năm tại Đền thờ An Dương Vương có các lễ hội được tổ chức hết sức quy mô, thành kính với các hình thức: Đánh cờ tướng, giáo cờ, lượm quân cờ, rước kiệu.  Có thể nói, Đền thờ An Dương Vương có dấu ấn lịch sử để chúng ta tìm hiểu về cội nguồn của đất nước, dân tộc với nhiều tục lệ có giá trị, góp phần giáo dục truyền thống quê hương cho thế hệ ngày nay và cả mai sau. Đền còn là khu danh lam thắng cảnh phục vụ cho du khách gần xa qua lại thăm viếng.  Thanh Hóa có bề dày về lịch sử đấu tranh cách mạng từ bao đời và truyền thống văn hóa, lại có địa hình thiên nhiên sông núi phong phú đa dạng. Vì thế di tích và thắng cảnh xứ Thanh rất thơ mộng và đặc sắc. Du lịch Thanh Hóa bạn sẽ được đến với những cái đẹp say lòng, những miền quê vừa duyên dáng, vừa oai hùng của Hàm rồng kỳ tú và rung động lòng người của thập ảnh huyền ảo mộng mơ.  Nếu bạn muốn đặt tour Thanh Hóa, hãy đặt trực tuyến tại mytour để tiết kiệm thời gian và tiền bạc. Bạn sẽ được đội ngũ tư vấn viên của mytour được tư vấn tận tình về phòng khách sạn, nơi ăn chốn ở, những điểm du lịch không nên bỏ qua, và những món đặc sản nên thưởng thức khi tới đây.  Bạn còn chần chừ gì nữa, hãy nhanh tay đặt phòng khách sạn Quảng Xương qua hệ thống trực tuyến của mytour để hưởng những ưu đãi lớn từ mytour và tận hưởng kỳ nghỉ trọn vẹn, ý nghĩa và khó quên bên người thân và bạn bè bạn bạn nhé!
                ×
                    Chính sách đảm bảo hoàn tiền của mytour
                    Bạn chưa tin tưởng việc đặt phòng khách sạn trực tuyến? Bạn e ngại rằng phòng khách sạn thực tế không đúng với thông tin trên website? Chúng tôi cam kết đưa đầy đủ và chính xác thông tin khách sạn trên website với chính sách “Đảm bảo Hoàn tiền”
                        Nếu khách hàng đặt khách sạn thành công trên Mytour nhưng khách sạn không có phòng, Mytour sẽ hoàn lại tiền cho khách và tặng kèm phiếu giảm giá có giá trị bằng với số tiền khách hàng đã trả.
                        Trong trường hợp loại phòng thực tế không đúng với loại phòng trên đơn hàng, Mytour sẽ quyết định nâng cấp miễn phí hoặc tặng phiếu giảm giá có giá trị bằng với số tiền khách hàng đã trả.
                        Trường hợp các tiện nghi phòng khách sạn (như bữa sáng, wifi…) không đúng với nội dung trên website, Mytour sẽ tặng phiếu giảm giá có giá trị bằng 10% số tiền khách đã trả (tối đa 500,000 VND)
                        Khách hàng cần gọi điện thoại 04-7309 9899 (Hà Nội), 08-7309 9899 (Hồ Chí Minh) hoặc email tới info@mytour.vn và cung cấp mã đơn hàng trong vòng 24 giờ từ lúc nhận phòng để được trợ giúp giải quyết khiếu nại (Hotline chỉ hỗ trợ trong giờ hành chính).
                        Mytour không chịu trách nhiệm bồi thường thiệt hại gián tiếp, ngẫu nhiên, hay do hậu quả phát sinh. Trong mọi trường hợp, trách nhiệm của Mytour không vượt quá tổng số tiền khách hàng thanh toán đặt phòng.
                ×
                    Đảm bảo giá tốt nhất
                    Nếu Thành viên đã đặt một phòng khách sạn được “Đảm Bảo” tại Mytour.vn và sau đó, cho Mytour.vn  thấy rằng Thành viên có thể đặt một phòng tương tự trong cùng khoảng thời gian ở mức giá tốt hơn có thể xem và đặt được trên một website khác, Mytour.vn sẽ giảm giá bằng hoặc thấp hơn mức giá đó.
                    Giá dùng để so sánh là giá sau khi áp dụng mức giảm giá công bố trên website Mytour.vn.
                    Chính sách “Đảm Bảo Giá Tốt Nhất” của Mytour.vn chỉ áp dụng cho các đặt phòng đã được xác nhận và phải thỏa mãn những điều kiện sau:
                Cùng khách sạnCùng thời gian nghỉ lạiCùng loại Phòng/GiườngCùng các yêu cầu mua Trước, yêu cầu trả trước và đặt cọc (nếu có)Cùng chính sách Hủy và Sửa Đổi
                    Phòng đó phải còn trống để được xác nhận ngay tại thời điểm các đại lý của Mytour.vn  kiểm tra phòng trống
                        Chính sách “Đảm Bảo Giá Tốt Nhất” không áp dụng cho các mức giá không công bố, như: chương trình khách hàng thân thiện.
                        Bất kỳ tổ chức nào với các mức giá dành cho nhóm cá nhân cụ thể và không nhằm mục đích áp dụng ra bên ngoài.
                        Thành viên có thể gửi khiếu nại theo địa chỉ : info@mytour.vn
                                Nêu mã đặt phòng Mytour.vn trong dòng tiêu đề thư
                                Gửi URL của website nơi Thành viên tìm thấy mức giá tốt hơn
                                Cung cấp ảnh chụp màn hình của website đối thủ cạnh tranh trong đó nêu rõ Phòng Trống, Loại Phòng, và các mức giá cho những ngày nghỉ lại theo yêu cầu của Thành viên.
                VUI LÒNG LƯU Ý: Thành viên không cần thực hiện đặt phòng trên website của đối thủ cạnh tranh, chỉ cần cho Mytour.vn thấy sự so sánh.
                ×
                Đăng Nhập
                                 Đăng nhập bằng tài khoản Facebook
                                 Đăng nhập bằng tài khoản Google
                            Hoặc đăng nhập bằng
                        Email*
                        Mật khẩu*
                        Quên mật khẩu?
                            Chưa có tài khoản/tạo tài khoản
                Đăng nhập
                         Nhớ đăng nhập
                ×
                Bản đồ
                                            Đền thờ An Dương Vương
                    Tìm đường
                        Từ: 
                        Đến: 
                            Khách sạnĐịa danh Hiển thị các khách sạn ở gần Hiển thị các khu du lịch ở gần
                ×
                Yêu Cầu Lấy Giá
                                    Ngày nhận phòng
                                    Ngày trả phòng
                        Tên khách hàng
                        Email
                        Điện thoại
                        Nhân viên chăm sóc khách hàng sẽ gọi điện cho quý khách trong thời gian sớm nhất.
                        Quý khách có thể gọi điện đến cho Mytour để được tư vấn ngay:
                        Hà Nội: (04) 7109 9999, Hồ Chí Minh: (08) 7309 9899, Support
                            English: (+84)4-7309-9899.
                    Hoàn thành
                ×
                Gửi Thông Tin
                        Tên khách hàng
                        Email
                        Điện thoại
                            Quý khách sẽ thấy giá giảm ngay trên trang sau khi gửi thông tin
                    Hoàn thành
                ×
                Nhận Giá Tốt
                                    Ngày nhận phòng
                                    Ngày trả phòng
                        Tên khách hàng
                        Email
                        Điện thoại
                        Vì giá tốt không được công bố nên hệ thống sẽ gửi giá qua email đến quý khách và nhân viên chăm
                        sóc sẽ gọi điện cho quý khách trong thời gian sớm nhất.
                        Quý khách có thể gọi điện đến cho Mytour để được tư vấn ngay:
                        Hà Nội: (04) 7109 9999, Hồ Chí Minh: (08) 7309 9899, Support
                            English: (+84)4-7309-9899.
                    Hoàn thành
                ×
                ×
                ĐÁNH GIÁ 
                        Tên
                        Tiêu đề
                        Kiểu du lịch?
                                -- Chọn --Cá nhânCặp đôiGia đìnhBạn bèDoanh nghiệp
                        Nội dung
                                Đánh giá chi tiết
                                Chỗ ở
                                5
                                Thức ăn
                                5
                                Phương tiện
                                5
                                Hướng dẫn viên
                                5
                                Lịch trình
                                5
                    Gửi đánh giá
                    Hủy Bỏ
                ×
                Gửi lại email kích hoạt
                ×
                Thông tin chi tiết giá theo phòng
                    Chọn khoảng thời gian hiển thị giá phòng
                    Hiển thị giá
                ×
                Khóa phòng theo khoảng thời gian
                            Chọn khoảng thời gian check-in cần khóa/mở phòng
                            Khóa phòng
                            Mở phòng
                ×
                THUẾ VÀ PHÍ DỊCH VỤ
                17% thuế và phí dịch vụ bao gồm:
                    - 10% thuế và 5% phí dịch vụ hoàn trả lại cho khách sạn.
                    - 2% phí giao dịch tại Mytour.
                ×
                Bạn có hài lòng về website của Mytour?
                    Thông điệp nhắn nhủ:
                Mytour luôn mong muốn cải thiện dịch vụ để bạn có trải nghiệm tốt hơn!
                            Ảnh đính kèm
                        Đóng
                        Gửi
                ×
                    Những đóng góp của bạn đã được ghi nhận. Mytour cám ơn bạn !
                Quay lại website
                Du lịch Đền thờ An Dương Vương
                                Du lịch Biển Quảng Lợi Xứ Thanh thu hút du khách
                                Du lịch Cao Sơn ngỡ như ‘Sa Pa say ngủ trong lòng xứ Thanh’
                                Du lịch Du khách vỡ mộng về những thiên đường du lịch
                                Du lịch Muôn màu nét đẹp vùng biển Hải Tiến, Thanh Hóa
                                Du lịch Về Thanh Hóa dự lễ hội Mường Xia
                                Du lịch Suối cá thần - Thanh Hóa
                                Du lịch Vẻ Đẹp Biển Và Núi Sầm Sơn
                                Du lịch Sầm Sơn - biển thức giấc chào mùa hè 2016
                                Du lịch Sầm Sơn ăn ở đâu ngon?
                                Du lịch Núi và biển Sầm sơn - vẻ đẹp hấp dẫn
                            Giới thiệu Mytour
                            Đối tác khách sạn
                            Đăng nhập HMS
                            Tích lũy Vpoint
                            Điều khoản sử dụng
                            Quy chế hoạt động
                            Tuyển dụng
                            Liên hệ
                            Đăng ký nhận email
                                Đăng ký email để nhận khuyến mãi lên đến 70%
                                    Đăng
                                    ký
                    Công ty TNHH Mytour Việt Nam
                    Số ĐKKD: 0105983269 cấp ngày 30/08/2012
                    Văn phòng Hà Nội: Tầng 4, tòa nhà GP Invest, 170 Đê La Thành, Đống Đa
                    Văn phòng HCM: Tầng 5, Tòa Nhà HDTC, Số 36 Bùi Thị Xuân, Q.1
                Hotline
                        Hà Nội:
                        (04) 7109 9999
                        Tp. HCM:
                        (08) 7309 9899
                        ENGLISH SUPPORT:
                        (+84)4 7309 9899
