url:http://mytour.vn/569-khach-san-duy-tan-1.html
Tittle :Khách Sạn Duy Tân 1 - Thừa Thiên Huế giá tốt nhất - Mytour.vn
content :Đặt phòng trực tuyến, hoặc gọi
                                                            Hà Nội: (04) 7109 9999
                                                                                        - (04) 7309 9899
                                                            Hồ Chí Minh: (08) 7309 9899
                                                                                        - (08) 7109 9998
                        T2 - CN: 08:00 - 23:00
                    Toggle navigation
                                Bạn không có thông báo nào
                    |
                    ||
                                                            Tài khoản
                        Đăng nhập
                                Đăng kýKhách sạn yêu thích
                            Khách sạn
                            Tour
                            Cẩm nang du lịch
                            Thông tin
                                                Về Mytour
                                                Tin khuyến mãi
                                                Ưu đãi
                                                Hướng dẫn
                                                Liên hệ
                            Tốt nhất 2016
                ×
                Bạn có chắc muốn hủy đơn hàng?
                Lorem ipsum dolor sit amet, consectetur adipisicing elit. Iure corporis repudiandae nobis distinctio
                quae quos, officia modi, ab voluptatem pariatur ducimus mollitia, necessitatibus sed soluta dicta
                repellendus! Praesentium debitis, temporibus?
                    Đồng ý
                    Đóng
                    Khách sạnThừa Thiên HuếHuếKhách sạn gần Kinh thành HuếKhách Sạn Duy Tân 1
                    Đóng
            Tìm Kiếm Khách Sạn
                            Ngày nhận phòng
                            Ngày trả phòng
                    Số đêm
                    Số phòng
                        123456789101112
                    Người lớn
                        123456789101112
                    Tìm khách sạn
                Giá tốt hơn so với đặt phòng trực tiếp tại khách sạn
                Đảm bảo 
                giá tốt nhất
                Đảm bảo 
                hoàn tiền
                Nhân viên chăm sóc, tư vấn nhiều kinh nghiệm
                Hơn 5000 khách sạn tại Việt Nam với đánh giá thực
                Nhiều chương trình khuyến mãi và tích lũy điểm
                Thanh toán dễ dàng, đa dạng
                        Khách Sạn Duy Tân 1
                            (Cung cấp bởi khách sạn)
                                    Tất cả thông tin về tiêu chuẩn khách sạn trên website mytour.vn
                                    là do khách sạn tự cung cấp, chỉ mang tính chất tham khảo và không nhất thiết trùng
                                    hợp với hạng
                                    sao được cấp bởi sở Văn Hoá, Thể thao và du lịch.
                             12 Hùng Vương, Huế, Thừa Thiên Huế 
                                Đặt phòng ngay giữ giá tốt
                                Đã thích
                                        7.9
                                            (64
                                            đánh giá)
                                Giới thiệu về Khách Sạn Duy Tân 1 
                                    Khách sạn Duy Tân 1 với diện tích khuôn viên 6600 m2 toạ lạc trên đường Hùng Vương, nằm ngay trung tâm thành phố Huế thơ mộng. Du khách chỉ cần vài phút lái xe để đến chợ Đông Ba, ga Huế, bến xe, ngân hàng, bệnh viện và 30 phút để đến sân bay.
 
Khách sạn Duy Tân 1 đạt tiêu chuẩn 3 sao với 135 phòng được trang bị cơ sở vật chất hiện đại. Khi đặt phòng khách sạn Duy Tân 1, du khách sẽ hoàn toàn hài lòng về dịch vụ và giá cả tại đây. Với phong cách phục vụ chuyên nghiệp và sự thân thiện của nhân viên khách sạn, du khách sẽ được nghỉ ngơi thoải mái sau những ngày làm việc căng thẳng hay tận hưởng những giây phút ấn tượng và khó quên bên gia đình và những người thân yêu.
Mỗi phòng nghỉ đều được trang bị tiện nghi sang trọng như hệ thống điều hòa và nước nóng trung tâm, TV màn hình phẳng, truyền hình vệ tinh, internet, két an toàn, mini-bar, điện thoại, bình nấu nước và dụng cụ pha trà cà phê, phòng tắm đứng hoặc bồn tắm, với tiện nghi phòng tắm đầy đủ. Có thể nói với những tiện nghi tại đây mang lại thì quý khách khó mà tìm được mức ưu đãi về giá phòng ở đâu tốt hơn Mytour, quý khách sẽ có cơ hội đặt phòng giá rẻ nhất trên hệ thống của chúng tôi với sự hướng dẫn nhiệt tình, thân thiện của nhân viên Mytour.vn.
Với vị trí thuận lợi, du khách có thể tự thiết kế riêng cho mình một lịch trình tham quan, nghỉ dưỡng hoặc đặt tour du lịch khám phá các địa danh nổi tiếng để có được chuyến đi đáng nhớ nhất. Quý khách có thể ghé thăm các địa điểm du lịch gần với khách sạn như chùa Thiên Mụ, sông Hương, núi Ngự Bình, núi Bạch Mã, bảo tàng Mỹ thuật Cung đình Huế, suối nước khoáng Mỹ An…  
Đến với Mytour.vn, quý khách sẽ có cơ hội đặt khách sạn giá rẻ nhất cùng với nhiều chương trình khuyến mại hấp dẫn chỉ dành riêng cho khách hàng của Mytour.
Hãy cùng trải nghiệm tại khách sạn Duy Tân 1 bằng việc nhập ngày đến – đi của bạn vào mẫu đặt phòng trực tuyến an toàn sẵn có của chúng tôi và nhấn nút “đặt ngay” bạn nhé!
                                        Xem thêm 
                                Chọn ngày để xem giá và phòng trống
                                    Đảm bảo giá tốt nhất
                                                                            Giá ưu đãi chỉ dành cho khách nội địa.
                                                Ngày nhận phòng
                                                Ngày trả phòng
                                        Số đêm
                                        Số phòng
                                            123456789101112
                                        Người lớn
                                            123456789101112
                                        Cập nhật giá
                                Lưu ý: Vui lòng ẩn "Cập nhật giá" để cập nhật phòng
                                Chọn phòng Khách Sạn Duy Tân 1
                                                Loại Phòng
                                                Giá 1 đêm
                                                Số phòng
                                                Đặt phòng
                                                                    Deluxe Room
                                                                        Điều kiện hủy phòng
                                                        phòng
                                                                                                                                                                            0123456789101112131415161718192021222324252627282930313233343536373839
                                                            Đặt ngay
                                                            Xác nhận ngay
                                                                    Standard Room 
                                                                        Điều kiện hủy phòng
                                                                        Thêm giường
                                                                        0
                                                                         Vui lòng chọn số lượng phòng trước! 
                                                        phòng
                                                                                                                                                                            01234567891011121314151617181920212223242526272829
                                                            Đặt ngay
                                                            Xác nhận ngay
                                                                    Superior room
                                                                        Điều kiện hủy phòng
                                                        phòng
                                                                                                                                                                            012345678910111213141516171819202122232425262728293031323334353637383940414243444546474849505152535455565758596061626364
                                                            Đặt ngay
                                                            Xác nhận ngay
                                                                    Suite room
                                                                        Điều kiện hủy phòng
                                                        phòng
                                                                                                                                                                            0123
                                                            Đặt ngay
                                                            Xác nhận ngay
                                                                    SUITE
                                                                        Điều kiện hủy phòng
                                                        phòng
                                                                                                                                                                            0123
                                                            Đặt ngay
                                                            Xác nhận ngay
                                    Tiện nghi Khách Sạn Duy Tân 1 
                                                Đưa đón khách sạn sân bay
                                                Bữa sáng miễn phí
                                                Bãi đỗ xe
                                                Cửa hàng lưu niệm
                                                Internet
                                                Internet (không dây)
                                                internet ( miễn phí )
                                                Phòng hội thảo
                                                Phòng họp
                                                Phòng hút thuốc
                                                Salon
                                                Thang máy
                                                Thêm giường phụ
                                                Truyền hình cáp/vệ tinh
                                                Wifi miễn phí
                                                Giặt là
                                                Hỗ trợ đặt tour
                                                Nhà hàng
                                                Quán cafe
                                                Thuê xe, taxi
                                                Tiếp tân 24/24
                                                vé tàu xe, máy bay
                                                Đổi tiền
                                                Massage
                                Ghi chú: Ăn sáng miễn phí (nếu có) có thể thay đổi theo phòng và ngày
                                    Chính sách Khách Sạn Duy Tân 1 
                                        Giờ nhận
                                        phòng: 10:00
                                        Giờ trả
                                        phòng: 12:00
            Đánh giá Khách Sạn Duy Tân 1
                Viết đánh giá
                        Tất cả ( 64 )
                        Công tác ( 1 )
                        Cặp đôi ( 21 )
                        Gia đình ( 13 )
                        Bạn bè ( 3 )
                        Cá nhân ( 26 )
                        Đánh giá
                        7.9
                            Tất cả
                    Chi tiết điểm  (từ
                        64
                        nhận xét)
                            Vị trí
                                7.9
                                    % Complete
                            7.9
                            Phục vụ
                                7.8
                                    % Complete
                            7.8
                            Tiện nghi
                                7.9
                                    % Complete
                            7.9
                            Giá cả
                                8
                                    % Complete
                            8
                            Vệ sinh
                                7.9
                                    % Complete
                            7.9
                                    “Tôi nhận định khách sạn Duy Tân 1 là một khách sạn rất ok, phòng ốc rộng rãi và tiện nghi. Đội ngũ nhân viên làm việc tích cực, thân thiện với khách hàng. Nếu xét theo giá tiền thì chất lượng như thế là phù hợp, vị trí cũng gần trung tâm nên dễ đi lại.
                                    “
                                Khách hàng
                                07/10/2016
                        Tốt
                        8
                            Công tác
                    Chi tiết điểm  (từ
                        1
                        nhận xét)
                            Vị trí
                                8
                                    % Complete
                            8
                            Phục vụ
                                8
                                    % Complete
                            8
                            Tiện nghi
                                8
                                    % Complete
                            8
                            Giá cả
                                8
                                    % Complete
                            8
                            Vệ sinh
                                8
                                    % Complete
                            8
                                    “Chất lượng tại Duy Tân khá là chuyên nghiệp. Nhân viên cũng rất nhiệt tình nhưng vẫn có lúc lơ là với khách. Nếu có cơ hội quay lại Huế công tác tôi sẽ lựa chọn khách sạn ở đây.
                                    “
                                Nguyễn Thị Miêu
                                16/10/2013
                        Đánh giá
                        7.8
                            Cặp đôi
                    Chi tiết điểm  (từ
                        21
                        nhận xét)
                            Vị trí
                                8
                                    % Complete
                            8
                            Phục vụ
                                7.6
                                    % Complete
                            7.6
                            Tiện nghi
                                8
                                    % Complete
                            8
                            Giá cả
                                7.8
                                    % Complete
                            7.8
                            Vệ sinh
                                7.9
                                    % Complete
                            7.9
                                    “KS tốt, nhân viên phục vụ chu đáo. Giá phù hợp
                                    “
                                Suong
                                14/07/2016
                        Đánh giá
                        7.8
                            Gia đình
                    Chi tiết điểm  (từ
                        13
                        nhận xét)
                            Vị trí
                                7.7
                                    % Complete
                            7.7
                            Phục vụ
                                7.8
                                    % Complete
                            7.8
                            Tiện nghi
                                7.7
                                    % Complete
                            7.7
                            Giá cả
                                8.1
                                    % Complete
                            8.1
                            Vệ sinh
                                7.5
                                    % Complete
                            7.5
                                    “Khách sạn tốt, chất lượng và giá rẻ
                                    “
                                Thu Thủy
                                15/06/2016
                        Đánh giá
                        7.7
                            Bạn bè
                    Chi tiết điểm  (từ
                        3
                        nhận xét)
                            Vị trí
                                7.3
                                    % Complete
                            7.3
                            Phục vụ
                                7.7
                                    % Complete
                            7.7
                            Tiện nghi
                                7.7
                                    % Complete
                            7.7
                            Giá cả
                                8
                                    % Complete
                            8
                            Vệ sinh
                                8
                                    % Complete
                            8
                                    “Tôi hài lòng về khách sạn Duy Tân Huế, thành phố Huế với các món ăn sáng ngon, mình đến hơn sớm tiếp tân vui vẻ cho nhận phòng không tính phụ thu.
                                    “
                                Nguyễn Thị Bích Vân
                                04/03/2015
                        Tốt
                        8.1
                            Cá nhân
                    Chi tiết điểm  (từ
                        26
                        nhận xét)
                            Vị trí
                                8.1
                                    % Complete
                            8.1
                            Phục vụ
                                8.1
                                    % Complete
                            8.1
                            Tiện nghi
                                8
                                    % Complete
                            8
                            Giá cả
                                8.1
                                    % Complete
                            8.1
                            Vệ sinh
                                8
                                    % Complete
                            8
                                    “Tôi nhận định khách sạn Duy Tân 1 là một khách sạn rất ok, phòng ốc rộng rãi và tiện nghi. Đội ngũ nhân viên làm việc tích cực, thân thiện với khách hàng. Nếu xét theo giá tiền thì chất lượng như thế là phù hợp, vị trí cũng gần trung tâm nên dễ đi lại.
                                    “
                                Khách hàng
                                07/10/2016
                                Từ ngày mới đến cũ
                                Từ ngày cũ đến mới
                                Điểm từ thấp đến cao
                                Điểm từ cao đến thấp
                                Khách hàng
                                07-10-2016
                                            Tốt
                                            8
                                        "Tốt "
                                                Vị trí
                                                    8 .0
                                                Phục vụ
                                                8 .0
                                                Tiện nghi
                                                8 .0
                                                Giá cả
                                                8 .0
                                                Vệ sinh
                                                8 .0
                                                “Tôi nhận định khách sạn Duy Tân 1 là một khách sạn rất ok, phòng ốc rộng rãi và tiện nghi. Đội ngũ nhân viên làm việc tích cực, thân thiện với khách hàng. Nếu xét theo giá tiền thì chất lượng như thế là phù hợp, vị trí cũng gần trung tâm nên dễ đi lại.” 
                                Mr Kiên
                                30-08-2016
                                            Tốt
                                            8
                                        "Khá hài lòng, dịch vụ ổn "
                                                Vị trí
                                                    8 .0
                                                Phục vụ
                                                8 .0
                                                Tiện nghi
                                                8 .0
                                                Giá cả
                                                8 .0
                                                Vệ sinh
                                                8 .0
                                                “Khách sạn Duy Tân 1 có vị trí cũng đẹp, khá thuận tiện để đi lại, về dịch vụ chung cơ bản là ổn, không có gì phàn nàn, phòng ốc đạt tiêu chuẩn, sạch sẽ, gọn gàng, ở khá thoải mái. Về phong cách làm việc của nhân viên cũng ok, thân thiện, vui vẻ, mọi thứ ổn, tôi khá hài lòng khi nghỉ tại đây.” 
                                Đăng Thanh Hùng
                                02-08-2016
                                            Tốt
                                            8
                                        "Hài lòng về dịch vụ "
                                                Vị trí
                                                    8 .0
                                                Phục vụ
                                                8 .0
                                                Tiện nghi
                                                8 .0
                                                Giá cả
                                                8 .0
                                                Vệ sinh
                                                8 .0
                                                “Khách sạn Duy Tân 1 có dịch vụ ok, tôi đánh giá tốt mọi thứ ở đây, phòng ốc tôi ở đạt tiêu chuẩn, vệ sinh phòng sạch sẽ, đầy đủ tiện nghi. Nhân viên thì lịch sự, thân thiện, vui vẻ. Các tiện ích đáp ứng được yêu cầu của tôi, giá cả tương xứng với dịch vụ phòng, vị trí đi lại cũng thuận tiện, tôi hài lòng khi nghỉ tại đây.” 
                                Suong
                                14-07-2016
                                            Rất tốt
                                            9.2
                                        "Danh gia KS Duy Tan "
                                                Vị trí
                                                    10 .0
                                                Phục vụ
                                                7 .0
                                                Tiện nghi
                                                10 .0
                                                Giá cả
                                                10 .0
                                                Vệ sinh
                                                9 .0
                                                “KS tốt, nhân viên phục vụ chu đáo. Giá phù hợp” 
                                Phạm Thị Thúy Hằng
                                27-06-2016
                                            Rất tốt
                                            9
                                        "Mọi thứ đều tốt "
                                                Vị trí
                                                    9 .0
                                                Phục vụ
                                                9 .0
                                                Tiện nghi
                                                9 .0
                                                Giá cả
                                                9 .0
                                                Vệ sinh
                                                9 .0
                                                “Theo cá nhân tôi thấy thì dịch vụ ở khách sạn Duy Tân 1 này rất tốt, mọi thứ đều ổn, từ dịch vụ phòng, phòng được vệ sinh sạch sẽ, gọn gàng, đến cách làm việc của nhân viên cũng thân thiện, lịch sự, các tiện ích đáp ứng được yêu cầu của tôi, vị trí đi lại cũng thuận tiện, giá cả lại hơp lý, tôi hài lòng và khá thoải mái khi nghỉ tại đây.” 
                    Xem tất cả đánh giá ( 64 )
                                Đặt phòng ngay giữ giá tốt
            Khách hàng đã xem khách sạn này thường tham khảo thêm
                Được đề xuất cho bạn
            Khách sạn 3 sao có cùng tiện nghi
            Có thể bạn muốn xem
                    Khách sạn 3 sao tại Thừa Thiên Huế
                        Khách sạn có Đưa đón khách sạn sân bay tại Thừa Thiên Huế
                        Khách sạn có nhà hàng tại Thừa Thiên Huế
                        Khách sạn có giặt là tại Thừa Thiên Huế
            Địa danh ở gần
                                    Bệnh viện trung ương Huế
                                     ~ 0.65km
                                                                Bệnh Viện Trung Ương Huế tọa lạc tại thành phố Huế. Đến với Bệnh Viện Trung Ương Huế, du khách có cơ hội tham quan các địa điểm nổi tiếngnhư Chùa Thiên Mụ, Lăng Tự Đức, Kinh thành Huế...Hãy để Mytour hỗ trợ bạn để có 1 chuyến đi thú vị, tiết kiệm bằng cách đặt phòng khách sạn tại khu vực Bệnh Viện Trung Ương Huế ngay bây giờ với giá rẻ nhất.
                                    Cầu Tràng Tiền
                                     ~ 0.84km
                                                                Cầu Tràng Tiền in sâu trong lòng mỗi người dân nơi đây và cả những du khách như một biểu tượng của đất Cố đô. Gần cầu Tràng Tiền có các địa danh như: Lăng Khải Định, Cửu Đỉnh, Thế Miếu, sông Hương. Hãy để Mytour hỗ trợ bạn để có 1 chuyến đi thú vị, tiết kiệm bằng cách đặt phòng khách sạn gần cầu Tràng Tiền ngay bây giờ với giá rẻ nhất.
                                    Sông Hương
                                     ~ 0.85km
                                    Nhà thờ Chính tòa Phú Cam
                                     ~ 0.85km
                                                                Nhà thờ Chính tòa Phú Cam là nhà thờ chính tòa của Tổng Giáo phận Huế, tọa lạc trên đồi Phước Quả, thành phố Huế. Gần nhà thờ Chính tòa Phú Cam có các địa danh như: cố đô Huế, Cửu Đỉnh, Thế Miếu. Hãy để Mytour hỗ trợ bạn để có 1 chuyến đi thú vị, tiết kiệm bằng cách đặt phòng khách sạn gần nhà thờ Chính tòa Phú Cam ngay bây giờ với giá rẻ nhất.
                                    Thành phố Huế
                                     ~ 0.85km
                                                                Thành phố Huế là trung tâm văn hoá du lịch Việt Nam, đặc biệt có dòng sông Hương chảy ngang qua tạo nên nét độc đáo cho cố đô. Tại thành phố Huế có các địa danh như: vườn An Hiên, phố cổ Gia Hội - Chi Lăng. Hãy để Mytour hỗ trợ bạn để có 1 chuyến đi thú vị, tiết kiệm bằng cách đặt phòng khách sạn tại thành phố Huế ngay bây giờ với giá rẻ nhất.
                                    Sông Hương Huế
                                     ~ 1.01km
                                                                Sông Hương là con sông lớn chảy qua giữa lòng Thành phố Huế, nổi tiếng có vẻ đẹp thơ mộng, trữ tình. Gần sông Hương có các địa danh như: kinh thành Huế, Cửu Đỉnh, Lăng Khải Định, Lăng Minh Mạng, Thế Miếu. ãy để Mytour hỗ trợ bạn để có 1 chuyến đi thú vị, tiết kiệm bằng cách đặt phòng khách sạn gần sông Hương ngay bây giờ với giá rẻ nhất.
                                    Kỳ Ðài
                                     ~ 1.3km
                                                                Kỳ Đài luôn là điểm di tích thu hút đông đảo khách du lịch trong nước và quốc tế đến tham quan hàng năm. Gần Kỳ Đài có các điểm tham quan hấp dẫn như: Kinh thành Huế, Cửu Đỉnh, Thế Miếu, Hiển Lâm Các. Hãy để Mytour hỗ trợ bạn để có 1 chuyến đi thú vị, tiết kiệm bằng cách đặt phòng khách sạn gần Kỳ Đài ngay bây giờ với giá rẻ nhất.
                                    Ngọ Môn Huế
                                     ~ 1.44km
                                                                Ngọ Môn Huế là một trong những công trình kiến trúc cổ tiêu biểu của miền quê núi Ngự và là nơi chứng kiến nhiều sự kiện lịch sử quan trọng. Gần Ngọ Môn Huế có các địa danh như: Hiển Lâm Các, Cửu Đỉnh, Thế Miếu. Hãy để Mytour hỗ trợ bạn để có 1 chuyến đi thú vị, tiết kiệm bằng cách đặt phòng khách sạn gần Ngọ Môn Huế ngay bây giờ với giá rẻ nhất.
                                    Điện Thái Hòa
                                     ~ 1.55km
                                                                Điện Thái Hòa là công trình quan trọng nhất trong khu vực đại nội của kinh thành Huế - nơi các vị vua Nguyễn ngự trên ngai vàng cai trị đất nước. Gần Điện Thái Hòa có các địa danh: Hiển Lâm Các, Điện Phụng Tiên. Hãy để Mytour hỗ trợ bạn để có 1 chuyến đi thú vị, tiết kiệm bằng cách đặt phòng khách sạn gần Điện Thái Hòa ngay bây giờ với giá rẻ nhất.
                                    Hiển Lâm Các
                                     ~ 1.64km
                                                                Hiển Lâm Các Là một trong những công trình kiến trúc cổ đẹp nhất của quần thể di tích cố đô Huế, có giá trị cả về kỹ thuật lẫn thẩm mỹ. Gần Hiển Lâm Các có các địa danh như: Cổng Ngọ Môn, Điện Thái Hoà, Cửu Đỉnh. Hãy để Mytour hỗ trợ bạn để có 1 chuyến đi thú vị, tiết kiệm bằng cách đặt phòng khách sạn gần Hiển Lâm Các ngay bây giờ với giá rẻ nhất.
                                    Đại Nội
                                     ~ 1.66km
                                                                Đại Nội bao gồm Hoàng Thành và Tử Cấm Thành, được bao bọc bởi hai bức tường thành dày là Ngoại Thành và Nội Thành, thuộc cố đô Huế. Gần Đại Nội có các địa danh như: Lăng Minh Mạng, Cửu Đỉnh, Thế Miếu. Hãy để Mytour hỗ trợ bạn để có 1 chuyến đi thú vị, tiết kiệm bằng cách đặt phòng khách sạn gần Đại Nội ngay bây giờ với giá rẻ nhất.
                                    Cửu Đỉnh
                                     ~ 1.67km
                                                                Cửu Đỉnh là bộ 9 chiếc đỉnh đồng lớn nhất Việt Nam đúc năm 1836 thời Minh Mạng được đặt dưới bóng Hiển Lâm Các, trước sân Thế Miếu. Gần Cửu Đỉnh có các địa danh như: cổng Ngọ Môn, Hưng Tổ Miếu, Điện Phụng Tiên. Hãy để Mytour hỗ trợ bạn để có 1 chuyến đi thú vị, tiết kiệm bằng cách đặt phòng khách sạn gần Cửu Đỉnh ngay bây giờ với giá rẻ nhất.
                                    Thế Miếu
                                     ~ 1.68km
                                                                Thế Miếu là nơi thờ cúng các vua Nguyễn, đây là một trong những công trình to lớn bậc nhất so với các miếu, điện ở Việt Nam. Gần Thế Miếu có các địa danh như: Cung Diên Thọ, Cung Trường Sanh, Hiển Lâm Các. Hãy để Mytour hỗ trợ bạn để có 1 chuyến đi thú vị, tiết kiệm bằng cách đặt phòng khách sạn gần Thế Miếu ngay bây giờ với giá rẻ nhất.
                                    Kinh thành triều Nguyễn
                                     ~ 1.71km
                                                                Kinh thành triều Nguyễn nằm ở Bắc sông Hương, thành phố Huế tổng thể kiến trúc bao gồm Kinh thành, Hoàng thành và Tử Cấm thành. Gần kinh thành triều Nguyễn có các địa dah như: Lăng Minh Mạng, Cửu Đỉnh. Hãy để Mytour hỗ trợ bạn để có 1 chuyến đi thú vị, tiết kiệm bằng cách đặt phòng khách sạn gần kinh thành triều Nguyễn ngay bây giờ với giá rẻ nhất.
                                    Ga Huế
                                     ~ 1.85km
                                                                Ga Huế là trung tâm di chuyển của thành phố Huế. Đến với Ga Huế, du khách có cơ hội tham quan các địa điểm du lịch nổi tiếng của nơi này như Chùa Thiên Mụ, Lăng Tự Đức, Sông Hương, Kinh thành Huế...Hãy để Mytour hỗ trợ bạn để có 1 chuyến đi thú vị, tiết kiệm bằng cách đặt phòng khách sạn tại khu vực Ga Huế ngay bây giờ với giá rẻ nhất.
                                    Cung Trường Sanh
                                     ~ 1.92km
                                    Tịnh Xá Ngọc Kinh    
                                     ~ 2.12km
                                    Kinh thành Huế
                                     ~ 2.32km
                                                                Kinh Thành Huế nằm tại thành phố Huế, tỉnh Thừa Thiên Huế. Từ đây, du khách có cơ hội đến thăm nhiều địa điểm nổi tiếng như: Kỳ Đài, trường Quốc Tử Giám, Điện Long An, bảo tàng mỹ thuật Cung đình Huế… Hãy để Mytour hỗ trợ bạn để có 1 chuyến đi thú vị, tiết kiệm bằng cách đặt phòng khách sạn khu vực Kinh Thành Huế bây giờ với giá chỉ từ 115,000 VND.
                                    Tịnh Xá Ngọc Hương   
                                     ~ 2.75km
                                    Chùa Linh Quang - Huế
                                     ~ 2.81km
                ×
                    Chính sách đảm bảo hoàn tiền của mytour
                    Bạn chưa tin tưởng việc đặt phòng khách sạn trực tuyến? Bạn e ngại rằng phòng khách sạn thực tế không đúng với thông tin trên website? Chúng tôi cam kết đưa đầy đủ và chính xác thông tin khách sạn trên website với chính sách “Đảm bảo Hoàn tiền”
                        Nếu khách hàng đặt khách sạn thành công trên Mytour nhưng khách sạn không có phòng, Mytour sẽ hoàn lại tiền cho khách và tặng kèm phiếu giảm giá có giá trị bằng với số tiền khách hàng đã trả.
                        Trong trường hợp loại phòng thực tế không đúng với loại phòng trên đơn hàng, Mytour sẽ quyết định nâng cấp miễn phí hoặc tặng phiếu giảm giá có giá trị bằng với số tiền khách hàng đã trả.
                        Trường hợp các tiện nghi phòng khách sạn (như bữa sáng, wifi…) không đúng với nội dung trên website, Mytour sẽ tặng phiếu giảm giá có giá trị bằng 10% số tiền khách đã trả (tối đa 500,000 VND)
                        Khách hàng cần gọi điện thoại 04-7309 9899 (Hà Nội), 08-7309 9899 (Hồ Chí Minh) hoặc email tới info@mytour.vn và cung cấp mã đơn hàng trong vòng 24 giờ từ lúc nhận phòng để được trợ giúp giải quyết khiếu nại (Hotline chỉ hỗ trợ trong giờ hành chính).
                        Mytour không chịu trách nhiệm bồi thường thiệt hại gián tiếp, ngẫu nhiên, hay do hậu quả phát sinh. Trong mọi trường hợp, trách nhiệm của Mytour không vượt quá tổng số tiền khách hàng thanh toán đặt phòng.
                ×
                    Đảm bảo giá tốt nhất
                    Nếu Thành viên đã đặt một phòng khách sạn được “Đảm Bảo” tại Mytour.vn và sau đó, cho Mytour.vn  thấy rằng Thành viên có thể đặt một phòng tương tự trong cùng khoảng thời gian ở mức giá tốt hơn có thể xem và đặt được trên một website khác, Mytour.vn sẽ giảm giá bằng hoặc thấp hơn mức giá đó.
                    Giá dùng để so sánh là giá sau khi áp dụng mức giảm giá công bố trên website Mytour.vn.
                    Chính sách “Đảm Bảo Giá Tốt Nhất” của Mytour.vn chỉ áp dụng cho các đặt phòng đã được xác nhận và phải thỏa mãn những điều kiện sau:
                Cùng khách sạnCùng thời gian nghỉ lạiCùng loại Phòng/GiườngCùng các yêu cầu mua Trước, yêu cầu trả trước và đặt cọc (nếu có)Cùng chính sách Hủy và Sửa Đổi
                    Phòng đó phải còn trống để được xác nhận ngay tại thời điểm các đại lý của Mytour.vn  kiểm tra phòng trống
                        Chính sách “Đảm Bảo Giá Tốt Nhất” không áp dụng cho các mức giá không công bố, như: chương trình khách hàng thân thiện.
                        Bất kỳ tổ chức nào với các mức giá dành cho nhóm cá nhân cụ thể và không nhằm mục đích áp dụng ra bên ngoài.
                        Thành viên có thể gửi khiếu nại theo địa chỉ : info@mytour.vn
                                Nêu mã đặt phòng Mytour.vn trong dòng tiêu đề thư
                                Gửi URL của website nơi Thành viên tìm thấy mức giá tốt hơn
                                Cung cấp ảnh chụp màn hình của website đối thủ cạnh tranh trong đó nêu rõ Phòng Trống, Loại Phòng, và các mức giá cho những ngày nghỉ lại theo yêu cầu của Thành viên.
                VUI LÒNG LƯU Ý: Thành viên không cần thực hiện đặt phòng trên website của đối thủ cạnh tranh, chỉ cần cho Mytour.vn thấy sự so sánh.
                ×
                Đăng Nhập
                                 Đăng nhập bằng tài khoản Facebook
                                 Đăng nhập bằng tài khoản Google
                            Hoặc đăng nhập bằng
                        Email*
                        Mật khẩu*
                        Quên mật khẩu?
                            Chưa có tài khoản/tạo tài khoản
                Đăng nhập
                         Nhớ đăng nhập
                ×
                Bản đồ
                                            Khách Sạn Duy Tân 1
                    Tìm đường
                        Từ: 
                        Đến: 
                            Khách sạnĐịa danh Hiển thị các khách sạn ở gần Hiển thị các khu du lịch ở gần
                ×
                Yêu Cầu Lấy Giá
                                    Ngày nhận phòng
                                    Ngày trả phòng
                        Tên khách hàng
                        Email
                        Điện thoại
                        Nhân viên chăm sóc khách hàng sẽ gọi điện cho quý khách trong thời gian sớm nhất.
                        Quý khách có thể gọi điện đến cho Mytour để được tư vấn ngay:
                        Hà Nội: (04) 7109 9999, Hồ Chí Minh: (08) 7309 9899, Support
                            English: (+84)4-7309-9899.
                    Hoàn thành
                ×
                Gửi Thông Tin
                        Tên khách hàng
                        Email
                        Điện thoại
                            Quý khách sẽ thấy giá giảm ngay trên trang sau khi gửi thông tin
                    Hoàn thành
                ×
                Nhận Giá Tốt
                                    Ngày nhận phòng
                                    Ngày trả phòng
                        Tên khách hàng
                        Email
                        Điện thoại
                        Vì giá tốt không được công bố nên hệ thống sẽ gửi giá qua email đến quý khách và nhân viên chăm
                        sóc sẽ gọi điện cho quý khách trong thời gian sớm nhất.
                        Quý khách có thể gọi điện đến cho Mytour để được tư vấn ngay:
                        Hà Nội: (04) 7109 9999, Hồ Chí Minh: (08) 7309 9899, Support
                            English: (+84)4-7309-9899.
                    Hoàn thành
                ×
                ×
                ĐÁNH GIÁ 
                        Tên
                        Tiêu đề
                        Kiểu du lịch?
                                -- Chọn --Cá nhânCặp đôiGia đìnhBạn bèDoanh nghiệp
                        Nội dung
                                Đánh giá chi tiết
                                Chỗ ở
                                5
                                Thức ăn
                                5
                                Phương tiện
                                5
                                Hướng dẫn viên
                                5
                                Lịch trình
                                5
                    Gửi đánh giá
                    Hủy Bỏ
                ×
                Gửi lại email kích hoạt
                ×
                Thông tin chi tiết giá theo phòng
                    Chọn khoảng thời gian hiển thị giá phòng
                    Hiển thị giá
                ×
                Khóa phòng theo khoảng thời gian
                            Chọn khoảng thời gian check-in cần khóa/mở phòng
                            Khóa phòng
                            Mở phòng
                ×
                THUẾ VÀ PHÍ DỊCH VỤ
                17% thuế và phí dịch vụ bao gồm:
                    - 10% thuế và 5% phí dịch vụ hoàn trả lại cho khách sạn.
                    - 2% phí giao dịch tại Mytour.
                ×
                Bạn có hài lòng về website của Mytour?
                    Thông điệp nhắn nhủ:
                Mytour luôn mong muốn cải thiện dịch vụ để bạn có trải nghiệm tốt hơn!
                            Ảnh đính kèm
                        Đóng
                        Gửi
                ×
                    Những đóng góp của bạn đã được ghi nhận. Mytour cám ơn bạn !
                Quay lại website
                            Giới thiệu Mytour
                            Đối tác khách sạn
                            Đăng nhập HMS
                            Tích lũy Vpoint
                            Điều khoản sử dụng
                            Quy chế hoạt động
                            Tuyển dụng
                            Liên hệ
                            Đăng ký nhận email
                                Đăng ký email để nhận khuyến mãi lên đến 70%
                                    Đăng
                                    ký
                    Công ty TNHH Mytour Việt Nam
                    Số ĐKKD: 0105983269 cấp ngày 30/08/2012
                    Văn phòng Hà Nội: Tầng 4, tòa nhà GP Invest, 170 Đê La Thành, Đống Đa
                    Văn phòng HCM: Tầng 5, Tòa Nhà HDTC, Số 36 Bùi Thị Xuân, Q.1
                Hotline
                        Hà Nội:
                        (04) 7109 9999
                        Tp. HCM:
                        (08) 7309 9899
                        ENGLISH SUPPORT:
                        (+84)4 7309 9899
