url:http://mytour.vn/news/ca300/uu-dai.html?page=7
Tittle :Tin ưu đãi - Trang 7
content :Đặt phòng trực tuyến, hoặc gọi
                                                            Hà Nội: (04) 7109 9999
                                                                                        - (04) 7309 9899
                                                            Hồ Chí Minh: (08) 7309 9899
                                                                                        - (08) 7109 9998
                        T2 - CN: 08:00 - 23:00
                    Toggle navigation
                                Bạn không có thông báo nào
                    |
                    ||
                                                            Tài khoản
                        Đăng nhập
                                Đăng kýKhách sạn yêu thích
                            Khách sạn
                            Tour
                            Cẩm nang du lịch
                            Thông tin
                                                Về Mytour
                                                Tin khuyến mãi
                                                Ưu đãi
                                                Hướng dẫn
                                                Liên hệ
                            Tốt nhất 2016
                ×
                Bạn có chắc muốn hủy đơn hàng?
                Lorem ipsum dolor sit amet, consectetur adipisicing elit. Iure corporis repudiandae nobis distinctio
                quae quos, officia modi, ab voluptatem pariatur ducimus mollitia, necessitatibus sed soluta dicta
                repellendus! Praesentium debitis, temporibus?
                    Đồng ý
                    Đóng
        Trang chủTin tứcThông tinƯu đãiƯu đãi - trang 7
        Tuyển dụngMytour Hotel AwardĐại sứ Mytour
                        Thông tin
                        Ưu đãiTin khuyến mãi
                        Về Mytour
                        Giới thiệu MytourQuy chế hoạt độngHướng dẫn sử dụngHướng dẫn quản lý
            Tìm Kiếm Khách Sạn
                            Ngày nhận phòng
                            Ngày trả phòng
                    Số đêm
                    Số phòng
                        123456789101112
                    Người lớn
                        123456789101112
                    Tìm khách sạn
                 Khách sạn bán chạy 
                Giá tốt hơn so với đặt phòng trực tiếp tại khách sạn
                Đảm bảo 
                giá tốt nhất
                Đảm bảo 
                hoàn tiền
                Nhân viên chăm sóc, tư vấn nhiều kinh nghiệm
                Hơn 5000 khách sạn tại Việt Nam với đánh giá thực
                Nhiều chương trình khuyến mãi và tích lũy điểm
                Thanh toán dễ dàng, đa dạng
                        Tin ưu đãi - Trang 7
                                            Tặng 2 vé xem phim Lotte Cinema khi đặt phòng khách sạn ...
                                            13/02/2016
                                            3028
                                        Từ ngày 14/02 – 14/05/2016, các khách hàng khi đặt phòng khách sạn tại Mytour sẽ được tặng 2 vé xem phim 2D tại Lotte Cinema, áp dụng cho đơn phòng từ 1 triệu trở lên.
                                                Xem thêm
                                            Nghỉ dưỡng đầu năm - Nhận trăm ưu đãi
                                            05/02/2016
                                            1608
                                        Mytour cùng hệ thống Vinpearl sẽ mang lại 1 món quà tri ân tuyệt vời cho khách hàng. Theo đó, từ 12/1/2016 đến 31/3/2016, khách hàng đặt phòng tại Vinpearl sẽ được nhận ưu đãi lên tới 70% giá trị hóa...
                                                Xem thêm
                                            Ưu đãi mừng xuân dành cho chủ thẻ Viet Capital Bank
                                            01/02/2016
                                            218
                                        Từ ngày 01/02 – 31/12/2016, các chủ thẻ của Viet Capital Bank khi đặt phòng khách sạn tại Mytour sẽ nhận ngay ưu đãi giảm 10% giá trị đơn phòng.
                                                Xem thêm
                                            Rạng rỡ đón xuân: Tặng ngay 50,000Đ cho khách hàng M ...
                                            28/01/2016
                                            414
                                        Booknhanh.com là website uy tín về book lịch làm đẹp với những lựa chọn và dịch vụ phong phú tại Việt Nam. Booknhanh.com mang đến sự tiện lợi, giúp khách hàng có thể book lịch nhanh ch...
                                                Xem thêm
                                            Quà tặng từ Top Mốt cho khách hàng Mytour
                                            27/01/2016
                                            227
                                        Nhân dịp Tết đến, Xuân về, từ ngày 28/01/2016 – 28/02/2016, các khách hàng Mytour chỉ cần nhập code MYTOUR100 khi mua sắm tại www.topmot.vn sẽ được nhận ngay ưu đãi trị giá 100,000 VNĐ
                                                Xem thêm
                                            Hái lộc đầu xuân, tri ân khách hàng
                                            22/01/2016
                                            1882
                                        Nhân dịp Tết Bính Thân 2016 đang đến rất gần, Mytour muốn xây dựng một chương trình thật ý nghĩa để dành tặng các khách hàng thân thương đã đồng hành và ủng hộ Mytour trong thời gian vừa qua.
                                                Xem thêm
                                            Giảm 10% cho khách hàng Mytour khi mua sắm tại Ninomaxx ...
                                            08/01/2016
                                            595
                                        Sắp Tết rồi, bạn đã có kế hoạch mua sắm quần áo mới để dạo chơi cùng gia đình và bạn bè dịp Tết này chưa? Nhanh chân đến hệ thống Ninomaxx từ 15/01 – 15/05 để mua sắm và được giảm ngay 10% nhé.
                                                Xem thêm
                                            Du Xuân Đà Lạt, Ngập Tràn Sắc Hoa
                                            06/01/2016
                                            759
                                        Ưu đãi đặc biệt dành tặng khách hàng Mytour. Đặt phòng Đà Lạt cuối tuần nhận ngay ưu đãi lên tới 27%.
                                                Xem thêm
                                            Siêu Khuyến Mãi- Khách Sạn Giảm 50%
                                            29/12/2015
                                            1148
                                        Ưu đãi cuối năm, siêu khuyến mãi cùng Mytour. Giảm ngay 50% khi khách đặt phòng tại khách sạn trong danh sách dưới đây.
                                                Xem thêm
                                            Thông báo kết quả minigame "Ơn giời! Quà đây rồi&q ...
                                            29/12/2015
                                            538
                                        Sau bao ngày hồi hộp chờ đợi, danh sách kết quả Minigame "Ơn giời ! Quà đây rồi" đã chính thức được "lên sóng". Hãy theo dõi danh sách dưới đây để xem phần quà nào "xướng tên&...
                                                Xem thêm
                                            Tặng ngay 50,000Đ cho khách hàng Mytour khi mua sắm trê ...
                                            29/12/2015
                                            946
                                        Sendo.vn là sàn thương mai điện tử về thời trang hàng đầu Việt Nam thuộc tập đoàn FPT, với các ngành hàng nổi bật gồm: Thời trang nữ, Thời trang nam, Mẹ & bé, Mỹ phẩm, Phụ kiện công nghệ, Đồ gia dụng,...
                                                Xem thêm
                                            Giảm ngay 20,000Đ cho khách hàng Mytour khi mua sách tr ...
                                            29/12/2015
                                            1020
                                        Fahasa.com là trang thương mại điện tử thuộc Công Ty Cổ Phần Phát Hành Sách TPHCM – FAHASA. Hiện nay Fahasa là doanh nghiệp phát hành sách có quy mô và tầm hoạt động lớn nhất Việt Nam.
                                                Xem thêm
                «
                1
                2
                ..
            5
            6
            7
            8
            9
                ..
                13
                14
                »
                ×
                    Chính sách đảm bảo hoàn tiền của mytour
                    Bạn chưa tin tưởng việc đặt phòng khách sạn trực tuyến? Bạn e ngại rằng phòng khách sạn thực tế không đúng với thông tin trên website? Chúng tôi cam kết đưa đầy đủ và chính xác thông tin khách sạn trên website với chính sách “Đảm bảo Hoàn tiền”
                        Nếu khách hàng đặt khách sạn thành công trên Mytour nhưng khách sạn không có phòng, Mytour sẽ hoàn lại tiền cho khách và tặng kèm phiếu giảm giá có giá trị bằng với số tiền khách hàng đã trả.
                        Trong trường hợp loại phòng thực tế không đúng với loại phòng trên đơn hàng, Mytour sẽ quyết định nâng cấp miễn phí hoặc tặng phiếu giảm giá có giá trị bằng với số tiền khách hàng đã trả.
                        Trường hợp các tiện nghi phòng khách sạn (như bữa sáng, wifi…) không đúng với nội dung trên website, Mytour sẽ tặng phiếu giảm giá có giá trị bằng 10% số tiền khách đã trả (tối đa 500,000 VND)
                        Khách hàng cần gọi điện thoại 04-7309 9899 (Hà Nội), 08-7309 9899 (Hồ Chí Minh) hoặc email tới info@mytour.vn và cung cấp mã đơn hàng trong vòng 24 giờ từ lúc nhận phòng để được trợ giúp giải quyết khiếu nại (Hotline chỉ hỗ trợ trong giờ hành chính).
                        Mytour không chịu trách nhiệm bồi thường thiệt hại gián tiếp, ngẫu nhiên, hay do hậu quả phát sinh. Trong mọi trường hợp, trách nhiệm của Mytour không vượt quá tổng số tiền khách hàng thanh toán đặt phòng.
                ×
                    Đảm bảo giá tốt nhất
                    Nếu Thành viên đã đặt một phòng khách sạn được “Đảm Bảo” tại Mytour.vn và sau đó, cho Mytour.vn  thấy rằng Thành viên có thể đặt một phòng tương tự trong cùng khoảng thời gian ở mức giá tốt hơn có thể xem và đặt được trên một website khác, Mytour.vn sẽ giảm giá bằng hoặc thấp hơn mức giá đó.
                    Giá dùng để so sánh là giá sau khi áp dụng mức giảm giá công bố trên website Mytour.vn.
                    Chính sách “Đảm Bảo Giá Tốt Nhất” của Mytour.vn chỉ áp dụng cho các đặt phòng đã được xác nhận và phải thỏa mãn những điều kiện sau:
                Cùng khách sạnCùng thời gian nghỉ lạiCùng loại Phòng/GiườngCùng các yêu cầu mua Trước, yêu cầu trả trước và đặt cọc (nếu có)Cùng chính sách Hủy và Sửa Đổi
                    Phòng đó phải còn trống để được xác nhận ngay tại thời điểm các đại lý của Mytour.vn  kiểm tra phòng trống
                        Chính sách “Đảm Bảo Giá Tốt Nhất” không áp dụng cho các mức giá không công bố, như: chương trình khách hàng thân thiện.
                        Bất kỳ tổ chức nào với các mức giá dành cho nhóm cá nhân cụ thể và không nhằm mục đích áp dụng ra bên ngoài.
                        Thành viên có thể gửi khiếu nại theo địa chỉ : info@mytour.vn
                                Nêu mã đặt phòng Mytour.vn trong dòng tiêu đề thư
                                Gửi URL của website nơi Thành viên tìm thấy mức giá tốt hơn
                                Cung cấp ảnh chụp màn hình của website đối thủ cạnh tranh trong đó nêu rõ Phòng Trống, Loại Phòng, và các mức giá cho những ngày nghỉ lại theo yêu cầu của Thành viên.
                VUI LÒNG LƯU Ý: Thành viên không cần thực hiện đặt phòng trên website của đối thủ cạnh tranh, chỉ cần cho Mytour.vn thấy sự so sánh.
                ×
                Đăng Nhập
                                 Đăng nhập bằng tài khoản Facebook
                                 Đăng nhập bằng tài khoản Google
                            Hoặc đăng nhập bằng
                        Email*
                        Mật khẩu*
                        Quên mật khẩu?
                            Chưa có tài khoản/tạo tài khoản
                Đăng nhập
                         Nhớ đăng nhập
                ×
                Bản đồ
                    Tìm đường
                        Từ: 
                        Đến: 
                            Khách sạnĐịa danh Hiển thị các khách sạn ở gần Hiển thị các khu du lịch ở gần
                ×
                Yêu Cầu Lấy Giá
                                    Ngày nhận phòng
                                    Ngày trả phòng
                        Tên khách hàng
                        Email
                        Điện thoại
                        Nhân viên chăm sóc khách hàng sẽ gọi điện cho quý khách trong thời gian sớm nhất.
                        Quý khách có thể gọi điện đến cho Mytour để được tư vấn ngay:
                        Hà Nội: (04) 7109 9999, Hồ Chí Minh: (08) 7309 9899, Support
                            English: (+84)4-7309-9899.
                    Hoàn thành
                ×
                Gửi Thông Tin
                        Tên khách hàng
                        Email
                        Điện thoại
                            Quý khách sẽ thấy giá giảm ngay trên trang sau khi gửi thông tin
                    Hoàn thành
                ×
                Nhận Giá Tốt
                                    Ngày nhận phòng
                                    Ngày trả phòng
                        Tên khách hàng
                        Email
                        Điện thoại
                        Vì giá tốt không được công bố nên hệ thống sẽ gửi giá qua email đến quý khách và nhân viên chăm
                        sóc sẽ gọi điện cho quý khách trong thời gian sớm nhất.
                        Quý khách có thể gọi điện đến cho Mytour để được tư vấn ngay:
                        Hà Nội: (04) 7109 9999, Hồ Chí Minh: (08) 7309 9899, Support
                            English: (+84)4-7309-9899.
                    Hoàn thành
                ×
                ×
                ĐÁNH GIÁ 
                        Tên
                        Tiêu đề
                        Kiểu du lịch?
                                -- Chọn --Cá nhânCặp đôiGia đìnhBạn bèDoanh nghiệp
                        Nội dung
                                Đánh giá chi tiết
                                Chỗ ở
                                5
                                Thức ăn
                                5
                                Phương tiện
                                5
                                Hướng dẫn viên
                                5
                                Lịch trình
                                5
                    Gửi đánh giá
                    Hủy Bỏ
                ×
                Gửi lại email kích hoạt
                ×
                Thông tin chi tiết giá theo phòng
                    Chọn khoảng thời gian hiển thị giá phòng
                    Hiển thị giá
                ×
                Khóa phòng theo khoảng thời gian
                            Chọn khoảng thời gian check-in cần khóa/mở phòng
                            Khóa phòng
                            Mở phòng
                ×
                THUẾ VÀ PHÍ DỊCH VỤ
                17% thuế và phí dịch vụ bao gồm:
                    - 10% thuế và 5% phí dịch vụ hoàn trả lại cho khách sạn.
                    - 2% phí giao dịch tại Mytour.
                ×
                Bạn có hài lòng về website của Mytour?
                    Thông điệp nhắn nhủ:
                Mytour luôn mong muốn cải thiện dịch vụ để bạn có trải nghiệm tốt hơn!
                            Ảnh đính kèm
                        Đóng
                        Gửi
                ×
                    Những đóng góp của bạn đã được ghi nhận. Mytour cám ơn bạn !
                Quay lại website
                            Giới thiệu Mytour
                            Đối tác khách sạn
                            Đăng nhập HMS
                            Tích lũy Vpoint
                            Điều khoản sử dụng
                            Quy chế hoạt động
                            Tuyển dụng
                            Liên hệ
                            Đăng ký nhận email
                                Đăng ký email để nhận khuyến mãi lên đến 70%
                                    Đăng
                                    ký
                    Công ty TNHH Mytour Việt Nam
                    Số ĐKKD: 0105983269 cấp ngày 30/08/2012
                    Văn phòng Hà Nội: Tầng 4, tòa nhà GP Invest, 170 Đê La Thành, Đống Đa
                    Văn phòng HCM: Tầng 5, Tòa Nhà HDTC, Số 36 Bùi Thị Xuân, Q.1
                Hotline
                        Hà Nội:
                        (04) 7109 9999
                        Tp. HCM:
                        (08) 7309 9899
                        ENGLISH SUPPORT:
                        (+84)4 7309 9899
