url:http://mytour.vn/location/d435/du-lich-uong-bi.html
Tittle :Kinh nghiệm du lịch Uông Bí  từ A đến Z! Mytour.vn
content :Đặt phòng trực tuyến, hoặc gọi
                                                            Hà Nội: (04) 7109 9999
                                                                                        - (04) 7309 9899
                                                            Hồ Chí Minh: (08) 7309 9899
                                                                                        - (08) 7109 9998
                        T2 - CN: 08:00 - 23:00
                    Toggle navigation
                                Bạn không có thông báo nào
                    |
                    ||
                                                            Tài khoản
                        Đăng nhập
                                Đăng kýKhách sạn yêu thích
                            Khách sạn
                            Tour
                            Cẩm nang du lịch
                            Thông tin
                                                Về Mytour
                                                Tin khuyến mãi
                                                Ưu đãi
                                                Hướng dẫn
                                                Liên hệ
                            Tốt nhất 2016
                ×
                Bạn có chắc muốn hủy đơn hàng?
                Lorem ipsum dolor sit amet, consectetur adipisicing elit. Iure corporis repudiandae nobis distinctio
                quae quos, officia modi, ab voluptatem pariatur ducimus mollitia, necessitatibus sed soluta dicta
                repellendus! Praesentium debitis, temporibus?
                    Đồng ý
                    Đóng
        Cẩm nang du lịchDu lịch Việt NamDu lịch Quảng NinhDu lịch Uông Bí  
                Miền Bắc
                Hà NộiBắc NinhBắc GiangBắc KạnLào CaiQuảng NinhNam ĐịnhCao BằngHà GiangHà NamHải DươngHải PhòngHoà BìnhHưng YênLai ChâuLạng SơnNinh BìnhPhú ThọSơn LaThái BìnhThái NguyênTuyên QuangVĩnh PhúcYên BáiĐiện Biên
                Miền Trung
                Bình ĐịnhĐà NẵngKhánh HòaThừa Thiên HuếGia LaiHà TĩnhKon TumNghệ AnPhú YênQuảng BìnhQuảng NamQuảng NgãiQuảng TrịThanh HoáĐắk Lắk
                Miền Nam
                Hồ Chí MinhAn GiangBà Rịa - Vũng TàuBình DươngBình PhướcBình ThuậnBến TreCần ThơTrà VinhĐồng NaiCà MauKiên GiangLâm ĐồngLong AnNinh ThuậnSóc TrăngTây NinhTiền GiangVĩnh LongĐồng ThápĐắk NôngHậu GiangBạc Liêu
                Địa danh nổi bật
                Hà NộiHồ Chí MinhĐà NẵngVũng TàuPhan Thiết Phú Quốc Nha TrangSaPa Đà LạtHội AnHạ Long Huế
                Bãi biển đẹp
                Bãi Đồ Sơn - Hải PhòngBãi Trà Cổ - Hạ LongBãi Quan Lạn - Hạ LongBãi Ti Tốp - Hạ LongBãi Tuần Châu - Hạ LongBãi Cháy - Hạ LongBãi Nhật Lệ - Quảng BìnhBãi Đá Nhảy - Quảng BìnhBãi Non Nước - Đà NẵngBán đảo Sơn Trà - Đà NẵngBãi Mỹ Khê - Đà NẵngBãi Thanh Bình - Đà NẵngBãi Dài - Nha TrangDốc Lết - Nha TrangBãi Đại Lãnh - Nha TrangBãi Ninh Chữ - Ninh ThuậnBãi Bình Tiên - Ninh ThuậnBãi biển Đồi Dương - Phan ThiếtBãi Rạng - Phan ThiếtBãi Cổ Thạch - Phan ThiếtBãi Phú Hài - Phan ThiếtHồ Cốc - Bà Rịa Vũng TàuBãi Dâu - Bà Rịa Vũng TàuBãi Dứa - Bà Rịa Vũng TàuBãi Trước - Bà Rịa Vũng TàuBãi sau - Bà Rịa Vũng TàuBãi Trường - Phú QuốcBãi Sao - Phú Quốc
             Điểm đến
                    Đóng
                    }
                    }
                    }
                    }
                    }
                    }
                    }
                    }
            Tìm Kiếm Địa Danh
            ĐI ĐẾN
            Chuyên mục
                             Ẩm thực 
                             Cảnh đẹp 
                             Khám phá 
                             Du lịch biển 
                             Di sản văn hóa 
                             Mẹo du lịch 
                             Du lịch tâm linh 
                             Vui chơi - Giải trí 
                             Thế giới đó đây 
                             Lịch trình du lịch A-Z 
                             Lễ hội - Sự kiện 
                             Du lịch cộng đồng 
                             Nghỉ dưỡng 
            Điểm đến
            Địa danh nổi bật
            Hà NộiHồ Chí MinhĐà NẵngVũng TàuPhan Thiết Phú Quốc Nha TrangSaPa Đà LạtHội AnHạ Long Huế
            Bãi biển đẹp
            Bãi Đồ Sơn - Hải PhòngBãi Trà Cổ - Hạ LongBãi Quan Lạn - Hạ LongBãi Ti Tốp - Hạ LongBãi Tuần Châu - Hạ LongBãi Cháy - Hạ LongBãi Nhật Lệ - Quảng BìnhBãi Đá Nhảy - Quảng BìnhBãi Non Nước - Đà NẵngBán đảo Sơn Trà - Đà NẵngBãi Mỹ Khê - Đà NẵngBãi Thanh Bình - Đà NẵngBãi Dài - Nha TrangDốc Lết - Nha TrangBãi Đại Lãnh - Nha TrangBãi Ninh Chữ - Ninh ThuậnBãi Bình Tiên - Ninh ThuậnBãi biển Đồi Dương - Phan ThiếtBãi Rạng - Phan ThiếtBãi Cổ Thạch - Phan ThiếtBãi Phú Hài - Phan ThiếtHồ Cốc - Bà Rịa Vũng TàuBãi Dâu - Bà Rịa Vũng TàuBãi Dứa - Bà Rịa Vũng TàuBãi Trước - Bà Rịa Vũng TàuBãi sau - Bà Rịa Vũng TàuBãi Trường - Phú QuốcBãi Sao - Phú Quốc
            Miền Bắc
            Hà NộiBắc NinhBắc GiangBắc KạnLào CaiQuảng NinhNam ĐịnhCao BằngHà GiangHà NamHải DươngHải PhòngHoà BìnhHưng YênLai ChâuLạng SơnNinh BìnhPhú ThọSơn LaThái BìnhThái NguyênTuyên QuangVĩnh PhúcYên BáiĐiện Biên
            Miền Trung
            Bình ĐịnhĐà NẵngKhánh HòaThừa Thiên HuếGia LaiHà TĩnhKon TumNghệ AnPhú YênQuảng BìnhQuảng NamQuảng NgãiQuảng TrịThanh HoáĐắk Lắk
            Miền Nam
            Hồ Chí MinhAn GiangBà Rịa - Vũng TàuBình DươngBình PhướcBình ThuậnBến TreCần ThơTrà VinhĐồng NaiCà MauKiên GiangLâm ĐồngLong AnNinh ThuậnSóc TrăngTây NinhTiền GiangVĩnh LongĐồng ThápĐắk NôngHậu GiangBạc Liêu
            TOUR LIÊN QUAN
                                Tour du lịch Hà Nội - chùa Yên Tử trong 1 ngà ...
                                    Giá từ:  590,000 đ
                                    1 ngày 0 đêm
                                Tour du lịch Hạ Long trên tàu 5 sao  Royal Wi ...
                                    Giá từ:  3,800,000 đ
                                    2 ngày 1 đêm
                                Tour du lịch Hạ Long trên tàu 5 sao Royal Win ...
                                    Giá từ:  6,725,000 đ
                                    3 ngày 2 đêm
                                Tour du lịch Hà Nội - Hạ Long - Ninh Bình tro ...
                                    Giá từ:  3,920,000 đ
                                    4 ngày 3 đêm
                                Tour du lịch vịnh Hạ Long với Garden Bay tron ...
                                    Giá từ:  2,700,000 đ
                                    2 ngày 1 đêm
                Khách sạn tại Quảng Ninh
                Giá tốt hơn so với đặt phòng trực tiếp tại khách sạn
                Đảm bảo 
                giá tốt nhất
                Đảm bảo 
                hoàn tiền
                Nhân viên chăm sóc, tư vấn nhiều kinh nghiệm
                Hơn 5000 khách sạn tại Việt Nam với đánh giá thực
                Nhiều chương trình khuyến mãi và tích lũy điểm
                Thanh toán dễ dàng, đa dạng
                     Du lịch  Uông Bí  
                     Thị xã Uông Bí là thị xã thuộc tỉnh Quảng Ninh. Nằm tại thị xã Uông Bí, núi Yên Tử - nơi được coi là cội nguồn của thiền viện Trúc Lâm Việt Nam hay đỉnh Phù Vân đẹp ngất ngây đã thu hút rất nhiều du khách. Hãy để Mytour hỗ trợ bạn để có 1 chuyến đi thú vị, tiết kiệm bằng cách đặt phòng khách sạn Uống Bí ngay bây giờ với giá từ VND.
                                     Vãn cảnh hồ Yên Trung ngỡ như lạc đến Đà Lạt mộng ... 
                                        16/05/2016
                                        1085
                                    Hồ Yên Trung mang vẻ đẹp trữ tình, thơ mộng, làm lòng người xao xuyến bâng khuâng mỗi khi có dịp dạo chơi, vãn cảnh ven hồ. Quanh năm, hồ Yên Trung vẫn cứ êm đềm, hiền hòa như thế, mang đến cho người dân địa phương và lữ khách phương xa những khoảnh khắc dịu êm, an yên...
                                                                                    cảnh đẹp Quảng Ninh
                                                                                    hồ Yên Trung
                                                                                    du lịch Uông Bí
                                        Xem thêm 
                                     Uông Bí có gì chơi bên vẻ đẹp tâm linh hút lòng ng ... 
                                        18/11/2015
                                        2601
                                    Khi cõi thực đã làm người lữ khách quá chán ngán, khi những ánh đèn phồn hoa không còn đủ níu giữ một tâm hồn tự tại, dường như người ta lại nhớ về Uông Bí (Quảng Ninh). Nhưng Uông Bí có gì chơi mà đôi chân ta lại quyến luyến đến thế? Mytour sẽ đưa bạn đến chốn đây, gõ.
                                                                                    du lịch Quảng Ninh
                                                                                    danh thắng Yên Tử
                                                                                    Uông Bí Quảng Ninh
                                        Xem thêm 
                                     Đến xứ than nhất định phải ghé thăm chùa Ba Vàng 
                                        28/09/2015
                                        1982
                                     Mùi trầm hương phảng phất trong gió lành, man mác một không gian tĩnh mịch uy nghiêm nhưng cũng không kém phần yên bình, thơ mộng giúp lòng nhẹ dịu, buông bỏ những sân si đời thường, tự tâm thanh thản cho bớt ưu phiền. Ở xứ than Quảng Ninh, có một nơi như thế, một ngôi...
                                                                                    du lịch tâm linh
                                                                                    du lịch Quảng Ninh
                                                                                    chùa Ba Vàng
                                                                                     đền chùa
                                        Xem thêm 
                                     Yên Tử - Chốn linh thiêng trong tâm thức người dân ... 
                                        17/03/2015
                                        1387
                                     Đã từ rất lâu rồi, đi lễ chùa trong những dịp đầu năm mới là việc làm không thể thiếu trong mỗi người dân Việt Nam. Nó dường như là một ý niệm tâm linh gắn bó với đời sống dân tộc. Mỗi người lại chọn cho mình một chốn để thờ kính, dâng hương và không ít người tìm chốn.
                                                                                    du lịch tâm linh
                                                                                    Yên Tử
                                                                                    chùa Đồng Yên Tử
                                                                                    danh thắng Yên Tử
                                                                                    đền chùa
                                        Xem thêm 
                                     Những điều bạn nên biết khi du lịch Yên Tử - Phần ... 
                                        07/11/2014
                                        1825
                                     Hàng năm, cứ mỗi độ xuân về, khách thập phương lại nô nức đi lễ, dâng hương tại chùa Yên Tử . Hãy một lần hành hương về Yên Tử - vùng đất Phật linh thiêng, được xem là Đất tổ của Phật giáo Việt Nam và nếm trải những khổ ải trên con đường núi chênh vênh và tìm đến một c...
                                                                                    khám phá Quảng Ninh
                                                                                    đặc sản yên tử
                                                                                    Măng trúc
                                                                                    trầu một lá
                                        Xem thêm 
                                     Những điều bạn nên biết khi du lịch Yên Tử - Phần ... 
                                        07/11/2014
                                        4063
                                     Hàng năm, cứ mỗi độ xuân về, khách thập phương lại nô nức đi lễ, dâng hương tại chùa Yên Tử . Hãy một lần hành hương về Yên Tử - vùng đất Phật linh thiêng, được xem là Đất tổ của Phật giáo Việt Nam và nếm trải những khổ ải trên con đường núi chênh vênh và tìm đến một c...
                                                                                    du lịch tâm linh
                                                                                    Yên Tử
                                                                                    chùa Đồng Yên Tử
                                                                                    công trình Phật Giáo
                                                                                    lễ hội Yên Tử
                                        Xem thêm 
                                     Tiết thu trên non thiêng Yên Tử 
                                        12/09/2014
                                        3962
                                    “Mênh mênh mang mang phù vân Yên Tự”, bạn đã nghe câu hát này rất nhiều lần nhưng chưa có dịp đến Yên Tử . Hoặc bạn đã từng đến Yên Tử , nhưng là vào những ngày đầu xuân lễ hội, giá rét và sương mù dày đặc khiến bạn chưa được một lần ngắm mây trời t.bạn đã nghe câu hát...
                                                                                    du lịch tâm linh
                                                                                    du lịch Quảng Ninh
                                        Xem thêm 
                                     Chùa Đồng 
                                        06/07/2014
                                        6056
                                     Chùa Đồng tên chữ là "Thiên Trúc Tự" mang tên đất nước của Phật Tổ Như Lai, phù hợp với vị trí "Vô Thượng" của đỉnh Yên Tử. Toạ lạc trên độ cao 1.068m, chùa Đồng (Yên Tử) đã được Trung tâm Sách kỷ lục VN ghi nhận là ngôi chùa đồng lớ.
                                                                                    cảnh đẹp Việt Nam
                                                                                    du lịch tâm linh
                                                                                    du lịch Quảng Ninh
                                                                                    chùa Đồng Yên Tử
                                                                                    danh thắng Yên Tử
                                        Xem thêm 
                                     Tượng đá An Kỳ Sinh 
                                        06/07/2014
                                        1696
                                    Nằm ở độ cao hơn 900m, cách chùa Vân Tiêu 569m, trên một vùng đất phẳng và rộng giữa đường hành hương lên chùa Đồng có pho tượng đá lộ thể, đó là tượng An Kỳ Sinh (Yên Kỳ Sinh) độc đáo, vừa như một khối đá tự nhiên vừa như có bàn tay con người tạo dựng, sừng sững trên.....
                                                                                    du lịch Quảng Ninh
                                                                                     đền chùa
                                        Xem thêm 
                                     Chùa Đồng Yên Tử 
                                        06/06/2014
                                        15427
                                     Yên Tử cách thị xã Uông Bí (Quảng Ninh) 14 km về phía Tây Bắc. Theo Thiền sử, Yên Tử là nơi ra đời và phát triển thiền phái Trúc Lâm với ba vị tổ: Trần Nhân Tông (1258-1308) pháp danh Ðiều Ngự Giác Hoàng, là ông tổ thứ nhất. Pháp Loa tôn giả (tên thật Ðồng Kiên Cương,.
                                                                                    du lịch tâm linh
                                                                                    di tích lịch sử
                                                                                    chùa Đồng Yên Tử
                                                                                    danh thắng Yên Tử
                                        Xem thêm 
                                     Núi yên Tử  
                                        06/05/2014
                                        3690
                                     Núi Yên Tử là ngọn núi cao trong dãy núi Đông Triều vùng đông bắc Việt Nam. Núi thuộc xã Thượng Yên Công, thành phố Uông Bí, tỉnh Quảng Ninh. Vốn là là một thắng cảnh thiên nhiên, ngọn Yên Tử còn lưu giữ nhiều di tích lịch sử với mệnh danh "đất tổ Phật giáo Vi.
                                                                                    Yên Tử
                                                                                    du lịch Quảng Ninh
                                                                                    Núi Yên Tử Quảng Ninh
                                                                                    Bạch Vân Sơn
                                        Xem thêm 
                                     Khu du lịch Yên Trung 
                                        06/05/2014
                                        3670
                                     Khu du lịch nằm trên đường 18A nối Hạ Long-Hà Nội, cách khu di tích danh thắng Yên Tử khoảng 5km. Từ thị xã Uông Bí đi khoảng 10km có biển chỉ dẫn rẽ phải theo một con đường trải nhựa, bạn sẽ tới khu du lịch Yên Trung. Khu du lịch hồ Yên Trung ngay trên đường quốc lộ 1...
                                                                                    du lịch sinh thái
                                                                                    du lịch Quảng Ninh
                                                                                    khu du lịch yên chung
                                                                                    làng văn hóa du lịch việt nam
                                        Xem thêm 
                «
                Trang trước
                1
                2
                Trang sau
                »
                ×
                    Chính sách đảm bảo hoàn tiền của mytour
                    Bạn chưa tin tưởng việc đặt phòng khách sạn trực tuyến? Bạn e ngại rằng phòng khách sạn thực tế không đúng với thông tin trên website? Chúng tôi cam kết đưa đầy đủ và chính xác thông tin khách sạn trên website với chính sách “Đảm bảo Hoàn tiền”
                        Nếu khách hàng đặt khách sạn thành công trên Mytour nhưng khách sạn không có phòng, Mytour sẽ hoàn lại tiền cho khách và tặng kèm phiếu giảm giá có giá trị bằng với số tiền khách hàng đã trả.
                        Trong trường hợp loại phòng thực tế không đúng với loại phòng trên đơn hàng, Mytour sẽ quyết định nâng cấp miễn phí hoặc tặng phiếu giảm giá có giá trị bằng với số tiền khách hàng đã trả.
                        Trường hợp các tiện nghi phòng khách sạn (như bữa sáng, wifi…) không đúng với nội dung trên website, Mytour sẽ tặng phiếu giảm giá có giá trị bằng 10% số tiền khách đã trả (tối đa 500,000 VND)
                        Khách hàng cần gọi điện thoại 04-7309 9899 (Hà Nội), 08-7309 9899 (Hồ Chí Minh) hoặc email tới info@mytour.vn và cung cấp mã đơn hàng trong vòng 24 giờ từ lúc nhận phòng để được trợ giúp giải quyết khiếu nại (Hotline chỉ hỗ trợ trong giờ hành chính).
                        Mytour không chịu trách nhiệm bồi thường thiệt hại gián tiếp, ngẫu nhiên, hay do hậu quả phát sinh. Trong mọi trường hợp, trách nhiệm của Mytour không vượt quá tổng số tiền khách hàng thanh toán đặt phòng.
                ×
                    Đảm bảo giá tốt nhất
                    Nếu Thành viên đã đặt một phòng khách sạn được “Đảm Bảo” tại Mytour.vn và sau đó, cho Mytour.vn  thấy rằng Thành viên có thể đặt một phòng tương tự trong cùng khoảng thời gian ở mức giá tốt hơn có thể xem và đặt được trên một website khác, Mytour.vn sẽ giảm giá bằng hoặc thấp hơn mức giá đó.
                    Giá dùng để so sánh là giá sau khi áp dụng mức giảm giá công bố trên website Mytour.vn.
                    Chính sách “Đảm Bảo Giá Tốt Nhất” của Mytour.vn chỉ áp dụng cho các đặt phòng đã được xác nhận và phải thỏa mãn những điều kiện sau:
                Cùng khách sạnCùng thời gian nghỉ lạiCùng loại Phòng/GiườngCùng các yêu cầu mua Trước, yêu cầu trả trước và đặt cọc (nếu có)Cùng chính sách Hủy và Sửa Đổi
                    Phòng đó phải còn trống để được xác nhận ngay tại thời điểm các đại lý của Mytour.vn  kiểm tra phòng trống
                        Chính sách “Đảm Bảo Giá Tốt Nhất” không áp dụng cho các mức giá không công bố, như: chương trình khách hàng thân thiện.
                        Bất kỳ tổ chức nào với các mức giá dành cho nhóm cá nhân cụ thể và không nhằm mục đích áp dụng ra bên ngoài.
                        Thành viên có thể gửi khiếu nại theo địa chỉ : info@mytour.vn
                                Nêu mã đặt phòng Mytour.vn trong dòng tiêu đề thư
                                Gửi URL của website nơi Thành viên tìm thấy mức giá tốt hơn
                                Cung cấp ảnh chụp màn hình của website đối thủ cạnh tranh trong đó nêu rõ Phòng Trống, Loại Phòng, và các mức giá cho những ngày nghỉ lại theo yêu cầu của Thành viên.
                VUI LÒNG LƯU Ý: Thành viên không cần thực hiện đặt phòng trên website của đối thủ cạnh tranh, chỉ cần cho Mytour.vn thấy sự so sánh.
                ×
                Đăng Nhập
                                 Đăng nhập bằng tài khoản Facebook
                                 Đăng nhập bằng tài khoản Google
                            Hoặc đăng nhập bằng
                        Email*
                        Mật khẩu*
                        Quên mật khẩu?
                            Chưa có tài khoản/tạo tài khoản
                Đăng nhập
                         Nhớ đăng nhập
                ×
                Bản đồ
                    Tìm đường
                        Từ: 
                        Đến: 
                            Khách sạnĐịa danh Hiển thị các khách sạn ở gần Hiển thị các khu du lịch ở gần
                ×
                Yêu Cầu Lấy Giá
                                    Ngày nhận phòng
                                    Ngày trả phòng
                        Tên khách hàng
                        Email
                        Điện thoại
                        Nhân viên chăm sóc khách hàng sẽ gọi điện cho quý khách trong thời gian sớm nhất.
                        Quý khách có thể gọi điện đến cho Mytour để được tư vấn ngay:
                        Hà Nội: (04) 7109 9999, Hồ Chí Minh: (08) 7309 9899, Support
                            English: (+84)4-7309-9899.
                    Hoàn thành
                ×
                Gửi Thông Tin
                        Tên khách hàng
                        Email
                        Điện thoại
                            Quý khách sẽ thấy giá giảm ngay trên trang sau khi gửi thông tin
                    Hoàn thành
                ×
                Nhận Giá Tốt
                                    Ngày nhận phòng
                                    Ngày trả phòng
                        Tên khách hàng
                        Email
                        Điện thoại
                        Vì giá tốt không được công bố nên hệ thống sẽ gửi giá qua email đến quý khách và nhân viên chăm
                        sóc sẽ gọi điện cho quý khách trong thời gian sớm nhất.
                        Quý khách có thể gọi điện đến cho Mytour để được tư vấn ngay:
                        Hà Nội: (04) 7109 9999, Hồ Chí Minh: (08) 7309 9899, Support
                            English: (+84)4-7309-9899.
                    Hoàn thành
                ×
                ×
                ĐÁNH GIÁ 
                        Tên
                        Tiêu đề
                        Kiểu du lịch?
                                -- Chọn --Cá nhânCặp đôiGia đìnhBạn bèDoanh nghiệp
                        Nội dung
                                Đánh giá chi tiết
                                Chỗ ở
                                5
                                Thức ăn
                                5
                                Phương tiện
                                5
                                Hướng dẫn viên
                                5
                                Lịch trình
                                5
                    Gửi đánh giá
                    Hủy Bỏ
                ×
                Gửi lại email kích hoạt
                ×
                Thông tin chi tiết giá theo phòng
                    Chọn khoảng thời gian hiển thị giá phòng
                    Hiển thị giá
                ×
                Khóa phòng theo khoảng thời gian
                            Chọn khoảng thời gian check-in cần khóa/mở phòng
                            Khóa phòng
                            Mở phòng
                ×
                THUẾ VÀ PHÍ DỊCH VỤ
                17% thuế và phí dịch vụ bao gồm:
                    - 10% thuế và 5% phí dịch vụ hoàn trả lại cho khách sạn.
                    - 2% phí giao dịch tại Mytour.
                ×
                Bạn có hài lòng về website của Mytour?
                    Thông điệp nhắn nhủ:
                Mytour luôn mong muốn cải thiện dịch vụ để bạn có trải nghiệm tốt hơn!
                            Ảnh đính kèm
                        Đóng
                        Gửi
                ×
                    Những đóng góp của bạn đã được ghi nhận. Mytour cám ơn bạn !
                Quay lại website
                        Khách sạn tại Quảng Ninh
                                Uông Bí 
                                Chùa Đồng Yên Tử
                                Khu di tích Danh thắng Yên Tử
                                Chùa Ba Vàng
                                Chợ Uông Bí
                                Yên Tử
                                Chùa Giải Oan
                            Giới thiệu Mytour
                            Đối tác khách sạn
                            Đăng nhập HMS
                            Tích lũy Vpoint
                            Điều khoản sử dụng
                            Quy chế hoạt động
                            Tuyển dụng
                            Liên hệ
                            Đăng ký nhận email
                                Đăng ký email để nhận khuyến mãi lên đến 70%
                                    Đăng
                                    ký
                    Công ty TNHH Mytour Việt Nam
                    Số ĐKKD: 0105983269 cấp ngày 30/08/2012
                    Văn phòng Hà Nội: Tầng 4, tòa nhà GP Invest, 170 Đê La Thành, Đống Đa
                    Văn phòng HCM: Tầng 5, Tòa Nhà HDTC, Số 36 Bùi Thị Xuân, Q.1
                Hotline
                        Hà Nội:
                        (04) 7109 9999
                        Tp. HCM:
                        (08) 7309 9899
                        ENGLISH SUPPORT:
                        (+84)4 7309 9899
