url:http://mytour.vn/c68/khach-san-tai-hau-giang.html
Tittle :Khách sạn Hậu Giang giá tốt nhất - Mytour.vn
content :Đặt phòng trực tuyến, hoặc gọi
                                                            Hà Nội: (04) 7109 9999
                                                                                        - (04) 7309 9899
                                                            Hồ Chí Minh: (08) 7309 9899
                                                                                        - (08) 7109 9998
                        T2 - CN: 08:00 - 23:00
                    Toggle navigation
                                Bạn không có thông báo nào
                    |
                    ||
                                                            Tài khoản
                        Đăng nhập
                                Đăng kýKhách sạn yêu thích
                            Khách sạn
                            Tour
                            Cẩm nang du lịch
                            Thông tin
                                                Về Mytour
                                                Tin khuyến mãi
                                                Ưu đãi
                                                Hướng dẫn
                                                Liên hệ
                            Tốt nhất 2016
                ×
                Bạn có chắc muốn hủy đơn hàng?
                Lorem ipsum dolor sit amet, consectetur adipisicing elit. Iure corporis repudiandae nobis distinctio
                quae quos, officia modi, ab voluptatem pariatur ducimus mollitia, necessitatibus sed soluta dicta
                repellendus! Praesentium debitis, temporibus?
                    Đồng ý
                    Đóng
                    Khách sạnKhách sạn tại Hậu Giang
                    Áp dụng
                    Đóng
            Tìm Kiếm Khách Sạn
                            Ngày nhận phòng
                            Ngày trả phòng
                    Số đêm
                    Số phòng
                        123456789101112
                    Người lớn
                        123456789101112
                    Tìm khách sạn
                                Bộ lọc tìm kiếm
                                        Theo mức giá
                                                        Dưới 500.000
                                                        500.000 - 1.000.000
                                                        1.000.000 - 1.500.000
                                                        1.500.000 - 2.000.000
                                                        2.000.000 - 2.500.000
                                                        2.500.000 - 3.000.000
                                                        Trên 3.000.000
                                    Hạng Khách Sạn
                                    Loại khách sạn
                                                    Khách sạn
                                                    Resort
                                Tiện nghi
                                                Đưa đón khách sạn sân bay
                                                Bữa sáng miễn phí
                                                Bể bơi ngoài trời
                                                Bãi đỗ xe
                                                Phòng họp
                                                Phòng tập thể thao
                                                Thang máy
                                                Thêm giường phụ
                                                Truyền hình cáp/vệ tinh
                                                Wifi miễn phí
                                                Giặt là
                                                Nhà hàng
                                                Spa
            Quận huyện
                        Châu Thành
                        Châu Thành A 
                        Long Mỹ 
                        Phụng Hiệp 
                        Ngã Bảy (Tân Hiệp cũ) 
                        Vị Thanh 
                        Vị Thủy 
            Khu vực
                        Chợ Nàng Mau
                        Thị trấn Bảy Ngàn
                        Bến Xe Khách Long Mỹ
                        Chợ Cây Dương
                        Nhà Thờ Trà Lồng
                        Bến Xe Vị Thanh
                        Chợ Vị Thanh
                        Khu du lịch Văn hóa Tầm Vu
                        Chợ Cái Tắc
                        Chùa Hưng Hiệp
                        Nhà thờ Lương Hiệp
                        Nhà thờ Vinh Phát
                        Chợ Ngã Bảy
                        Chùa Pháp Lạc
                        Cầu Cái Tư
                        Thánh đường Thái Hải
                        Chợ Ngã Sáu
                        Đền Thờ Bác Hồ
             Giá tốt hơn so với đặt phòng trực
            tiếp tại khách sạn
             Đảm bảo 
            giá tốt nhất 
             Đảm bảo 
            hoàn tiền
             Nhân viên chăm sóc, tư vấn nhiều kinh nghiệm
             Hơn 5000 khách sạn tại Việt Nam với
            đánh giá thực
             Nhiều chương trình khuyến mãi và tích lũy điểm
             Thanh toán dễ dàng, đa dạng
                            Khách sạn tại Hậu Giang
                                     Xem Bản Đồ
                            Hậu Giang nằm ở trung tâm châu thổ sông Mê Kông. Hậu Giang đặc biệt có nhiều khu du lịch sinh thái miệt vườn: Khu rừng tràm Vị Thủy, Khu du lịch sinh thái Tây Đô... cùng nhiều làng nghề truyền thống đa dạng. Hãy để Mytour hỗ trợ bạn để có 1 chuyến đi thú vị, tiết kiệm bằng cách đặt phòng khách sạn Hậu Giang ngay bây giờ với giá tốt nhất.
                                Có 2
                                khách sạn ở
                                đây theo ngày đã chọn
                        Ngày nhận phòng
                        Ngày trả phòng
                Số đêm
                Số phòng
                    123456789101112
                Người lớn
                    123456789101112
                Cập nhật ngày
                             Bộ lọc
                                            Phổ biến nhất
                                     Hạng khách sạn
                                                                                                Hạng sao [5...1]
                                                                                                Hạng sao [1...5]
                                            Đánh giá cao nhất
                                            Khuyến mãi
                                     Giá
                                                                                                Giá tăng dần
                                                                                                Giá giảm dần
                            Sắp xếp:
                            Đánh giá cao nhất
                        Phổ biến nhấtĐánh giá cao nhấtGiá tăng dầnGiá giảm dầnHạng tăng dầnHạng giảm dầnKhuyến mãi
                            Khách sạn An Phương
                             58 Nguyễn Công Trứ, P.1, tp Vị Thanh, Hậu Giang., Vị Thanh , Hậu Giang 
                            (Xem bản đồ)
                                        “Khách sạn An Phương Hậu Giang, với phong cách phục vụ chuyên nghiệp và sự thân thiện của nhân viên, sẽ làm bạn hoàn toàn hài lòng về dịch vụ và giá cả tại đây. Đây chắc chắn là một điểm đến không thể...
                                        “
                                                Đảm bảo hoàn tiền
                                                Đảm bảo giá tốt nhất!
                                Xem phòng
                            Khách Sạn Hoàng Oanh
                             1260 Trần Hưng Đạo - Phường 7 
                            (Xem bản đồ)
                                                                    Khách sạn đang chờ duyệt giá.
                                Xem phòng
                                Hậu Giang
                            Đặt phòng khách sạn Hậu Giang giá tốt nhất tại Mytour.vn, với nhiều khuyến mãi từ website và đơn vị khách sạn tiết kiệm lên đến 70%. Hơn 150.000 đánh giá từ khách hàng đã qua sử dụng khách sạn giúp bạn đưa ra những quyết định tốt nhất cho lựa chọn của mình. Đặc biệt chính sách ĐẢM BẢO HOÀN TIỀN chỉ có tại Mytour.vn, giờ đây bạn có thể hoàn toàn tin tưởng vào dịch vụ đặt phòng trực tuyến.Với hơn 5.000 khách sạn, resort tại 63 tỉnh/ thành phố, Mytour ngày càng được du khách tin dùng để tìm kiếm khách sạn. Mytour sẽ hỗ trợ quý khách đặt khách sạn Hậu Giang với chi phí hợp lý để có chuyến đi thật thú vị và tiết kiệm. Ngoài việc cung cấp những khách sạn giá tốt nhất, bạn có còn có thể tìm thấy nhiều thông tin du lịch hữu ích và thú vị khác.  Hậu Giang được tách ra từ tỉnh Cần Thơ cũ. Phía bắc tỉnh Hậu Giang giáp Tp. Cần Thơ, tỉnh Vĩnh Long phía đông giáp tỉnh Sóc Trăng, phía nam giáp tỉnh Bạc Liêu và phía tây giáp tỉnh Kiên Giang. Tỉnh Hậu Giang nằm ở trung tâm đồng bằng sông Cửu Long, giữa một mạng lưới sông ngòi, kênh rạch chằng chịt như: sông Hậu, sông Cái Tư, kênh Quản Lộ, kênh Phụng Hiệp, kênh Xà No, kênh Xáng Nàng Mau ... Đến Hậu Giang, bạn sẽ chiêm ngưỡng trọn vẹn vẻ đẹp của miền Tây sông nước, nơi của những nụ cười và những con người đôn hậu, khoáng đạt.  Khi đặt khách sạn tại Hậu Giang, Mytour với hệ thống đặt phòng có nhiều khách sạn được trang bị đầy đủ tiện nghi hiện đại cùng với dịch vụ chăm sóc khách hàng hoàn hảo sẽ mang lại cho bạn những trải nghiệm thú vị và hài lòng cả những du khách khó tính nhất.  Du lịch Hậu Giang bạn sẽ được tham quan những thắng cảnh nổi tiếng nơi đây như:  KDL Sinh thái Vị Thủy: Khu rừng Tràm Vị Thủy thuộc xã Vĩnh Tường, huyện Vị Thủy, có diện tích 200 ha, trước đây do Nông trường Cờ Đỏ quản lý, khai thác, nay thuộc đất công do tỉnh Hậu Giang quản lý. Hiện nay có nhiều dự án đầu tư, nhiều công trình đang thực hiện nhằm tạo điều kiện thuận tiện để hình thành một khu du lịch sinh thái.  Khu bảo tồn thiên nhiên Lung Ngọc Hoàng: Khu bảo tồn thiên nhiên đất ngập nước Lung Ngọc Hoàng là di sản cuối cùng của hệ sinh thái tự nhiên thuộc xã Phương Bình, huyện Phụng Hiệp. Nơi đây vốn là vùng đồng bằng ngập nước rộng lớn trải dài từ phía tây sông Hậu tới tận U Minh và được đánh giá là một trong những điểm quan trọng trên bản đồ đất ngập nước của Việt Nam. Hiện nay, khu bảo tồn thiên đã có 1.461ha rừng tràm và một số ít xà cừ, keo tai tượng, keo lai. Bên cạnh đó còn có 315 ha lung bàu với nhiều loại cá rô, cá lóc, cá bông, trê trắng, thác lác. Đặc biệt là một hệ thực vật đa dạng và một quần thể động vật vô cùng phong phú, gồm trên 200 loài, nhiều nhất là chim nước với 135 loài trong đó có các giống quý hiếm như: bạc má, nhơn sen, già đãy, vạc…Mỗi bầy có đến hàng ngàn con luôn ẩn nấp trong những cánh rừng xanh um. Có thể nói, nơi đây là một vùng du lịch sinh thái lý tưởng, với không gian êm ả và thanh bình sẽ mang đến cho du khách những niềm vui trọn vẹn.  Chợ nổi Phụng Hiệp: Trước kia chợ thuộc địa bàn thị trấn Phụng Hiệp, huyện Phụng Hiệp, nên còn có tên là chợ nổi Phụng Hiệp. Chợ cách trung tâm thành phố Cần Thơ khoảng 30 km, trên ngã bảy Phụng Hiệp – nơi 7 tuyến sông gặp nhau là: Cái Côn, Búng Tàu, Mang Cá, Sóc Trăng, Lái Hiếu, Xẻo Môn, Xẻo Dong. Chợ nổi Ngã Bảy là một trong những chợ nổi nhộn nhịp và nổi tiếng nhất vùng Đồng bằng Sông Cửu Long. Ẩn sâu trong chợ nổi chính là tầng sâu văn hoá bản địa không chỉ riêng của Hậu Giang mà là hồn của cả vùng sông nước Cửu Long. Hồn sông chính là chợ nổi bởi nó lưu dấu bước chân tiền nhân, nối quá khứ với hiện tại; thói quen, tập quán, tâm linh và là sáng tạo văn hoá kinh tế thương hồ của ông cha đã hơn thế kỷ trên vùng đất mới. Ngày nay, chợ nổi Ngã Bảy còn xuất hiện trên hầu hết các Website du lịch, sách hướng dẫn du lịch trong và ngoài nước.  KDL Sinh thái Tây Đô: Nằm trên tỉnh lộ 61, theo hướng về TX Vị Thanh, nằm trên địa bàn huyện Phụng Hiệp. Khu du lịch sinh thái Tây Đô là điểm du lịch vườn lớn với 20 ha diện tích hoa viên cây cảnh, vườn cây trái xum xuê quả ngọt, ao hồ thoáng mát, cùng với các dịch vụ vui chơi giải trí đa dạng và phong phú như du thuyền: câu cá, tản bộ hóng mát, ca nhạc tài tử, xem chim thú, tham quan đảo khỉ, vườn cây cảnh bonsai... Đặc biệt, có các khu nhà rông thoáng mát và đầy đủ tiện nghi.  Bên cạnh đó, một yếu tố khác thu hút khách du lịch đó chính là nền ẩm thực phong phú và đa dạng. Lưu trú tại Hậu Giang, quý khách sẽ được thưởng thức đặc sản bưởi Năm Roi, cháo lòng Cái Tắc, cá thát lát 7 món, lẩu chua, gỏi chua cay, khóm Cầu Đúc, canh bông điên điển…  Nếu bạn có kế họach đến nghỉ dưỡng hoặc công tác ở vùng đất Hậu Giang, hãy để Mytour giúp bạn chuẩn bị 1 chuyến đi dễ dàng, thú vị, và tiết kiệm nhất bạn nhé!
            Địa danh ở gần
                                    Khu rừng tràm Vị Thủy
                                     ~ 7.07km
                                                                Khu Sinh Thái Rừng Tràm Vị Thủy ở huyện Vị Thủy, Hậu Giang. Nơi đây có điều kiện sinh thái lý tưởng để nuôi các loài thủy sản nước ngọt, vườn cây ăn trái hình thành khu bảo tồn động vật hoang dã. Hãy để Mytour hỗ trợ bạn để có 1 chuyến đi thú vị, tiết kiệm bằng cách đặt phòng khách sạn tại khu vực Khu rừng tràm Vị Thủy ngay bây giờ với giá rẻ nhất.
                                    Khu du lịch sinh thái Tây Đô
                                     ~ 10.7km
                                                                Khu du lịch sinh thái Tây Đô thuộc huyện Phụng Hiệp, Hậu Giang, là điểm du lịch vườn lớn nhất tỉnh. Trong khuôn viên có vườn cây sum suê cùng với các dịch vụ vui chơi giải trí đa dạng. Hãy để Mytour hỗ trợ bạn để có 1 chuyến đi thú vị, tiết kiệm bằng cách đặt phòng khách sạn tại khu vực Khu du lịch sinh thái Tây Đô ngay bây giờ với giá rẻ nhất.
                                    Khu bảo tồn thiên nhiên Lung Ngọc Hoàng
                                     ~ 10.99km
                                                                Khu Bảo tồn thiên nhiên Lung Ngọc Hoàng ở Hậu Giang là “lá phổi xanh” của đồng bằng sông Cửu Long. Đây là nơi bảo tồn đa dạng sinh học thuộc dạng độc đáo nhất cả nước hiện nay. Hãy để Mytour hỗ trợ bạn để có 1 chuyến đi thú vị, tiết kiệm bằng cách đặt phòng khách sạn tại khu vực Khu bảo tồn thiên nhiên Lung Ngọc Hoàng ngay bây giờ với giá rẻ nhất.
                                    Di tích Long Mỹ
                                     ~ 12.88km
                                                                Di tích Long Mỹ thuộc huyện Long Mỹ, tỉnh Hậu Giang. Di tích Long Mỹ là vùng căn cứ cách mạng của tỉnh Hậu Giang và khu Tây Nam Bộ trong hai cuộc kháng chiến chống Pháp và chống Mỹ. Hãy để Mytour hỗ trợ bạn để có 1 chuyến đi thú vị, tiết kiệm bằng cách đặt phòng khách sạn tại khu vực Di tích Long Mỹ ngay bây giờ với giá rẻ nhất.
                 Du lịch Hậu Giang 
                ×
                    Chính sách đảm bảo hoàn tiền của mytour
                    Bạn chưa tin tưởng việc đặt phòng khách sạn trực tuyến? Bạn e ngại rằng phòng khách sạn thực tế không đúng với thông tin trên website? Chúng tôi cam kết đưa đầy đủ và chính xác thông tin khách sạn trên website với chính sách “Đảm bảo Hoàn tiền”
                        Nếu khách hàng đặt khách sạn thành công trên Mytour nhưng khách sạn không có phòng, Mytour sẽ hoàn lại tiền cho khách và tặng kèm phiếu giảm giá có giá trị bằng với số tiền khách hàng đã trả.
                        Trong trường hợp loại phòng thực tế không đúng với loại phòng trên đơn hàng, Mytour sẽ quyết định nâng cấp miễn phí hoặc tặng phiếu giảm giá có giá trị bằng với số tiền khách hàng đã trả.
                        Trường hợp các tiện nghi phòng khách sạn (như bữa sáng, wifi…) không đúng với nội dung trên website, Mytour sẽ tặng phiếu giảm giá có giá trị bằng 10% số tiền khách đã trả (tối đa 500,000 VND)
                        Khách hàng cần gọi điện thoại 04-7309 9899 (Hà Nội), 08-7309 9899 (Hồ Chí Minh) hoặc email tới info@mytour.vn và cung cấp mã đơn hàng trong vòng 24 giờ từ lúc nhận phòng để được trợ giúp giải quyết khiếu nại (Hotline chỉ hỗ trợ trong giờ hành chính).
                        Mytour không chịu trách nhiệm bồi thường thiệt hại gián tiếp, ngẫu nhiên, hay do hậu quả phát sinh. Trong mọi trường hợp, trách nhiệm của Mytour không vượt quá tổng số tiền khách hàng thanh toán đặt phòng.
                ×
                    Đảm bảo giá tốt nhất
                    Nếu Thành viên đã đặt một phòng khách sạn được “Đảm Bảo” tại Mytour.vn và sau đó, cho Mytour.vn  thấy rằng Thành viên có thể đặt một phòng tương tự trong cùng khoảng thời gian ở mức giá tốt hơn có thể xem và đặt được trên một website khác, Mytour.vn sẽ giảm giá bằng hoặc thấp hơn mức giá đó.
                    Giá dùng để so sánh là giá sau khi áp dụng mức giảm giá công bố trên website Mytour.vn.
                    Chính sách “Đảm Bảo Giá Tốt Nhất” của Mytour.vn chỉ áp dụng cho các đặt phòng đã được xác nhận và phải thỏa mãn những điều kiện sau:
                Cùng khách sạnCùng thời gian nghỉ lạiCùng loại Phòng/GiườngCùng các yêu cầu mua Trước, yêu cầu trả trước và đặt cọc (nếu có)Cùng chính sách Hủy và Sửa Đổi
                    Phòng đó phải còn trống để được xác nhận ngay tại thời điểm các đại lý của Mytour.vn  kiểm tra phòng trống
                        Chính sách “Đảm Bảo Giá Tốt Nhất” không áp dụng cho các mức giá không công bố, như: chương trình khách hàng thân thiện.
                        Bất kỳ tổ chức nào với các mức giá dành cho nhóm cá nhân cụ thể và không nhằm mục đích áp dụng ra bên ngoài.
                        Thành viên có thể gửi khiếu nại theo địa chỉ : info@mytour.vn
                                Nêu mã đặt phòng Mytour.vn trong dòng tiêu đề thư
                                Gửi URL của website nơi Thành viên tìm thấy mức giá tốt hơn
                                Cung cấp ảnh chụp màn hình của website đối thủ cạnh tranh trong đó nêu rõ Phòng Trống, Loại Phòng, và các mức giá cho những ngày nghỉ lại theo yêu cầu của Thành viên.
                VUI LÒNG LƯU Ý: Thành viên không cần thực hiện đặt phòng trên website của đối thủ cạnh tranh, chỉ cần cho Mytour.vn thấy sự so sánh.
                ×
                Đăng Nhập
                                 Đăng nhập bằng tài khoản Facebook
                                 Đăng nhập bằng tài khoản Google
                            Hoặc đăng nhập bằng
                        Email*
                        Mật khẩu*
                        Quên mật khẩu?
                            Chưa có tài khoản/tạo tài khoản
                Đăng nhập
                         Nhớ đăng nhập
                ×
                Bản đồ
                                            Hậu Giang
                    Tìm đường
                        Từ: 
                        Đến: 
                            Khách sạnĐịa danh Hiển thị các khách sạn ở gần Hiển thị các khu du lịch ở gần
                ×
                Yêu Cầu Lấy Giá
                                    Ngày nhận phòng
                                    Ngày trả phòng
                        Tên khách hàng
                        Email
                        Điện thoại
                        Nhân viên chăm sóc khách hàng sẽ gọi điện cho quý khách trong thời gian sớm nhất.
                        Quý khách có thể gọi điện đến cho Mytour để được tư vấn ngay:
                        Hà Nội: (04) 7109 9999, Hồ Chí Minh: (08) 7309 9899, Support
                            English: (+84)4-7309-9899.
                    Hoàn thành
                ×
                Gửi Thông Tin
                        Tên khách hàng
                        Email
                        Điện thoại
                            Quý khách sẽ thấy giá giảm ngay trên trang sau khi gửi thông tin
                    Hoàn thành
                ×
                Nhận Giá Tốt
                                    Ngày nhận phòng
                                    Ngày trả phòng
                        Tên khách hàng
                        Email
                        Điện thoại
                        Vì giá tốt không được công bố nên hệ thống sẽ gửi giá qua email đến quý khách và nhân viên chăm
                        sóc sẽ gọi điện cho quý khách trong thời gian sớm nhất.
                        Quý khách có thể gọi điện đến cho Mytour để được tư vấn ngay:
                        Hà Nội: (04) 7109 9999, Hồ Chí Minh: (08) 7309 9899, Support
                            English: (+84)4-7309-9899.
                    Hoàn thành
                ×
                ×
                ĐÁNH GIÁ 
                        Tên
                        Tiêu đề
                        Kiểu du lịch?
                                -- Chọn --Cá nhânCặp đôiGia đìnhBạn bèDoanh nghiệp
                        Nội dung
                                Đánh giá chi tiết
                                Chỗ ở
                                5
                                Thức ăn
                                5
                                Phương tiện
                                5
                                Hướng dẫn viên
                                5
                                Lịch trình
                                5
                    Gửi đánh giá
                    Hủy Bỏ
                ×
                Gửi lại email kích hoạt
                ×
                Thông tin chi tiết giá theo phòng
                    Chọn khoảng thời gian hiển thị giá phòng
                    Hiển thị giá
                ×
                Khóa phòng theo khoảng thời gian
                            Chọn khoảng thời gian check-in cần khóa/mở phòng
                            Khóa phòng
                            Mở phòng
                ×
                THUẾ VÀ PHÍ DỊCH VỤ
                17% thuế và phí dịch vụ bao gồm:
                    - 10% thuế và 5% phí dịch vụ hoàn trả lại cho khách sạn.
                    - 2% phí giao dịch tại Mytour.
                ×
                Bạn có hài lòng về website của Mytour?
                    Thông điệp nhắn nhủ:
                Mytour luôn mong muốn cải thiện dịch vụ để bạn có trải nghiệm tốt hơn!
                            Ảnh đính kèm
                        Đóng
                        Gửi
                ×
                    Những đóng góp của bạn đã được ghi nhận. Mytour cám ơn bạn !
                Quay lại website
            Khách sạn theo các tỉnh thành
                        An Giang
                        Bà Rịa - Vũng Tàu
                        Bắc Giang
                        Bắc Kạn
                        Bạc Liêu
                        Bắc Ninh
                        Bến Tre
                        Bình Định
                        Bình Dương
                        Bình Phước
                        Bình Thuận
                        Cà Mau
                        Cần Thơ
                        Cao Bằng
                        Đà Lạt
                        Đà Nẵng
                        Đắk Nông
                        Đắk Lắk
                        Điện Biên
                        Đồng Nai
                        Đồng Tháp
                        Gia Lai
                        Hà Giang
                        Hạ Long
                        Hà Nam
                        Hà Nội
                        Hà Tĩnh
                        Hải Dương
                        Hải Phòng
                        Hậu Giang
                        Hồ Chí Minh
                        Hoà Bình
                        Hội An
                        Hưng Yên
                        Khánh Hòa
                        Kiên Giang
                        Kon Tum
                        Lai Châu
                        Lâm Đồng
                        Lạng Sơn
                        Lào Cai
                        Long An
                        Nam Định
                        Nghệ An
                        Nha Trang
                        Ninh Bình
                        Ninh Thuận
                        Phan Thiết
                        Phú Quốc
                        Phú Thọ
                        Phú Yên
                        Quảng Bình
                        Quảng Nam
                        Quảng Ngãi
                        Quảng Ninh
                        Quảng Trị
                        Sa Pa
                        Sóc Trăng
                        Sơn La
                        Tây Ninh
                        Thái Bình
                        Thái Nguyên
                        Thanh Hoá
                        Thành Phố Huế
                        Thừa Thiên Huế
                        Tiền Giang
                        Trà Vinh
                        Tuyên Quang
                        Vĩnh Long
                        Vĩnh Phúc
                        Vũng Tàu
                        Yên Bái
                Du lịch Hậu Giang
                                Du lịch Phụng Hiệp 
                                Du lịch Châu Thành A 
                                Du lịch Long Mỹ 
                                Du lịch Ngã Bảy (Tân Hiệp cũ) 
                                Du lịch Vị Thanh 
                                Du lịch Vị Thủy 
                            Giới thiệu Mytour
                            Đối tác khách sạn
                            Đăng nhập HMS
                            Tích lũy Vpoint
                            Điều khoản sử dụng
                            Quy chế hoạt động
                            Tuyển dụng
                            Liên hệ
                            Đăng ký nhận email
                                Đăng ký email để nhận khuyến mãi lên đến 70%
                                    Đăng
                                    ký
                    Công ty TNHH Mytour Việt Nam
                    Số ĐKKD: 0105983269 cấp ngày 30/08/2012
                    Văn phòng Hà Nội: Tầng 4, tòa nhà GP Invest, 170 Đê La Thành, Đống Đa
                    Văn phòng HCM: Tầng 5, Tòa Nhà HDTC, Số 36 Bùi Thị Xuân, Q.1
                Hotline
                        Hà Nội:
                        (04) 7109 9999
                        Tp. HCM:
                        (08) 7309 9899
                        ENGLISH SUPPORT:
                        (+84)4 7309 9899
