url:http://mytour.vn/c6/khach-san-5-sao-tai-bac-ninh.html
Tittle :Khách sạn 5 sao tại Bắc Ninh giá tốt nhất - Mytour.vn
content :Đặt phòng trực tuyến, hoặc gọi
                                                            Hà Nội: (04) 7109 9999
                                                                                        - (04) 7309 9899
                                                            Hồ Chí Minh: (08) 7309 9899
                                                                                        - (08) 7109 9998
                        T2 - CN: 08:00 - 23:00
                    Toggle navigation
                                Bạn không có thông báo nào
                    |
                    ||
                                                            Tài khoản
                        Đăng nhập
                                Đăng kýKhách sạn yêu thích
                            Khách sạn
                            Tour
                            Cẩm nang du lịch
                            Thông tin
                                                Về Mytour
                                                Tin khuyến mãi
                                                Ưu đãi
                                                Hướng dẫn
                                                Liên hệ
                            Tốt nhất 2016
                ×
                Bạn có chắc muốn hủy đơn hàng?
                Lorem ipsum dolor sit amet, consectetur adipisicing elit. Iure corporis repudiandae nobis distinctio
                quae quos, officia modi, ab voluptatem pariatur ducimus mollitia, necessitatibus sed soluta dicta
                repellendus! Praesentium debitis, temporibus?
                    Đồng ý
                    Đóng
                    Khách sạnKhách sạn tại Bắc NinhKhách sạn 5 sao tại Bắc Ninh
                    Áp dụng
                    Đóng
            Tìm Kiếm Khách Sạn
                            Ngày nhận phòng
                            Ngày trả phòng
                    Số đêm
                    Số phòng
                        123456789101112
                    Người lớn
                        123456789101112
                    Tìm khách sạn
                                Bộ lọc tìm kiếm
                                        Theo mức giá
                                                        Dưới 500.000
                                                        500.000 - 1.000.000
                                                        1.000.000 - 1.500.000
                                                        1.500.000 - 2.000.000
                                                        2.000.000 - 2.500.000
                                                        2.500.000 - 3.000.000
                                                        Trên 3.000.000
                                    Hạng Khách Sạn
                                    Loại khách sạn
                                                    Khách sạn
                                                    Resort
                                Tiện nghi
                                                Đưa đón khách sạn sân bay
                                                Bữa sáng miễn phí
                                                Bể bơi ngoài trời
                                                Bãi đỗ xe
                                                Phòng họp
                                                Phòng tập thể thao
                                                Thang máy
                                                Thêm giường phụ
                                                Truyền hình cáp/vệ tinh
                                                Wifi miễn phí
                                                Giặt là
                                                Nhà hàng
                                                Spa
            Quận huyện
                        Thành Phố Bắc Ninh 
                        Từ Sơn
                        Gia Bình 
                        Quế Võ 
                        Thuận Thành 
                        Tiên Du 
                        Yên Phong 
                        Lương Tài
            Khu vực
                        Thành cổ Bắc Ninh
                        Ga Bắc Ninh
                        Chợ Trung Tâm Suối Hoa
                        Đền Bà Chúa Kho
                        Chùa Đại Quang
                        Đình làng Đại Lâm
                        Chùa Lim
                        Chợ Và
                        Chợ Lim
                        Chùa Hàm Long
                        Chợ Nội Doi
                        Chùa Bách Môn
                        Chùa Chính Trung
                        Chùa Yên Từ
                        Chùa Tam Sơn
                        Chùa Phật Tích
                        Thị trấn Phố Mới
                        Chợ Trúc Ổ
                        Nhà thờ Giáo xứ Cẩm Giang
                        Chùa làng Đông Bích
                        Đền thờ và lăng mộ Kinh Dương Vương
                        Chợ Ngã Tư Đại Thượng
                        Chùa làng Kim Bảng
                        Đền Tổ
                        Chợ Chiều Văn Môn
                        Chùa Phù Khê
                        Chợ Me
                        Chợ Hồ
                        Đồ gỗ mỹ nghệ Phù Khê
                        Chùa Keo
                        Chùa Bút Tháp
                        Chợ làng Yên Vĩ
                        Chợ Thị Trấn Huyện Thuận Thành
                        Chùa Dận
                        Đền Rồng
                        Chùa Dâu
                        Đền Sĩ Nhiếp
                        Đền thờ Thái sư Lê Văn Thịnh
                        Chùa Hữu Bằng
                        Bến tàu du lịch Làng nghề đúc đồng Đại Bái
                        Lệ Chi Viên
                        Thị trấn Gia Bình
                        Điện thờ Ông Nghè
                        Chợ Tẩy
                        Nhà thờ Tử Nê
                        Chợ Ngụ
                        Bến Xe Gia Lương
                        Thị trấn Thứa
                        Bến đò Bình Than
                        Nhà Thờ Lai Tê
                        Bắc Ninh
                        Xã Từ Sơn
             Giá tốt hơn so với đặt phòng trực
            tiếp tại khách sạn
             Đảm bảo 
            giá tốt nhất 
             Đảm bảo 
            hoàn tiền
             Nhân viên chăm sóc, tư vấn nhiều kinh nghiệm
             Hơn 5000 khách sạn tại Việt Nam với
            đánh giá thực
             Nhiều chương trình khuyến mãi và tích lũy điểm
             Thanh toán dễ dàng, đa dạng
                            Khách sạn 5 sao tại Bắc Ninh
                                     Xem Bản Đồ
                            Bắc Ninh là tỉnh có diện tích nhỏ nhất Việt Nam. Bắc Ninh nổi tiếng với làn điệu quan họ và các lễ hội nổi tiếng như: Giếng ngọc cá thần, Hội chùa Dâu, Hội Lim, Hội đền Bà Chúa Kho… Hãy để Mytour hỗ trợ bạn để có 1 chuyến đi thú vị, tiết kiệm bằng cách đặt phòng khách sạn 5 sao Bắc Ninh ngay bây giờ với giá tốt nhất.
                                Có 2
                                khách sạn ở
                                đây theo ngày đã chọn
                        Ngày nhận phòng
                        Ngày trả phòng
                Số đêm
                Số phòng
                    123456789101112
                Người lớn
                    123456789101112
                Cập nhật ngày
                             Bộ lọc
                                            Phổ biến nhất
                                     Hạng khách sạn
                                                                                                Hạng sao [5...1]
                                                                                                Hạng sao [1...5]
                                            Đánh giá cao nhất
                                            Khuyến mãi
                                     Giá
                                                                                                Giá tăng dần
                                                                                                Giá giảm dần
                            Sắp xếp:
                            Đánh giá cao nhất
                        Phổ biến nhấtĐánh giá cao nhấtGiá tăng dầnGiá giảm dầnHạng tăng dầnHạng giảm dầnKhuyến mãi
                            Khách sạn Hồng Tâm
                             Từ Sơn - Bắc Ninh 
                            (Xem bản đồ)
                                                                    Khách sạn đang chờ duyệt giá.
                                Xem phòng
                            Khu nghỉ dưỡng quốc tế Phượng Hoàng Bắc Ninh
                             Đồi Pháo Thủ , Khu 6 , Phường Đáp Cầu, Thành Phố Bắc Ninh 
                            (Xem bản đồ)
                                                                    Khách sạn đang chờ duyệt giá.
                                Xem phòng
                                Bắc Ninh
                            Đặt phòng khách sạn Bắc Ninh giá tốt nhất tại Mytour.vn, với nhiều khuyến mãi từ website và đơn vị khách sạn tiết kiệm lên đến 70%. Hơn 150.000 đánh giá từ khách hàng đã qua sử dụng khách sạn giúp bạn đưa ra những quyết định tốt nhất cho lựa chọn của mình. Đặc biệt chính sách ĐẢM BẢO HOÀN TIỀN chỉ có tại Mytour.vn, giờ đây bạn có thể hoàn toàn tin tưởng vào dịch vụ đặt phòng trực tuyến.Với hơn 5.000 khách sạn, resort tại 63 tỉnh/ thành phố, Mytour ngày càng được du khách tin dùng để tìm kiếm khách sạn. Mytour sẽ hỗ trợ quý khách đặt khách sạn Bắc Ninh với chi phí hợp lý để có chuyến đi thật thú vị và tiết kiệm. Ngoài việc cung cấp những khách sạn giá tốt nhất, bạn có còn có thể tìm thấy nhiều thông tin du lịch hữu ích và thú vị khác.  Bắc Ninh là một tỉnh thuộc đồng bằng sông Hồng, cách trung tâm Hà Nội 30 km. Bắc Ninh là trung tâm xứ Kinh Bắc cổ xưa nổi tiếng với làn điệu dân ca quan họ với các liền anh liền chị tha thướt trong bộ áo tứ thân.  Khi đặt khách sạn tại Bắc Ninh, Mytour với hệ thống đặt phòng có hơn 10 khách sạn được trang bị đầy đủ tiện nghi hiện đại cùng với dịch vụ chăm sóc khách hàng hoàn hảo sẽ mang lại cho bạn những trải nghiệm thú vị và hài lòng cả những du khách khó tính nhất.  Bắc Ninh hiện có hàng trăm di tích lịch sử văn hóa với nhiều đình, chùa, lễ hội và những làn điệu dân ca Quan họ. Bề dày lịch sử, văn hóa đã tạo cho Bắc Ninh tiềm năng phát triển du lịch văn hóa. Du lịch Bắc Ninh bạn sẽ được tham quan những thắng cảnh nổi tiếng nơi đây như Đền bà Chúa Kho, Làng tranh Đông Hồ, Làng Đình Bảng, Chùa Dâu… Đi lễ Bà Chúa Kho đã trở thành thói quen đối với nhiều người, đặc biệt là giới kinh doanh. Cứ vào dịp đầu xuân năm mới hàng ngàn khách thập phương trong cả nước lại đến chiêm bái, thắp hương và dâng phẩm vật kính lễ bà Chúa kho, cầu mong một năm mới an lạc thịnh vượng và hạnh phúc. Theo truyền thuyết, Bà Chúa Kho xuất thân trong một gia đình nghèo khó ở làng Quả Cảm, Bắc Ninh. Sau khi lấy vua Lý (không rõ ông vua nào) và chiêu dân cắm đất lập trại ấp, Bà được vua giao cho coi quản kho lương lớn ở làng Cô Mễ và Thượng Đồng. Ngoài việc coi sóc kho tàng, Bà còn phải cai quản số đông tù binh người Chàm do nhà Lý bắt được sau mỗi cuộc chiến tranh và đưa họ về làm ở các trang ấp. Tiếp đến, khi tham quan Làng tranh Đông Hồ bạn sẽ được tìm hiểu về qui trình sản xuất tranh nổi tiếng vủa Bắc Ninh. Làng tranh Đông Hồ là làng nghề nổi tiếng về tranh dân gian, thuộc xã Song Hồ, huyện Thuận Thành, tỉnh Bắc Ninh cách Hà Nội khoảng 35 km. Làng Đông Hồ (đôi khi dân địa phương chỉ gọi là làng Hồ) nằm trên bờ nam sông Đuống, cạnh bến đò Hồ, nay là cầu Hồ. Tranh Đông Hồ, hay tên đầy đủ là tranh khắc gỗ dân gian Đông Hồ, là một dòng tranh dân gian Việt Nam với xuất xứ từ làng Đông Hồ (xã Song Hồ, huyện Thuận Thành, tỉnh Bắc Ninh). Trước kia tranh được bán ra chủ yếu phục vụ cho dịp Tết Nguyên Đán, người dân nông thôn mua tranh về dán trên tường, hết năm lại lột bỏ, dùng tranh mới.Tới thăm Bắc Ninh bạn cũng nên ghé thăm đình làng Đình Bảng, đây cũng là một ngôi đền cổ, có nét kiến trúc độc đáo hay ghé thăm ngôi chùa Dâu nổi tiếng. Ngoài ra, khi ghé thăm Bắc Ninh bạn nên đi vào các mùa lễ hội để hòa mình vào không khí rộn ràng và thưởng thức các làn điệu quan họ ngọt ngào. Hàng năm, trên địa bàn tỉnh Bắc Ninh diễn ra hơn 300 lễ hội lớn nhỏ khác nhau.  Bên cạnh đó, khi đến nơi đây, bạn nên ghé thăm các làng nghề của tỉnh. Bắc Ninh từ lâu đã nổi tiếng với nhiều làng nghề truyền thống có tuổi đời hàng trăm năm, làm ra những sản phẩm thủ công tinh xảo, độc đáo. Hiện nay, Bắc Ninh có 62 làng nghề, chủ yếu trong các lĩnh vực như đồ gỗ mỹ nghệ xuất khẩu, sản xuất giấy, gốm, sắt, thép tái chế, đúc đồng.  Ngoài ra, một yếu tố khác thu hút khách du lịch đó chính là nền ẩm thực phong phú và đa dạng. Lưu trú tại Bắc Ninh, quý khách sẽ được thưởng thức rượu nếp làng Cấm, bánh phu thê, bánh tẻ làng Chờ, bánh khúc làng Diềm, bánh đúc lạc, bánh tro, cháo thái, gà Hồ, cơm quan họ…  Nếu bạn có kế họach đến nghỉ dưỡng hoặc công tác ở miền đất quan họ Bắc Ninh, hãy để Mytour giúp bạn chuẩn bị 1 chuyến đi dễ dàng, thú vị, và tiết kiệm nhất bạn nhé!
            Địa danh ở gần
                                    Kiến trúc cổ của chùa Bút Tháp lừng danh Kinh Bắc 
                                     ~ 0km
                                    Làng gốm Phù Lãng
                                     ~ 0km
                                    Thành cổ Bắc Ninh
                                     ~ 0.3km
                                                                Thành cổ Bắc Ninh là công trình kiến trúc nghệ thuật quân sự tiêu biểu của tỉnh Bắc Ninh. Thành được xây dựng theo hình lục giác, là một trong bốn toàn thành đẹp nhất vùng Bắc kỳ. Hãy để Mytour hỗ trợ bạn để có 1 chuyến đi thú vị, tiết kiệm bằng cách đặt phòng khách sạn tại khu vực Thành cổ Bắc Ninh ngay bây giờ với giá rẻ nhất.
                                    Giếng ngọc cá thần
                                     ~ 0.59km
                                                                Giếng ngọc cá thần thuộc xã Hòa Long, thành phố Bắc Ninh. Giếng nổi tiếng về câu chuyện 3 “ông cá thần”. Nước giếng quanh năm trong xanh, đặc biệt có vị ngon hơn các loại nước khoáng khác. Hãy để Mytour hỗ trợ bạn để có 1 chuyến đi thú vị, tiết kiệm bằng cách đặt phòng khách sạn tại  khu vực Giếng ngọc cá thần ngay bây giờ với giá chỉ từ 460.000đ
                                    Nhà thờ Chánh tòa Bắc Ninh
                                     ~ 0.77km
                                                                Nhà thờ Chánh tòa Bắc Ninh ở phường Ninh Xá, thành phố Bắc Ninh. Nhà thờ 121 tuổi với kiến trúc nghệ thuật có một không hai nằm bên sông Cầu lơ thơ nước chảy là di sản của Bắc Ninh. Hãy để Mytour hỗ trợ bạn để có 1 chuyến đi thú vị, tiết kiệm bằng cách đặt phòng khách sạn tại  khu vực Nhà thờ Chánh tòa Bắc Ninh ngay bây giờ với giá chỉ từ 460.000đ
                                    Đình Đẩu Hàn
                                     ~ 2.14km
                                                                Đình Đẩu Hàn thuộc thông Đẩu Hàn, xã Hòa Long, thành phố Bắc Ninh. Đình với vẻ đẹp của kiến trúc, điêu khắc “tứ linh, tứ quý” lộng lẫy tinh xảo nghệ nghệ. Khuôn viên rộng rãi, thanh tịnh. Hãy để Mytour hỗ trợ bạn để có 1 chuyến đi thú vị, tiết kiệm bằng cách đặt phòng khách sạn tại  khu vực Đình Đẩu Hàn ngay bây giờ với giá chỉ từ 460.000đ
                                    Chùa Khúc Toại
                                     ~ 2.48km
                                                                Chùa Khúc Toại nằm ở xã Khúc Xuyên, cách thành phố Bắc Ninh 2km về phía Tây. Đến Chùa Khúc Toại được xem những kiến trúc điêu khắc tinh xảo như quả chuông chuông đồng cổ nhất xứ Kinh Bắc. Hãy để Mytour hỗ trợ bạn để có 1 chuyến đi thú vị, tiết kiệm bằng cách đặt phòng khách sạn tại  khu vực Chùa Khúc Toại ngay bây giờ với giá chỉ từ 460.000đ.
                                    Đền thờ Đô Thống Lê Phụng Hiểu 
                                     ~ 3.17km
                                                                Đền thờ Đô Thống Lê Phụng Hiểu thuộc khu Hòa Đình, phường Võ Cường, thành phố Bắc Ninh. Đền còn bảo lưu được hai bia đá cổ có tên “Phả lục tam vị thánh” và “Sự tích bi ký”. Hãy để Mytour hỗ trợ bạn để có 1 chuyến đi thú vị, tiết kiệm bằng cách đặt phòng khách sạn tại  khu vực Đền thờ Đô Thống Lê Phụng Hiểu ngay bây giờ với giá chỉ từ 460.000đ
                                    Đường hầm xuyên núi Bà Chúa Kho
                                     ~ 3.9km
                                                                Đường hầm xuyên núi Bà Chúa Kho thuộc phường Vũ Ninh, thành phố Bắc Ninh. Đường hầm dài 1km ăn sâu vào lòng đất được xây theo kiến trúc uốn vòm bằng gạch vữa vôi khá kiên cố. Hãy để Mytour hỗ trợ bạn để có 1 chuyến đi thú vị, tiết kiệm bằng cách đặt phòng khách sạn tại  khu vực Đường hầm xuyên núi Bà Chúa Kho ngay bây giờ với giá chỉ từ 460.000đ
                                    Đền Bà Chúa Kho
                                     ~ 3.92km
                                                                Đền Bà Chúa Kho nằm trên lung chừng ngọn núi Kho, tại khu Cổ Mễ, phường Vũ Ninh, thành phố Bắc Ninh. Đền nổi tiếng linh thiêng được đông khách vào ra thắp hương xin lộc, thành tâm cúng bái. Hãy để Mytour hỗ trợ bạn để có 1 chuyến đi thú vị, tiết kiệm bằng cách đặt phòng khách sạn tại khu vực Đền Bà Chúa Kho ngay bây giờ với giá rẻ nhất.
                                    Đình làng Kim Thao 
                                     ~ 5.1km
                                                                Đình làng Kim Thao ở xã Lâm Thao, huyện Lương Tài, Bắc Ninh. Đình với những nét trạm khắc tứ linh, tứ quý tinh sảo được Nhà nước công nhận là di tích lịch sử cấp quốc gia. Hãy để Mytour hỗ trợ bạn để có 1 chuyến đi thú vị, tiết kiệm bằng cách đặt phòng khách sạn tại khu vực Đình làng Kim Thao ngay bây giờ với giá chỉ từ 518.000đ
                                    Ga Cầu Bây
                                     ~ 7.86km
                                                                Ga Cầu Bây thuộc thôn Đồng Xép, xã Hoàn Sơn, Tiên Du, Bắc Ninh. Ga Cầu Bây có vị trí hết sức quan trọng bởi đây là cửa ngõ phía Bắc của thủ đô Hà Nội, là đầu mối bốn tuyến đường sắt nối liền các vùng miền. Hãy để Mytour hỗ trợ bạn để có 1 chuyến đi thú vị, tiết kiệm bằng cách đặt phòng khách sạn tại khu vực Ga Cầu Bây ngay bây giờ với giá rẻ nhất.
                                    Đền Chóa
                                     ~ 9.32km
                                                                Đền Chóa thuộc xã Dũng Liệt, huyện Yên Phong, Bắc Ninh. Nằm trên mảnh đất cát địa như tòa sen, vị trí cao nhất trong vùng nên trong lịch sử những trận lụt kỷ lục, ngôi Đền Chóa cũng không bao giờ bị ngập. Hãy để Mytour hỗ trợ bạn để có 1 chuyến đi thú vị, tiết kiệm bằng cách đặt phòng khách sạn tại  khu vực Đền Chóa ngay bây giờ với giá rẻ nhất.
                                    Chùa Dâu
                                     ~ 13.11km
                                                                Chùa Dâu nằm ở xã Thanh Khưng, huyện Thuận Thành, Bắc Ninh. Chùa là ngôi chùa cổ nhất Việt Nam, không những mang trong mình nhiều giá trị lịch sử, kiến trúc, điêu khắc mà còn là nơi khởi nguồn của đạo Phật. Hãy để Mytour hỗ trợ bạn để có 1 chuyến đi thú vị, tiết kiệm bằng cách đặt phòng khách sạn tại khu vực Chùa Dâu ngay bây giờ với giá rẻ nhất.
                                    Chùa Linh Ứng - Bắc Ninh
                                     ~ 15.7km
                                                                Chùa Linh Ứng – Bắc Ninh tọa lạc ở thôn Ngọc Khám, xã Gia Đông, huyện Thuận Thành, Bắc Ninh. Chùa có 3 pho tượng Tam thế tạc bằng đá là những tác phẩm điêu khắc có giá trị nghệ thuật cao. Hãy để Mytour hỗ trợ bạn để có 1 chuyến đi thú vị, tiết kiệm bằng cách đặt phòng khách sạn tại  khu vực Chùa Linh Ứng - Bắc Ninh ngay bây giờ với giá rẻ nhất.
                                    Chùa Phúc Nghiêm
                                     ~ 15.7km
                                                                Chùa Phúc Nghiêm hay còn gọi là Chùa Tổ tọa lạc ở xã Hà Mãn, huyện Thuận Thành, tỉnh Bắc Ninh. Chùa Phúc Nghiêm là ngôi chùa cổ mang đậm phong cách kiến trúc thời Nguyễn với 4 chữ kiểu hành thư. Hãy để Mytour hỗ trợ bạn để có 1 chuyến đi thú vị, tiết kiệm bằng cách đặt phòng khách sạn tại  khu vực Chùa Phúc Nghiêm ngay bây giờ với giá rẻ nhất.
                                    Hội chùa Dâu
                                     ~ 16.51km
                                                                Hội chùa Dâu diễn ra vào 8 tháng 4 âm lịch tại xã Thanh Khương, huyện Thuận, thành phố Bắc Ninh. Hội đã trở thành nét đẹp văn hóa đặc trưng của vùng miền, nhằm ôn lại truyền thống lịch sử. Hãy để Mytour hỗ trợ bạn để có 1 chuyến đi thú vị, tiết kiệm bằng cách đặt phòng khách sạn tại  khu vực Hội chùa Dâu ngay bây giờ với giá rẻ nhất.
                                    Đền Sĩ Nhiếp
                                     ~ 16.78km
                                                                Đền Sĩ Nhiếp tọa lạc ở thôn Tam Á, xã Gia Đông, huyện Thuận Thành, tỉnh Bắc Ninh. Đền Sĩ Nhiếp là một di tích lịch sử có khuôn viên rộng rãi, cổ kính, hoa văn được trạm khắc tinh xảo, cầu kỳ. Hãy để Mytour hỗ trợ bạn để có 1 chuyến đi thú vị, tiết kiệm bằng cách đặt phòng khách sạn tại khu vực Đền Sĩ Nhiếp ngay bây giờ với giá rẻ nhất.
                                    Đền thờ An Sinh Vương Trần Liễu
                                     ~ 18.22km
                                                                Đền thờ An Sinh Vương Trần Liễu nằm ở thôn Tư Thế, xã Trí Quả, huyện Thuận Thành, tỉnh Bắc Ninh. Đền là một di tích lịch sử của tỉnh với nhiều cổ vật quý giá còn được bảo lưu. Hãy để Mytour hỗ trợ bạn để có 1 chuyến đi thú vị, tiết kiệm bằng cách đặt phòng khách sạn tại khu vực Đền thờ An Sinh Vương Trần Liễu ngay bây giờ với giá rẻ nhất.
                                    Đình Yên Việt
                                     ~ 19.64km
                                                                Đình Yên Việt thuộc xã Đông Cứu, huyện Gia Bình, tỉnh Bắc Ninh. ĐìnhYên Việt với vẻ đẹp thể hiện ở kiến trúc điêu khắc nghệ thuật độc đáo đã góp phần làm nên văn hiến xứ Kinh Bắc-Bắc Ninh. Hãy để Mytour hỗ trợ bạn để có 1 chuyến đi thú vị, tiết kiệm bằng cách đặt phòng khách sạn tại  khu vực Đình Yên Việt ngay bây giờ với giá rẻ nhất.
                 Du lịch Bắc Ninh 
                ×
                    Chính sách đảm bảo hoàn tiền của mytour
                    Bạn chưa tin tưởng việc đặt phòng khách sạn trực tuyến? Bạn e ngại rằng phòng khách sạn thực tế không đúng với thông tin trên website? Chúng tôi cam kết đưa đầy đủ và chính xác thông tin khách sạn trên website với chính sách “Đảm bảo Hoàn tiền”
                        Nếu khách hàng đặt khách sạn thành công trên Mytour nhưng khách sạn không có phòng, Mytour sẽ hoàn lại tiền cho khách và tặng kèm phiếu giảm giá có giá trị bằng với số tiền khách hàng đã trả.
                        Trong trường hợp loại phòng thực tế không đúng với loại phòng trên đơn hàng, Mytour sẽ quyết định nâng cấp miễn phí hoặc tặng phiếu giảm giá có giá trị bằng với số tiền khách hàng đã trả.
                        Trường hợp các tiện nghi phòng khách sạn (như bữa sáng, wifi…) không đúng với nội dung trên website, Mytour sẽ tặng phiếu giảm giá có giá trị bằng 10% số tiền khách đã trả (tối đa 500,000 VND)
                        Khách hàng cần gọi điện thoại 04-7309 9899 (Hà Nội), 08-7309 9899 (Hồ Chí Minh) hoặc email tới info@mytour.vn và cung cấp mã đơn hàng trong vòng 24 giờ từ lúc nhận phòng để được trợ giúp giải quyết khiếu nại (Hotline chỉ hỗ trợ trong giờ hành chính).
                        Mytour không chịu trách nhiệm bồi thường thiệt hại gián tiếp, ngẫu nhiên, hay do hậu quả phát sinh. Trong mọi trường hợp, trách nhiệm của Mytour không vượt quá tổng số tiền khách hàng thanh toán đặt phòng.
                ×
                    Đảm bảo giá tốt nhất
                    Nếu Thành viên đã đặt một phòng khách sạn được “Đảm Bảo” tại Mytour.vn và sau đó, cho Mytour.vn  thấy rằng Thành viên có thể đặt một phòng tương tự trong cùng khoảng thời gian ở mức giá tốt hơn có thể xem và đặt được trên một website khác, Mytour.vn sẽ giảm giá bằng hoặc thấp hơn mức giá đó.
                    Giá dùng để so sánh là giá sau khi áp dụng mức giảm giá công bố trên website Mytour.vn.
                    Chính sách “Đảm Bảo Giá Tốt Nhất” của Mytour.vn chỉ áp dụng cho các đặt phòng đã được xác nhận và phải thỏa mãn những điều kiện sau:
                Cùng khách sạnCùng thời gian nghỉ lạiCùng loại Phòng/GiườngCùng các yêu cầu mua Trước, yêu cầu trả trước và đặt cọc (nếu có)Cùng chính sách Hủy và Sửa Đổi
                    Phòng đó phải còn trống để được xác nhận ngay tại thời điểm các đại lý của Mytour.vn  kiểm tra phòng trống
                        Chính sách “Đảm Bảo Giá Tốt Nhất” không áp dụng cho các mức giá không công bố, như: chương trình khách hàng thân thiện.
                        Bất kỳ tổ chức nào với các mức giá dành cho nhóm cá nhân cụ thể và không nhằm mục đích áp dụng ra bên ngoài.
                        Thành viên có thể gửi khiếu nại theo địa chỉ : info@mytour.vn
                                Nêu mã đặt phòng Mytour.vn trong dòng tiêu đề thư
                                Gửi URL của website nơi Thành viên tìm thấy mức giá tốt hơn
                                Cung cấp ảnh chụp màn hình của website đối thủ cạnh tranh trong đó nêu rõ Phòng Trống, Loại Phòng, và các mức giá cho những ngày nghỉ lại theo yêu cầu của Thành viên.
                VUI LÒNG LƯU Ý: Thành viên không cần thực hiện đặt phòng trên website của đối thủ cạnh tranh, chỉ cần cho Mytour.vn thấy sự so sánh.
                ×
                Đăng Nhập
                                 Đăng nhập bằng tài khoản Facebook
                                 Đăng nhập bằng tài khoản Google
                            Hoặc đăng nhập bằng
                        Email*
                        Mật khẩu*
                        Quên mật khẩu?
                            Chưa có tài khoản/tạo tài khoản
                Đăng nhập
                         Nhớ đăng nhập
                ×
                Bản đồ
                                            Bắc Ninh
                    Tìm đường
                        Từ: 
                        Đến: 
                            Khách sạnĐịa danh Hiển thị các khách sạn ở gần Hiển thị các khu du lịch ở gần
                ×
                Yêu Cầu Lấy Giá
                                    Ngày nhận phòng
                                    Ngày trả phòng
                        Tên khách hàng
                        Email
                        Điện thoại
                        Nhân viên chăm sóc khách hàng sẽ gọi điện cho quý khách trong thời gian sớm nhất.
                        Quý khách có thể gọi điện đến cho Mytour để được tư vấn ngay:
                        Hà Nội: (04) 7109 9999, Hồ Chí Minh: (08) 7309 9899, Support
                            English: (+84)4-7309-9899.
                    Hoàn thành
                ×
                Gửi Thông Tin
                        Tên khách hàng
                        Email
                        Điện thoại
                            Quý khách sẽ thấy giá giảm ngay trên trang sau khi gửi thông tin
                    Hoàn thành
                ×
                Nhận Giá Tốt
                                    Ngày nhận phòng
                                    Ngày trả phòng
                        Tên khách hàng
                        Email
                        Điện thoại
                        Vì giá tốt không được công bố nên hệ thống sẽ gửi giá qua email đến quý khách và nhân viên chăm
                        sóc sẽ gọi điện cho quý khách trong thời gian sớm nhất.
                        Quý khách có thể gọi điện đến cho Mytour để được tư vấn ngay:
                        Hà Nội: (04) 7109 9999, Hồ Chí Minh: (08) 7309 9899, Support
                            English: (+84)4-7309-9899.
                    Hoàn thành
                ×
                ×
                ĐÁNH GIÁ 
                        Tên
                        Tiêu đề
                        Kiểu du lịch?
                                -- Chọn --Cá nhânCặp đôiGia đìnhBạn bèDoanh nghiệp
                        Nội dung
                                Đánh giá chi tiết
                                Chỗ ở
                                5
                                Thức ăn
                                5
                                Phương tiện
                                5
                                Hướng dẫn viên
                                5
                                Lịch trình
                                5
                    Gửi đánh giá
                    Hủy Bỏ
                ×
                Gửi lại email kích hoạt
                ×
                Thông tin chi tiết giá theo phòng
                    Chọn khoảng thời gian hiển thị giá phòng
                    Hiển thị giá
                ×
                Khóa phòng theo khoảng thời gian
                            Chọn khoảng thời gian check-in cần khóa/mở phòng
                            Khóa phòng
                            Mở phòng
                ×
                THUẾ VÀ PHÍ DỊCH VỤ
                17% thuế và phí dịch vụ bao gồm:
                    - 10% thuế và 5% phí dịch vụ hoàn trả lại cho khách sạn.
                    - 2% phí giao dịch tại Mytour.
                ×
                Bạn có hài lòng về website của Mytour?
                    Thông điệp nhắn nhủ:
                Mytour luôn mong muốn cải thiện dịch vụ để bạn có trải nghiệm tốt hơn!
                            Ảnh đính kèm
                        Đóng
                        Gửi
                ×
                    Những đóng góp của bạn đã được ghi nhận. Mytour cám ơn bạn !
                Quay lại website
            Khách sạn theo các tỉnh thành
                        An Giang
                        Bà Rịa - Vũng Tàu
                        Bắc Giang
                        Bắc Kạn
                        Bạc Liêu
                        Bắc Ninh
                        Bến Tre
                        Bình Định
                        Bình Dương
                        Bình Phước
                        Bình Thuận
                        Cà Mau
                        Cần Thơ
                        Cao Bằng
                        Đà Lạt
                        Đà Nẵng
                        Đắk Nông
                        Đắk Lắk
                        Điện Biên
                        Đồng Nai
                        Đồng Tháp
                        Gia Lai
                        Hà Giang
                        Hạ Long
                        Hà Nam
                        Hà Nội
                        Hà Tĩnh
                        Hải Dương
                        Hải Phòng
                        Hậu Giang
                        Hồ Chí Minh
                        Hoà Bình
                        Hội An
                        Hưng Yên
                        Khánh Hòa
                        Kiên Giang
                        Kon Tum
                        Lai Châu
                        Lâm Đồng
                        Lạng Sơn
                        Lào Cai
                        Long An
                        Nam Định
                        Nghệ An
                        Nha Trang
                        Ninh Bình
                        Ninh Thuận
                        Phan Thiết
                        Phú Quốc
                        Phú Thọ
                        Phú Yên
                        Quảng Bình
                        Quảng Nam
                        Quảng Ngãi
                        Quảng Ninh
                        Quảng Trị
                        Sa Pa
                        Sóc Trăng
                        Sơn La
                        Tây Ninh
                        Thái Bình
                        Thái Nguyên
                        Thanh Hoá
                        Thành Phố Huế
                        Thừa Thiên Huế
                        Tiền Giang
                        Trà Vinh
                        Tuyên Quang
                        Vĩnh Long
                        Vĩnh Phúc
                        Vũng Tàu
                        Yên Bái
                Du lịch Bắc Ninh
                                Du lịch Thành Phố Bắc Ninh 
                                Du lịch Từ Sơn
                                Du lịch Thuận Thành 
                                Du lịch Yên Phong 
                                Du lịch Tiên Du 
                                Du lịch Quế Võ 
                                Du lịch Gia Bình 
                                Du lịch Lương Tài
                            Giới thiệu Mytour
                            Đối tác khách sạn
                            Đăng nhập HMS
                            Tích lũy Vpoint
                            Điều khoản sử dụng
                            Quy chế hoạt động
                            Tuyển dụng
                            Liên hệ
                            Đăng ký nhận email
                                Đăng ký email để nhận khuyến mãi lên đến 70%
                                    Đăng
                                    ký
                    Công ty TNHH Mytour Việt Nam
                    Số ĐKKD: 0105983269 cấp ngày 30/08/2012
                    Văn phòng Hà Nội: Tầng 4, tòa nhà GP Invest, 170 Đê La Thành, Đống Đa
                    Văn phòng HCM: Tầng 5, Tòa Nhà HDTC, Số 36 Bùi Thị Xuân, Q.1
                Hotline
                        Hà Nội:
                        (04) 7109 9999
                        Tp. HCM:
                        (08) 7309 9899
                        ENGLISH SUPPORT:
                        (+84)4 7309 9899
