url:http://mytour.vn/c19/khach-san-1-sao-tai-thua-thien-hue.html
Tittle :Khách sạn 1 sao tại Thừa Thiên Huế giá tốt nhất - Mytour.vn
content :Đặt phòng trực tuyến, hoặc gọi
                                                            Hà Nội: (04) 7109 9999
                                                                                        - (04) 7309 9899
                                                            Hồ Chí Minh: (08) 7309 9899
                                                                                        - (08) 7109 9998
                        T2 - CN: 08:00 - 23:00
                    Toggle navigation
                                Bạn không có thông báo nào
                    |
                    ||
                                                            Tài khoản
                        Đăng nhập
                                Đăng kýKhách sạn yêu thích
                            Khách sạn
                            Tour
                            Cẩm nang du lịch
                            Thông tin
                                                Về Mytour
                                                Tin khuyến mãi
                                                Ưu đãi
                                                Hướng dẫn
                                                Liên hệ
                            Tốt nhất 2016
                ×
                Bạn có chắc muốn hủy đơn hàng?
                Lorem ipsum dolor sit amet, consectetur adipisicing elit. Iure corporis repudiandae nobis distinctio
                quae quos, officia modi, ab voluptatem pariatur ducimus mollitia, necessitatibus sed soluta dicta
                repellendus! Praesentium debitis, temporibus?
                    Đồng ý
                    Đóng
                    Khách sạnKhách sạn tại Thừa Thiên HuếKhách sạn 1 sao tại Thừa Thiên Huế
                    Áp dụng
                    Đóng
            Tìm Kiếm Khách Sạn
                            Ngày nhận phòng
                            Ngày trả phòng
                    Số đêm
                    Số phòng
                        123456789101112
                    Người lớn
                        123456789101112
                    Tìm khách sạn
                                Bộ lọc tìm kiếm
                                        Theo mức giá
                                                        Dưới 500.000
                                                        500.000 - 1.000.000
                                                        1.000.000 - 1.500.000
                                                        1.500.000 - 2.000.000
                                                        2.000.000 - 2.500.000
                                                        2.500.000 - 3.000.000
                                                        Trên 3.000.000
                                    Hạng Khách Sạn
                                    Loại khách sạn
                                                    Khách sạn
                                                    Resort
                                Tiện nghi
                                                Đưa đón khách sạn sân bay
                                                Bữa sáng miễn phí
                                                Bể bơi ngoài trời
                                                Bãi đỗ xe
                                                Phòng họp
                                                Phòng tập thể thao
                                                Thang máy
                                                Thêm giường phụ
                                                Truyền hình cáp/vệ tinh
                                                Wifi miễn phí
                                                Giặt là
                                                Nhà hàng
                                                Spa
            Quận huyện
                        Huế
                        Phú Lộc
                        Phú Vang
                        Phong Điền - Thừa Thiên Huế
                        A Lưới
                        Nam Đông 
                        Quảng Điền
                        Hương Thủy
            Khu vực
                        Kinh thành Huế
                        Ga An Cựu
                        Ven Sông / Sông Hương
                        Ngự Bình / Lăng Tự Đức
                        Đàn Nam Giao
                        Chùa Thiên Mụ - Hoàng Thành
                        Chợ Nọ
                        Khu Di Tích Lịch Sử Chín Hầm
                        Chùa Huyền Không
                        Chợ Dạ Lê
                        Đò Gia Long
                        Lăng Gia Long
                        Ven Biển / Mỹ An
                        Sân bay quân sự cũ
                        Chợ Tứ Hạ
                        Sân bay Phú Bài
                        Nhà thờ Thạch Bình
                        Bãi Biển Thuận An
                        Bến đò Cồn Tộc
                        Phá Tam Giang
                        Hồ Bàu Co
                        Nhà thờ Hà Úc
                        Suối Nước Nóng Alba
                        Hồ Quao Hòa Mỹ
                        Thiền Viện Trúc Lâm Bạch Mã
                        Bến Tàu Túy Vân
                        Bưu điện huyện Nam Đông
                        Bến xe Nam Đông đi A Lưới
                        Bãi Biển Lăng Cô
                        Chợ A Lưới
                        Rào Lạc
                        Cửa khẩu Hồng Vân
                        Lăng Cô Beach Resort
             Giá tốt hơn so với đặt phòng trực
            tiếp tại khách sạn
             Đảm bảo 
            giá tốt nhất 
             Đảm bảo 
            hoàn tiền
             Nhân viên chăm sóc, tư vấn nhiều kinh nghiệm
             Hơn 5000 khách sạn tại Việt Nam với
            đánh giá thực
             Nhiều chương trình khuyến mãi và tích lũy điểm
             Thanh toán dễ dàng, đa dạng
                            Khách sạn 1 sao tại Thừa Thiên Huế
                                     Xem Bản Đồ
                            Thừa Thiên - Huế là một tỉnh thuộc vùng Trung Bộ, đồng thời đây còn là trung tâm văn hóa lớn và đặc sắc của Việt Nam. Huế nổi tiếng với các địa danh kỳ thú Vũng Voi, cửu đỉnh hoàng thành Huế, đại nội Huế. Hãy để Mytour hỗ trợ bạn để có 1 chuyến đi thú vị, tiết kiệm bằng cách đặt phòng khách sạn 1 sao Thừa Thiên Huế ngay bây giờ với giá từ 116,000 VND.
                                Có 67
                                khách sạn ở
                                đây theo ngày đã chọn
                        Ngày nhận phòng
                        Ngày trả phòng
                Số đêm
                Số phòng
                    123456789101112
                Người lớn
                    123456789101112
                Cập nhật ngày
                             Bộ lọc
                                            Phổ biến nhất
                                     Hạng khách sạn
                                                                                                Hạng sao [5...1]
                                                                                                Hạng sao [1...5]
                                            Đánh giá cao nhất
                                            Khuyến mãi
                                     Giá
                                                                                                Giá tăng dần
                                                                                                Giá giảm dần
                            Sắp xếp:
                            Đánh giá cao nhất
                        Phổ biến nhấtĐánh giá cao nhấtGiá tăng dầnGiá giảm dầnHạng tăng dầnHạng giảm dầnKhuyến mãi
                            Khách Sạn Hải Âu Huế
                             17/1 Nguyễn Thái Học, Huế, Thừa Thiên Huế 
                            (Xem bản đồ)
                            Ven Sông / Sông Hương
                                        Khách sạn bán chạy nhất trên Mytour 2015
                                        “Khách Sạn Hải Âu Huế nằm trên một vị trí thuận lợi, cách sông Hương chỉ 5 phút tản bộ. Khách sạn gồm 18 phòng nghỉ được trang bị hiện đại, tiện nghi, sang trọng, nhưng không kém phần ấm cúng và thân t...
                                        “
                                                Đảm bảo hoàn tiền
                                                Đảm bảo giá tốt nhất!
                                                            7.6
                                Đánh giá
                                    (101
                                        đánh giá)
                                Xem phòng
                            Khách Sạn 2 You
                             59 Bến Nghé, Huế, Thừa Thiên Huế 
                            (Xem bản đồ)
                            Ven Sông / Sông Hương
                                        Khách sạn bán chạy nhất trên Mytour 2015
                                        “Khách Sạn 2 You Huế, nơi có chất lượng tuyệt vời và dịch vụ chu đáo, phòng ốc rộng rãi, thoáng mát, trang thiết bị đầy đủ hiện đại và đội ngũ nhân viên thân thiện, nhiệt tình.
                                        “
                                                Đảm bảo hoàn tiền
                                                Đảm bảo giá tốt nhất!
                                                            6.7
                                Đánh giá
                                    (59
                                        đánh giá)
                                Xem phòng
                            Khách Sạn Amigo 
                             66/3 Lê Lợi, Huế, Thừa Thiên Huế 
                            (Xem bản đồ)
                            Kinh thành Huế
                                        “Khách Sạn Amigo Huế, nơi có chất lượng tuyệt vời và dịch vụ chu đáo, phòng ốc rộng rãi, thoáng mát, trang thiết bị đầy đủ hiện đại sẽ đem lại những trải nghiệm tuyệt vời
                                        “
                                                Đảm bảo hoàn tiền
                                                Đảm bảo giá tốt nhất!
                                                            7.9
                                Đánh giá
                                    (14
                                        đánh giá)
                                Xem phòng
                            Tài Hải Guesthouse
                             28/16 Hai Bà trưng, Huế, Thừa Thiên Huế 
                            (Xem bản đồ)
                            Kinh thành Huế
                                        “Tài Hải Guesthouse Thừa Thiên Huế tọa lạc ngay trung tâm thành phố. Với hệ thống trang thiết bị hiện đại, đội ngũ nhân viên nhiệt tình, chuyên nghiệp hứa hẹn sẽ là một điểm dừng chân hoàn hảo du khách...
                                        “
                                                Đảm bảo hoàn tiền
                                                Đảm bảo giá tốt nhất!
                                                            8.2
                                Tốt
                                    (14
                                        đánh giá)
                                Xem phòng
                            Khách Sạn Nhật Lệ 1 
                             6/34 Nguyễn Tri Phương, Huế, Thừa Thiên Huế 
                            (Xem bản đồ)
                            Kinh thành Huế
                                        “Khách Sạn Nhật Lệ 1 Huế, nơi có chất lượng tuyệt vời và dịch vụ chu đáo, phòng ốc rộng rãi, thoáng mát, trang thiết bị đầy đủ hiện đại là một điểm đến lí tưởng
                                        “
                                                Đảm bảo hoàn tiền
                                                Đảm bảo giá tốt nhất!
                                                            8.0
                                Tốt
                                    (4
                                        đánh giá)
                                            (115
                                            Reviews)
                                Xem phòng
                            B&B Guesthouse Huế
                             27 Hùng Vương, Huế, Thừa Thiên Huế 
                            (Xem bản đồ)
                            Ven Sông / Sông Hương
                                        “B&B Guesthouse Huế với phong cách phục vụ chuyên nghiệp và thân thiện của nhân viên, sẽ làm bạn hoàn toàn hài lòng về dịch vụ và giá cả tại đây. Đây chắc chắn là một điểm đến không thể bỏ qua.
                                        “
                                                Đảm bảo hoàn tiền
                                                Đảm bảo giá tốt nhất!
                                                            8.0
                                Tốt
                                    (2
                                        đánh giá)
                                Xem phòng
                            Khách Sạn Mai Đào
                             21 Nguyễn Thái Học, Huế, Thừa Thiên Huế 
                            (Xem bản đồ)
                            Ven Sông / Sông Hương
                                        “Khách Sạn Mai Đào Huế tọa lạc ngay trung tâm thành phố. Với hệ thống trang thiết bị hiện đại, đội ngũ nhân viên nhiệt tình, chuyên nghiệp hứa hẹn sẽ là một điểm dừng chân hoàn hảo du khách.
                                        “
                                                Đảm bảo hoàn tiền
                                                Đảm bảo giá tốt nhất!
                                                            7.8
                                Đánh giá
                                    (1
                                        đánh giá)
                                Xem phòng
                            Thành An 2 Guesthouse
                             37/48  Ngô Quyền, Huế, Thừa Thiên Huế 
                            (Xem bản đồ)
                            Kinh thành Huế
                                        “Thành An 2 GuesthouseHuế đạt tiêu chuẩn quốc tế  là một lựa chọn lý tưởng cho quý khách. Từ đây bạn có thể dễ dàng tham quan những địa danh nổi tiếng tại Huế như: Đại Nội Huế, sông Hương, chùa Thiên M...
                                        “
                                                Đảm bảo hoàn tiền
                                                Đảm bảo giá tốt nhất!
                                                            8.6
                                Tốt
                                    (30
                                        đánh giá)
                                Xem phòng
                            Khách sạn Mini Biển Khơi 
                             48/48 Ngô Quyền, Huế, Thừa Thiên Huế 
                            (Xem bản đồ)
                                                Đảm bảo hoàn tiền
                                                Đảm bảo giá tốt nhất!
                                                            8.2
                                Tốt
                                    (8
                                        đánh giá)
                                Xem phòng
                            Thành An 3 Guesthouse
                             46/48 Ngô Quyền, Huế, Thừa Thiên Huế 
                            (Xem bản đồ)
                                                Đảm bảo hoàn tiền
                                                Đảm bảo giá tốt nhất!
                                Xem phòng
                            Khách Sạn Thăng Long
                             18 Hùng Vương, Huế, Thừa Thiên Huế 
                            (Xem bản đồ)
                            Ga An Cựu
                                        “Khách Sạn Thăng Long có cơ sở vật chất hiện đại, đầy đủ tiện nghi hứa hẹn là một nơi nghỉ ngơi lý tưởng cho quý khách khi đến thăm thành phố Huế. Đội ngũ nhân viên khách sạn phục vụ thân thiện và nhiệ...
                                        “
                                                Đảm bảo hoàn tiền
                                                Đảm bảo giá tốt nhất!
                                                            7.7
                                Đánh giá
                                    (2
                                        đánh giá)
                                Xem phòng
                            Khách Sạn Mỹ Hạnh
                             60 Phạm Văn Đồng, Vỹ Dạ, Huế, Thừa Thiên Huế 
                            (Xem bản đồ)
                            Ven Sông / Sông Hương
                                        “Khách Sạn Mỹ Hạnh nằm ngay tại trung tâm thành phố, sở hữu hệ thống phòng ốc sang trọng và các trang thiết bị hiện đại và đội ngũ nhân viên thân thiện
                                        “
                                                Đảm bảo hoàn tiền
                                                Đảm bảo giá tốt nhất!
                                Xem phòng
                            Khách Sạn Bảo Sơn 1
                             39 Nguyễn Công Trứ, Huế, Thừa Thiên Huế 
                            (Xem bản đồ)
                            Ven Sông / Sông Hương
                                        “Khách Sạn Bảo Sơn 1 Huế có không gian thoáng mát, nội thất tiện nghi sang trọng, có đội ngũ nhân viên thân thiện và giá cả hết sức hợp lí với nhiều ưu đãi
                                        “
                                                Đảm bảo hoàn tiền
                                                Đảm bảo giá tốt nhất!
                                            (1
                                            Reviews)
                                Xem phòng
                            Khách Sạn Bình Dương 2
                             8 Ngô Gia Tự, Huế, Thừa Thiên Huế 
                            (Xem bản đồ)
                            Ga An Cựu
                                        “Khách Sạn Bình Dương 2 Huế là nơi có chất lượng tuyệt vời và dịch vụ chu đáo, phòng ốc rộng rãi, thoáng mát, trang thiết bị đầy đủ hiện đại. 
                                        “
                                                Đảm bảo hoàn tiền
                                                Đảm bảo giá tốt nhất!
                                                            8.2
                                Tốt
                                    (2
                                        đánh giá)
                                Xem phòng
                            Khách Sạn Bảo Sơn 2
                             5/27 Nguyễn Sinh Cung, Huế, Thừa Thiên Huế 
                            (Xem bản đồ)
                            Ven Sông / Sông Hương
                                        “Khách Sạn Bảo Sơn 2 Huế có không gian thoáng mát, nội thất tiện nghi sang trọng, có đội ngũ nhân viên thân thiện và nhiệt tình giúp đỡ quý khách
                                        “
                                                Đảm bảo hoàn tiền
                                                Đảm bảo giá tốt nhất!
                                            (2
                                            Reviews)
                                Xem phòng
                            Khách Sạn Triệu Vỹ
                             Thị Trấn Lăng Cô, Phú Lộc, Thừa Thiên Huế 
                            (Xem bản đồ)
                            Lăng Cô Beach Resort
                                        “Khách Sạn Triệu Vỹ Huế nằm tại trung tâm thành phố, với dịch vụ hoàn hảo và thiết bị tối tân tạo nên một kì nghỉ khó quên cho du khách. Hãy đến và tận hưởng kỳ nghỉ tuyệt vời của mình tại đây.
                                        “
                                                Đảm bảo hoàn tiền
                                                Đảm bảo giá tốt nhất!
                                                            7.8
                                Đánh giá
                                    (1
                                        đánh giá)
                                Xem phòng
                            Khách Sạn Huyền Trang 2
                             21 Đào Trinh Nhất, Phường Vỹ Dạ, Huế, Thừa Thiên Huế 
                            (Xem bản đồ)
                            Ven Sông / Sông Hương
                                        “Khách Sạn Huyền Trang 2 Huế có đội ngũ nhân viên nhiệt tình, thân thiện. Khách sạn gồm 24 phòng nghỉ được trang trí theo phong cách hiện đại và hệ thống ánh sáng ấm áp, tạo cho bạn kỳ nghỉ khó quên ở...
                                        “
                                                Đảm bảo hoàn tiền
                                                Đảm bảo giá tốt nhất!
                                                            8.0
                                Tốt
                                    (1
                                        đánh giá)
                                Xem phòng
                            Khách Sạn Thanh Thảo
                             33 Nguyễn Trường Tộ, Huế, Thừa Thiên Huế 
                            (Xem bản đồ)
                            Ga An Cựu
                                        “Khách Sạn Thanh Thảo Huế  là nơi nghỉ ngơi chất lượng cho việc ngắm cảnh, tận hưởng văn hóa của thành phố. Hệ thống phòng nghỉ được trang bị hiện đại, đồng bộ cùng với những dịch vụ sẵn có.
                                        “
                                                Đảm bảo hoàn tiền
                                                Đảm bảo giá tốt nhất!
                                                            6.2
                                Đánh giá
                                    (1
                                        đánh giá)
                                            (1
                                            Reviews)
                                Xem phòng
                            Khách Sạn Why Not
                             26 Phạm Ngũ Lão, Huế, Thừa Thiên Huế 
                            (Xem bản đồ)
                            Ven Sông / Sông Hương
                                        “Khách Sạn Why Not Huế tọa lạc tại vị trí lí tưởng ở Huế; một trong những khu vực nổi tiếng của thành phố. Từ đây, du khách có thẻ dễ dàng tới thăm: Tơ lụa thêu tay XQ, Sân vận động Tự Do, Cầu Trường T...
                                        “
                                                Đảm bảo hoàn tiền
                                                Đảm bảo giá tốt nhất!
                                                            9.0
                                Rất tốt
                                    (1
                                        đánh giá)
                                            (58
                                            Reviews)
                                Xem phòng
                            Khe Sanh HomeStay Huế
                             53 Nguyễn Công Trứ, Huế, Thừa Thiên Huế 
                            (Xem bản đồ)
                            Ven Sông / Sông Hương
                                                Đảm bảo hoàn tiền
                                                Đảm bảo giá tốt nhất!
                                                            7.8
                                Đánh giá
                                    (4
                                        đánh giá)
                                Xem phòng
                «
                Trang trước
                1
                2
                3
                4
                Trang sau
                »
                                Thừa Thiên Huế
                            Đặt phòng khách sạn Thừa Thiên Huế giá tốt nhất tại Mytour.vn, với nhiều khuyến mãi từ website và đơn vị khách sạn tiết kiệm lên đến 70%. Hơn 150.000 đánh giá từ khách hàng đã qua sử dụng khách sạn giúp bạn đưa ra những quyết định tốt nhất cho lựa chọn của mình. Đặc biệt chính sách ĐẢM BẢO HOÀN TIỀN chỉ có tại Mytour.vn, giờ đây bạn có thể hoàn toàn tin tưởng vào dịch vụ đặt phòng trực tuyến.  Ngoài ra, chúng tôi cũng trân trọng giới thiệu đến bạn những khách sạn Thừa Thiên Huế tốt nhất 2016 trong các hạng mục Best Seller và Top Review trên website Mytour.vn. Đây là những khách sạn đạt tiêu chuẩn rất cao và làm hài lòng cả những vị khách khó tính nhất.Với hơn 5.000 khách sạn, resort tại 63 tỉnh/ thành phố, Mytour ngày càng được du khách tin dùng để tìm kiếm khách sạn. Mytour sẽ hỗ trợ quý khách đặt khách sạn Thừa Thiên Huế với chi phí hợp lý để có chuyến đi thật thú vị và tiết kiệm. Ngoài việc cung cấp những khách sạn giá tốt nhất, bạn có còn có thể tìm thấy nhiều thông tin du lịch hữu ích và thú vị khác.  Thừa Thiên Huế là một tỉnh ven biển nằm ở vùng Bắc Trung Bộ Việt Nam, giáp tỉnh Quảng Trị về phía bắc, biển Đông về phía đông, thành phố Đà Nẵng về phía đông nam, tỉnh Quảng Nam về phía nam, dãy Trường Sơn và các tỉnhSaravane và Sekong của Cộng hòa Dân chủ Nhân dân Lào về phía tây. Thừa Thiên-Huế cách Hà Nội 654 km, Nha Trang 627 km và Thành phố Hồ Chí Minh 1.071 km.  Khi đặt khách sạn tại Huế, Mytour với hệ thống đặt phòng có hơn 140 khách sạn được trang bị đầy đủ tiện nghi hiện đại cùng với dịch vụ chăm sóc khách hàng hoàn hảo sẽ mang lại cho bạn những trải nghiệm thú vị.  Du lịch Huế bạn sẽ được tham quan những thắng cảnh nổi tiếng nơi đây như:     Kinh thành Huế: Triều Nguyễn có 13 vua mở đầu là vua Gia Long lên ngôi vào (1802-1820). Bốn triều vua đầu tiên của triều Nguyễn được coi là thịnh trị nhất, vua cuối cùng là Vua Bảo Đại (1925-1945). Triều Nguyễn trị vì được 143 năm với 13 vua là triều đại phong kiến cuối cùng của Việt Nam. Vua Gia Long khi lên ngôi đã cho qui hoạch và xây dựng kinh đô. Thành Huế lấy núi Ngự Bình cao 104m là thế Tiền án; sông Hương làm thế Minh đường; cồn Dã Viên làm thế Hữu bạch hổ; cồn Hến làm thế Tả thanh long; rừng núi suối sông phía sau làm thế Nảo đường và thế Hậu chẫm. Đây là các thế phong thủy thông dụng do người Việt Nam thời xưa tin rằng các thế lực của gió (phong) và nước (thủy) sẽ ảnh hưởng tốt hoặc xấu đến con người. Do đó, khi xây dựng nhà ở hay kiến trúc thờ tự, người Việt xưa thường chọn lựa một thế đất tốt thuận lợi cho phong thủy, gọi là đắc địa.  Sông Hương - Núi Ngự:  - Sông Hương: Gọi là sông Hương vì từ xa xưa, dòng sông này chảy qua những cảnh rừng nhiều thảm mộc có hương thơm nên khi chảy qua Huế dòng sông mang theo hương thơm của cây cỏ thiên nhiên.  Sông Hương dài 80km, đoạn sông chảy qua Huế uốn lượn như sắp đặt nhằm tôn tạo thêm vẻ kiều diễm cho Huế và làm vui lòng du khách. Thuyền sẽ đưa du khách dạo bên khu kinh thành, dưới cầu Dã Viên, Phú Xuân, Trường Tiền, đưa du khách lên thăm lăng Minh Mạng, điện Hòn Chén, chùa Thiên Mụ…rồi xuôi về Thuận An tắm biển. Du khách thích suy tư xin mời ngược dòng sông lên rừng thông lăng Thiên Thọ để nghe vi vút thông reo.  - Núi ngự Bình: Núi còn có tên là Băng Sơn, cách kinh thành Huế khoảng 3km. Nhìn từ xa Ngự Bình có dạng hình thang, đỉnh bằng phảng cao 105m. Xét về phong thủy, Ngự Bình có thế bình phong che chở cho kinh thành.  Cùng với sông Hương, núi Ngự Bình là quà tặng vô giá thứ hai của tạo hóa, quyện vào nhau tạo nên vẻ sơn thủy hữu tình của Huế. Từ lâu ngọn núi xinh đẹp này cùng với dòng sông Hương trong xanh đã trở thành biểu tượng của thiên nhiên Huế. Nhiều người đã quen khi nhắc đến Huế cũng đồng thời là xứ sở của “sông Hương núi Ngự”.  Chùa Thiên Mụ: từ cầu Phú Xuân chạy đến cửa kinh thành Huế, ngang qua Ngọ Môn, chạy thẳng đến một ngả ba, đi thẳng vào đường nhỏ là đến chùa Thiên Mụ. Sau khi qua khỏi ngã ba, chúng ta đến làng Kim Long (con rồng vàng). Từ trung tâm đến chùa thiên Mụ chúng ta cũng có thể đi bằng thuyền. Làng Kim Long ngày xưa có tên là An Ninh Hạ, còn An Ninh Thượng là nơi có chùa Thiên Mụ. Làng Kim Long từ xưa đã nổi tiếng bởi làng có nhiều cô gái đẹp. Vua Thành Thái và Duy Tân lấy vợ là người làng này. Hai vị vua này là nhũng người duy nhất cho phép vợ ăn chung mâm và xương hô anh em. Lên một đoạn nữa, dọc bờ sông ta thấy có nhiều cây bắp. Dòng Hương buổi sáng sương mờ lan như một làn khói mỏng. Đó chính là nguồn cảm hứng cho nhà thơ Hàn Mặc Tử sáng tác bài thơ nổi tiếng “Đây thôn Vỹ Dạ”. Tiếp đến bên trái là nhà máy vôi Long Thọ. Ngay sau đó là chùa Thiên Mụ bên phải.  Bãi Biển Lăng Cô: “Lăng Cô” ngày xưa vốn có tên gọi “Làng Cò” bởi vì có rất nhiều cò sinh sống tại đây, về sau “Làng Cò” được đọc trại thành “Lăng Cô”. Cũng có truyền thuyết cho rằng vị tiền hiền khai khẩn vùng đất này vốn là một người con gái. Sau khi mất, để nhớ ơn, người dân đã xây lăng để thờ cô gái và gọi là Lăng Cô. Thời Pháp thuộc, vùng đất phía Bắc đèo Hải Vân được gọi là Lan Củ. Tên Lăng Cô cũng có thể là do đọc trại của cụm từ này.  Ngoài ra, còn có rất nhiều các danh lam thắng cảnh khác như Lăng tẩm các vị vua triều Nguyễn, Cung đình Huế, Phá Tam Giang, VQG Bạch Mã, kinh thành Huế, sân bay Phú Bài, Đàn Nam Giao, Đại nội, chợ Đông Ba, sông Hương…  Bên cạnh đó, một yếu tố khác thu hút khách du lịch đó chính là nền ẩm thực phong phú và đa dạng. Lưu trú tại Huế, quý khách sẽ được thưởng thức đặc sản mè xững Huế, cơm hến, quả vả, bún bò giò heo, bánh bèo, bánh lọc, tôm chua, nem lụi…  Hãy nhanh tay đặt tour tại Huế qua hệ thống đặt phòng, đặt tour trực tuyến của Mytour để chúng tôi có thể hỗ trợ quý khách có một chuyến đi thật thú vị và tiết kiệm với chi phí hợp lý nhất!  Đến với Mytour.vn, bạn sẽ có cơ hội đặt phòng khách sạn giá rẻ tại Huế cùng nhiều chương trình khuyến mại hấp dẫn chỉ dành riêng cho khách hàng Mytour nữa đấy!
            Địa danh ở gần
                                    Sông Hương
                                     ~ 0km
                                    Tượng đài Quan Âm - Huế
                                     ~ 0km
                                    Chùa Tường Vân
                                     ~ 0km
                                    Chùa Từ Hiếu
                                     ~ 0km
                                    Chùa Linh Quang - Huế
                                     ~ 0km
                                    Tịnh Xá Ngọc Hương   
                                     ~ 0km
                                    Tịnh Xá Ngọc Kinh    
                                     ~ 0km
                                    Ga Lăng Cô
                                     ~ 0km
                                    Tử Cấm Thành Huế
                                     ~ 0km
                                    Cung Trường Sanh
                                     ~ 0km
                                    Chùa Thiên Mụ
                                     ~ 0km
                                    Lăng Tự Đức
                                     ~ 0km
                                    Nhà thờ Chính tòa Phú Cam
                                     ~ 0.02km
                                                                Nhà thờ Chính tòa Phú Cam là nhà thờ chính tòa của Tổng Giáo phận Huế, tọa lạc trên đồi Phước Quả, thành phố Huế. Gần nhà thờ Chính tòa Phú Cam có các địa danh như: cố đô Huế, Cửu Đỉnh, Thế Miếu. Hãy để Mytour hỗ trợ bạn để có 1 chuyến đi thú vị, tiết kiệm bằng cách đặt phòng khách sạn gần nhà thờ Chính tòa Phú Cam ngay bây giờ với giá rẻ nhất.
                                    Thành phố Huế
                                     ~ 0.02km
                                                                Thành phố Huế là trung tâm văn hoá du lịch Việt Nam, đặc biệt có dòng sông Hương chảy ngang qua tạo nên nét độc đáo cho cố đô. Tại thành phố Huế có các địa danh như: vườn An Hiên, phố cổ Gia Hội - Chi Lăng. Hãy để Mytour hỗ trợ bạn để có 1 chuyến đi thú vị, tiết kiệm bằng cách đặt phòng khách sạn tại thành phố Huế ngay bây giờ với giá rẻ nhất.
                                    Sông Hương Huế
                                     ~ 0.16km
                                                                Sông Hương là con sông lớn chảy qua giữa lòng Thành phố Huế, nổi tiếng có vẻ đẹp thơ mộng, trữ tình. Gần sông Hương có các địa danh như: kinh thành Huế, Cửu Đỉnh, Lăng Khải Định, Lăng Minh Mạng, Thế Miếu. ãy để Mytour hỗ trợ bạn để có 1 chuyến đi thú vị, tiết kiệm bằng cách đặt phòng khách sạn gần sông Hương ngay bây giờ với giá rẻ nhất.
                                    Bệnh viện trung ương Huế
                                     ~ 0.33km
                                                                Bệnh Viện Trung Ương Huế tọa lạc tại thành phố Huế. Đến với Bệnh Viện Trung Ương Huế, du khách có cơ hội tham quan các địa điểm nổi tiếngnhư Chùa Thiên Mụ, Lăng Tự Đức, Kinh thành Huế...Hãy để Mytour hỗ trợ bạn để có 1 chuyến đi thú vị, tiết kiệm bằng cách đặt phòng khách sạn tại khu vực Bệnh Viện Trung Ương Huế ngay bây giờ với giá rẻ nhất.
                                    Kỳ Ðài
                                     ~ 0.57km
                                                                Kỳ Đài luôn là điểm di tích thu hút đông đảo khách du lịch trong nước và quốc tế đến tham quan hàng năm. Gần Kỳ Đài có các điểm tham quan hấp dẫn như: Kinh thành Huế, Cửu Đỉnh, Thế Miếu, Hiển Lâm Các. Hãy để Mytour hỗ trợ bạn để có 1 chuyến đi thú vị, tiết kiệm bằng cách đặt phòng khách sạn gần Kỳ Đài ngay bây giờ với giá rẻ nhất.
                                    Ngọ Môn Huế
                                     ~ 0.76km
                                                                Ngọ Môn Huế là một trong những công trình kiến trúc cổ tiêu biểu của miền quê núi Ngự và là nơi chứng kiến nhiều sự kiện lịch sử quan trọng. Gần Ngọ Môn Huế có các địa danh như: Hiển Lâm Các, Cửu Đỉnh, Thế Miếu. Hãy để Mytour hỗ trợ bạn để có 1 chuyến đi thú vị, tiết kiệm bằng cách đặt phòng khách sạn gần Ngọ Môn Huế ngay bây giờ với giá rẻ nhất.
                                    Cầu Tràng Tiền
                                     ~ 0.84km
                                                                Cầu Tràng Tiền in sâu trong lòng mỗi người dân nơi đây và cả những du khách như một biểu tượng của đất Cố đô. Gần cầu Tràng Tiền có các địa danh như: Lăng Khải Định, Cửu Đỉnh, Thế Miếu, sông Hương. Hãy để Mytour hỗ trợ bạn để có 1 chuyến đi thú vị, tiết kiệm bằng cách đặt phòng khách sạn gần cầu Tràng Tiền ngay bây giờ với giá rẻ nhất.
                                    Hiển Lâm Các
                                     ~ 0.89km
                                                                Hiển Lâm Các Là một trong những công trình kiến trúc cổ đẹp nhất của quần thể di tích cố đô Huế, có giá trị cả về kỹ thuật lẫn thẩm mỹ. Gần Hiển Lâm Các có các địa danh như: Cổng Ngọ Môn, Điện Thái Hoà, Cửu Đỉnh. Hãy để Mytour hỗ trợ bạn để có 1 chuyến đi thú vị, tiết kiệm bằng cách đặt phòng khách sạn gần Hiển Lâm Các ngay bây giờ với giá rẻ nhất.
                                    Điện Thái Hòa
                                     ~ 0.91km
                                                                Điện Thái Hòa là công trình quan trọng nhất trong khu vực đại nội của kinh thành Huế - nơi các vị vua Nguyễn ngự trên ngai vàng cai trị đất nước. Gần Điện Thái Hòa có các địa danh: Hiển Lâm Các, Điện Phụng Tiên. Hãy để Mytour hỗ trợ bạn để có 1 chuyến đi thú vị, tiết kiệm bằng cách đặt phòng khách sạn gần Điện Thái Hòa ngay bây giờ với giá rẻ nhất.
                                    Cửu Đỉnh
                                     ~ 0.93km
                                                                Cửu Đỉnh là bộ 9 chiếc đỉnh đồng lớn nhất Việt Nam đúc năm 1836 thời Minh Mạng được đặt dưới bóng Hiển Lâm Các, trước sân Thế Miếu. Gần Cửu Đỉnh có các địa danh như: cổng Ngọ Môn, Hưng Tổ Miếu, Điện Phụng Tiên. Hãy để Mytour hỗ trợ bạn để có 1 chuyến đi thú vị, tiết kiệm bằng cách đặt phòng khách sạn gần Cửu Đỉnh ngay bây giờ với giá rẻ nhất.
                                    Thế Miếu
                                     ~ 0.95km
                                                                Thế Miếu là nơi thờ cúng các vua Nguyễn, đây là một trong những công trình to lớn bậc nhất so với các miếu, điện ở Việt Nam. Gần Thế Miếu có các địa danh như: Cung Diên Thọ, Cung Trường Sanh, Hiển Lâm Các. Hãy để Mytour hỗ trợ bạn để có 1 chuyến đi thú vị, tiết kiệm bằng cách đặt phòng khách sạn gần Thế Miếu ngay bây giờ với giá rẻ nhất.
                                    Ga Huế
                                     ~ 1.07km
                                                                Ga Huế là trung tâm di chuyển của thành phố Huế. Đến với Ga Huế, du khách có cơ hội tham quan các địa điểm du lịch nổi tiếng của nơi này như Chùa Thiên Mụ, Lăng Tự Đức, Sông Hương, Kinh thành Huế...Hãy để Mytour hỗ trợ bạn để có 1 chuyến đi thú vị, tiết kiệm bằng cách đặt phòng khách sạn tại khu vực Ga Huế ngay bây giờ với giá rẻ nhất.
                                    Đại Nội
                                     ~ 1.08km
                                                                Đại Nội bao gồm Hoàng Thành và Tử Cấm Thành, được bao bọc bởi hai bức tường thành dày là Ngoại Thành và Nội Thành, thuộc cố đô Huế. Gần Đại Nội có các địa danh như: Lăng Minh Mạng, Cửu Đỉnh, Thế Miếu. Hãy để Mytour hỗ trợ bạn để có 1 chuyến đi thú vị, tiết kiệm bằng cách đặt phòng khách sạn gần Đại Nội ngay bây giờ với giá rẻ nhất.
                                    Kinh thành triều Nguyễn
                                     ~ 1.29km
                                                                Kinh thành triều Nguyễn nằm ở Bắc sông Hương, thành phố Huế tổng thể kiến trúc bao gồm Kinh thành, Hoàng thành và Tử Cấm thành. Gần kinh thành triều Nguyễn có các địa dah như: Lăng Minh Mạng, Cửu Đỉnh. Hãy để Mytour hỗ trợ bạn để có 1 chuyến đi thú vị, tiết kiệm bằng cách đặt phòng khách sạn gần kinh thành triều Nguyễn ngay bây giờ với giá rẻ nhất.
                                    Kinh thành Huế
                                     ~ 1.69km
                                                                Kinh Thành Huế nằm tại thành phố Huế, tỉnh Thừa Thiên Huế. Từ đây, du khách có cơ hội đến thăm nhiều địa điểm nổi tiếng như: Kỳ Đài, trường Quốc Tử Giám, Điện Long An, bảo tàng mỹ thuật Cung đình Huế… Hãy để Mytour hỗ trợ bạn để có 1 chuyến đi thú vị, tiết kiệm bằng cách đặt phòng khách sạn khu vực Kinh Thành Huế bây giờ với giá chỉ từ 115,000 VND.
                                    Chùa Thiền Lâm - chùa “Phật đứng - Phật nằm”
                                     ~ 3.79km
                                                                Chùa Thiền Lâm  là địa điểm du lịch tâm linh của Huế. Đến với Chùa Thiền Lâm , du khách có cơ hội tham quan các địa điểm du lịch nổi tiếng như Kinh Thành Huế, Lăng Tự Đức, Chùa Thiên Mụ...Hãy để Mytour hỗ trợ bạn để có 1 chuyến đi thú vị, tiết kiệm bằng cách đặt phòng khách sạn tại khu vực Chùa Thiền Lâm  ngay bây giờ với giá rẻ nhất.
                                    Lăng Khải Định
                                     ~ 7.18km
                                                                Lăng Khải Định là một công trình có giá trị về mặt nghệ thuật và kiến trúc, làm phong phú và đa dạng cho quần thể lăng tẩm ở di sản Huế. Gần Lăng Khải Định có các địa danh như: Kinh Thành Huế, chùa Thiên Mụ. Hãy để Mytour hỗ trợ bạn để có 1 chuyến đi thú vị, tiết kiệm bằng cách đặt phòng khách sạn gần Lăng Khải Định ngay bây giờ với giá rẻ nhất.
                                    Lăng Minh Mạng
                                     ~ 8.58km
                                                                Lăng Minh Mạng là một tổng thể kiến trúc quy mô, toát lên vẻ đường bệ, uy nghiêm nhưng rất hài hòa giữa các công trình kiến trúc và thiên nhiên. Gần Lăng Minh Mạng có các địa danh như: Cửu Đỉnh, Thế Miếu. Hãy để Mytour hỗ trợ bạn để có 1 chuyến đi thú vị, tiết kiệm bằng cách đặt phòng khách sạn gần Lăng Minh Mạng ngay bây giờ với giá rẻ nhất.
                 Du lịch Thừa Thiên Huế 
                  Cẩm nang du lịch Huế từ A đến Z   Ẩm thực xứ Huế - tất tần tật những món ăn gây nhớ thương   Đi qua xứ Huế mộng mơ có những điểm đến làm ngọt lòng du khách   ‘Mách nhỏ’ chỗ ở tốt cho khách du lịch Huế   Du lịch xứ Huế nên chọn quà gì?   Từ A-Z cách di chuyển khi đi du lịch Huế   Khám phá vẻ đẹp cố đô Huế trong thời khắc mỗi mùa   Ấn tượng với những nét riêng trong văn hóa Huế thương   Những lưu ý cho một chuyến du lịch Huế hoàn hảo  
                ×
                    Chính sách đảm bảo hoàn tiền của mytour
                    Bạn chưa tin tưởng việc đặt phòng khách sạn trực tuyến? Bạn e ngại rằng phòng khách sạn thực tế không đúng với thông tin trên website? Chúng tôi cam kết đưa đầy đủ và chính xác thông tin khách sạn trên website với chính sách “Đảm bảo Hoàn tiền”
                        Nếu khách hàng đặt khách sạn thành công trên Mytour nhưng khách sạn không có phòng, Mytour sẽ hoàn lại tiền cho khách và tặng kèm phiếu giảm giá có giá trị bằng với số tiền khách hàng đã trả.
                        Trong trường hợp loại phòng thực tế không đúng với loại phòng trên đơn hàng, Mytour sẽ quyết định nâng cấp miễn phí hoặc tặng phiếu giảm giá có giá trị bằng với số tiền khách hàng đã trả.
                        Trường hợp các tiện nghi phòng khách sạn (như bữa sáng, wifi…) không đúng với nội dung trên website, Mytour sẽ tặng phiếu giảm giá có giá trị bằng 10% số tiền khách đã trả (tối đa 500,000 VND)
                        Khách hàng cần gọi điện thoại 04-7309 9899 (Hà Nội), 08-7309 9899 (Hồ Chí Minh) hoặc email tới info@mytour.vn và cung cấp mã đơn hàng trong vòng 24 giờ từ lúc nhận phòng để được trợ giúp giải quyết khiếu nại (Hotline chỉ hỗ trợ trong giờ hành chính).
                        Mytour không chịu trách nhiệm bồi thường thiệt hại gián tiếp, ngẫu nhiên, hay do hậu quả phát sinh. Trong mọi trường hợp, trách nhiệm của Mytour không vượt quá tổng số tiền khách hàng thanh toán đặt phòng.
                ×
                    Đảm bảo giá tốt nhất
                    Nếu Thành viên đã đặt một phòng khách sạn được “Đảm Bảo” tại Mytour.vn và sau đó, cho Mytour.vn  thấy rằng Thành viên có thể đặt một phòng tương tự trong cùng khoảng thời gian ở mức giá tốt hơn có thể xem và đặt được trên một website khác, Mytour.vn sẽ giảm giá bằng hoặc thấp hơn mức giá đó.
                    Giá dùng để so sánh là giá sau khi áp dụng mức giảm giá công bố trên website Mytour.vn.
                    Chính sách “Đảm Bảo Giá Tốt Nhất” của Mytour.vn chỉ áp dụng cho các đặt phòng đã được xác nhận và phải thỏa mãn những điều kiện sau:
                Cùng khách sạnCùng thời gian nghỉ lạiCùng loại Phòng/GiườngCùng các yêu cầu mua Trước, yêu cầu trả trước và đặt cọc (nếu có)Cùng chính sách Hủy và Sửa Đổi
                    Phòng đó phải còn trống để được xác nhận ngay tại thời điểm các đại lý của Mytour.vn  kiểm tra phòng trống
                        Chính sách “Đảm Bảo Giá Tốt Nhất” không áp dụng cho các mức giá không công bố, như: chương trình khách hàng thân thiện.
                        Bất kỳ tổ chức nào với các mức giá dành cho nhóm cá nhân cụ thể và không nhằm mục đích áp dụng ra bên ngoài.
                        Thành viên có thể gửi khiếu nại theo địa chỉ : info@mytour.vn
                                Nêu mã đặt phòng Mytour.vn trong dòng tiêu đề thư
                                Gửi URL của website nơi Thành viên tìm thấy mức giá tốt hơn
                                Cung cấp ảnh chụp màn hình của website đối thủ cạnh tranh trong đó nêu rõ Phòng Trống, Loại Phòng, và các mức giá cho những ngày nghỉ lại theo yêu cầu của Thành viên.
                VUI LÒNG LƯU Ý: Thành viên không cần thực hiện đặt phòng trên website của đối thủ cạnh tranh, chỉ cần cho Mytour.vn thấy sự so sánh.
                ×
                Đăng Nhập
                                 Đăng nhập bằng tài khoản Facebook
                                 Đăng nhập bằng tài khoản Google
                            Hoặc đăng nhập bằng
                        Email*
                        Mật khẩu*
                        Quên mật khẩu?
                            Chưa có tài khoản/tạo tài khoản
                Đăng nhập
                         Nhớ đăng nhập
                ×
                Bản đồ
                                            Thừa Thiên Huế
                    Tìm đường
                        Từ: 
                        Đến: 
                            Khách sạnĐịa danh Hiển thị các khách sạn ở gần Hiển thị các khu du lịch ở gần
                ×
                Yêu Cầu Lấy Giá
                                    Ngày nhận phòng
                                    Ngày trả phòng
                        Tên khách hàng
                        Email
                        Điện thoại
                        Nhân viên chăm sóc khách hàng sẽ gọi điện cho quý khách trong thời gian sớm nhất.
                        Quý khách có thể gọi điện đến cho Mytour để được tư vấn ngay:
                        Hà Nội: (04) 7109 9999, Hồ Chí Minh: (08) 7309 9899, Support
                            English: (+84)4-7309-9899.
                    Hoàn thành
                ×
                Gửi Thông Tin
                        Tên khách hàng
                        Email
                        Điện thoại
                            Quý khách sẽ thấy giá giảm ngay trên trang sau khi gửi thông tin
                    Hoàn thành
                ×
                Nhận Giá Tốt
                                    Ngày nhận phòng
                                    Ngày trả phòng
                        Tên khách hàng
                        Email
                        Điện thoại
                        Vì giá tốt không được công bố nên hệ thống sẽ gửi giá qua email đến quý khách và nhân viên chăm
                        sóc sẽ gọi điện cho quý khách trong thời gian sớm nhất.
                        Quý khách có thể gọi điện đến cho Mytour để được tư vấn ngay:
                        Hà Nội: (04) 7109 9999, Hồ Chí Minh: (08) 7309 9899, Support
                            English: (+84)4-7309-9899.
                    Hoàn thành
                ×
                ×
                ĐÁNH GIÁ 
                        Tên
                        Tiêu đề
                        Kiểu du lịch?
                                -- Chọn --Cá nhânCặp đôiGia đìnhBạn bèDoanh nghiệp
                        Nội dung
                                Đánh giá chi tiết
                                Chỗ ở
                                5
                                Thức ăn
                                5
                                Phương tiện
                                5
                                Hướng dẫn viên
                                5
                                Lịch trình
                                5
                    Gửi đánh giá
                    Hủy Bỏ
                ×
                Gửi lại email kích hoạt
                ×
                Thông tin chi tiết giá theo phòng
                    Chọn khoảng thời gian hiển thị giá phòng
                    Hiển thị giá
                ×
                Khóa phòng theo khoảng thời gian
                            Chọn khoảng thời gian check-in cần khóa/mở phòng
                            Khóa phòng
                            Mở phòng
                ×
                THUẾ VÀ PHÍ DỊCH VỤ
                17% thuế và phí dịch vụ bao gồm:
                    - 10% thuế và 5% phí dịch vụ hoàn trả lại cho khách sạn.
                    - 2% phí giao dịch tại Mytour.
                ×
                Bạn có hài lòng về website của Mytour?
                    Thông điệp nhắn nhủ:
                Mytour luôn mong muốn cải thiện dịch vụ để bạn có trải nghiệm tốt hơn!
                            Ảnh đính kèm
                        Đóng
                        Gửi
                ×
                    Những đóng góp của bạn đã được ghi nhận. Mytour cám ơn bạn !
                Quay lại website
            Khách sạn theo các tỉnh thành
                        An Giang
                        Bà Rịa - Vũng Tàu
                        Bắc Giang
                        Bắc Kạn
                        Bạc Liêu
                        Bắc Ninh
                        Bến Tre
                        Bình Định
                        Bình Dương
                        Bình Phước
                        Bình Thuận
                        Cà Mau
                        Cần Thơ
                        Cao Bằng
                        Đà Lạt
                        Đà Nẵng
                        Đắk Nông
                        Đắk Lắk
                        Điện Biên
                        Đồng Nai
                        Đồng Tháp
                        Gia Lai
                        Hà Giang
                        Hạ Long
                        Hà Nam
                        Hà Nội
                        Hà Tĩnh
                        Hải Dương
                        Hải Phòng
                        Hậu Giang
                        Hồ Chí Minh
                        Hoà Bình
                        Hội An
                        Hưng Yên
                        Khánh Hòa
                        Kiên Giang
                        Kon Tum
                        Lai Châu
                        Lâm Đồng
                        Lạng Sơn
                        Lào Cai
                        Long An
                        Nam Định
                        Nghệ An
                        Nha Trang
                        Ninh Bình
                        Ninh Thuận
                        Phan Thiết
                        Phú Quốc
                        Phú Thọ
                        Phú Yên
                        Quảng Bình
                        Quảng Nam
                        Quảng Ngãi
                        Quảng Ninh
                        Quảng Trị
                        Sa Pa
                        Sóc Trăng
                        Sơn La
                        Tây Ninh
                        Thái Bình
                        Thái Nguyên
                        Thanh Hoá
                        Thành Phố Huế
                        Thừa Thiên Huế
                        Tiền Giang
                        Trà Vinh
                        Tuyên Quang
                        Vĩnh Long
                        Vĩnh Phúc
                        Vũng Tàu
                        Yên Bái
                Du lịch Thừa Thiên Huế
                                Du lịch Huế
                                Du lịch Phú Lộc
                                Du lịch Phú Vang
                                Du lịch Hương Thủy
                                Du lịch A Lưới
                                Du lịch Phong Điền - Thừa Thiên Huế
                                Du lịch Nam Đông 
                            Giới thiệu Mytour
                            Đối tác khách sạn
                            Đăng nhập HMS
                            Tích lũy Vpoint
                            Điều khoản sử dụng
                            Quy chế hoạt động
                            Tuyển dụng
                            Liên hệ
                            Đăng ký nhận email
                                Đăng ký email để nhận khuyến mãi lên đến 70%
                                    Đăng
                                    ký
                    Công ty TNHH Mytour Việt Nam
                    Số ĐKKD: 0105983269 cấp ngày 30/08/2012
                    Văn phòng Hà Nội: Tầng 4, tòa nhà GP Invest, 170 Đê La Thành, Đống Đa
                    Văn phòng HCM: Tầng 5, Tòa Nhà HDTC, Số 36 Bùi Thị Xuân, Q.1
                Hotline
                        Hà Nội:
                        (04) 7109 9999
                        Tp. HCM:
                        (08) 7309 9899
                        ENGLISH SUPPORT:
                        (+84)4 7309 9899
