url:http://mytour.vn/c59/khach-san-4-sao-tai-vinh-long.html
Tittle :Khách sạn 4 sao tại Vĩnh Long giá tốt nhất - Mytour.vn
content :Đặt phòng trực tuyến, hoặc gọi
                                                            Hà Nội: (04) 7109 9999
                                                                                        - (04) 7309 9899
                                                            Hồ Chí Minh: (08) 7309 9899
                                                                                        - (08) 7109 9998
                        T2 - CN: 08:00 - 23:00
                    Toggle navigation
                                Bạn không có thông báo nào
                    |
                    ||
                                                            Tài khoản
                        Đăng nhập
                                Đăng kýKhách sạn yêu thích
                            Khách sạn
                            Tour
                            Cẩm nang du lịch
                            Thông tin
                                                Về Mytour
                                                Tin khuyến mãi
                                                Ưu đãi
                                                Hướng dẫn
                                                Liên hệ
                            Tốt nhất 2016
                ×
                Bạn có chắc muốn hủy đơn hàng?
                Lorem ipsum dolor sit amet, consectetur adipisicing elit. Iure corporis repudiandae nobis distinctio
                quae quos, officia modi, ab voluptatem pariatur ducimus mollitia, necessitatibus sed soluta dicta
                repellendus! Praesentium debitis, temporibus?
                    Đồng ý
                    Đóng
                    Khách sạnKhách sạn tại Vĩnh LongKhách sạn 4 sao tại Vĩnh Long
                    Áp dụng
                    Đóng
            Tìm Kiếm Khách Sạn
                            Ngày nhận phòng
                            Ngày trả phòng
                    Số đêm
                    Số phòng
                        123456789101112
                    Người lớn
                        123456789101112
                    Tìm khách sạn
                                Bộ lọc tìm kiếm
                                        Theo mức giá
                                                        Dưới 500.000
                                                        500.000 - 1.000.000
                                                        1.000.000 - 1.500.000
                                                        1.500.000 - 2.000.000
                                                        2.000.000 - 2.500.000
                                                        2.500.000 - 3.000.000
                                                        Trên 3.000.000
                                    Hạng Khách Sạn
                                    Loại khách sạn
                                                    Khách sạn
                                                    Resort
                                Tiện nghi
                                                Đưa đón khách sạn sân bay
                                                Bữa sáng miễn phí
                                                Bể bơi ngoài trời
                                                Bãi đỗ xe
                                                Phòng họp
                                                Phòng tập thể thao
                                                Thang máy
                                                Thêm giường phụ
                                                Truyền hình cáp/vệ tinh
                                                Wifi miễn phí
                                                Giặt là
                                                Nhà hàng
                                                Spa
            Quận huyện
                        Thành phố Vĩnh Long
                        Bình Minh 
                        Bình Tân
                        Long Hồ 
                        Mang Thít 
                        Tam Bình 
                        Trà Ôn 
                        Vũng Liêm 
            Khu vực
                        Tượng đài Chiến Thắng Mậu Thân
                        Bảo tàng tỉnh Vĩnh Long
                        Văn Thánh Miếu Vĩnh Long
                        Đền thờ Phạm Hùng
                        Khu du lịch Trường An
                        Khu Du Lịch Sinh Thái Mười Hưởng
                        Khu Du Lịch Sinh Thái Cù Lao An Bình
                        Chợ Long Hồ
                        Khu du lịch sinh thái Mekong Đồng Phú
                        Chợ Phú Hưng
                        Chợ Mỹ An
                        Chợ Song Phú
                        Nhà Thờ Ba Kè
                        Chợ Cái Nhum
                        Chùa Phước Sơn
                        Nhà Thờ Mỹ Chánh
                        Phà Mang Thít
                        Chợ Bình Minh
                        Chợ Đông Bình
                        Chợ Tân Quới
                        Chùa Bồ Đề
                        Chợ Thới Hòa
                        Chợ Tân Lược
                        Chợ Vũng Liêm
                        Chùa Phước Hậu
                        Chợ Trà Ôn
             Giá tốt hơn so với đặt phòng trực
            tiếp tại khách sạn
             Đảm bảo 
            giá tốt nhất 
             Đảm bảo 
            hoàn tiền
             Nhân viên chăm sóc, tư vấn nhiều kinh nghiệm
             Hơn 5000 khách sạn tại Việt Nam với
            đánh giá thực
             Nhiều chương trình khuyến mãi và tích lũy điểm
             Thanh toán dễ dàng, đa dạng
                            Khách sạn 4 sao tại Vĩnh Long
                                     Xem Bản Đồ
                            Vĩnh Long là một tỉnh nằm ở khu vực đồng bằng sông Cửu Long với nhiều sông ngòi và kênh rạch. Các điểm tham quan nổi tiếng có thể kể đến như: Cầu Mỹ Thuận, Khu du lịch Vinh Sang, Văn Thánh Miếu, Chùa Tiên Châu. Hãy để Mytour hỗ trợ bạn để có 1 chuyến đi thú vị, tiết kiệm bằng cách đặt phòng khách sạn 4 sao Vĩnh Long ngay bây giờ với giá tốt nhất.
                                Có 0
                                khách sạn ở
                                đây theo ngày đã chọn
                        Ngày nhận phòng
                        Ngày trả phòng
                Số đêm
                Số phòng
                    123456789101112
                Người lớn
                    123456789101112
                Cập nhật ngày
                             Bộ lọc
                                            Phổ biến nhất
                                     Hạng khách sạn
                                                                                                Hạng sao [5...1]
                                                                                                Hạng sao [1...5]
                                            Đánh giá cao nhất
                                            Khuyến mãi
                                     Giá
                                                                                                Giá tăng dần
                                                                                                Giá giảm dần
                            Sắp xếp:
                            Đánh giá cao nhất
                        Phổ biến nhấtĐánh giá cao nhấtGiá tăng dầnGiá giảm dầnHạng tăng dầnHạng giảm dầnKhuyến mãi
                            ×
                            Không tìm thấy kết quả nào với các tiêu chí tìm kiếm của bạn.
                                Vĩnh Long
                            Đặt phòng khách sạn Vĩnh Long giá tốt nhất tại Mytour.vn, với nhiều khuyến mãi từ website và đơn vị khách sạn tiết kiệm lên đến 70%. Hơn 150.000 đánh giá từ khách hàng đã qua sử dụng khách sạn giúp bạn đưa ra những quyết định tốt nhất cho lựa chọn của mình. Đặc biệt chính sách ĐẢM BẢO HOÀN TIỀN chỉ có tại Mytour.vn, giờ đây bạn có thể hoàn toàn tin tưởng vào dịch vụ đặt phòng trực tuyến.Với hơn 5.000 khách sạn, resort tại 63 tỉnh/ thành phố, Mytour ngày càng được du khách tin dùng để tìm kiếm khách sạn. Mytour sẽ hỗ trợ quý khách đặt khách sạn Vĩnh Long với chi phí hợp lý để có chuyến đi thật thú vị và tiết kiệm. Ngoài việc cung cấp những khách sạn giá tốt nhất, bạn có còn có thể tìm thấy nhiều thông tin du lịch hữu ích và thú vị khác.  Vĩnh Long cách thành phố Hồ Chí Minh 136km về phía tây nam.  Tỉnh Vĩnh Long là trung tâm và là hình ảnh thu nhỏ của đồng bằng sông Cửu Long bởi sự đa dạng và trù phú của vùng đất giữa hai dòng sông lớn Tiền Giang và Hậu Giang. Phía bắc tỉnh Vĩnh Long giáp Tiền Giang, tây bắc giáp Đồng Tháp, đông giáp Bến Tre, đông Nam giáp Trà Vinh, phía nam giáp Hậu Giang, Sóc Trăng, tây nam giáp Cần Thơ.  Khi đặt khách sạn tại Vĩnh Long, Mytour với hệ thống đặt phòng có hơn 6 khách sạn được trang bị đầy đủ tiện nghi hiện đại cùng với dịch vụ chăm sóc khách hàng hoàn hảo sẽ mang lại cho bạn những trải nghiệm thú vị và hài lòng cả những du khách khó tính nhất.  Du lịch Vĩnh Long bạn sẽ được tham quan những thắng cảnh nổi tiếng nơi đây như:                    Chùa Tiên Châu: Chùa Tiên Châu ở cù lao sông Tiền thuộc làng Bình Lương và An Thành (nay là ấp Bình Lương, xã An Bình, huyện Long Hồ). Tên đầu tiên của chùa Tiên Châu là Di Đà tự. Theo truyền thuyết hai làng Bình Lương và An Thành mặc dù cách nơi đô hội không xa nhưng không khí tĩnh mịch, cây cối tươi tốt. Tại nơi đây có xóm chài lưới, nhà cửa thưa thớt. Những đêm trăng thanh gió mát, thỉnh thoảng có tiên nữ xuống trần tắm. Do đó bãi sông này được đặt tên là Bãi Tiên (Tiên Châu) hay bãi Bích Trân.  Cuối thế kỷ XIX chùa Di Đà bị xuống cấp nên tín đồ Phật tử đã trùng tu ngôi chùa vào năm Kỷ Hợi 1899. Từ đó ngôi chùa có tên chính thức là Tiên Châu Tự. Di Đà tự là một đại già lam, Bãi Tiên là một thắng cảnh. Do đó, từ xưa đến nay có rất nhiều tài tử giai nhân đến ngắm cảnh, ngâm vịnh.  Khu Du Lịch Vinh Sang - Cù Lao An Bình: Du lịch cưỡi đà điểu tại trang trại Vinh Sang, ấp An Thuận, xã An Bình, huyện Long Hồ, tỉnh Vĩnh Long có từ đầu năm. Nơi đây đã thu hút hàng nghìn du khách, trong đó khách nước ngoài chiếm 15-20%.  Ngay khi bước vào cổng trang trại, anh bảo vệ hướng dẫn đến khu vực nuôi đà điểu. Cả đội có 33 con, những chú trống được nuôi riêng 1 chuồng phục vụ du khách. Theo anh Vinh, chủ trang trại, “con trống to hơn con mái, có thể chịu được sức nặng gần 200 kg, dùng để chuyên chở, con mái được cưng hơn vì phải đảm đương nhiệm vụ sinh đẻ”.  Cầu Mỹ Thuận: là một cây cầu bắc qua sông Tiền Giang ở đồng bằng sông Cửu Long, được chính thức khởi công ngày 6 tháng 7, 1997 và hoàn thành vào 21 tháng 5 năm 2000.  Cầu do các công ty Baulderstone Hornibrook của Úc và Cienco 6 của Bộ Giao thông Vận tải thiết kế và thi công, với chi phí 90,86 triệu đôla Úc, trong đó chương trình AusAid của chính phủ Úc góp 66% và chính phủ Việt Nam là 34%. Cầu giúp người dân trong vùng đi lại thuận tiện hơn thay vì dùng bắc Mỹ Thuận, đồng thời thúc đẩy phát triển kinh tế-xã hội về lâu dài cho khu vực 16 triệu dân. Cầu là một kết nối quan trọng của quốc lộ 1A, nối đồng bằng sông Cửu Long với thành phố Hồ Chí Minh.  Cầu dài 1.535 m, phần cầu chính là cầu treo dây giăng dài 350 m, nhịp giữa thông thuyền 350 m.  Chiều cao thông thuyền 37,5 m; Phần cầu phụ mỗi bên gồm 11 nhịp, dài 437,6 m; Chiều rộng mặt cầu 23,6 m, gồm 4 làn xe cơ giới và 2 lề cho người đi bộ  Bên cạnh đó, một yếu tố khác thu hút khách du lịch đó chính là nền ẩm thực phong phú và đa dạng. Lưu trú tại Vĩnh Long, quý khách sẽ được thưởng thức đặc sản với nhiều loại cá ngon nổi tiếng như: cá cháy, cá lẹp, cá phèn, cá lưỡi trâu, cá linh,... Đặc thù sông nước mênh mông cũng tạo cho đời sống ẩm thực của người dân Vĩnh Long đủ loại rau rừng, rau sông có thể ăn được như: đọt non của cây săng máu, rau choại, đọt non cây bằng lăng, lá bứa rừng vừa dày vừa chua nhẹ ăn với bánh xèo, bánh khọt rất ngon, ăn mắm kho thì kiếm rau mát, lá chòi mòi, cỏ xước, bông súng, bông lục bình, bồn bồn, cọng lá tai tượng màu vàng, ngó môn, nấu cháo cá bỏ thêm lá sầu đâu, nấu canh chua cũng có thể dùng rất nhiều loại rau, quả như củ mái dầm, cải trời, trái bần, đọt cóc, lá giang, lá bứa rừng,…Người dân Vĩnh Long còn tập quán thích ăn những món ăn dân dã độc đáo của miệt ruộng đồng dưới hình thức nướng bằng rơm gọi là nướng trui. Cũng liên quan đến sông nước là các món ăn được chế biến từ ốc như: ốc bươu xào, ốc luộc, ốc lác hấp lá gừng non,…  Hãy đến với dịch vụ đặt tour tại Vĩnh Long qua hệ thống đặt phòng, đặt tour trực tuyến của Mytour để chúng tôi có thể hỗ trợ quý khách có một chuyến đi thật thú vị và tiết kiệm với chi phí hợp lý nhất!
            Địa danh ở gần
                                    Khu du lịch Vinh Sang
                                     ~ 0km
                                    Công viên sông Tiền
                                     ~ 0km
                                    Chùa Phước Hậu
                                     ~ 31.1km
                                                                Chùa Phước Hậu là địa điểm du lịch tâm linh thuộc tỉnh Vĩnh Long. Đến với Chùa Phước Hậu, du khách có cơ hội tham quan các địa điểm du lịch như Văn Thánh Miếu, Chùa Tiên Châu, khu du lịch Vinh Sang...Hãy để Mytour hỗ trợ bạn để có 1 chuyến đi thú vị, tiết kiệm bằng cách đặt phòng khách sạn tại khu vực Chùa Phước Hậu ngay bây giờ với giá rẻ nhất.
                                    Lăng Thống Chế Điều Bát 
                                     ~ 31.18km
                                                                Lăng Thống Chế Điều Bát thuộc tỉnh Vĩnh Long. Đến với Lăng Thống Chế Điều Bát, du khách có cơ hội tham quan các địa điểm du lịch nổi tiếng như Văn Thánh Miếu, Chùa Tiên Châu...Hãy để Mytour hỗ trợ bạn để có 1 chuyến đi thú vị, tiết kiệm bằng cách đặt phòng khách sạn tại khu vực Lăng Thống Chế Điều Bát ngay bây giờ với giá rẻ nhất.
                 Du lịch Vĩnh Long 
                ×
                    Chính sách đảm bảo hoàn tiền của mytour
                    Bạn chưa tin tưởng việc đặt phòng khách sạn trực tuyến? Bạn e ngại rằng phòng khách sạn thực tế không đúng với thông tin trên website? Chúng tôi cam kết đưa đầy đủ và chính xác thông tin khách sạn trên website với chính sách “Đảm bảo Hoàn tiền”
                        Nếu khách hàng đặt khách sạn thành công trên Mytour nhưng khách sạn không có phòng, Mytour sẽ hoàn lại tiền cho khách và tặng kèm phiếu giảm giá có giá trị bằng với số tiền khách hàng đã trả.
                        Trong trường hợp loại phòng thực tế không đúng với loại phòng trên đơn hàng, Mytour sẽ quyết định nâng cấp miễn phí hoặc tặng phiếu giảm giá có giá trị bằng với số tiền khách hàng đã trả.
                        Trường hợp các tiện nghi phòng khách sạn (như bữa sáng, wifi…) không đúng với nội dung trên website, Mytour sẽ tặng phiếu giảm giá có giá trị bằng 10% số tiền khách đã trả (tối đa 500,000 VND)
                        Khách hàng cần gọi điện thoại 04-7309 9899 (Hà Nội), 08-7309 9899 (Hồ Chí Minh) hoặc email tới info@mytour.vn và cung cấp mã đơn hàng trong vòng 24 giờ từ lúc nhận phòng để được trợ giúp giải quyết khiếu nại (Hotline chỉ hỗ trợ trong giờ hành chính).
                        Mytour không chịu trách nhiệm bồi thường thiệt hại gián tiếp, ngẫu nhiên, hay do hậu quả phát sinh. Trong mọi trường hợp, trách nhiệm của Mytour không vượt quá tổng số tiền khách hàng thanh toán đặt phòng.
                ×
                    Đảm bảo giá tốt nhất
                    Nếu Thành viên đã đặt một phòng khách sạn được “Đảm Bảo” tại Mytour.vn và sau đó, cho Mytour.vn  thấy rằng Thành viên có thể đặt một phòng tương tự trong cùng khoảng thời gian ở mức giá tốt hơn có thể xem và đặt được trên một website khác, Mytour.vn sẽ giảm giá bằng hoặc thấp hơn mức giá đó.
                    Giá dùng để so sánh là giá sau khi áp dụng mức giảm giá công bố trên website Mytour.vn.
                    Chính sách “Đảm Bảo Giá Tốt Nhất” của Mytour.vn chỉ áp dụng cho các đặt phòng đã được xác nhận và phải thỏa mãn những điều kiện sau:
                Cùng khách sạnCùng thời gian nghỉ lạiCùng loại Phòng/GiườngCùng các yêu cầu mua Trước, yêu cầu trả trước và đặt cọc (nếu có)Cùng chính sách Hủy và Sửa Đổi
                    Phòng đó phải còn trống để được xác nhận ngay tại thời điểm các đại lý của Mytour.vn  kiểm tra phòng trống
                        Chính sách “Đảm Bảo Giá Tốt Nhất” không áp dụng cho các mức giá không công bố, như: chương trình khách hàng thân thiện.
                        Bất kỳ tổ chức nào với các mức giá dành cho nhóm cá nhân cụ thể và không nhằm mục đích áp dụng ra bên ngoài.
                        Thành viên có thể gửi khiếu nại theo địa chỉ : info@mytour.vn
                                Nêu mã đặt phòng Mytour.vn trong dòng tiêu đề thư
                                Gửi URL của website nơi Thành viên tìm thấy mức giá tốt hơn
                                Cung cấp ảnh chụp màn hình của website đối thủ cạnh tranh trong đó nêu rõ Phòng Trống, Loại Phòng, và các mức giá cho những ngày nghỉ lại theo yêu cầu của Thành viên.
                VUI LÒNG LƯU Ý: Thành viên không cần thực hiện đặt phòng trên website của đối thủ cạnh tranh, chỉ cần cho Mytour.vn thấy sự so sánh.
                ×
                Đăng Nhập
                                 Đăng nhập bằng tài khoản Facebook
                                 Đăng nhập bằng tài khoản Google
                            Hoặc đăng nhập bằng
                        Email*
                        Mật khẩu*
                        Quên mật khẩu?
                            Chưa có tài khoản/tạo tài khoản
                Đăng nhập
                         Nhớ đăng nhập
                ×
                Bản đồ
                                            Vĩnh Long
                    Tìm đường
                        Từ: 
                        Đến: 
                            Khách sạnĐịa danh Hiển thị các khách sạn ở gần Hiển thị các khu du lịch ở gần
                ×
                Yêu Cầu Lấy Giá
                                    Ngày nhận phòng
                                    Ngày trả phòng
                        Tên khách hàng
                        Email
                        Điện thoại
                        Nhân viên chăm sóc khách hàng sẽ gọi điện cho quý khách trong thời gian sớm nhất.
                        Quý khách có thể gọi điện đến cho Mytour để được tư vấn ngay:
                        Hà Nội: (04) 7109 9999, Hồ Chí Minh: (08) 7309 9899, Support
                            English: (+84)4-7309-9899.
                    Hoàn thành
                ×
                Gửi Thông Tin
                        Tên khách hàng
                        Email
                        Điện thoại
                            Quý khách sẽ thấy giá giảm ngay trên trang sau khi gửi thông tin
                    Hoàn thành
                ×
                Nhận Giá Tốt
                                    Ngày nhận phòng
                                    Ngày trả phòng
                        Tên khách hàng
                        Email
                        Điện thoại
                        Vì giá tốt không được công bố nên hệ thống sẽ gửi giá qua email đến quý khách và nhân viên chăm
                        sóc sẽ gọi điện cho quý khách trong thời gian sớm nhất.
                        Quý khách có thể gọi điện đến cho Mytour để được tư vấn ngay:
                        Hà Nội: (04) 7109 9999, Hồ Chí Minh: (08) 7309 9899, Support
                            English: (+84)4-7309-9899.
                    Hoàn thành
                ×
                ×
                ĐÁNH GIÁ 
                        Tên
                        Tiêu đề
                        Kiểu du lịch?
                                -- Chọn --Cá nhânCặp đôiGia đìnhBạn bèDoanh nghiệp
                        Nội dung
                                Đánh giá chi tiết
                                Chỗ ở
                                5
                                Thức ăn
                                5
                                Phương tiện
                                5
                                Hướng dẫn viên
                                5
                                Lịch trình
                                5
                    Gửi đánh giá
                    Hủy Bỏ
                ×
                Gửi lại email kích hoạt
                ×
                Thông tin chi tiết giá theo phòng
                    Chọn khoảng thời gian hiển thị giá phòng
                    Hiển thị giá
                ×
                Khóa phòng theo khoảng thời gian
                            Chọn khoảng thời gian check-in cần khóa/mở phòng
                            Khóa phòng
                            Mở phòng
                ×
                THUẾ VÀ PHÍ DỊCH VỤ
                17% thuế và phí dịch vụ bao gồm:
                    - 10% thuế và 5% phí dịch vụ hoàn trả lại cho khách sạn.
                    - 2% phí giao dịch tại Mytour.
                ×
                Bạn có hài lòng về website của Mytour?
                    Thông điệp nhắn nhủ:
                Mytour luôn mong muốn cải thiện dịch vụ để bạn có trải nghiệm tốt hơn!
                            Ảnh đính kèm
                        Đóng
                        Gửi
                ×
                    Những đóng góp của bạn đã được ghi nhận. Mytour cám ơn bạn !
                Quay lại website
            Khách sạn theo các tỉnh thành
                        An Giang
                        Bà Rịa - Vũng Tàu
                        Bắc Giang
                        Bắc Kạn
                        Bạc Liêu
                        Bắc Ninh
                        Bến Tre
                        Bình Định
                        Bình Dương
                        Bình Phước
                        Bình Thuận
                        Cà Mau
                        Cần Thơ
                        Cao Bằng
                        Đà Lạt
                        Đà Nẵng
                        Đắk Nông
                        Đắk Lắk
                        Điện Biên
                        Đồng Nai
                        Đồng Tháp
                        Gia Lai
                        Hà Giang
                        Hạ Long
                        Hà Nam
                        Hà Nội
                        Hà Tĩnh
                        Hải Dương
                        Hải Phòng
                        Hậu Giang
                        Hồ Chí Minh
                        Hoà Bình
                        Hội An
                        Hưng Yên
                        Khánh Hòa
                        Kiên Giang
                        Kon Tum
                        Lai Châu
                        Lâm Đồng
                        Lạng Sơn
                        Lào Cai
                        Long An
                        Nam Định
                        Nghệ An
                        Nha Trang
                        Ninh Bình
                        Ninh Thuận
                        Phan Thiết
                        Phú Quốc
                        Phú Thọ
                        Phú Yên
                        Quảng Bình
                        Quảng Nam
                        Quảng Ngãi
                        Quảng Ninh
                        Quảng Trị
                        Sa Pa
                        Sóc Trăng
                        Sơn La
                        Tây Ninh
                        Thái Bình
                        Thái Nguyên
                        Thanh Hoá
                        Thành Phố Huế
                        Thừa Thiên Huế
                        Tiền Giang
                        Trà Vinh
                        Tuyên Quang
                        Vĩnh Long
                        Vĩnh Phúc
                        Vũng Tàu
                        Yên Bái
                Du lịch Vĩnh Long
                                Du lịch Thành phố Vĩnh Long
                                Du lịch Long Hồ 
                                Du lịch Trà Ôn 
                                Du lịch Bình Minh 
                                Du lịch Vũng Liêm 
                            Giới thiệu Mytour
                            Đối tác khách sạn
                            Đăng nhập HMS
                            Tích lũy Vpoint
                            Điều khoản sử dụng
                            Quy chế hoạt động
                            Tuyển dụng
                            Liên hệ
                            Đăng ký nhận email
                                Đăng ký email để nhận khuyến mãi lên đến 70%
                                    Đăng
                                    ký
                    Công ty TNHH Mytour Việt Nam
                    Số ĐKKD: 0105983269 cấp ngày 30/08/2012
                    Văn phòng Hà Nội: Tầng 4, tòa nhà GP Invest, 170 Đê La Thành, Đống Đa
                    Văn phòng HCM: Tầng 5, Tòa Nhà HDTC, Số 36 Bùi Thị Xuân, Q.1
                Hotline
                        Hà Nội:
                        (04) 7109 9999
                        Tp. HCM:
                        (08) 7309 9899
                        ENGLISH SUPPORT:
                        (+84)4 7309 9899
