url:http://mytour.vn/d346/khach-san-tai-sapa.html
Tittle :Khách sạn SaPa  - Mytour.vn
content :Đặt phòng trực tuyến, hoặc gọi
                                                            Hà Nội: (04) 7109 9999
                                                                                        - (04) 7309 9899
                                                            Hồ Chí Minh: (08) 7309 9899
                                                                                        - (08) 7109 9998
                        T2 - CN: 08:00 - 23:00
                    Toggle navigation
                                Bạn không có thông báo nào
                    |
                    ||
                                                            Tài khoản
                        Đăng nhập
                                Đăng kýKhách sạn yêu thích
                            Khách sạn
                            Tour
                            Cẩm nang du lịch
                            Thông tin
                                                Về Mytour
                                                Tin khuyến mãi
                                                Ưu đãi
                                                Hướng dẫn
                                                Liên hệ
                            Tốt nhất 2016
                ×
                Bạn có chắc muốn hủy đơn hàng?
                Lorem ipsum dolor sit amet, consectetur adipisicing elit. Iure corporis repudiandae nobis distinctio
                quae quos, officia modi, ab voluptatem pariatur ducimus mollitia, necessitatibus sed soluta dicta
                repellendus! Praesentium debitis, temporibus?
                    Đồng ý
                    Đóng
                    Khách sạnLào CaiKhách sạn tại SaPa 
                    Áp dụng
                    Đóng
            Tìm Kiếm Khách Sạn
                            Ngày nhận phòng
                            Ngày trả phòng
                    Số đêm
                    Số phòng
                        123456789101112
                    Người lớn
                        123456789101112
                    Tìm khách sạn
                                Bộ lọc tìm kiếm
                                        Theo mức giá
                                                        Dưới 500.000
                                                        500.000 - 1.000.000
                                                        1.000.000 - 1.500.000
                                                        1.500.000 - 2.000.000
                                                        2.000.000 - 2.500.000
                                                        2.500.000 - 3.000.000
                                                        Trên 3.000.000
                                    Hạng Khách Sạn
                                    Loại khách sạn
                                                    Khách sạn
                                                    Resort
                                Tiện nghi
                                                Đưa đón khách sạn sân bay
                                                Bữa sáng miễn phí
                                                Bể bơi ngoài trời
                                                Bãi đỗ xe
                                                Phòng họp
                                                Phòng tập thể thao
                                                Thang máy
                                                Thêm giường phụ
                                                Truyền hình cáp/vệ tinh
                                                Wifi miễn phí
                                                Giặt là
                                                Nhà hàng
                                                Spa
            Quận huyện
                        Thành phố Lào Cai
                        Bắc Hà 
                        Bát Xát 
                        Mường Khương 
                        Si Ma Cai 
                        Văn Bàn 
                        Bảo Thắng 
                        Bảo Yên
            Khu vực
                        Chợ tình
                        Trung Tâm Thành Phố Sa Pa
                        Vòng Quanh Sa Pa
                        Nhà Thờ Lớn Sapa
                        Nhà Thờ Đá
                        Cầu Mây
                        Thác Bạc
                        Khu Họp Chợ
                        Đền Mẫu Thượng Sapa
                        Thác Tình Yêu
                        Chợ Sapa
                        Hang Động Tả Phìn
                        Đền Mẫu
             Giá tốt hơn so với đặt phòng trực
            tiếp tại khách sạn
             Đảm bảo 
            giá tốt nhất 
             Đảm bảo 
            hoàn tiền
             Nhân viên chăm sóc, tư vấn nhiều kinh nghiệm
             Hơn 5000 khách sạn tại Việt Nam với
            đánh giá thực
             Nhiều chương trình khuyến mãi và tích lũy điểm
             Thanh toán dễ dàng, đa dạng
                            Khách sạn tại SaPa 
                                     Xem Bản Đồ
                            Sa Pa là một huyện của tỉnh Lào Cai. Nơi đây có nhiều địa điểm du lịch lý tưởng với nhiều thắng cảnh đẹp như: đỉnh Phan Si Păng, núi Hàm Rồng, thung lũng Mường Hoa, Thác Bạc, các nhà thờ cổ, Cốc San... Hãy để Mytour hỗ trợ bạn để có 1 chuyến đi thú vị, tiết kiệm bằng cách đặt phòng khách sạn SaPa  ngay bây giờ với giá từ 278,000 VND.
                                Có 91
                                khách sạn ở
                                đây theo ngày đã chọn
                        Ngày nhận phòng
                        Ngày trả phòng
                Số đêm
                Số phòng
                    123456789101112
                Người lớn
                    123456789101112
                Cập nhật ngày
                             Bộ lọc
                                            Phổ biến nhất
                                     Hạng khách sạn
                                                                                                Hạng sao [5...1]
                                                                                                Hạng sao [1...5]
                                            Đánh giá cao nhất
                                            Khuyến mãi
                                     Giá
                                                                                                Giá tăng dần
                                                                                                Giá giảm dần
                            Sắp xếp:
                            Đánh giá cao nhất
                        Phổ biến nhấtĐánh giá cao nhấtGiá tăng dầnGiá giảm dầnHạng tăng dầnHạng giảm dầnKhuyến mãi
                            Khách Sạn Sapa View
                             Số 41 Mường Hoa, Thị Trấn Sapa, SaPa , Lào Cai 
                            (Xem bản đồ)
                            Vòng Quanh Sa Pa
                                        “Khách Sạn Sapa View được thiết kế sang trọng có thể đáp ứng những yêu cầu khắt khe của du khách, phong cách phục vụ ân cần, chu đáo. Trang thiết bị hiện đại và được bài trí sang trọng, hòa nhã.
                                        “
                                                Đảm bảo hoàn tiền
                                                Đảm bảo giá tốt nhất!
                                                            7.8
                                Đánh giá
                                    (34
                                        đánh giá)
                                Xem phòng
                            Khách Sạn Hoàng Hà Sapa
                             Số 08B  Thác Bạc, SaPa , Lào Cai 
                            (Xem bản đồ)
                            Thác Bạc
                                        “Khách Sạn Hoàng Hà Sapa có không gian yên tĩnh và tiện nghi thoải mái. Đội ngũ nhân viên khách sạn rất thân thiện chu đáo, được đào tạo chuyên nghiệp. Đây chắc chắn là một điểm đến không thể bỏ qua.
                                        “
                                                Đảm bảo hoàn tiền
                                                Đảm bảo giá tốt nhất!
                                                            7.1
                                Đánh giá
                                    (33
                                        đánh giá)
                                Xem phòng
                            Victoria Sapa Resort & Spa
                             Hoàng Diệu, Thị Trấn Sa Pa, SaPa , Lào Cai 
                            (Xem bản đồ)
                            Nhà Thờ Đá
                                        “Victoria Sapa Resort & Spa có thiết kế mộc mạc, mang phong cách đậm chất truyền thống với gỗ. Đội ngũ nhân viên thân thiện, phục vụ chuyên nghiệp. Trang thiết bị hiện đại và được bài trí sang trọng, ấ...
                                        “
                                                Đảm bảo hoàn tiền
                                                Đảm bảo giá tốt nhất!
                                                            8.4
                                Tốt
                                    (59
                                        đánh giá)
                                Xem phòng
                            Khách Sạn Bamboo Sapa
                             18 Mường Hoa, SaPa , Lào Cai 
                            (Xem bản đồ)
                            Vòng Quanh Sa Pa
                                        “Khách Sạn Bamboo Sapa có thiết kế mộc mạc, mang phong cách đậm chất truyền thống với gỗ và đá. Đội ngũ nhân viên thân thiện, phục vụ chuyên nghiệp. Trang thiết bị hiện đại và được bài trí sang trọng,...
                                        “
                                                Đảm bảo hoàn tiền
                                                Đảm bảo giá tốt nhất!
                                                            8.1
                                Tốt
                                    (63
                                        đánh giá)
                                Xem phòng
                            Khách Sạn Ngôi Sao Phương Bắc
                             5 Ngũ Chỉ Sơn, Thị Trấn Sa Pa, SaPa , Lào Cai 
                            (Xem bản đồ)
                            Vòng Quanh Sa Pa
                                        “Khách Sạn Ngôi Sao Phương Bắc Sapa có thiết kế sang trọng, nội thất và tiện nghi đầy đủ. Đội ngũ nhân viên thân thiện, phục vụ chuyên nghiệp. Tọa lạc tại trung tâm thị trấn, nhìn ra hồ Sa Pa lãng mạn....
                                        “
                                                Đảm bảo hoàn tiền
                                                Đảm bảo giá tốt nhất!
                                                            7.0
                                Đánh giá
                                    (14
                                        đánh giá)
                                Xem phòng
                            Khách Sạn Sapa 
                             1 Ngũ Chỉ Sơn, Thị Trấn Sa Pa, SaPa , Lào Cai 
                            (Xem bản đồ)
                            Vòng Quanh Sa Pa
                                        “Khách Sạn Sapa Lào Cai được thiết kế sang trọng có thể đáp ứng những yêu cầu khắt khe của du khách, phong cách phục vụ ân cần, chu đáo. Trang thiết bị hiện đại và được bài trí sang trọng, hòa nhã.
                                        “
                                                Đảm bảo hoàn tiền
                                                Đảm bảo giá tốt nhất!
                                                            7.3
                                Đánh giá
                                    (9
                                        đánh giá)
                                Xem phòng
                            Khách Sạn Châu Long 1
                             24 Đồng Lợi, Thị Trấn Sa Pa, SaPa , Lào Cai 
                            (Xem bản đồ)
                            Nhà Thờ Đá
                                        “Khách Sạn Châu Long 1 Sapa có thiết kế mộc mạc, mang phong cách đậm chất truyền thống. Đội ngũ nhân viên thân thiện, phục vụ chuyên nghiệp. Trang thiết bị hiện đại và được bài trí sang trọng, ấm cúng....
                                        “
                                                Đảm bảo hoàn tiền
                                                Đảm bảo giá tốt nhất!
                                                            7.7
                                Đánh giá
                                    (84
                                        đánh giá)
                                Xem phòng
                            Khách Sạn Hoàng Gia Sapa
                             54 Cầu Mây, Thị Trấn Sa Pa, SaPa , Lào Cai 
                            (Xem bản đồ)
                            Vòng Quanh Sa Pa
                                        “Khách Sạn Hoàng Gia Sapa có phong cách phục vụ chu đáo, nhiệt tình chắc chắn sẽ làm quý khách hài lòng và mang đến cảm giác ấm cúng. Trang thiết bị hiện đại và được bài trí sang trọng, hòa nhã.
                                        “
                                                Đảm bảo hoàn tiền
                                                Đảm bảo giá tốt nhất!
                                                            6.7
                                Đánh giá
                                    (37
                                        đánh giá)
                                Xem phòng
                            Khách Sạn Holiday Sapa 
                             16 Muong Hoa, SaPa , Lào Cai 
                            (Xem bản đồ)
                            Vòng Quanh Sa Pa
                                        Khách sạn bán chạy nhất trên Mytour 2015
                                        “Khách Sạn Holiday Sapa có không gian yên tĩnh và tiện nghi thoải mái. Đội ngũ nhân viên khách sạn rất thân thiện chu đáo, được đào tạo chuyên nghiệp. Đây chắc chắn là một điểm đến không thể bỏ qua.
                                        “
                                                Đảm bảo hoàn tiền
                                                Đảm bảo giá tốt nhất!
                                                            7.6
                                Đánh giá
                                    (59
                                        đánh giá)
                                            (196
                                            Reviews)
                                Xem phòng
                            Khách Sạn Công Đoàn SaPa
                             Hàm Rồng, SaPa , Lào Cai 
                            (Xem bản đồ)
                            Nhà Thờ Đá
                                        “Khách Sạn Công Đoàn SaPa có phong cách phục vụ chu đáo, nhiệt tình chắc chắn sẽ làm quý khách hài lòng và mang đến cảm giác ấm cúng. Trang thiết bị hiện đại và được bài trí sang trọng, hòa nhã.
                                        “
                                                Đảm bảo hoàn tiền
                                                Đảm bảo giá tốt nhất!
                                                            7.4
                                Đánh giá
                                    (62
                                        đánh giá)
                                Xem phòng
                            Khách Sạn Cát Cát View
                             46 Fansipan, Thị trấn Sa Pa, SaPa , Lào Cai 
                            (Xem bản đồ)
                            Cầu Mây
                                        “Khách Sạn Cát Cát View Sapa có thiết kế độc đáo, đậm chất vùng cao. Đội ngũ nhân viên thân thiện và rất nhiệt tình khiến bạn cảm thấy ấm áp. Trang thiết bị hiện đại và được bài trí sang trọng, ấm cúng...
                                        “
                                                Đảm bảo hoàn tiền
                                                Đảm bảo giá tốt nhất!
                                                            6.9
                                Đánh giá
                                    (3
                                        đánh giá)
                                Xem phòng
                            Topas Ecolodge 
                             Thôn Bản Lếch, Xã Thanh Kim, SaPa , Lào Cai 
                            (Xem bản đồ)
                            Vòng Quanh Sa Pa
                                        “Topas Ecolodge Sapa được xây dựng theo phong cách nhà gỗ mộc mạc với chỉ một phòng ngủ và được làm từ đá granite trắng. Đội ngũ nhân viên có phong cách phục vụ ân cần, chu đáo, đảm bảo quý khách sẽ hà...
                                        “
                                                Đảm bảo hoàn tiền
                                                Đảm bảo giá tốt nhất!
                                                            8.6
                                Tốt
                                    (45
                                        đánh giá)
                                Xem phòng
                            Khách Sạn Sapa Eden
                             64 Fansipan, SaPa , Lào Cai 
                            (Xem bản đồ)
                            Cầu Mây
                                        “Khách Sạn Sapa Eden tọa lạc tại khu vực khá yên tĩnh nhưng rất thuận lợi, là nơi lý tưởng cho những ai muốn có cảm giác thoải mái và thuận tiện, sống trong bầu không khí thân thiện và tận hưởng vẻ đẹp...
                                        “
                                                Đảm bảo hoàn tiền
                                                Đảm bảo giá tốt nhất!
                                                            8.1
                                Tốt
                                    (10
                                        đánh giá)
                                Xem phòng
                            Khách Sạn Riverside
                             18 Ngũ Chỉ Sơn, Thị trấn SaPa, SaPa , Lào Cai 
                            (Xem bản đồ)
                            Trung Tâm Thành Phố Sa Pa
                                        “Khách Sạn Riverside Sapa có vị trí thuận lợi cùng lối thiết kế trang nhã, ấm cúng, hứa hẹn mang đến cho du khách một chuyến nghỉ dưỡng thoải mái và khó quên. Đây chắc chắn là một điểm đến không thể bỏ...
                                        “
                                                Đảm bảo hoàn tiền
                                                Đảm bảo giá tốt nhất!
                                                            6.5
                                Đánh giá
                                    (11
                                        đánh giá)
                                Xem phòng
                            Khách Sạn Hàm Rồng (Khách Sạn đang sửa chữa)
                             Hàm Rồng, Thị Trấn Sapa, SaPa , Lào Cai 
                            (Xem bản đồ)
                            Nhà Thờ Đá
                                        “Khách Sạn Hàm Rồng tọa lạc ngay tại thị trấn Sapa, thuận tiện để khám phá vùng đất sương mù. Đội ngũ nhân viên thân thiện, phục vụ chuyên nghiệp. Trang thiết bị hiện đại và được bài trí sang trọng, ấm...
                                        “
                                                Đảm bảo hoàn tiền
                                                Đảm bảo giá tốt nhất!
                                                            6.5
                                Đánh giá
                                    (3
                                        đánh giá)
                                Xem phòng
                            Khách Sạn Thiên Ngân Sapa
                             021 Cầu Mây, SaPa , Lào Cai 
                            (Xem bản đồ)
                            Nhà Thờ Đá
                                        “Khách Sạn Thiên Ngân Sapa nằm trên con phố nổi tiếng Cầu Mây, tiện cho quý khách tham quan mua sắm, ban công với hướng nhìn lên dãy núi Hoàng Liên Sơn hùng vĩ. Đây chắc chắn là một điểm đến không thể...
                                        “
                                                Đảm bảo hoàn tiền
                                                Đảm bảo giá tốt nhất!
                                                            7.2
                                Đánh giá
                                    (9
                                        đánh giá)
                                            (3
                                            Reviews)
                                Xem phòng
                            Khách Sạn Anh Đào Star
                             Phố Thủ Dầu 1, SaPa , Lào Cai 
                            (Xem bản đồ)
                            Vòng Quanh Sa Pa
                                        “Khách Sạn Anh Đào Star Sapa có vị trí thuận lợi cùng lối thiết kế trang nhã, ấm cúng, hứa hẹn mang đến cho du khách một chuyến nghỉ dưỡng thoải mái và khó quên. Đây chắc chắn là một điểm đến không thể...
                                        “
                                                Đảm bảo hoàn tiền
                                                Đảm bảo giá tốt nhất!
                                Xem phòng
                            Khách Sạn Sơn Hà
                             25 Fanxifang, Sapa, Lào Cai, SaPa , Lào Cai 
                            (Xem bản đồ)
                            Thác Bạc
                                        “Khách Sạn Sơn Hà Lào Cai nằm ở một góc nhỏ thị trấn Sapa, có không gian thoáng mát, nội thất bắt mắt, có đội ngũ nhân viên thân thiện và nghiệp vụ chuyên nghiệp sẽ làm bạn cảm thấy hài lòng với kỳ ngh...
                                        “
                                                Đảm bảo hoàn tiền
                                                Đảm bảo giá tốt nhất!
                                                            8.8
                                Tốt
                                    (4
                                        đánh giá)
                                            (15
                                            Reviews)
                                Xem phòng
                            Khách Sạn Sapa Elegance
                             3 Hoàng Diệu, SaPa , Lào Cai 
                            (Xem bản đồ)
                            Nhà Thờ Đá
                                        “Khách Sạn Sapa Elegance cung cấp đầy đủ những tiện nghi và trang thiết bị hiện đại, tạo không khí ấm cúng thoải mái cho quý khách. Đội ngũ nhân viên khách sạn phục vụ thân thiện và nhiệt tình.
                                        “
                                                Đảm bảo hoàn tiền
                                                Đảm bảo giá tốt nhất!
                                                            7.1
                                Đánh giá
                                    (6
                                        đánh giá)
                                Xem phòng
                            Sapa Garden Bed and Breakfast
                             102 Điện Biên Phủ, SaPa , Lào Cai 
                            (Xem bản đồ)
                            Chợ tình
                                        “Sapa Garden Bed and Breakfast có thiết kế hiện đại, ấm cúng cùng không gian nghỉ dưỡng tuyệt vời. Khách sạn còn có vị trí thuận tiện cùng chính sách phục vụ chu đáo, đảm bảo tạo điều kiện tốt nhất cho...
                                        “
                                                Đảm bảo hoàn tiền
                                                Đảm bảo giá tốt nhất!
                                Xem phòng
                «
                Trang trước
                1
                2
                3
                4
                5
                Trang sau
                »
                                SaPa 
                            Sa Pa là một huyện của tỉnh Lào Cai. Nơi đây có nhiều địa điểm du lịch lý tưởng với nhiều thắng cảnh đẹp như: đỉnh Phan Si Păng, núi Hàm Rồng, thung lũng Mường Hoa, Thác Bạc, các nhà thờ cổ...Hãy để Mytour hỗ trợ bạn để có 1 chuyến đi thú vị, tiết kiệm bằng cách đặt phòng khách sạn Sa Pa ngay bây giờ với giá từ 300,000 VND.Với hơn 5.000 khách sạn, resort tại 63 tỉnh/ thành phố, Mytour ngày càng được du khách tin dùng để tìm kiếm khách sạn. Mytour sẽ hỗ trợ quý khách đặt khách sạn Sa Pa với chi phí hợp lý để có chuyến đi thật thú vị và tiết kiệm. Ngoài việc cung cấp những khách sạn giá tốt nhất, bạn còn có thể tìm thấy nhiều thông tin du lịch hữu ích và thú vị khác.  Đặt phòng khách sạn Sa Pa - Lào Cai giá tốt nhất tại Mytour.vn, với nhiều khuyến mãi từ website và đơn vị khách sạn tiết kiệm lên đến 70%. Hơn 150.000 đánh giá từ khách hàng đã qua sử dụng khách sạn giúp bạn đưa ra những quyết định tốt nhất cho lựa chọn của mình. Đặc biệt chính sách ĐẢM BẢO HOÀN TIỀN chỉ có tại Mytour.vn, giờ đây bạn có thể hoàn toàn tin tưởng vào dịch vụ đặt phòng trực tuyến.  Huyện nằm ở phía tây tỉnh Lào Cai. Sa Pa có đặc điểm khí hậu của xứ ôn đới và nhiệt đới, nhiệt độ trung bình từ 15 - 18 °C. Chính điều này đã tạo nên vẻ đẹp thơ mộng, quyến rũ của cảnh sắc nơi đây. Đã từ lâu Sa Pa là một điểm đến du lịch nổi tiếng trong nước Việt Nam được nhiều du khách không chỉ trong nước mà còn có cả du khách nước ngoài đến đây tham quan và nghỉ dưỡng.  Du lịch Sa Pa - Lào Cai hấp dẫn rất nhiều khách du lịch bởi không chỉ ở phong cảnh thiên nhiên tươi đẹp, hùng vĩ mà còn cả ở giá trị văn hóa, lịch sử. Ở Sa Pa có 10 địa điểm du lịch nổi tiếng trong đó có 4 điểm du lịch văn hóa lưu trữ nhiều tư liệu lịch sử và mạng đậm nét văn hóa của các dân tộc nơi đây.  Đi tour Sa Pa - Lào Cai du khách sẽ được chiêm ngưỡng vẻ đẹp thiên nhiên của núi trời Sa Pa. Đỉnh Phan-si-păng cao hiên ngang hùng dũng - nóc nhà của Đông Dương cùng hệ sinh thái đa dạng, phong phú và phong cảnh thiên nhiên thơ mộng. Núi Hàm Rồng (cách thị trấn Sa Pa 3km) là thắng cảnh đầy hoa quyến rũ, tươi đẹp.  Ai đã từng đặt chân tới Sa Pa không thể không nghe thấy các cái tên của các địa điểm du lịch kì thú nơi đây: Thác Bạc - Đinh Đèo, Cổng trời, thắng cảnh Hang Tiên, Cốc San. Tại mỗi điểm du lịch trên du khách sẽ được chiêm ngưỡng những ưu đãi và tạo hóa kì lạ của thiên nhiên đã ban tặng cho vùng đất này. Mỗi điểm du lịch sẽ đem lại cho chúng ta những cảm giác khác nhau từ khoan khoái, nhẹ nhàng tới sự ngỡ ngàng, hững thú với những gí mà bạn nhìn thấy trong các hang động của Hang Tiên và Cốc San.  Sa Pa có 4 điểm du lịch là 4 minh chứng cho lịch sử và nét đẹp văn hóa của các dân tộc vùng cao. Đó là: Nhà thở cổ Sa Pa - nhà thờ Đá là một dấu ấn kiến trúc cổ toàn vẹn nhất của người Pháp còn sót lại; bản Cát Cát và bản Tả Phìn có vẻ đẹp thơ mộng, nét sinh hoạt văn hóa đậm đà bản sắc dân tộc của người Mông và người Dao Đó cũng với các sản phẩm thủ công truyền thống; Bãi đá cổ Sa Pa ở thung lũng Mường Hoa có các tảng đá sa thạch khắc các hình thù và kí tự kỳ lạ mà đến nay vẫn chưa có lời giải đáp.  Khi nói tới Sa Pa là nói tới chợ tình của người Dao. Chợ họp hàng tuần vào tối thứ bảy. Đây là điểm dừng chân rất hấp dẫn khách thập phương tới tham gia. Đến tới chợ tình Sa Pa du khách sẽ chứng kiến nét sinh hoạt văn hóa độc đáo của người Dao cùng đung đưa theo câu hát tỏ tình theo tiếng dân tộc của các chàng trai, cô gái.  Du lịch Sa Pa luôn là điểm đến hấp dẫn đối với khách du lịch. Vì vậy, hãy nhanh tay đặt vé tại mytour.vn để sở hữu tấm vé tour Sa Pa cho gia đinh, bạn bè và người thân. Mytour sẽ làm cho những giây phút du lịch của quý khách thêm lí thú và trọn vẹn cùng với chất lượng và giá cả dịch vụ tốt nhất.
            Địa danh ở gần
                                    Núi Hàm Rồng
                                    Hang động Tả Phìn
                                    Nhà thờ Đá Sapa
                                    Đỉnh Phan Xi Păng
                                    Bãi đá cổ - Sapa
                                    Bãi đá cổ Sa Pa
                                                                Bãi đá cổ Sa Pa thuộc huyện Sapa, tỉnh Lào Cai. Ngoài ra, du khách còn có cơ hội đến thăm nhiều địa điểm du lịch nổi tiếng như: đỉnh Phan Si Păng, núi Hàm Rồng, nhà thờ cổ Sapa, bản Tả Phìn… Hãy để Mytour hỗ trợ bạn để có 1 chuyến đi thú vị, tiết kiệm bằng cách đặt phòng khách sạn khu vực bãi đá cổ Sa Pa ngay bây giờ với giá chỉ từ 208,000 VND.
                                    Khu du lịch bản Lao Chải
                                                                Khu du lịch bản Lao Chải thuộc huyện Sapa, Lào Cai. Ngoài ra, du khách có cơ hội đến thăm nhiều địa điểm nổi tiếng như: đỉnh Phan Si Păng, núi Hàm Rồng, nhà thờ cổ Sapa, bản Tả Phìn… Hãy để Mytour hỗ trợ bạn để có 1 chuyến đi thú vị, tiết kiệm bằng cách đặt phòng khách sạn khu vực Khu du lịch bản Lao Chải ngay bây giờ với giá chỉ từ 208,000 VND.
                                    Chợ tình Sapa
                                                                Chợ tình Sapa thuộc huyện Sapa, Lào Cai. Ngoài Chợ tình Sapa, du khách còn có cơ hội đến thăm nhiều địa điểm du lịch nổi tiếng như: đỉnh Phan Si Păng, núi Hàm Rồng, nhà thờ cổ Sapa, bản Tả Phìn… Hãy để Mytour hỗ trợ bạn để có 1 chuyến đi thú vị, tiết kiệm bằng cách đặt phòng khách sạn khu vực Chợ tình Sapa ngay bây giờ với giá chỉ từ 208,000 VND.
                                    Khu du lịch Hàm Rồng
                                                                Khu du lịch Hàm Rồng thuộc huyện Sapa, tỉnh Lào Cai. Ngoài ra, du khách còn có cơ hội đến thăm nhiều địa điểm du lịch nổi tiếng như: đỉnh Phan Si Păng, nhà thờ cổ Sapa, bản Tả Phìn… Hãy để Mytour hỗ trợ bạn để có 1 chuyến đi thú vị, tiết kiệm bằng cách đặt phòng khách sạn khu vực Khu du lịch Hàm Rồng ngay bây giờ với giá chỉ từ 208,000 VND.
                                    Khu du lịch Thác Tình Yêu – Suối Vàng
                                                                KDL Thác Tình Yêu – Suối Vàng thuộc huyện Sapa, Lào Cai. Ngoài ra, du khách còn có cơ hội đến thăm nhiều địa điểm nổi tiếng như: đỉnh Phan Si Păng, núi Hàm Rồng, nhà thờ cổ Sapa… Hãy để Mytour hỗ trợ bạn để có 1 chuyến đi thú vị, tiết kiệm bằng cách đặt phòng khách sạn khu vực KDL Thác Tình Yêu – Suối Vàng ngay bây giờ với giá chỉ từ 208,000 VND.
                                    Đỉnh Sân Mây
                                                                Đỉnh Sân Mây thuộc dãy núi Phan Si Păng, huyện Sapa, Lào Cai. Ngòai đỉnh Sân Mây, du khách còn có cơ hội đến thăm nhiều địa điểm nổi tiếng như: đỉnh Phan Si Păng, núi Hàm Rồng, nhà thờ cổ Sapa… Hãy để Mytour hỗ trợ bạn để có 1 chuyến đi thú vị, tiết kiệm bằng cách đặt phòng khách sạn khu vực đỉnh Sân Mây ngay bây giờ với giá chỉ từ 208,000 VND.
                                    Thị trấn Sapa
                                                                Thị trấn Sapa thuộc huyện Sapa, tỉnh Lào Cai. Từ đây, du khách có cơ hội đến thăm nhiều địa điểm nổi tiếng như: đỉnh Phan Si Păng, núi Hàm Rồng, nhà thờ cổ Sapa, bản Tả Phìn, thung lũng Mường Hoa… Hãy để Mytour hỗ trợ bạn để có 1 chuyến đi thú vị, tiết kiệm bằng cách đặt phòng khách sạn khu vực Thị trấn Sapa ngay bây giờ với giá chỉ từ 208,000 VND.
                                    Trại nuôi cá hồi
                                                                Trại nuôi cá hồi thuộc huyện Sapa, tỉnh Lào Cai. Ngoài ra, du khách còn có cơ hội đến thăm nhiều địa điểm du lịch nổi tiếng như: đỉnh Phan Si Păng, núi Hàm Rồng, nhà thờ cổ Sapa, bản Tả Phìn… Hãy để Mytour hỗ trợ bạn để có 1 chuyến đi thú vị, tiết kiệm bằng cách đặt phòng khách sạn khu vực Trại nuôi cá hồi ngay bây giờ với giá chỉ từ 208,000 VND.
                                    Bản Cát Cát
                                                                Bản Cát Cát thuộc huyện Sapa, tỉnh Lào Cai. Ngoài bản Cát Cát, du khách còn có cơ hội đến thăm nhiều địa điểm du lịch nổi tiếng như: đỉnh Phan Si Păng, núi Hàm Rồng, nhà thờ cổ Sapa, bản Tả Phìn… Hãy để Mytour hỗ trợ bạn để có 1 chuyến đi thú vị, tiết kiệm bằng cách đặt phòng khách sạn khu vực bản Cát Cát ngay bây giờ với giá chỉ từ 208,000 VND.
                                    Thác Thủy Điện
                                                                Thác Thủy Điện thuộc huyện Sapa, tỉnh Lào Cai. Ngoài ra, du khách còn có cơ hội đến thăm nhiều địa điểm du lịch nổi tiếng như: đỉnh Phan Si Păng, núi Hàm Rồng, nhà thờ cổ Sapa, bản Tả Phìn… Hãy để Mytour hỗ trợ bạn để có 1 chuyến đi thú vị, tiết kiệm bằng cách đặt phòng khách sạn khu vực Thác thủy điện ngay bây giờ với giá chỉ từ 208,000 VND.
                                    Thung lũng hoa hồng
                                                                Thung Lũng Hoa Hồng tọa lạc tại Lào Cai. Đến với Thung Lũng Hoa Hồng , du khách có cơ hội tham quan các địa điểm như: Sapa, Chợ Phiên Bắc Hà, Núi Hàm Rồng, các bản dân tộc thiểu số... Hãy để Mytour hỗ trợ bạn để có 1 chuyến đi thú vị, tiết kiệm bằng cách đặt phòng khách sạn tại khu vực Thung Lũng Hoa Hồng  ngay bây giờ với giá rẻ nhất.
                                    Khu du lịch Thác Bạc
                                                                Khu du lịch Thác Bạc thuộc huyện Sapa, tỉnh Lào Cai. Ngoài ra, du khách còn có cơ hội đến thăm nhiều địa điểm nổi tiếng như: đỉnh Phan Si Păng, núi Hàm Rồng, nhà thờ cổ Sapa, bản Tả Phìn … Hãy để Mytour hỗ trợ bạn để có 1 chuyến đi thú vị, tiết kiệm bằng cách đặt phòng khách sạn khu vực Khu du lịch Thác Bạc ngay bây giờ với giá chỉ từ 208,000 VND.
                                    Dãy Hoàng Liên Sơn
                                                                Dãy Hoàng Liên Sơn có diện tích thuộc địa phận tỉnh Lào Cai khá lớn. Tại đây, du khách có cơ hội đến thăm nhiều địa điểm nổi tiếng như: núi Hàm Rồng, núi Cô Tiên, chợ Sapa, chợ Mường Hum, … Hãy để Mytour hỗ trợ bạn để có 1 chuyến đi thú vị, tiết kiệm bằng cách đặt phòng khách sạn khu vực dãy Hoàng Liên Sơn ngay bây giờ với giá chỉ từ 208,000 VND.
                ×
                    Chính sách đảm bảo hoàn tiền của mytour
                    Bạn chưa tin tưởng việc đặt phòng khách sạn trực tuyến? Bạn e ngại rằng phòng khách sạn thực tế không đúng với thông tin trên website? Chúng tôi cam kết đưa đầy đủ và chính xác thông tin khách sạn trên website với chính sách “Đảm bảo Hoàn tiền”
                        Nếu khách hàng đặt khách sạn thành công trên Mytour nhưng khách sạn không có phòng, Mytour sẽ hoàn lại tiền cho khách và tặng kèm phiếu giảm giá có giá trị bằng với số tiền khách hàng đã trả.
                        Trong trường hợp loại phòng thực tế không đúng với loại phòng trên đơn hàng, Mytour sẽ quyết định nâng cấp miễn phí hoặc tặng phiếu giảm giá có giá trị bằng với số tiền khách hàng đã trả.
                        Trường hợp các tiện nghi phòng khách sạn (như bữa sáng, wifi…) không đúng với nội dung trên website, Mytour sẽ tặng phiếu giảm giá có giá trị bằng 10% số tiền khách đã trả (tối đa 500,000 VND)
                        Khách hàng cần gọi điện thoại 04-7309 9899 (Hà Nội), 08-7309 9899 (Hồ Chí Minh) hoặc email tới info@mytour.vn và cung cấp mã đơn hàng trong vòng 24 giờ từ lúc nhận phòng để được trợ giúp giải quyết khiếu nại (Hotline chỉ hỗ trợ trong giờ hành chính).
                        Mytour không chịu trách nhiệm bồi thường thiệt hại gián tiếp, ngẫu nhiên, hay do hậu quả phát sinh. Trong mọi trường hợp, trách nhiệm của Mytour không vượt quá tổng số tiền khách hàng thanh toán đặt phòng.
                ×
                    Đảm bảo giá tốt nhất
                    Nếu Thành viên đã đặt một phòng khách sạn được “Đảm Bảo” tại Mytour.vn và sau đó, cho Mytour.vn  thấy rằng Thành viên có thể đặt một phòng tương tự trong cùng khoảng thời gian ở mức giá tốt hơn có thể xem và đặt được trên một website khác, Mytour.vn sẽ giảm giá bằng hoặc thấp hơn mức giá đó.
                    Giá dùng để so sánh là giá sau khi áp dụng mức giảm giá công bố trên website Mytour.vn.
                    Chính sách “Đảm Bảo Giá Tốt Nhất” của Mytour.vn chỉ áp dụng cho các đặt phòng đã được xác nhận và phải thỏa mãn những điều kiện sau:
                Cùng khách sạnCùng thời gian nghỉ lạiCùng loại Phòng/GiườngCùng các yêu cầu mua Trước, yêu cầu trả trước và đặt cọc (nếu có)Cùng chính sách Hủy và Sửa Đổi
                    Phòng đó phải còn trống để được xác nhận ngay tại thời điểm các đại lý của Mytour.vn  kiểm tra phòng trống
                        Chính sách “Đảm Bảo Giá Tốt Nhất” không áp dụng cho các mức giá không công bố, như: chương trình khách hàng thân thiện.
                        Bất kỳ tổ chức nào với các mức giá dành cho nhóm cá nhân cụ thể và không nhằm mục đích áp dụng ra bên ngoài.
                        Thành viên có thể gửi khiếu nại theo địa chỉ : info@mytour.vn
                                Nêu mã đặt phòng Mytour.vn trong dòng tiêu đề thư
                                Gửi URL của website nơi Thành viên tìm thấy mức giá tốt hơn
                                Cung cấp ảnh chụp màn hình của website đối thủ cạnh tranh trong đó nêu rõ Phòng Trống, Loại Phòng, và các mức giá cho những ngày nghỉ lại theo yêu cầu của Thành viên.
                VUI LÒNG LƯU Ý: Thành viên không cần thực hiện đặt phòng trên website của đối thủ cạnh tranh, chỉ cần cho Mytour.vn thấy sự so sánh.
                ×
                Đăng Nhập
                                 Đăng nhập bằng tài khoản Facebook
                                 Đăng nhập bằng tài khoản Google
                            Hoặc đăng nhập bằng
                        Email*
                        Mật khẩu*
                        Quên mật khẩu?
                            Chưa có tài khoản/tạo tài khoản
                Đăng nhập
                         Nhớ đăng nhập
                ×
                Bản đồ
                                            SaPa 
                    Tìm đường
                        Từ: 
                        Đến: 
                            Khách sạnĐịa danh Hiển thị các khách sạn ở gần Hiển thị các khu du lịch ở gần
                ×
                Yêu Cầu Lấy Giá
                                    Ngày nhận phòng
                                    Ngày trả phòng
                        Tên khách hàng
                        Email
                        Điện thoại
                        Nhân viên chăm sóc khách hàng sẽ gọi điện cho quý khách trong thời gian sớm nhất.
                        Quý khách có thể gọi điện đến cho Mytour để được tư vấn ngay:
                        Hà Nội: (04) 7109 9999, Hồ Chí Minh: (08) 7309 9899, Support
                            English: (+84)4-7309-9899.
                    Hoàn thành
                ×
                Gửi Thông Tin
                        Tên khách hàng
                        Email
                        Điện thoại
                            Quý khách sẽ thấy giá giảm ngay trên trang sau khi gửi thông tin
                    Hoàn thành
                ×
                Nhận Giá Tốt
                                    Ngày nhận phòng
                                    Ngày trả phòng
                        Tên khách hàng
                        Email
                        Điện thoại
                        Vì giá tốt không được công bố nên hệ thống sẽ gửi giá qua email đến quý khách và nhân viên chăm
                        sóc sẽ gọi điện cho quý khách trong thời gian sớm nhất.
                        Quý khách có thể gọi điện đến cho Mytour để được tư vấn ngay:
                        Hà Nội: (04) 7109 9999, Hồ Chí Minh: (08) 7309 9899, Support
                            English: (+84)4-7309-9899.
                    Hoàn thành
                ×
                ×
                ĐÁNH GIÁ 
                        Tên
                        Tiêu đề
                        Kiểu du lịch?
                                -- Chọn --Cá nhânCặp đôiGia đìnhBạn bèDoanh nghiệp
                        Nội dung
                                Đánh giá chi tiết
                                Chỗ ở
                                5
                                Thức ăn
                                5
                                Phương tiện
                                5
                                Hướng dẫn viên
                                5
                                Lịch trình
                                5
                    Gửi đánh giá
                    Hủy Bỏ
                ×
                Gửi lại email kích hoạt
                ×
                Thông tin chi tiết giá theo phòng
                    Chọn khoảng thời gian hiển thị giá phòng
                    Hiển thị giá
                ×
                Khóa phòng theo khoảng thời gian
                            Chọn khoảng thời gian check-in cần khóa/mở phòng
                            Khóa phòng
                            Mở phòng
                ×
                THUẾ VÀ PHÍ DỊCH VỤ
                17% thuế và phí dịch vụ bao gồm:
                    - 10% thuế và 5% phí dịch vụ hoàn trả lại cho khách sạn.
                    - 2% phí giao dịch tại Mytour.
                ×
                Bạn có hài lòng về website của Mytour?
                    Thông điệp nhắn nhủ:
                Mytour luôn mong muốn cải thiện dịch vụ để bạn có trải nghiệm tốt hơn!
                            Ảnh đính kèm
                        Đóng
                        Gửi
                ×
                    Những đóng góp của bạn đã được ghi nhận. Mytour cám ơn bạn !
                Quay lại website
                Du lịch SaPa 
                                Du lịch Những thước hình khó tin được chụp ở Việt Nam
                                Du lịch Sa Pa lọt top 16 ngôi làng thơ tình nhất thế giới - Kỳ 1
                                Du lịch Giải mã sức hút Tây Bắc
                                Du lịch Yêu lắm Tây Bắc đẹp đến mê hồn
                                Du lịch Du lịch Tây Bắc đón mùa xuân trên bản làng H’Mông
                                Du lịch Top 6 món ngon khó cưỡng ở phố núi Sa Pa
                                Du lịch 10 điểm du lịch hấp dẫn ở xứ sở sương mù Sapa - Kỳ 2
                                Du lịch Những điểm đến tuyệt vời nhất thế giới trong mùa đông - Phần 2
                                Du lịch Ghé thăm 5 bản làng ở Sa Pa khiến bạn mê mẩn
                                Du lịch Đón Noel đúng nghĩa ở đâu trên đất Việt - Phần 1
                            Giới thiệu Mytour
                            Đối tác khách sạn
                            Đăng nhập HMS
                            Tích lũy Vpoint
                            Điều khoản sử dụng
                            Quy chế hoạt động
                            Tuyển dụng
                            Liên hệ
                            Đăng ký nhận email
                                Đăng ký email để nhận khuyến mãi lên đến 70%
                                    Đăng
                                    ký
                    Công ty TNHH Mytour Việt Nam
                    Số ĐKKD: 0105983269 cấp ngày 30/08/2012
                    Văn phòng Hà Nội: Tầng 4, tòa nhà GP Invest, 170 Đê La Thành, Đống Đa
                    Văn phòng HCM: Tầng 5, Tòa Nhà HDTC, Số 36 Bùi Thị Xuân, Q.1
                Hotline
                        Hà Nội:
                        (04) 7109 9999
                        Tp. HCM:
                        (08) 7309 9899
                        ENGLISH SUPPORT:
                        (+84)4 7309 9899
