url:http://mytour.vn/location/d87/du-lich-xuyen-moc.html
Tittle :Kinh nghiệm du lịch Xuyên Mộc từ A đến Z! Mytour.vn
content :Đặt phòng trực tuyến, hoặc gọi
                                                            Hà Nội: (04) 7109 9999
                                                                                        - (04) 7309 9899
                                                            Hồ Chí Minh: (08) 7309 9899
                                                                                        - (08) 7109 9998
                        T2 - CN: 08:00 - 23:00
                    Toggle navigation
                                Bạn không có thông báo nào
                    |
                    ||
                                                            Tài khoản
                        Đăng nhập
                                Đăng kýKhách sạn yêu thích
                            Khách sạn
                            Tour
                            Cẩm nang du lịch
                            Thông tin
                                                Về Mytour
                                                Tin khuyến mãi
                                                Ưu đãi
                                                Hướng dẫn
                                                Liên hệ
                            Tốt nhất 2016
                ×
                Bạn có chắc muốn hủy đơn hàng?
                Lorem ipsum dolor sit amet, consectetur adipisicing elit. Iure corporis repudiandae nobis distinctio
                quae quos, officia modi, ab voluptatem pariatur ducimus mollitia, necessitatibus sed soluta dicta
                repellendus! Praesentium debitis, temporibus?
                    Đồng ý
                    Đóng
        Cẩm nang du lịchDu lịch Việt NamDu lịch Bà Rịa - Vũng TàuDu lịch Xuyên Mộc 
                Miền Bắc
                Hà NộiBắc NinhBắc GiangBắc KạnLào CaiQuảng NinhNam ĐịnhCao BằngHà GiangHà NamHải DươngHải PhòngHoà BìnhHưng YênLai ChâuLạng SơnNinh BìnhPhú ThọSơn LaThái BìnhThái NguyênTuyên QuangVĩnh PhúcYên BáiĐiện Biên
                Miền Trung
                Bình ĐịnhĐà NẵngKhánh HòaThừa Thiên HuếGia LaiHà TĩnhKon TumNghệ AnPhú YênQuảng BìnhQuảng NamQuảng NgãiQuảng TrịThanh HoáĐắk Lắk
                Miền Nam
                Hồ Chí MinhAn GiangBà Rịa - Vũng TàuBình DươngBình PhướcBình ThuậnBến TreCần ThơTrà VinhĐồng NaiCà MauKiên GiangLâm ĐồngLong AnNinh ThuậnSóc TrăngTây NinhTiền GiangVĩnh LongĐồng ThápĐắk NôngHậu GiangBạc Liêu
                Địa danh nổi bật
                Hà NộiHồ Chí MinhĐà NẵngVũng TàuPhan Thiết Phú Quốc Nha TrangSaPa Đà LạtHội AnHạ Long Huế
                Bãi biển đẹp
                Bãi Đồ Sơn - Hải PhòngBãi Trà Cổ - Hạ LongBãi Quan Lạn - Hạ LongBãi Ti Tốp - Hạ LongBãi Tuần Châu - Hạ LongBãi Cháy - Hạ LongBãi Nhật Lệ - Quảng BìnhBãi Đá Nhảy - Quảng BìnhBãi Non Nước - Đà NẵngBán đảo Sơn Trà - Đà NẵngBãi Mỹ Khê - Đà NẵngBãi Thanh Bình - Đà NẵngBãi Dài - Nha TrangDốc Lết - Nha TrangBãi Đại Lãnh - Nha TrangBãi Ninh Chữ - Ninh ThuậnBãi Bình Tiên - Ninh ThuậnBãi biển Đồi Dương - Phan ThiếtBãi Rạng - Phan ThiếtBãi Cổ Thạch - Phan ThiếtBãi Phú Hài - Phan ThiếtHồ Cốc - Bà Rịa Vũng TàuBãi Dâu - Bà Rịa Vũng TàuBãi Dứa - Bà Rịa Vũng TàuBãi Trước - Bà Rịa Vũng TàuBãi sau - Bà Rịa Vũng TàuBãi Trường - Phú QuốcBãi Sao - Phú Quốc
             Điểm đến
                    Đóng
                    }
                    }
                    }
                    }
                    }
                    }
                    }
                    }
            Tìm Kiếm Địa Danh
            ĐI ĐẾN
            Chuyên mục
                             Ẩm thực 
                             Cảnh đẹp 
                             Khám phá 
                             Du lịch biển 
                             Di sản văn hóa 
                             Mẹo du lịch 
                             Du lịch tâm linh 
                             Vui chơi - Giải trí 
                             Thế giới đó đây 
                             Lịch trình du lịch A-Z 
                             Lễ hội - Sự kiện 
                             Du lịch cộng đồng 
                             Nghỉ dưỡng 
            Điểm đến
            Địa danh nổi bật
            Hà NộiHồ Chí MinhĐà NẵngVũng TàuPhan Thiết Phú Quốc Nha TrangSaPa Đà LạtHội AnHạ Long Huế
            Bãi biển đẹp
            Bãi Đồ Sơn - Hải PhòngBãi Trà Cổ - Hạ LongBãi Quan Lạn - Hạ LongBãi Ti Tốp - Hạ LongBãi Tuần Châu - Hạ LongBãi Cháy - Hạ LongBãi Nhật Lệ - Quảng BìnhBãi Đá Nhảy - Quảng BìnhBãi Non Nước - Đà NẵngBán đảo Sơn Trà - Đà NẵngBãi Mỹ Khê - Đà NẵngBãi Thanh Bình - Đà NẵngBãi Dài - Nha TrangDốc Lết - Nha TrangBãi Đại Lãnh - Nha TrangBãi Ninh Chữ - Ninh ThuậnBãi Bình Tiên - Ninh ThuậnBãi biển Đồi Dương - Phan ThiếtBãi Rạng - Phan ThiếtBãi Cổ Thạch - Phan ThiếtBãi Phú Hài - Phan ThiếtHồ Cốc - Bà Rịa Vũng TàuBãi Dâu - Bà Rịa Vũng TàuBãi Dứa - Bà Rịa Vũng TàuBãi Trước - Bà Rịa Vũng TàuBãi sau - Bà Rịa Vũng TàuBãi Trường - Phú QuốcBãi Sao - Phú Quốc
            Miền Bắc
            Hà NộiBắc NinhBắc GiangBắc KạnLào CaiQuảng NinhNam ĐịnhCao BằngHà GiangHà NamHải DươngHải PhòngHoà BìnhHưng YênLai ChâuLạng SơnNinh BìnhPhú ThọSơn LaThái BìnhThái NguyênTuyên QuangVĩnh PhúcYên BáiĐiện Biên
            Miền Trung
            Bình ĐịnhĐà NẵngKhánh HòaThừa Thiên HuếGia LaiHà TĩnhKon TumNghệ AnPhú YênQuảng BìnhQuảng NamQuảng NgãiQuảng TrịThanh HoáĐắk Lắk
            Miền Nam
            Hồ Chí MinhAn GiangBà Rịa - Vũng TàuBình DươngBình PhướcBình ThuậnBến TreCần ThơTrà VinhĐồng NaiCà MauKiên GiangLâm ĐồngLong AnNinh ThuậnSóc TrăngTây NinhTiền GiangVĩnh LongĐồng ThápĐắk NôngHậu GiangBạc Liêu
            TOUR LIÊN QUAN
                                Tour du lịch thành phố Vũng Tàu trong 2 ngày ...
                                    Giá từ:  995,000 đ
                                    2 ngày 1 đêm
                                Tour du lịch biển Hồ Cốc - suối khoáng nóng B ...
                                    Giá từ:  1,600,000 đ
                                    2 ngày 1 đêm
                Khách sạn tại Bà Rịa - Vũng Tàu
                Giá tốt hơn so với đặt phòng trực tiếp tại khách sạn
                Đảm bảo 
                giá tốt nhất
                Đảm bảo 
                hoàn tiền
                Nhân viên chăm sóc, tư vấn nhiều kinh nghiệm
                Hơn 5000 khách sạn tại Việt Nam với đánh giá thực
                Nhiều chương trình khuyến mãi và tích lũy điểm
                Thanh toán dễ dàng, đa dạng
                     Du lịch  Xuyên Mộc 
                     Xuyên Mộc là một huyện có diện tích lớn, nằm ở phía đông bắc tỉnh Bà Rịa - Vũng Tàu. Xuyên Mộc là vùng đất đầy tiềm năng về du lịch sinh thái như: Bãi biển Hồ Tràm, bãi biển Hồ Cốc, suối nước nóng Bình Châu… Hãy để Mytour hỗ trợ bạn để có 1 chuyến đi thú vị, tiết kiệm bằng cách đặt phòng khách sạn Xuyên Mộc ngay bây giờ với giá chỉ từ 299,000 VND.
                                     'Vui chơi tẹt ga' với suối khoáng gần biển cách ... 
                                        20/06/2016
                                        527
                                    Suối nước nóng Bình Châu là điểm đến yêu thích của người dân Vũng Tàu. Du lịch Bình Châu, bạn không chỉ được tắm suối khoáng nóng mà còn được chiêm ngưỡng cảnh bình minh tuyệt đẹp ở biển Hồ Cốc. Suối nước nóng Bình Châu là một bầu nước nóng ấm bao gồm 70 điểm phun nước...
                                        Xem thêm 
                                     'Bỏ trốn' Sài thành du hí Xuyên Mộc - Vũng Tàu 
                                        22/06/2015
                                        5603
                                     Có người nói tiếng sóng biển và gió trời là bản nhạc có thể xoa dịu mọi muộn phiền của con người. Đôi khi bàn chân ta chỉ muốn cùng người mình thương nhất có thể xách ba-lo bỏ trốn khỏi đất đô thị ồn ào đi về một nơi chỉ có tiếng gió. Đó không hẳn là việc chinh phục mi...
                                                                                    cảnh đẹp Việt Nam
                                                                                    Hồ Cốc
                                                                                    Hồ Tràm
                                                                                    Suối nước nóng Bình Châu
                                                                                    làng chài xã Bình Châu
                                        Xem thêm 
                                     Bãi biển Lộc An - nét hoang sơ hấp dẫn khó chối từ 
                                        18/03/2015
                                        5040
                                     Ngày ngày tháng tháng, sóng vẫn vỗ nhẹ vào bờ cát trắng phau, cùng với gió đung đưa qua từng tán cây bên bờ, nghiêng ngả dưới làn mây xanh thẳm, ngân lên khúc giao mùa đặc trưng mà chỉ thiên nhiên mới có. Để rồi bước chân ai mỗi lần thèm khát được nghe tiếng sóng, tiến...
                                                                                    kinh nghiệm du lịch Vũng Tàu
                                                                                    du lịch Vũng Tàu
                                                                                    biển lộc an
                                                                                    khu du lịch long hải
                                        Xem thêm 
                                     Kinh nghiệm du lịch Hồ Cố 1 ngày 
                                        20/02/2015
                                        570
                                    Hồ Cốc là vùng biển nhỏ cách Vũng Tàu khoảng 40km về phía bắc. Nơi đây vốn là một bãi biển hoang sơ nằm sát rừng nên hầu như không có đông đúc dân cư sinh sống dọc theo bờ biển, ngoại trừ một số resort và nhà nghỉ. Vì vậy biển Hồ Cốc khá sạch và trong xanh. Dọc bờ biển...
                                        Xem thêm 
                                     Khám phá một Hồ Cốc hoang sơ đầy quyến rũ 
                                        02/07/2014
                                        9193
                                     Hồ Cốc là vùng biển nhỏ cách Vũng Tàu khoảng 40km về phía bắc. Nơi đây vốn là một bãi biển hoang sơ nằm sát rừng nên hầu như không có đông đúc dân cư sinh sống dọc theo bờ biển, ngoại trừ một số resort và nhà nghỉ. Vì vậy biển Hồ Cốc khá sạch và trong xanh. Dọc bờ biển...
                                                                                    Bà Rịa - Vũng Tàu
                                                                                    du lịch biển
                                                                                    Biển Hồ Cốc
                                                                                    ngắm bình minh
                                                                                    cảnh đẹp hoang sơ
                                        Xem thêm 
                                     Hấp dẫn với khu du lịch Bình Châu 
                                        22/06/2014
                                        2970
                                     Một địa danh với những điều mới lạ và thú vị, giúp bạn tìm hiểu và khám phá nơi đây, đến nơi đây những cảm giác mệt mỏi sau những ngày học tập, làm việc vất vả đều được xua tan đi. Mỗi một nơi ở đây đều mang những màu sắc riêng biệt. Hồ nước trong xanh Xem thêm: Các kh...
                                                                                    du lịch Vũng Tàu
                                                                                    Suối nước nóng Bình Châu
                                                                                     khám phá vũng tàu
                                                                                    khu du lịch bình châu
                                        Xem thêm 
                                     Chọn Hồ Tràm làm kỳ nghỉ ngày Tết 
                                        15/06/2014
                                        3225
                                     Hồ Tràm là dải bờ biển dài nằm giữa Long Hải và Bình Châu, trên địa bàn huyện Xuyên Mộc, tỉnh Bà Rịa - Vũng Tàu (cách TP HCM khoảng 120 km). Từ thành phố Vũng Tàu đến Hồ Tràm khoảng 30 km, đi xuôi về phía Bắc. Nếu du khách có dịp du lịch vũng tàu thì cũng nên đi qua đâ...
                                                                                    kinh nghiệm du lịch Vũng Tàu
                                                                                    Hồ Tràm
                                                                                    Khu bảo tồn thiên nhiên Bình Châu - Phước Bửu
                                                                                    du lịch lễ tết 
                                        Xem thêm 
                                     4 ghềnh đá tuyệt đẹp ít người biết của du lịch Việ ... 
                                        12/06/2014
                                        1639
                                     Những ghềnh đá như Lộ Diêu, đảo Hòn La, Bàn Than, Bình Châu dễ dàng mê hoặc du khách với sự kỳ vĩ, nhưng lại hiếm khi được nhắc tới trong những cung đường du lịch. GHỀNH ĐÁ BÌNH CHÂU Xem thêm: Khách sạn giá tốt gần Bình Châu Ghềnh đá yên bình sóng biển - Ảnh: sưu tầm N...
                                                                                    ghềnh đá đĩa
                                                                                    du lịch Vũng Tàu
                                                                                    du lịch Bình Định
                                                                                    Suối nước nóng Bình Châu
                                        Xem thêm 
                                     Chùa Bảo Tích 
                                        05/06/2014
                                        1479
                                     Chùa Bảo Tích ở ấp 3 xã Bàu Lâm huyện Xuyên Mộc tỉnh Bà Rịa Vũng Tàu. Chùa Bảo Tích xưa kia là Hương Tích Tự do cố Hoà Thượng Thích Minh Tâm sáng lập. Trong thời gian chiến tranh, Chùa đã bị bom đạn tàn phá hoàn toàn, Phật tử phải đi lánh nạn khắp nơi. Sau ngày giải ph...
                                                                                    du lịch tâm linh
                                                                                    du lịch Bà Rịa - Vũng Tàu
                                                                                     đền chùa
                                                                                    chùa Bảo Tích
                                        Xem thêm 
                                     Suối nước nóng Bình Châu 
                                        05/05/2014
                                        4765
                                     Bà Rịa – Vũng Tàu đang sở hữu một thắng cảnh độc đáo có một không hai ở khu vực phía Nam, đó là Khu bảo tồn thiên nhiên Bình Châu – Phước Bửu mà điểm nhấn là suối nước nóng Bình Châu. Khu du lịch nước nóng Bình Châu nằm cách huyện Xuyên Mộc khoảng 3.
                                                                                    kinh nghiệm du lịch Vũng Tàu
                                                                                    du lịch Bà Rịa - Vũng Tàu
                                                                                    Suối nước nóng Bình Châu
                                                                                    Khu bảo tồn thiên nhiên Bình Châu - Phước Bửu
                                        Xem thêm 
                                     Rừng nguyên sinh Bình Châu - Phước Bửu 
                                        05/05/2014
                                        8231
                                     Rừng Bình Châu - Phước Bửu là một quẩn thể cảnh quan đa dạng, có sức thu hút nhiều du khách trong và ngoài nước đến tham quan. Đây là khu rừng nguyên sinh ven biển duy nhất còn lại tương đối nguyên vẹn của Việt Nam. Khu rừng cấm quốc gia Bình Châu - Phước Bửu nằm dọc t...
                                                                                    du lịch sinh thái
                                                                                    rừng quốc gia Bình Châu
                                                                                    du lịch Bà Rịa - Vũng Tàu
                                                                                    Rừng Bình Châu - Phước Bửu
                                                                                    Suối nước nóng Bình Châu
                                        Xem thêm 
                                     Thác Xuân Sơn - Thác Ray 
                                        04/05/2014
                                        3844
                                     Thác Xuân Sơn còn có tên gọi là thác Sông Ray- và nay còn có tên là thác Hòa Bình nằm trên địa phận huyện Châu Đức nhưng tiếp giáp với huyện Xuyên Mộc do đó có thể đi từ hai lối để đến với thác Xuân Sơn. Nếu theo đường từ Vũng Tàu qua Bà Rịa đi Long Khánh đến Ngãi Giao...
                                                                                    du lịch Vũng Tàu
                                                                                    khám phá Vũng Tàu
                                                                                    thác xuân sơn
                                                                                    thác ray
                                        Xem thêm 
                «
                Trang trước
                1
                2
                Trang sau
                »
                ×
                    Chính sách đảm bảo hoàn tiền của mytour
                    Bạn chưa tin tưởng việc đặt phòng khách sạn trực tuyến? Bạn e ngại rằng phòng khách sạn thực tế không đúng với thông tin trên website? Chúng tôi cam kết đưa đầy đủ và chính xác thông tin khách sạn trên website với chính sách “Đảm bảo Hoàn tiền”
                        Nếu khách hàng đặt khách sạn thành công trên Mytour nhưng khách sạn không có phòng, Mytour sẽ hoàn lại tiền cho khách và tặng kèm phiếu giảm giá có giá trị bằng với số tiền khách hàng đã trả.
                        Trong trường hợp loại phòng thực tế không đúng với loại phòng trên đơn hàng, Mytour sẽ quyết định nâng cấp miễn phí hoặc tặng phiếu giảm giá có giá trị bằng với số tiền khách hàng đã trả.
                        Trường hợp các tiện nghi phòng khách sạn (như bữa sáng, wifi…) không đúng với nội dung trên website, Mytour sẽ tặng phiếu giảm giá có giá trị bằng 10% số tiền khách đã trả (tối đa 500,000 VND)
                        Khách hàng cần gọi điện thoại 04-7309 9899 (Hà Nội), 08-7309 9899 (Hồ Chí Minh) hoặc email tới info@mytour.vn và cung cấp mã đơn hàng trong vòng 24 giờ từ lúc nhận phòng để được trợ giúp giải quyết khiếu nại (Hotline chỉ hỗ trợ trong giờ hành chính).
                        Mytour không chịu trách nhiệm bồi thường thiệt hại gián tiếp, ngẫu nhiên, hay do hậu quả phát sinh. Trong mọi trường hợp, trách nhiệm của Mytour không vượt quá tổng số tiền khách hàng thanh toán đặt phòng.
                ×
                    Đảm bảo giá tốt nhất
                    Nếu Thành viên đã đặt một phòng khách sạn được “Đảm Bảo” tại Mytour.vn và sau đó, cho Mytour.vn  thấy rằng Thành viên có thể đặt một phòng tương tự trong cùng khoảng thời gian ở mức giá tốt hơn có thể xem và đặt được trên một website khác, Mytour.vn sẽ giảm giá bằng hoặc thấp hơn mức giá đó.
                    Giá dùng để so sánh là giá sau khi áp dụng mức giảm giá công bố trên website Mytour.vn.
                    Chính sách “Đảm Bảo Giá Tốt Nhất” của Mytour.vn chỉ áp dụng cho các đặt phòng đã được xác nhận và phải thỏa mãn những điều kiện sau:
                Cùng khách sạnCùng thời gian nghỉ lạiCùng loại Phòng/GiườngCùng các yêu cầu mua Trước, yêu cầu trả trước và đặt cọc (nếu có)Cùng chính sách Hủy và Sửa Đổi
                    Phòng đó phải còn trống để được xác nhận ngay tại thời điểm các đại lý của Mytour.vn  kiểm tra phòng trống
                        Chính sách “Đảm Bảo Giá Tốt Nhất” không áp dụng cho các mức giá không công bố, như: chương trình khách hàng thân thiện.
                        Bất kỳ tổ chức nào với các mức giá dành cho nhóm cá nhân cụ thể và không nhằm mục đích áp dụng ra bên ngoài.
                        Thành viên có thể gửi khiếu nại theo địa chỉ : info@mytour.vn
                                Nêu mã đặt phòng Mytour.vn trong dòng tiêu đề thư
                                Gửi URL của website nơi Thành viên tìm thấy mức giá tốt hơn
                                Cung cấp ảnh chụp màn hình của website đối thủ cạnh tranh trong đó nêu rõ Phòng Trống, Loại Phòng, và các mức giá cho những ngày nghỉ lại theo yêu cầu của Thành viên.
                VUI LÒNG LƯU Ý: Thành viên không cần thực hiện đặt phòng trên website của đối thủ cạnh tranh, chỉ cần cho Mytour.vn thấy sự so sánh.
                ×
                Đăng Nhập
                                 Đăng nhập bằng tài khoản Facebook
                                 Đăng nhập bằng tài khoản Google
                            Hoặc đăng nhập bằng
                        Email*
                        Mật khẩu*
                        Quên mật khẩu?
                            Chưa có tài khoản/tạo tài khoản
                Đăng nhập
                         Nhớ đăng nhập
                ×
                Bản đồ
                    Tìm đường
                        Từ: 
                        Đến: 
                            Khách sạnĐịa danh Hiển thị các khách sạn ở gần Hiển thị các khu du lịch ở gần
                ×
                Yêu Cầu Lấy Giá
                                    Ngày nhận phòng
                                    Ngày trả phòng
                        Tên khách hàng
                        Email
                        Điện thoại
                        Nhân viên chăm sóc khách hàng sẽ gọi điện cho quý khách trong thời gian sớm nhất.
                        Quý khách có thể gọi điện đến cho Mytour để được tư vấn ngay:
                        Hà Nội: (04) 7109 9999, Hồ Chí Minh: (08) 7309 9899, Support
                            English: (+84)4-7309-9899.
                    Hoàn thành
                ×
                Gửi Thông Tin
                        Tên khách hàng
                        Email
                        Điện thoại
                            Quý khách sẽ thấy giá giảm ngay trên trang sau khi gửi thông tin
                    Hoàn thành
                ×
                Nhận Giá Tốt
                                    Ngày nhận phòng
                                    Ngày trả phòng
                        Tên khách hàng
                        Email
                        Điện thoại
                        Vì giá tốt không được công bố nên hệ thống sẽ gửi giá qua email đến quý khách và nhân viên chăm
                        sóc sẽ gọi điện cho quý khách trong thời gian sớm nhất.
                        Quý khách có thể gọi điện đến cho Mytour để được tư vấn ngay:
                        Hà Nội: (04) 7109 9999, Hồ Chí Minh: (08) 7309 9899, Support
                            English: (+84)4-7309-9899.
                    Hoàn thành
                ×
                ×
                ĐÁNH GIÁ 
                        Tên
                        Tiêu đề
                        Kiểu du lịch?
                                -- Chọn --Cá nhânCặp đôiGia đìnhBạn bèDoanh nghiệp
                        Nội dung
                                Đánh giá chi tiết
                                Chỗ ở
                                5
                                Thức ăn
                                5
                                Phương tiện
                                5
                                Hướng dẫn viên
                                5
                                Lịch trình
                                5
                    Gửi đánh giá
                    Hủy Bỏ
                ×
                Gửi lại email kích hoạt
                ×
                Thông tin chi tiết giá theo phòng
                    Chọn khoảng thời gian hiển thị giá phòng
                    Hiển thị giá
                ×
                Khóa phòng theo khoảng thời gian
                            Chọn khoảng thời gian check-in cần khóa/mở phòng
                            Khóa phòng
                            Mở phòng
                ×
                THUẾ VÀ PHÍ DỊCH VỤ
                17% thuế và phí dịch vụ bao gồm:
                    - 10% thuế và 5% phí dịch vụ hoàn trả lại cho khách sạn.
                    - 2% phí giao dịch tại Mytour.
                ×
                Bạn có hài lòng về website của Mytour?
                    Thông điệp nhắn nhủ:
                Mytour luôn mong muốn cải thiện dịch vụ để bạn có trải nghiệm tốt hơn!
                            Ảnh đính kèm
                        Đóng
                        Gửi
                ×
                    Những đóng góp của bạn đã được ghi nhận. Mytour cám ơn bạn !
                Quay lại website
                        Khách sạn tại Bà Rịa - Vũng Tàu
                                Xuyên Mộc
                                Hồ Cốc
                                Biển Hồ Tràm
                                Hồ Suối Các
                                Chợ Hòa Hiệp
                                Chợ Bàu Lâm
                                Chợ Hòa Bình
                                Suối nước nóng Bình Châu
                                Khu bảo tồn thiên nhiên Bình Châu - Phước Bửu
                                Chợ Hòa Hiệp
                                Chợ Bàu Lâm
                                Chợ Hòa Bình
                                Hồ Suối Các
                                Suối nước nóng Bình Châu
                                Khu bảo tồn thiên nhiên Bình Châu - Phước Bửu
                            Giới thiệu Mytour
                            Đối tác khách sạn
                            Đăng nhập HMS
                            Tích lũy Vpoint
                            Điều khoản sử dụng
                            Quy chế hoạt động
                            Tuyển dụng
                            Liên hệ
                            Đăng ký nhận email
                                Đăng ký email để nhận khuyến mãi lên đến 70%
                                    Đăng
                                    ký
                    Công ty TNHH Mytour Việt Nam
                    Số ĐKKD: 0105983269 cấp ngày 30/08/2012
                    Văn phòng Hà Nội: Tầng 4, tòa nhà GP Invest, 170 Đê La Thành, Đống Đa
                    Văn phòng HCM: Tầng 5, Tòa Nhà HDTC, Số 36 Bùi Thị Xuân, Q.1
                Hotline
                        Hà Nội:
                        (04) 7109 9999
                        Tp. HCM:
                        (08) 7309 9899
                        ENGLISH SUPPORT:
                        (+84)4 7309 9899
