url:http://mytour.vn/129-khach-san-ha-long-plaza.html
Tittle :Khách Sạn Hạ Long Plaza  - Quảng Ninh giá tốt nhất - Mytour.vn
content :Đặt phòng trực tuyến, hoặc gọi
                                                            Hà Nội: (04) 7109 9999
                                                                                        - (04) 7309 9899
                                                            Hồ Chí Minh: (08) 7309 9899
                                                                                        - (08) 7109 9998
                        T2 - CN: 08:00 - 23:00
                    Toggle navigation
                                Bạn không có thông báo nào
                    |
                    ||
                                                            Tài khoản
                        Đăng nhập
                                Đăng kýKhách sạn yêu thích
                            Khách sạn
                            Tour
                            Cẩm nang du lịch
                            Thông tin
                                                Về Mytour
                                                Tin khuyến mãi
                                                Ưu đãi
                                                Hướng dẫn
                                                Liên hệ
                            Tốt nhất 2016
                ×
                Bạn có chắc muốn hủy đơn hàng?
                Lorem ipsum dolor sit amet, consectetur adipisicing elit. Iure corporis repudiandae nobis distinctio
                quae quos, officia modi, ab voluptatem pariatur ducimus mollitia, necessitatibus sed soluta dicta
                repellendus! Praesentium debitis, temporibus?
                    Đồng ý
                    Đóng
                    Khách sạnQuảng NinhHạ Long Khách sạn gần Bai Chay Beach (  Bãi tắm Bãi Cháy)Khách Sạn Hạ Long Plaza 
                    Đóng
            Tìm Kiếm Khách Sạn
                            Ngày nhận phòng
                            Ngày trả phòng
                    Số đêm
                    Số phòng
                        123456789101112
                    Người lớn
                        123456789101112
                    Tìm khách sạn
                Giá tốt hơn so với đặt phòng trực tiếp tại khách sạn
                Đảm bảo 
                giá tốt nhất
                Đảm bảo 
                hoàn tiền
                Nhân viên chăm sóc, tư vấn nhiều kinh nghiệm
                Hơn 5000 khách sạn tại Việt Nam với đánh giá thực
                Nhiều chương trình khuyến mãi và tích lũy điểm
                Thanh toán dễ dàng, đa dạng
                        Khách Sạn Hạ Long Plaza 
                            (Cung cấp bởi khách sạn)
                                    Tất cả thông tin về tiêu chuẩn khách sạn trên website mytour.vn
                                    là do khách sạn tự cung cấp, chỉ mang tính chất tham khảo và không nhất thiết trùng
                                    hợp với hạng
                                    sao được cấp bởi sở Văn Hoá, Thể thao và du lịch.
                             8 Hạ Long, Bãi Cháy, Hạ Long , Quảng Ninh 
                                Đặt phòng ngay giữ giá tốt
                                Đã thích
                                        8.1
                                            (41
                                            đánh giá)
                                Giới thiệu về Khách Sạn Hạ Long Plaza  
                                    Khách Sạn Hạ Long Plaza đ­ược toạ lạc tại số 8 Hạ Long, Bãi Cháy, Hạ Long.
Tất cả các phòng đều có trang thiết bị sang trọng, hiện đại như: hệ thống điều hòa, sưởi ấm và nước nóng trung tâm, 20 kênh truyền hình quốc tế, 1 kênh chiếu phim riêng của khách sạn sẽ đáp ứng nhu cầu thông tin, giải trí của du khách nhiều nước trên thế giới. Các phòng nghỉ đều có két an toàn, phòng tắm với bồn tắm nằm, tắm đứng riêng biệt và du khách có thể truy cập Wifi ngay tại phòng. Điểm mạnh của Khách Sạn Hạ Long Plaza là các phòng đều hướng biển, du khách có thể tận hưởng và chiêm ngưỡng cảnh đẹp thiên nhiên kỳ vĩ của vịnh Hạ Long.
Ngoài ra Khách Sạn Hạ Long Plaza còn có những dịch vụ như: Dịch vụ cho thuê xe, Chỗ đỗ xe, Các dịch vụ Du lịch, Phục vụ phòng 24/24
Mytour sẽ tư vấn đặt phòng Khách Sạn Hạ Long Plaza phù hợp nhu cầu của bạn. Ngoài ra mytour cũng có dịch vụ đặt tour tham quan các địa danh nổi tiếng nơi đây như: vịnh hạ long, làng chài của vạn, đảo tuần châu, đảo quan lạn… 
Dù lý do bạn đến Quảng Ninh là gì, chuyến đi của bạn sẽ trọn vẹn và ý nghĩa hơn nếu bạn chọn Khách Sạn Hạ Long Plaza.
Với sự hỗ trợ của Mytour, bạn sẽ có cơ hội đặt phòng giá rẻ nhất cùng nhiều chương trình khuyến mại dành riêng cho khách hàng của Mytour.
Nhanh tay đặt phòng Khách Sạn Hạ Long Plaza để tận hưởng dịch vụ đẳng cấp bạn nhé!
                                        Xem thêm 
                                Chọn ngày để xem giá và phòng trống
                                    Đảm bảo giá tốt nhất
                                                Ngày nhận phòng
                                                Ngày trả phòng
                                        Số đêm
                                        Số phòng
                                            123456789101112
                                        Người lớn
                                            123456789101112
                                        Cập nhật giá
                                Lưu ý: Vui lòng ẩn "Cập nhật giá" để cập nhật phòng
                                Chọn phòng Khách Sạn Hạ Long Plaza 
                                                Loại Phòng
                                                Giá 1 đêm
                                                Số phòng
                                                Đặt phòng
                                                                    Superior
                                                                        Điều kiện hủy phòng
                                                                        Thêm giường
                                                                        0
                                                                         Vui lòng chọn số lượng phòng trước! 
                                                        Ưu đãi cho trẻ em:
- Miễn phí cho trẻ em dưới 8 tuổi ở cùng bố mẹ (không kê thêm giường).
Điều kiện nhận và trả phòng:
- Giờ nhận phòng: 14giờ
- Giờ trả phòng: 12 giờ trưa
- Tính 100% tiền phòng đối với các trường hợp nhận phòng sớm trước 8 giờ sáng (8AM) hoặc
trả phòng muộn sau 18 giờ (6PM). Tính thêm 50% tiền phòng của ngày hôm đó với trường hợp
trả phòng muộn trước 18 giờ (6PM)
                                                        phòng
                                                                                                                                                                            012345
                                                            Đặt ngay
                                                            Xác nhận ngay
                                                                    Deluxe
                                                                        Điều kiện hủy phòng
                                                                        Thêm giường
                                                                        0
                                                                         Vui lòng chọn số lượng phòng trước! 
                                                        Ưu đãi cho trẻ em:
- Miễn phí cho trẻ em dưới 8 tuổi ở cùng bố mẹ (không kê thêm giường).
Điều kiện nhận và trả phòng:
- Giờ nhận phòng: 14giờ
- Giờ trả phòng: 12 giờ trưa
- Tính 100% tiền phòng đối với các trường hợp nhận phòng sớm trước 8 giờ sáng (8AM) hoặc
trả phòng muộn sau 18 giờ (6PM). Tính thêm 50% tiền phòng của ngày hôm đó với trường hợp
trả phòng muộn trước 18 giờ (6PM)
                                                        phòng
                                                                                                                                                                            0123456
                                                            Đặt ngay
                                                            Xác nhận ngay
                                                                    Junior Suite
                                                                        Điều kiện hủy phòng
                                                                        Thêm giường
                                                                        0
                                                                         Vui lòng chọn số lượng phòng trước! 
                                                        Ưu đãi cho trẻ em:
- Miễn phí cho trẻ em dưới 8 tuổi ở cùng bố mẹ (không kê thêm giường).
Điều kiện nhận và trả phòng:
- Giờ nhận phòng: 14giờ
- Giờ trả phòng: 12 giờ trưa
- Tính 100% tiền phòng đối với các trường hợp nhận phòng sớm trước 8 giờ sáng (8AM) hoặc
trả phòng muộn sau 18 giờ (6PM). Tính thêm 50% tiền phòng của ngày hôm đó với trường hợp
trả phòng muộn trước 18 giờ (6PM)
                                                        phòng
                                                                                                                                                                            012345
                                                            Đặt ngay
                                                            Xác nhận ngay
                                                                    Executive Suite
                                                                        Điều kiện hủy phòng
                                                                        Thêm giường
                                                                        0
                                                                         Vui lòng chọn số lượng phòng trước! 
                                                        Ưu đãi cho trẻ em:
- Miễn phí cho trẻ em dưới 8 tuổi ở cùng bố mẹ (không kê thêm giường).
Điều kiện nhận và trả phòng:
- Giờ nhận phòng: 14giờ
- Giờ trả phòng: 12 giờ trưa
- Tính 100% tiền phòng đối với các trường hợp nhận phòng sớm trước 8 giờ sáng (8AM) hoặc
trả phòng muộn sau 18 giờ (6PM). Tính thêm 50% tiền phòng của ngày hôm đó với trường hợp
trả phòng muộn trước 18 giờ (6PM)
                                                        phòng
                                                                                                                                                                            012345
                                                            Đặt ngay
                                                            Xác nhận ngay
                                                                    Plaza Suite
                                                                        Điều kiện hủy phòng
                                                                        Thêm giường
                                                                        0
                                                                         Vui lòng chọn số lượng phòng trước! 
                                                        Ưu đãi cho trẻ em:
- Miễn phí cho trẻ em dưới 8 tuổi ở cùng bố mẹ (không kê thêm giường).
Điều kiện nhận và trả phòng:
- Giờ nhận phòng: 14giờ
- Giờ trả phòng: 12 giờ trưa
- Tính 100% tiền phòng đối với các trường hợp nhận phòng sớm trước 8 giờ sáng (8AM) hoặc
trả phòng muộn sau 18 giờ (6PM). Tính thêm 50% tiền phòng của ngày hôm đó với trường hợp
trả phòng muộn trước 18 giờ (6PM)
                                                        phòng
                                                                                                                                                                            012345
                                                            Đặt ngay
                                                            Xác nhận ngay
                                    Tiện nghi Khách Sạn Hạ Long Plaza  
                                                Đưa đón khách sạn sân bay
                                                Bữa sáng miễn phí
                                                Bể bơi ngoài trời
                                                Bãi đỗ xe
                                                Internet
                                                Phòng hội thảo
                                                Phòng họp
                                                Thang máy
                                                Thêm giường phụ
                                                Truyền hình cáp/vệ tinh
                                                Wifi miễn phí
                                                Giặt là
                                                Hỗ trợ đặt tour
                                                Nhà hàng
                                                Quán cafe
                                                Thuê xe, taxi
                                                Tiếp tân 24/24
                                                vé tàu xe, máy bay
                                Ghi chú: Ăn sáng miễn phí (nếu có) có thể thay đổi theo phòng và ngày
                                    Chính sách Khách Sạn Hạ Long Plaza  
                                        Giờ nhận
                                        phòng: 14:00
                                        Giờ trả
                                        phòng: 12:00
            Đánh giá Khách Sạn Hạ Long Plaza 
                Viết đánh giá
                        Tất cả ( 41 )
                        Công tác ( 1 )
                        Cặp đôi ( 2 )
                        Gia đình ( 5 )
                        Bạn bè ( 3 )
                        Cá nhân ( 30 )
                        Tốt
                        8.1
                            Tất cả
                    Chi tiết điểm  (từ
                        41
                        nhận xét)
                            Vị trí
                                8.2
                                    % Complete
                            8.2
                            Phục vụ
                                8.2
                                    % Complete
                            8.2
                            Tiện nghi
                                8.1
                                    % Complete
                            8.1
                            Giá cả
                                8
                                    % Complete
                            8
                            Vệ sinh
                                8
                                    % Complete
                            8
                                    “Đến khách sạn họ đưa cho tôi một căn phòng mà tôi thấy rất ưng, trang thiết bị tốt, diện tích vừa đủ rộng, điều kiện vệ sinh đảm bảo. Bãi biển ở đây đẹp, thoáng mát. Đội ngũ nhân viên nhiệt tình, đối xử với khách hàng tử tế. Tổng qua là tốt, tôi hài lòng.
                                    “
                                NGUYỄN HỒNG KHÁNH
                                02/08/2016
                        Tốt
                        8.6
                            Công tác
                    Chi tiết điểm  (từ
                        1
                        nhận xét)
                            Vị trí
                                9
                                    % Complete
                            9
                            Phục vụ
                                9
                                    % Complete
                            9
                            Tiện nghi
                                8
                                    % Complete
                            8
                            Giá cả
                                9
                                    % Complete
                            9
                            Vệ sinh
                                8
                                    % Complete
                            8
                                    “Chúng tôi đã ở KS 1 đêm, nói chung tôi và đồng nghiệp đều hài lòng với phòng ốc và dịch vụ ở đây. Hy vọng sẽ có dịp quay lại VN và ở lại KS lần sau.
                                    “
                                XIE DUO ZE
                                05/03/2014
                        Đánh giá
                        7.5
                            Cặp đôi
                    Chi tiết điểm  (từ
                        2
                        nhận xét)
                            Vị trí
                                7.5
                                    % Complete
                            7.5
                            Phục vụ
                                7.5
                                    % Complete
                            7.5
                            Tiện nghi
                                7
                                    % Complete
                            7
                            Giá cả
                                7.5
                                    % Complete
                            7.5
                            Vệ sinh
                                8
                                    % Complete
                            8
                                    “Khách sạn view đẹp ngay chân cầu bãi cháy , view ra vịnh Hạ Long, đồ ăn ngon so với mặt bằng chung của vịnh Hạ Long
                                    “
                                dương minh quang
                                18/06/2015
                        Tốt
                        8.2
                            Gia đình
                    Chi tiết điểm  (từ
                        5
                        nhận xét)
                            Vị trí
                                8
                                    % Complete
                            8
                            Phục vụ
                                8.2
                                    % Complete
                            8.2
                            Tiện nghi
                                8.2
                                    % Complete
                            8.2
                            Giá cả
                                8.4
                                    % Complete
                            8.4
                            Vệ sinh
                                8
                                    % Complete
                            8
                                    “Nhân viên thân thiện, phòng ốc sạch sẽ, thoáng đãng. Vị trí đi lại thuận tiện, có thể đi khu vui chơi hoặc sang khu trung tâm Hòn Gai rất nhanh chóng.
Gia đình tôi có 2 trẻ nhỏ đi cùng nhưng cảm giác rất thoải mái. Chi phí lại phù hợp. Nếu có trở lại tôi cũng vẫn chọn khách sạn này. 
                                    “
                                Linh
                                13/06/2016
                        Tốt
                        8.3
                            Bạn bè
                    Chi tiết điểm  (từ
                        3
                        nhận xét)
                            Vị trí
                                8
                                    % Complete
                            8
                            Phục vụ
                                8.7
                                    % Complete
                            8.7
                            Tiện nghi
                                8.3
                                    % Complete
                            8.3
                            Giá cả
                                8
                                    % Complete
                            8
                            Vệ sinh
                                9
                                    % Complete
                            9
                                    “Khách sạn đẹp, vị trí thuận lợi tuy nhiên chưa gần bãi biển, phục vụ tốt. 
                                    “
                                Nguyễn Thị Diệp Hương
                                08/07/2013
                        Tốt
                        8
                            Cá nhân
                    Chi tiết điểm  (từ
                        30
                        nhận xét)
                            Vị trí
                                8.2
                                    % Complete
                            8.2
                            Phục vụ
                                8.2
                                    % Complete
                            8.2
                            Tiện nghi
                                8.1
                                    % Complete
                            8.1
                            Giá cả
                                7.9
                                    % Complete
                            7.9
                            Vệ sinh
                                7.9
                                    % Complete
                            7.9
                                    “Đến khách sạn họ đưa cho tôi một căn phòng mà tôi thấy rất ưng, trang thiết bị tốt, diện tích vừa đủ rộng, điều kiện vệ sinh đảm bảo. Bãi biển ở đây đẹp, thoáng mát. Đội ngũ nhân viên nhiệt tình, đối xử với khách hàng tử tế. Tổng qua là tốt, tôi hài lòng.
                                    “
                                NGUYỄN HỒNG KHÁNH
                                02/08/2016
                                Từ ngày mới đến cũ
                                Từ ngày cũ đến mới
                                Điểm từ thấp đến cao
                                Điểm từ cao đến thấp
                                Đỗ văn Chiến
                                15-10-2016
                                            Tốt
                                            8
                                        "Phòng ốc rộng rãi, tiện nghi đẹp "
                                                Vị trí
                                                    8 .0
                                                Phục vụ
                                                8 .0
                                                Tiện nghi
                                                8 .0
                                                Giá cả
                                                8 .0
                                                Vệ sinh
                                                8 .0
                                                “Hạ Long Plaza có dịch vụ đúng với tiêu chuẩn 4 sao, phòng khách bên tôi đặt được họ sắp xếp khá đẹp, trang thiết bị lại hiện đại và không gian rộng rãi. Cung cách phục vụ tốt, các tiện ích đi kèm khác cũng đầy đủ. Khách đi về không phàn nàn gì cả và khen dịch vụ do đó tôi cũng hài lòng.” 
                                Nguyễn Thúy Nga
                                21-09-2016
                                            Rất tốt
                                            9
                                        "Cở sở hạ tầng đẹp "
                                                Vị trí
                                                    9 .0
                                                Phục vụ
                                                9 .0
                                                Tiện nghi
                                                9 .0
                                                Giá cả
                                                9 .0
                                                Vệ sinh
                                                9 .0
                                                “Khách sạn Hạ Long Plaza có cơ sở hạ tầng đẹp, dường như là họ mới xây dựng nên phòng nào cũng sáng sủa, sạch sẽ. Bữa sáng phục vụ ok, đầy đủ và lễ tân ở đây cũng tiếp đón lịch sự. Chất lượng dịch vụ như vậy là xứng đáng với giá tiền rồi, tôi chẳng phàn nàn.” 
                                Chị Hương
                                13-09-2016
                                            Rất tốt
                                            9.8
                                        "Đủ chuẩn 4 sao "
                                                Vị trí
                                                    10 .0
                                                Phục vụ
                                                10 .0
                                                Tiện nghi
                                                10 .0
                                                Giá cả
                                                9 .0
                                                Vệ sinh
                                                10 .0
                                                “Hạ Long Plaza xứng đáng là một khách sạn 4 sao, dịch vụ hoàn toàn đảm bảo được tính chuyên nghiệp. Nhân viên lịch sự, căn phòng ở thoải mái, bữa sáng phục vụ đa dạng món và địa điểm ở đây cũng đẹp, không khí xung quanh trong lành.” 
                                Hà
                                29-08-2016
                                            Rất tốt
                                            9
                                        "Phòng thoáng, thiết kế đẹp "
                                                Vị trí
                                                    9 .0
                                                Phục vụ
                                                9 .0
                                                Tiện nghi
                                                9 .0
                                                Giá cả
                                                9 .0
                                                Vệ sinh
                                                9 .0
                                                “Tôi thấy căn phòng của tôi tại khách sạn Hạ Long Plaza rất đẹp, nội thất được bố trí hài lòng tạo không gian thoáng mà diện tích ở đây cũng khá thoải mái. Đội ngũ nhân viên làm việc lịch sự, vui vẻ với khách hàng. Cung đường mà khách sạn tọa lạc thì nằm bên cạnh bờ biển do đó cũng thuận tiện cho việc đi du lịch.” 
                                Trần Phương Thảo
                                26-08-2016
                                            Tốt
                                            8
                                        "Thoải mái khi ở "
                                                Vị trí
                                                    8 .0
                                                Phục vụ
                                                8 .0
                                                Tiện nghi
                                                8 .0
                                                Giá cả
                                                8 .0
                                                Vệ sinh
                                                8 .0
                                                “Ngoại trừ bữa sáng không được đa dạng lắm thì mọi thứ còn lại ở Khách Sạn Hạ Long Plaza này đều ok. Căn phòng đáp ứng được tiêu chí cơ bản về sự sạch sẽ. Thái độ phục vụ khách hàng thân thiện, thoải mái khi ở.” 
                    Xem tất cả đánh giá ( 41 )
                                Đặt phòng ngay giữ giá tốt
            Khách hàng đã xem khách sạn này thường tham khảo thêm
                Được đề xuất cho bạn
            Khách sạn 4 sao có cùng tiện nghi
            Có thể bạn muốn xem
                    Khách sạn 4 sao tại Quảng Ninh
                        Khách sạn có Đưa đón khách sạn sân bay tại Quảng Ninh
                        Khách sạn có nhà hàng tại Quảng Ninh
                        Khách sạn có giặt là tại Quảng Ninh
            Địa danh ở gần
                                    Bãi tắm Bãi Cháy
                                     ~ 0.14km
                                                                Bãi tắm Bãi Cháy là một bãi tắm nhân tạo, nằm dọc vịnh Hạ Long có bãi cát trải dài. Đây là bãi tắm thu hút rất đông du khách vào mùa du lịch biển, là một bãi biển nổi tiếng của miền Bắc Việt Nam. Hãy để Mytour hỗ trợ bạn để có 1 chuyến đi thú vị, tiết kiệm bằng cách đặt phòng khách sạn tại khu vực Bãi tắm Bãi Cháy ngay bây giờ với giá rẻ nhất.
                                    Cầu Bãi Cháy 
                                     ~ 0.63km
                                                                Cầu Bãi Cháy nối Hòn Gai với Bãi Cháy qua eo Cửa Lục, ngăn cách vịnh Cửa Lục với vịnh Hạ Long, tỉnh Quảng Ninh. Đây là loại cầu dây văng một mặt phẳng dây, dầm hộp bê tông cốt thép dự ứng lực. Hãy để Mytour hỗ trợ bạn để có 1 chuyến đi thú vị, tiết kiệm bằng cách đặt phòng khách sạn tại khu vực Cầu Bãi Cháy ngay bây giờ với giá rẻ nhất.
                                    Chợ Bãi Cháy
                                     ~ 0.83km
                                    Chợ đêm Hạ Long
                                     ~ 1.41km
                                                                Chợ đêm Hạ Long gần bến phà Bãi Cháy và đi ngang qua sông Cửa Lục, Quảng Ninh. Chợ bắt đầu họp chờ từ 6h chiều, lúc này những người bán hàng đã dọn dẹp xong hàng quán của mình và mở cửa bán. Hãy để Mytour hỗ trợ bạn để có 1 chuyến đi thú vị, tiết kiệm bằng cách đặt phòng khách sạn tại khu vực Chợ đêm Hạ Long ngay bây giờ với giá rẻ nhất.
                                    Làng chài Cửa Vạn
                                     ~ 1.57km
                                    Công viên Quốc tế Hoàng Gia
                                     ~ 1.88km
                                                                Công viên quốc tế Hoàng Gia nằm dọc theo bãi biển Bãi Cháy, chạy dài từ Cảng tàu du lịch Bãi Cháy đến sát khu chợ đêm Hạ Long. Đây là khu vui chơi giải trí liên hợp, diện tích khoảng 10 ha. Hãy để Mytour hỗ trợ bạn để có 1 chuyến đi thú vị, tiết kiệm bằng cách đặt phòng khách sạn tại khu vực Công viên Quốc tế Hoàng Gia ngay bây giờ với giá rẻ nhất.
                                    Đảo Ti Tốp
                                     ~ 1.88km
                                                                Đảo Ti Tốp nằm ở khu vực trung tâm di sản, kỳ quan thiên thế giới Vịnh Hạ Long. Đảo Ti Tốp là một trong những điểm đến hấp dẫn nhất được nhiều du khách lựa chọn trong hành trình tham quan Vịnh của mình. Hãy để Mytour hỗ trợ bạn để có 1 chuyến đi thú vị, tiết kiệm bằng cách đặt phòng khách sạn tại khu vực Đảo Ti Tốp ngay bây giờ với giá rẻ nhất.
                                    Đảo Rều
                                     ~ 1.88km
                                                                Đảo Rều (còn được gọi là đảo Khỉ) ở thành phố Cẩm Phả. Nơi đây là cuộc sống bán hoang dã của hơn ngàn con khỉ, cùng với một thiên nhiên gần như hoang vu có nhiều cây to hơn vòng tay người ôm cao lớn sừng sững. Hãy để Mytour hỗ trợ bạn để có 1 chuyến đi thú vị, tiết kiệm bằng cách đặt phòng khách sạn tại khu vực Đảo Rều ngay bây giờ với giá rẻ nhất.
                                    Chợ Hạ Long 
                                     ~ 1.94km
                                                                Chợ Hạ Long là chợ đầu mối thương mại của tỉnh Quảng Ninh nằm giữa trung tâm thành phố Hạ Long. Chợ được xây dựng khang trang, du khách rất dễ dàng tìm được những mặt hàng theo nhu cầu. Hãy để Mytour hỗ trợ bạn để có 1 chuyến đi thú vị, tiết kiệm bằng cách đặt phòng khách sạn tại khu vực Chợ Hạ Long ngay bây giờ với giá rẻ nhất.
                                    Bãi Cháy
                                     ~ 2.03km
                                                                Bãi Cháy là một phường có vị trí kinh tế và xã hội quan trọng của thành phố Hạ Long, tỉnh Quảng Ninh. Bãi Cháy nguyên là một đảo hình thoi dài 6 km, là nơi có bãi biển nổi tiếng của miền Bắc Việt Nam. Hãy để Mytour hỗ trợ bạn để có 1 chuyến đi thú vị, tiết kiệm bằng cách đặt phòng khách sạn tại khu vực Bãi Cháy ngay bây giờ với giá rẻ nhất.
                                    Núi Bài Thơ
                                     ~ 2.31km
                                                                Núi Bài Thơ là địa danh nổi tiếng trong danh mục du lịch Quảng Ninh và trong quần thể danh thắng vịnh Hạ Long. Có lẽ, dù có thể không biết nó thuộc tỉnh nào, nhưng ai cũng đã từng nghe cái tên núi Bài Thơ. Hãy để Mytour hỗ trợ bạn để có 1 chuyến đi thú vị, tiết kiệm bằng cách đặt phòng khách sạn tại khu vực Núi Bài Thơ ngay bây giờ với giá rẻ nhất.
                                    Chùa Long Tiên
                                     ~ 2.33km
                                                                Chùa Long Tiên là ngôi chùa tọa lạc tại phố Long Tiên, thành phố Hạ Long, Quảng Ninh, là di tích lịch sử với thắng cảnh nổi tiếng và cũng là ngôi chùa lớn nhất tại thành phố Hạ Long. Hãy để Mytour hỗ trợ bạn để có 1 chuyến đi thú vị, tiết kiệm bằng cách đặt phòng khách sạn tại khu vực Chùa Long Tiên ngay bây giờ với giá rẻ nhất.
                                    Chùa Long Tiên
                                     ~ 2.34km
                                    Trung tâm thương mại và Dịch vụ Hòn Gai
                                     ~ 2.58km
                                                                Trung tâm thương mại và dịch vụ Hòn Gai tọa lạc tại Lê Thánh Tông, thành phố Hạ Long, Quảng Ninh. Trung tâm là khu mua sắm sầm uất, là nơi giải trí cho người dân địa phương. Hãy để Mytour hỗ trợ bạn để có 1 chuyến đi thú vị, tiết kiệm bằng cách đặt phòng khách sạn tại khu vực Trung tâm thương mại và Dịch vụ Hòn Gai ngay bây giờ với giá rẻ nhất.
                                    Nhà thờ Hòn Gai
                                     ~ 2.77km
                                                                Nhà thờ Hòn Gai tọa lạc trên Núi Đạo, phường Bạch Đằng, Thành phố Hạ Long. Nhà thờ Hòn Gai được xây dựng trên một ngọn đồi cao, theo kiểu Roman, dài 42m, rộng 11m, với tháp chuông cao 33m. Hãy để Mytour hỗ trợ bạn để có 1 chuyến đi thú vị, tiết kiệm bằng cách đặt phòng khách sạn tại khu vực Nhà thờ Hòn Gai ngay bây giờ với giá rẻ nhất.
                                    Làng chài Cửa Vạn 
                                     ~ 3.16km
                                                                Làng chài Cửa Vạn nằm trong lòng Vịnh Hạ Long - Di sản thiên nhiên thế giới đã 2 lần được UNESCO công nhận từ nhiều năm nay, đã trở thành điểm du lịch hấp dẫn với du khách trong và ngoài nước. Hãy để Mytour hỗ trợ bạn để có 1 chuyến đi thú vị, tiết kiệm bằng cách đặt phòng khách sạn tại khu vực Làng chài Cửa Vạn ngay bây giờ với giá rẻ nhất.
                                    Động Kim Quy
                                     ~ 3.16km
                                                                Động Kim Quy nằm trên hòn Dầm Nam ở tỉnh Quảng Ninh, có đỉnh núi cao 187m. Phía trước là hòn Dầm Bắc, phía sau là đảo Soi Sim. Động dài 100m, rộng từ 5 – 10m trải dài theo hướng Bắc Nam. Hãy để Mytour hỗ trợ bạn để có 1 chuyến đi thú vị, tiết kiệm bằng cách đặt phòng khách sạn tại khu vực Động Kim Quy ngay bây giờ với giá rẻ nhất.
                                    Công viên Hạ Long
                                     ~ 3.23km
                ×
                    Chính sách đảm bảo hoàn tiền của mytour
                    Bạn chưa tin tưởng việc đặt phòng khách sạn trực tuyến? Bạn e ngại rằng phòng khách sạn thực tế không đúng với thông tin trên website? Chúng tôi cam kết đưa đầy đủ và chính xác thông tin khách sạn trên website với chính sách “Đảm bảo Hoàn tiền”
                        Nếu khách hàng đặt khách sạn thành công trên Mytour nhưng khách sạn không có phòng, Mytour sẽ hoàn lại tiền cho khách và tặng kèm phiếu giảm giá có giá trị bằng với số tiền khách hàng đã trả.
                        Trong trường hợp loại phòng thực tế không đúng với loại phòng trên đơn hàng, Mytour sẽ quyết định nâng cấp miễn phí hoặc tặng phiếu giảm giá có giá trị bằng với số tiền khách hàng đã trả.
                        Trường hợp các tiện nghi phòng khách sạn (như bữa sáng, wifi…) không đúng với nội dung trên website, Mytour sẽ tặng phiếu giảm giá có giá trị bằng 10% số tiền khách đã trả (tối đa 500,000 VND)
                        Khách hàng cần gọi điện thoại 04-7309 9899 (Hà Nội), 08-7309 9899 (Hồ Chí Minh) hoặc email tới info@mytour.vn và cung cấp mã đơn hàng trong vòng 24 giờ từ lúc nhận phòng để được trợ giúp giải quyết khiếu nại (Hotline chỉ hỗ trợ trong giờ hành chính).
                        Mytour không chịu trách nhiệm bồi thường thiệt hại gián tiếp, ngẫu nhiên, hay do hậu quả phát sinh. Trong mọi trường hợp, trách nhiệm của Mytour không vượt quá tổng số tiền khách hàng thanh toán đặt phòng.
                ×
                    Đảm bảo giá tốt nhất
                    Nếu Thành viên đã đặt một phòng khách sạn được “Đảm Bảo” tại Mytour.vn và sau đó, cho Mytour.vn  thấy rằng Thành viên có thể đặt một phòng tương tự trong cùng khoảng thời gian ở mức giá tốt hơn có thể xem và đặt được trên một website khác, Mytour.vn sẽ giảm giá bằng hoặc thấp hơn mức giá đó.
                    Giá dùng để so sánh là giá sau khi áp dụng mức giảm giá công bố trên website Mytour.vn.
                    Chính sách “Đảm Bảo Giá Tốt Nhất” của Mytour.vn chỉ áp dụng cho các đặt phòng đã được xác nhận và phải thỏa mãn những điều kiện sau:
                Cùng khách sạnCùng thời gian nghỉ lạiCùng loại Phòng/GiườngCùng các yêu cầu mua Trước, yêu cầu trả trước và đặt cọc (nếu có)Cùng chính sách Hủy và Sửa Đổi
                    Phòng đó phải còn trống để được xác nhận ngay tại thời điểm các đại lý của Mytour.vn  kiểm tra phòng trống
                        Chính sách “Đảm Bảo Giá Tốt Nhất” không áp dụng cho các mức giá không công bố, như: chương trình khách hàng thân thiện.
                        Bất kỳ tổ chức nào với các mức giá dành cho nhóm cá nhân cụ thể và không nhằm mục đích áp dụng ra bên ngoài.
                        Thành viên có thể gửi khiếu nại theo địa chỉ : info@mytour.vn
                                Nêu mã đặt phòng Mytour.vn trong dòng tiêu đề thư
                                Gửi URL của website nơi Thành viên tìm thấy mức giá tốt hơn
                                Cung cấp ảnh chụp màn hình của website đối thủ cạnh tranh trong đó nêu rõ Phòng Trống, Loại Phòng, và các mức giá cho những ngày nghỉ lại theo yêu cầu của Thành viên.
                VUI LÒNG LƯU Ý: Thành viên không cần thực hiện đặt phòng trên website của đối thủ cạnh tranh, chỉ cần cho Mytour.vn thấy sự so sánh.
                ×
                Đăng Nhập
                                 Đăng nhập bằng tài khoản Facebook
                                 Đăng nhập bằng tài khoản Google
                            Hoặc đăng nhập bằng
                        Email*
                        Mật khẩu*
                        Quên mật khẩu?
                            Chưa có tài khoản/tạo tài khoản
                Đăng nhập
                         Nhớ đăng nhập
                ×
                Bản đồ
                                            Khách Sạn Hạ Long Plaza 
                    Tìm đường
                        Từ: 
                        Đến: 
                            Khách sạnĐịa danh Hiển thị các khách sạn ở gần Hiển thị các khu du lịch ở gần
                ×
                Yêu Cầu Lấy Giá
                                    Ngày nhận phòng
                                    Ngày trả phòng
                        Tên khách hàng
                        Email
                        Điện thoại
                        Nhân viên chăm sóc khách hàng sẽ gọi điện cho quý khách trong thời gian sớm nhất.
                        Quý khách có thể gọi điện đến cho Mytour để được tư vấn ngay:
                        Hà Nội: (04) 7109 9999, Hồ Chí Minh: (08) 7309 9899, Support
                            English: (+84)4-7309-9899.
                    Hoàn thành
                ×
                Gửi Thông Tin
                        Tên khách hàng
                        Email
                        Điện thoại
                            Quý khách sẽ thấy giá giảm ngay trên trang sau khi gửi thông tin
                    Hoàn thành
                ×
                Nhận Giá Tốt
                                    Ngày nhận phòng
                                    Ngày trả phòng
                        Tên khách hàng
                        Email
                        Điện thoại
                        Vì giá tốt không được công bố nên hệ thống sẽ gửi giá qua email đến quý khách và nhân viên chăm
                        sóc sẽ gọi điện cho quý khách trong thời gian sớm nhất.
                        Quý khách có thể gọi điện đến cho Mytour để được tư vấn ngay:
                        Hà Nội: (04) 7109 9999, Hồ Chí Minh: (08) 7309 9899, Support
                            English: (+84)4-7309-9899.
                    Hoàn thành
                ×
                ×
                ĐÁNH GIÁ 
                        Tên
                        Tiêu đề
                        Kiểu du lịch?
                                -- Chọn --Cá nhânCặp đôiGia đìnhBạn bèDoanh nghiệp
                        Nội dung
                                Đánh giá chi tiết
                                Chỗ ở
                                5
                                Thức ăn
                                5
                                Phương tiện
                                5
                                Hướng dẫn viên
                                5
                                Lịch trình
                                5
                    Gửi đánh giá
                    Hủy Bỏ
                ×
                Gửi lại email kích hoạt
                ×
                Thông tin chi tiết giá theo phòng
                    Chọn khoảng thời gian hiển thị giá phòng
                    Hiển thị giá
                ×
                Khóa phòng theo khoảng thời gian
                            Chọn khoảng thời gian check-in cần khóa/mở phòng
                            Khóa phòng
                            Mở phòng
                ×
                THUẾ VÀ PHÍ DỊCH VỤ
                17% thuế và phí dịch vụ bao gồm:
                    - 10% thuế và 5% phí dịch vụ hoàn trả lại cho khách sạn.
                    - 2% phí giao dịch tại Mytour.
                ×
                Bạn có hài lòng về website của Mytour?
                    Thông điệp nhắn nhủ:
                Mytour luôn mong muốn cải thiện dịch vụ để bạn có trải nghiệm tốt hơn!
                            Ảnh đính kèm
                        Đóng
                        Gửi
                ×
                    Những đóng góp của bạn đã được ghi nhận. Mytour cám ơn bạn !
                Quay lại website
                            Giới thiệu Mytour
                            Đối tác khách sạn
                            Đăng nhập HMS
                            Tích lũy Vpoint
                            Điều khoản sử dụng
                            Quy chế hoạt động
                            Tuyển dụng
                            Liên hệ
                            Đăng ký nhận email
                                Đăng ký email để nhận khuyến mãi lên đến 70%
                                    Đăng
                                    ký
                    Công ty TNHH Mytour Việt Nam
                    Số ĐKKD: 0105983269 cấp ngày 30/08/2012
                    Văn phòng Hà Nội: Tầng 4, tòa nhà GP Invest, 170 Đê La Thành, Đống Đa
                    Văn phòng HCM: Tầng 5, Tòa Nhà HDTC, Số 36 Bùi Thị Xuân, Q.1
                Hotline
                        Hà Nội:
                        (04) 7109 9999
                        Tp. HCM:
                        (08) 7309 9899
                        ENGLISH SUPPORT:
                        (+84)4 7309 9899
