url:http://mytour.vn/a374/khach-san-khu-vuc-hon-tre-lon.html
Tittle :Khách sạn gần Hòn Tre Lớn - Bà Rịa - Vũng Tàu giá tốt nhất - Mytour.vn
content :Đặt phòng trực tuyến, hoặc gọi
                                                            Hà Nội: (04) 7109 9999
                                                                                        - (04) 7309 9899
                                                            Hồ Chí Minh: (08) 7309 9899
                                                                                        - (08) 7109 9998
                        T2 - CN: 08:00 - 23:00
                    Toggle navigation
                                Bạn không có thông báo nào
                    |
                    ||
                                                            Tài khoản
                        Đăng nhập
                                Đăng kýKhách sạn yêu thích
                            Khách sạn
                            Tour
                            Cẩm nang du lịch
                            Thông tin
                                                Về Mytour
                                                Tin khuyến mãi
                                                Ưu đãi
                                                Hướng dẫn
                                                Liên hệ
                            Tốt nhất 2016
                ×
                Bạn có chắc muốn hủy đơn hàng?
                Lorem ipsum dolor sit amet, consectetur adipisicing elit. Iure corporis repudiandae nobis distinctio
                quae quos, officia modi, ab voluptatem pariatur ducimus mollitia, necessitatibus sed soluta dicta
                repellendus! Praesentium debitis, temporibus?
                    Đồng ý
                    Đóng
                    Khách sạnBà Rịa - Vũng TàuCôn ĐảoKhách sạn gần Hòn Tre Lớn
                    Áp dụng
                    Đóng
            Tìm Kiếm Khách Sạn
                            Ngày nhận phòng
                            Ngày trả phòng
                    Số đêm
                    Số phòng
                        123456789101112
                    Người lớn
                        123456789101112
                    Tìm khách sạn
                                Bộ lọc tìm kiếm
                                        Theo mức giá
                                                        Dưới 500.000
                                                        500.000 - 1.000.000
                                                        1.000.000 - 1.500.000
                                                        1.500.000 - 2.000.000
                                                        2.000.000 - 2.500.000
                                                        2.500.000 - 3.000.000
                                                        Trên 3.000.000
                                    Hạng Khách Sạn
                                    Loại khách sạn
                                                    Khách sạn
                                                    Resort
                                Tiện nghi
                                                Đưa đón khách sạn sân bay
                                                Bữa sáng miễn phí
                                                Bể bơi ngoài trời
                                                Bãi đỗ xe
                                                Phòng họp
                                                Phòng tập thể thao
                                                Thang máy
                                                Thêm giường phụ
                                                Truyền hình cáp/vệ tinh
                                                Wifi miễn phí
                                                Giặt là
                                                Nhà hàng
                                                Spa
            Quận huyện
                        Côn Đảo
             Giá tốt hơn so với đặt phòng trực
            tiếp tại khách sạn
             Đảm bảo 
            giá tốt nhất 
             Đảm bảo 
            hoàn tiền
             Nhân viên chăm sóc, tư vấn nhiều kinh nghiệm
             Hơn 5000 khách sạn tại Việt Nam với
            đánh giá thực
             Nhiều chương trình khuyến mãi và tích lũy điểm
             Thanh toán dễ dàng, đa dạng
                            Khách sạn gần Hòn Tre Lớn
                                     Xem Bản Đồ
                            Hòn Tre Lớn là điểm du lịch tắm biển, bơi lội ngắm san hô độc đáo với các bãi san hô đầy màu sắc cùng nhiều loài khác nhau của vùng Côn Đảo. Gần hòn Tre lớn có các điểm tham quan như: Hòn Bà, nhà tù Côn Đảo. Hãy để Mytour hỗ trợ bạn để có 1 chuyến đi thú vị, tiết kiệm bằng cách đặt phòng khách sạn Hòn Tre Lớn ngay bây giờ với giá tốt nhất.
                                Có 0
                                khách sạn ở
                                đây theo ngày đã chọn
                        Ngày nhận phòng
                        Ngày trả phòng
                Số đêm
                Số phòng
                    123456789101112
                Người lớn
                    123456789101112
                Cập nhật ngày
                             Bộ lọc
                                            Phổ biến nhất
                                     Hạng khách sạn
                                                                                                Hạng sao [5...1]
                                                                                                Hạng sao [1...5]
                                            Đánh giá cao nhất
                                            Khuyến mãi
                                     Giá
                                                                                                Giá tăng dần
                                                                                                Giá giảm dần
                            Sắp xếp:
                            Đánh giá cao nhất
                        Phổ biến nhấtĐánh giá cao nhấtGiá tăng dầnGiá giảm dầnHạng tăng dầnHạng giảm dầnKhuyến mãi
                            ×
                            Không tìm thấy kết quả nào với các tiêu chí tìm kiếm của bạn.
                                Hòn Tre Lớn
                            Với hơn 5.000 khách sạn, resort tại 63 tỉnh/ thành phố, Mytour ngày càng được du khách tin dùng để đặt khách sạn. Mytour sẽ hỗ trợ quý khách đặt khách sạn gần bãi Hòn Tre Lớn với chi phí hợp lý để có chuyến đi thật thú vị và tiết kiệm. Ngoài việc cung cấp những khách sạn giá tốt nhất, bạn còn có thể tìm thấy nhiều thông tin du lịch hữu ích và thú vị khác.  Đặt phòng khách sạn gần Hòn Tre Lớn giá tốt nhất tại Mytour.vn, với nhiều khuyến mãi từ website và đơn vị khách sạn tiết kiệm lên đến 70%. Hơn 150.000 đánh giá từ khách hàng đã qua sử dụng khách sạn giúp bạn đưa ra những quyết định tốt nhất cho lựa chọn của mình. Đặc biệt chính sách ĐẢM BẢO HOÀN TIỀN chỉ có tại Mytour.vn, giờ đây bạn có thể hoàn toàn tin tưởng vào dịch vụ đặt phòng trực tuyến.  Hòn Tre Lớn có diện tích tự nhiên 77 ha, nằm về phía Tây của đảo Côn Sơn, Bà Rịa – Vũng Tàu, cách cảng Bến Đầm 5km. Bạn có thể du lịch đến Hòn Tre Lớn bằng việc đi tàu hoặc ca nô từ cảng Bến Đầm hoặc từ bãi Ông Đụng. Hòn Tre Lớn có bãi cát nhỏ, trắng, mịn, là bãi có nhiều rùa biển lên đẻ trứng xếp thứ hai (sau bãi Cát Lớn, Hòn Bảy Cạnh) của rùa biển Côn Đảo. Mỗi năm có hàng trăm cá thể rùa mẹ lên bãi làm tổ và đẻ trứng.   Đến khám phá Hòn Tre Lớn, sẽ là dịp để khách du lịch tắm biển thỏa thích, bơi lội ngắm san hô, ngoạn cảnh thiên nhiên tươi đẹp, xem chim biển... Đặc biệt tại đây, các bãi san hô sinh trưởng rất tốt đầy màu sắc với nhiều loài khác nhau, đây sẽ là trải nghiệm khó quên của bạn trong chuyến hành trình này. Ngoài Hòn Tre Lớn ra Côn Đảo còn có nhiều điểm đến du lịch hấp dẫn khác như Hòn Bà, Hòn Trọc, Hòn Cau,v.v… đặc biệt là di tích lịch sử nổi tiếng nơi đây – Nhà tù Côn Đảo. Các món đặc sản của Côn Đảo như ốc vú nàng, mắm hàu, trùng biển, mứt hạt bàng,… sẽ là thiếu sót nếu bạn không thử qua chúng một lần.  Nhanh tay đặt tour du lịch đến Côn Đảo với chi phí hợp lý và tiết kiệm nhất. Đến với Mytour bạn sẽ được hỗ trợ cho chuyến đi của mình trở nên dễ dàng và thuận tiện hơn!!
                ×
                    Chính sách đảm bảo hoàn tiền của mytour
                    Bạn chưa tin tưởng việc đặt phòng khách sạn trực tuyến? Bạn e ngại rằng phòng khách sạn thực tế không đúng với thông tin trên website? Chúng tôi cam kết đưa đầy đủ và chính xác thông tin khách sạn trên website với chính sách “Đảm bảo Hoàn tiền”
                        Nếu khách hàng đặt khách sạn thành công trên Mytour nhưng khách sạn không có phòng, Mytour sẽ hoàn lại tiền cho khách và tặng kèm phiếu giảm giá có giá trị bằng với số tiền khách hàng đã trả.
                        Trong trường hợp loại phòng thực tế không đúng với loại phòng trên đơn hàng, Mytour sẽ quyết định nâng cấp miễn phí hoặc tặng phiếu giảm giá có giá trị bằng với số tiền khách hàng đã trả.
                        Trường hợp các tiện nghi phòng khách sạn (như bữa sáng, wifi…) không đúng với nội dung trên website, Mytour sẽ tặng phiếu giảm giá có giá trị bằng 10% số tiền khách đã trả (tối đa 500,000 VND)
                        Khách hàng cần gọi điện thoại 04-7309 9899 (Hà Nội), 08-7309 9899 (Hồ Chí Minh) hoặc email tới info@mytour.vn và cung cấp mã đơn hàng trong vòng 24 giờ từ lúc nhận phòng để được trợ giúp giải quyết khiếu nại (Hotline chỉ hỗ trợ trong giờ hành chính).
                        Mytour không chịu trách nhiệm bồi thường thiệt hại gián tiếp, ngẫu nhiên, hay do hậu quả phát sinh. Trong mọi trường hợp, trách nhiệm của Mytour không vượt quá tổng số tiền khách hàng thanh toán đặt phòng.
                ×
                    Đảm bảo giá tốt nhất
                    Nếu Thành viên đã đặt một phòng khách sạn được “Đảm Bảo” tại Mytour.vn và sau đó, cho Mytour.vn  thấy rằng Thành viên có thể đặt một phòng tương tự trong cùng khoảng thời gian ở mức giá tốt hơn có thể xem và đặt được trên một website khác, Mytour.vn sẽ giảm giá bằng hoặc thấp hơn mức giá đó.
                    Giá dùng để so sánh là giá sau khi áp dụng mức giảm giá công bố trên website Mytour.vn.
                    Chính sách “Đảm Bảo Giá Tốt Nhất” của Mytour.vn chỉ áp dụng cho các đặt phòng đã được xác nhận và phải thỏa mãn những điều kiện sau:
                Cùng khách sạnCùng thời gian nghỉ lạiCùng loại Phòng/GiườngCùng các yêu cầu mua Trước, yêu cầu trả trước và đặt cọc (nếu có)Cùng chính sách Hủy và Sửa Đổi
                    Phòng đó phải còn trống để được xác nhận ngay tại thời điểm các đại lý của Mytour.vn  kiểm tra phòng trống
                        Chính sách “Đảm Bảo Giá Tốt Nhất” không áp dụng cho các mức giá không công bố, như: chương trình khách hàng thân thiện.
                        Bất kỳ tổ chức nào với các mức giá dành cho nhóm cá nhân cụ thể và không nhằm mục đích áp dụng ra bên ngoài.
                        Thành viên có thể gửi khiếu nại theo địa chỉ : info@mytour.vn
                                Nêu mã đặt phòng Mytour.vn trong dòng tiêu đề thư
                                Gửi URL của website nơi Thành viên tìm thấy mức giá tốt hơn
                                Cung cấp ảnh chụp màn hình của website đối thủ cạnh tranh trong đó nêu rõ Phòng Trống, Loại Phòng, và các mức giá cho những ngày nghỉ lại theo yêu cầu của Thành viên.
                VUI LÒNG LƯU Ý: Thành viên không cần thực hiện đặt phòng trên website của đối thủ cạnh tranh, chỉ cần cho Mytour.vn thấy sự so sánh.
                ×
                Đăng Nhập
                                 Đăng nhập bằng tài khoản Facebook
                                 Đăng nhập bằng tài khoản Google
                            Hoặc đăng nhập bằng
                        Email*
                        Mật khẩu*
                        Quên mật khẩu?
                            Chưa có tài khoản/tạo tài khoản
                Đăng nhập
                         Nhớ đăng nhập
                ×
                Bản đồ
                                            Hòn Tre Lớn
                    Tìm đường
                        Từ: 
                        Đến: 
                            Khách sạnĐịa danh Hiển thị các khách sạn ở gần Hiển thị các khu du lịch ở gần
                ×
                Yêu Cầu Lấy Giá
                                    Ngày nhận phòng
                                    Ngày trả phòng
                        Tên khách hàng
                        Email
                        Điện thoại
                        Nhân viên chăm sóc khách hàng sẽ gọi điện cho quý khách trong thời gian sớm nhất.
                        Quý khách có thể gọi điện đến cho Mytour để được tư vấn ngay:
                        Hà Nội: (04) 7109 9999, Hồ Chí Minh: (08) 7309 9899, Support
                            English: (+84)4-7309-9899.
                    Hoàn thành
                ×
                Gửi Thông Tin
                        Tên khách hàng
                        Email
                        Điện thoại
                            Quý khách sẽ thấy giá giảm ngay trên trang sau khi gửi thông tin
                    Hoàn thành
                ×
                Nhận Giá Tốt
                                    Ngày nhận phòng
                                    Ngày trả phòng
                        Tên khách hàng
                        Email
                        Điện thoại
                        Vì giá tốt không được công bố nên hệ thống sẽ gửi giá qua email đến quý khách và nhân viên chăm
                        sóc sẽ gọi điện cho quý khách trong thời gian sớm nhất.
                        Quý khách có thể gọi điện đến cho Mytour để được tư vấn ngay:
                        Hà Nội: (04) 7109 9999, Hồ Chí Minh: (08) 7309 9899, Support
                            English: (+84)4-7309-9899.
                    Hoàn thành
                ×
                ×
                ĐÁNH GIÁ 
                        Tên
                        Tiêu đề
                        Kiểu du lịch?
                                -- Chọn --Cá nhânCặp đôiGia đìnhBạn bèDoanh nghiệp
                        Nội dung
                                Đánh giá chi tiết
                                Chỗ ở
                                5
                                Thức ăn
                                5
                                Phương tiện
                                5
                                Hướng dẫn viên
                                5
                                Lịch trình
                                5
                    Gửi đánh giá
                    Hủy Bỏ
                ×
                Gửi lại email kích hoạt
                ×
                Thông tin chi tiết giá theo phòng
                    Chọn khoảng thời gian hiển thị giá phòng
                    Hiển thị giá
                ×
                Khóa phòng theo khoảng thời gian
                            Chọn khoảng thời gian check-in cần khóa/mở phòng
                            Khóa phòng
                            Mở phòng
                ×
                THUẾ VÀ PHÍ DỊCH VỤ
                17% thuế và phí dịch vụ bao gồm:
                    - 10% thuế và 5% phí dịch vụ hoàn trả lại cho khách sạn.
                    - 2% phí giao dịch tại Mytour.
                ×
                Bạn có hài lòng về website của Mytour?
                    Thông điệp nhắn nhủ:
                Mytour luôn mong muốn cải thiện dịch vụ để bạn có trải nghiệm tốt hơn!
                            Ảnh đính kèm
                        Đóng
                        Gửi
                ×
                    Những đóng góp của bạn đã được ghi nhận. Mytour cám ơn bạn !
                Quay lại website
                Du lịch Hòn Tre Lớn
                                Du lịch Phượt Côn Đảo – rong chơi thiên đường nơi trần gian
                                Du lịch Những resort nghỉ dưỡng trên đảo đáng mơ ước
                                Du lịch Những thiên đường biển gần Sài Gòn phải đến trong hè này
                                Du lịch Top 10 hòn đảo đẹp nhất Việt Nam - Phần 1
                                Du lịch Những thiên đường trong vắt của thế giới - Phần 2
                                Du lịch Rừng nguyên sinh Côn Đảo
                                Du lịch Cầu Ma Thiên lãnh – Bãi Ông Đụng
                                Du lịch Khám phá Côn Đảo ngày hôm nay
                                Du lịch Vườn quốc gia Côn Đảo
                                Du lịch Những điểm du lịch lý tưởng tại Việt Nam
                            Giới thiệu Mytour
                            Đối tác khách sạn
                            Đăng nhập HMS
                            Tích lũy Vpoint
                            Điều khoản sử dụng
                            Quy chế hoạt động
                            Tuyển dụng
                            Liên hệ
                            Đăng ký nhận email
                                Đăng ký email để nhận khuyến mãi lên đến 70%
                                    Đăng
                                    ký
                    Công ty TNHH Mytour Việt Nam
                    Số ĐKKD: 0105983269 cấp ngày 30/08/2012
                    Văn phòng Hà Nội: Tầng 4, tòa nhà GP Invest, 170 Đê La Thành, Đống Đa
                    Văn phòng HCM: Tầng 5, Tòa Nhà HDTC, Số 36 Bùi Thị Xuân, Q.1
                Hotline
                        Hà Nội:
                        (04) 7109 9999
                        Tp. HCM:
                        (08) 7309 9899
                        ENGLISH SUPPORT:
                        (+84)4 7309 9899
