url:http://mytour.vn/location/d119/du-lich-thuan-thanh.html
Tittle :Kinh nghiệm du lịch Thuận Thành  từ A đến Z! Mytour.vn
content :Đặt phòng trực tuyến, hoặc gọi
                                                            Hà Nội: (04) 7109 9999
                                                                                        - (04) 7309 9899
                                                            Hồ Chí Minh: (08) 7309 9899
                                                                                        - (08) 7109 9998
                        T2 - CN: 08:00 - 23:00
                    Toggle navigation
                                Bạn không có thông báo nào
                    |
                    ||
                                                            Tài khoản
                        Đăng nhập
                                Đăng kýKhách sạn yêu thích
                            Khách sạn
                            Tour
                            Cẩm nang du lịch
                            Thông tin
                                                Về Mytour
                                                Tin khuyến mãi
                                                Ưu đãi
                                                Hướng dẫn
                                                Liên hệ
                            Tốt nhất 2016
                ×
                Bạn có chắc muốn hủy đơn hàng?
                Lorem ipsum dolor sit amet, consectetur adipisicing elit. Iure corporis repudiandae nobis distinctio
                quae quos, officia modi, ab voluptatem pariatur ducimus mollitia, necessitatibus sed soluta dicta
                repellendus! Praesentium debitis, temporibus?
                    Đồng ý
                    Đóng
        Cẩm nang du lịchDu lịch Việt NamDu lịch Bắc NinhDu lịch Thuận Thành  
                Miền Bắc
                Hà NộiBắc NinhBắc GiangBắc KạnLào CaiQuảng NinhNam ĐịnhCao BằngHà GiangHà NamHải DươngHải PhòngHoà BìnhHưng YênLai ChâuLạng SơnNinh BìnhPhú ThọSơn LaThái BìnhThái NguyênTuyên QuangVĩnh PhúcYên BáiĐiện Biên
                Miền Trung
                Bình ĐịnhĐà NẵngKhánh HòaThừa Thiên HuếGia LaiHà TĩnhKon TumNghệ AnPhú YênQuảng BìnhQuảng NamQuảng NgãiQuảng TrịThanh HoáĐắk Lắk
                Miền Nam
                Hồ Chí MinhAn GiangBà Rịa - Vũng TàuBình DươngBình PhướcBình ThuậnBến TreCần ThơTrà VinhĐồng NaiCà MauKiên GiangLâm ĐồngLong AnNinh ThuậnSóc TrăngTây NinhTiền GiangVĩnh LongĐồng ThápĐắk NôngHậu GiangBạc Liêu
                Địa danh nổi bật
                Hà NộiHồ Chí MinhĐà NẵngVũng TàuPhan Thiết Phú Quốc Nha TrangSaPa Đà LạtHội AnHạ Long Huế
                Bãi biển đẹp
                Bãi Đồ Sơn - Hải PhòngBãi Trà Cổ - Hạ LongBãi Quan Lạn - Hạ LongBãi Ti Tốp - Hạ LongBãi Tuần Châu - Hạ LongBãi Cháy - Hạ LongBãi Nhật Lệ - Quảng BìnhBãi Đá Nhảy - Quảng BìnhBãi Non Nước - Đà NẵngBán đảo Sơn Trà - Đà NẵngBãi Mỹ Khê - Đà NẵngBãi Thanh Bình - Đà NẵngBãi Dài - Nha TrangDốc Lết - Nha TrangBãi Đại Lãnh - Nha TrangBãi Ninh Chữ - Ninh ThuậnBãi Bình Tiên - Ninh ThuậnBãi biển Đồi Dương - Phan ThiếtBãi Rạng - Phan ThiếtBãi Cổ Thạch - Phan ThiếtBãi Phú Hài - Phan ThiếtHồ Cốc - Bà Rịa Vũng TàuBãi Dâu - Bà Rịa Vũng TàuBãi Dứa - Bà Rịa Vũng TàuBãi Trước - Bà Rịa Vũng TàuBãi sau - Bà Rịa Vũng TàuBãi Trường - Phú QuốcBãi Sao - Phú Quốc
             Điểm đến
                    Đóng
                    }
                    }
                    }
                    }
                    }
                    }
                    }
                    }
            Tìm Kiếm Địa Danh
            ĐI ĐẾN
            Chuyên mục
                             Ẩm thực 
                             Cảnh đẹp 
                             Khám phá 
                             Du lịch biển 
                             Di sản văn hóa 
                             Mẹo du lịch 
                             Du lịch tâm linh 
                             Vui chơi - Giải trí 
                             Thế giới đó đây 
                             Lịch trình du lịch A-Z 
                             Lễ hội - Sự kiện 
                             Du lịch cộng đồng 
                             Nghỉ dưỡng 
            Điểm đến
            Địa danh nổi bật
            Hà NộiHồ Chí MinhĐà NẵngVũng TàuPhan Thiết Phú Quốc Nha TrangSaPa Đà LạtHội AnHạ Long Huế
            Bãi biển đẹp
            Bãi Đồ Sơn - Hải PhòngBãi Trà Cổ - Hạ LongBãi Quan Lạn - Hạ LongBãi Ti Tốp - Hạ LongBãi Tuần Châu - Hạ LongBãi Cháy - Hạ LongBãi Nhật Lệ - Quảng BìnhBãi Đá Nhảy - Quảng BìnhBãi Non Nước - Đà NẵngBán đảo Sơn Trà - Đà NẵngBãi Mỹ Khê - Đà NẵngBãi Thanh Bình - Đà NẵngBãi Dài - Nha TrangDốc Lết - Nha TrangBãi Đại Lãnh - Nha TrangBãi Ninh Chữ - Ninh ThuậnBãi Bình Tiên - Ninh ThuậnBãi biển Đồi Dương - Phan ThiếtBãi Rạng - Phan ThiếtBãi Cổ Thạch - Phan ThiếtBãi Phú Hài - Phan ThiếtHồ Cốc - Bà Rịa Vũng TàuBãi Dâu - Bà Rịa Vũng TàuBãi Dứa - Bà Rịa Vũng TàuBãi Trước - Bà Rịa Vũng TàuBãi sau - Bà Rịa Vũng TàuBãi Trường - Phú QuốcBãi Sao - Phú Quốc
            Miền Bắc
            Hà NộiBắc NinhBắc GiangBắc KạnLào CaiQuảng NinhNam ĐịnhCao BằngHà GiangHà NamHải DươngHải PhòngHoà BìnhHưng YênLai ChâuLạng SơnNinh BìnhPhú ThọSơn LaThái BìnhThái NguyênTuyên QuangVĩnh PhúcYên BáiĐiện Biên
            Miền Trung
            Bình ĐịnhĐà NẵngKhánh HòaThừa Thiên HuếGia LaiHà TĩnhKon TumNghệ AnPhú YênQuảng BìnhQuảng NamQuảng NgãiQuảng TrịThanh HoáĐắk Lắk
            Miền Nam
            Hồ Chí MinhAn GiangBà Rịa - Vũng TàuBình DươngBình PhướcBình ThuậnBến TreCần ThơTrà VinhĐồng NaiCà MauKiên GiangLâm ĐồngLong AnNinh ThuậnSóc TrăngTây NinhTiền GiangVĩnh LongĐồng ThápĐắk NôngHậu GiangBạc Liêu
                Khách sạn tại Bắc Ninh
                Giá tốt hơn so với đặt phòng trực tiếp tại khách sạn
                Đảm bảo 
                giá tốt nhất
                Đảm bảo 
                hoàn tiền
                Nhân viên chăm sóc, tư vấn nhiều kinh nghiệm
                Hơn 5000 khách sạn tại Việt Nam với đánh giá thực
                Nhiều chương trình khuyến mãi và tích lũy điểm
                Thanh toán dễ dàng, đa dạng
                     Du lịch  Thuận Thành  
                     Thuận Thành là một huyện thuộc Bắc Ninh, nơi trải qua những huyền thoại, lịch sử. Thuận Thành còn nổi tiếng là một vùng đất với nhiều lễ hội như: Hội thi mã Đông Hồ, hội thi nấu cơm, hội Dâu, chùa Búi Tháp… Hãy để Mytour hỗ trợ bạn để có 1 chuyến đi thú vị, tiết kiệm bằng cách đặt phòng khách sạn Thuận Thành ngay bây giờ với giá từ 30 VND.
                                     Vẻ độc đáo của tượng Phật nghìn mắt nghìn tay 
                                        07/08/2014
                                        1968
                                     Ra đời từ thế kỷ XIII, sau nhiều lần trùng tu, đến nay chùa Bút Tháp vẫn giữ được vẻ đẹp cổ kính và được Bộ Văn hóa - Thông tin (nay là Bộ Văn hóa, Thể thao và Du lịch) xếp hạng là di tích quốc gia từ năm 1962. Chùa Bút Tháp Xem thêm: Các khách sạn giá tốt tại Bắc Ninh...
                                                                                    du lịch tâm linh
                                                                                    di tích quốc gia
                                                                                    đền chùa
                                                                                    du lịch Bắc Ninh
                                        Xem thêm 
                                     Chùa Dâu 
                                        05/07/2014
                                        1452
                                     Chùa thường được gọi là chùa Dâu, tọa lạc ở xã Thanh Khương, huyện Thuận Thành, tỉnh Bắc Ninh, cách Hà Nội khoảng 30km. Chùa thuộc hệ phái Bắc tông. Bên trong khuôn viên chùa Xem thêm: Các khách sạn giá tốt ở Bắc Ninh Chùa Pháp Vân cùng các chùa Pháp Vũ, Pháp Lôi, Pháp...
                                        Xem thêm 
                                     Đền Sĩ Nhiếp 
                                        05/07/2014
                                        1974
                                     Sỹ Nhiếp là người truyền bá văn hóa văn minh Hán học vào nước ta, đã xây dựng Luy Lâu sầm uất như một kinh đô của nước độc lập. Ông cho dựng chùa và tạc tượng “tứ pháp”, là người mở mang và khai Hội Dâu. Sỹ Nhiếp cũng là vị Thái thú duy nhất được nh.
                                        Xem thêm 
                                     Về thăm chùa cổ xứ Kinh Bắc 
                                        02/06/2014
                                        1064
                                     Cách thành phố Bắc Ninh (tỉnh Bắc Ninh) chừng 10 km, qua cầu Hồ là đến đất Thuận Thành, nơi có hai ngôi chùa cổ nổi tiếng là chùa Dâu và chùa Bút Tháp. Xem thêm: Một số tour du lịch miền Bắc giá tốt Gần hai ngàn năm trước, đây là đất Luy Lâu, thủ phủ Giao Châu thời Bắc...
                                                                                    du lịch tâm linh
                                                                                    du lịch Bắc Ninh
                                                                                    chùa Dâu
                                                                                    chùa cổ Việt Nam
                                                                                    Chùa Bút Tháp 
                                        Xem thêm 
                                     Đền thờ An Sinh Vương Trần Liễu 
                                        05/05/2014
                                        1853
                                     Đền thờ An Sinh Vương Trần Liễu nằm ở phía Tây của thôn Tư Thế, được khởi dựng từ thời Trần sau khi ông mất. Đến thời Lê và Nguyễn được tôn tạo với quy mô lớn, chạm khắc trang trí nghệ thuật. Trải qua lịch sử, ngôi đền xưa bị xuống cấp nặng, vừa được trùng tu với quy m...
                                        Xem thêm 
                                     Chùa Linh Ứng - Bắc Ninh 
                                        05/05/2014
                                        2167
                                     Chùa thường gọi là chùa Ngọc Khám, tọa lạc ở thôn Ngọc Khám, xã Gia Đông, huyện Thuận Thành, tỉnh Bắc Ninh. Chùa thuộc hệ phái Bắc tông. Mặt tiền chùa Linh Ứng - Bắc Ninh - Ảnh: Sưu tầm. Xem thêm Chùa Bút Tháp - Bắc Ninh Chùa được dựng vào thời Trần. Ngôi chùa hiện nay...
                                        Xem thêm 
                                     Hội chùa Dâu 
                                        05/05/2014
                                        1705
                                     Hội Dâu được tổ chức tại vùng Dâu, Bắc Ninh bao gồm năm ngôi chùa cổ: chùa Dâu thờ Pháp Vân (法雲寺, "mây pháp"), chùa Đậu thờ Pháp Vũ (法雨寺, "mưa pháp"), chùa Tướng thờ Pháp Lôi (法雷寺, "sấm pháp"), chùa Dàn thờ Pháp Điệ.
                                        Xem thêm 
                                     Chùa Phúc Nghiêm 
                                        05/05/2014
                                        938
                                     Chùa thường gọi là chùa Tổ, tọa lạc ở xã Hà Mãn, huyện Thuận Thành, tỉnh Bắc Ninh. Chùa thuộc hệ phái Bắc tông. Toàn cảnh chùa Phúc Nghiêm - Bắc Ninh Xem thêm Chùa Bút Tháp - Bắc Ninh Chùa được xây dựng từ lâu đời. Chùa thờ Phật và thờ Bà Man Nương. Theo trích truyện M...
                                        Xem thêm 
                ×
                    Chính sách đảm bảo hoàn tiền của mytour
                    Bạn chưa tin tưởng việc đặt phòng khách sạn trực tuyến? Bạn e ngại rằng phòng khách sạn thực tế không đúng với thông tin trên website? Chúng tôi cam kết đưa đầy đủ và chính xác thông tin khách sạn trên website với chính sách “Đảm bảo Hoàn tiền”
                        Nếu khách hàng đặt khách sạn thành công trên Mytour nhưng khách sạn không có phòng, Mytour sẽ hoàn lại tiền cho khách và tặng kèm phiếu giảm giá có giá trị bằng với số tiền khách hàng đã trả.
                        Trong trường hợp loại phòng thực tế không đúng với loại phòng trên đơn hàng, Mytour sẽ quyết định nâng cấp miễn phí hoặc tặng phiếu giảm giá có giá trị bằng với số tiền khách hàng đã trả.
                        Trường hợp các tiện nghi phòng khách sạn (như bữa sáng, wifi…) không đúng với nội dung trên website, Mytour sẽ tặng phiếu giảm giá có giá trị bằng 10% số tiền khách đã trả (tối đa 500,000 VND)
                        Khách hàng cần gọi điện thoại 04-7309 9899 (Hà Nội), 08-7309 9899 (Hồ Chí Minh) hoặc email tới info@mytour.vn và cung cấp mã đơn hàng trong vòng 24 giờ từ lúc nhận phòng để được trợ giúp giải quyết khiếu nại (Hotline chỉ hỗ trợ trong giờ hành chính).
                        Mytour không chịu trách nhiệm bồi thường thiệt hại gián tiếp, ngẫu nhiên, hay do hậu quả phát sinh. Trong mọi trường hợp, trách nhiệm của Mytour không vượt quá tổng số tiền khách hàng thanh toán đặt phòng.
                ×
                    Đảm bảo giá tốt nhất
                    Nếu Thành viên đã đặt một phòng khách sạn được “Đảm Bảo” tại Mytour.vn và sau đó, cho Mytour.vn  thấy rằng Thành viên có thể đặt một phòng tương tự trong cùng khoảng thời gian ở mức giá tốt hơn có thể xem và đặt được trên một website khác, Mytour.vn sẽ giảm giá bằng hoặc thấp hơn mức giá đó.
                    Giá dùng để so sánh là giá sau khi áp dụng mức giảm giá công bố trên website Mytour.vn.
                    Chính sách “Đảm Bảo Giá Tốt Nhất” của Mytour.vn chỉ áp dụng cho các đặt phòng đã được xác nhận và phải thỏa mãn những điều kiện sau:
                Cùng khách sạnCùng thời gian nghỉ lạiCùng loại Phòng/GiườngCùng các yêu cầu mua Trước, yêu cầu trả trước và đặt cọc (nếu có)Cùng chính sách Hủy và Sửa Đổi
                    Phòng đó phải còn trống để được xác nhận ngay tại thời điểm các đại lý của Mytour.vn  kiểm tra phòng trống
                        Chính sách “Đảm Bảo Giá Tốt Nhất” không áp dụng cho các mức giá không công bố, như: chương trình khách hàng thân thiện.
                        Bất kỳ tổ chức nào với các mức giá dành cho nhóm cá nhân cụ thể và không nhằm mục đích áp dụng ra bên ngoài.
                        Thành viên có thể gửi khiếu nại theo địa chỉ : info@mytour.vn
                                Nêu mã đặt phòng Mytour.vn trong dòng tiêu đề thư
                                Gửi URL của website nơi Thành viên tìm thấy mức giá tốt hơn
                                Cung cấp ảnh chụp màn hình của website đối thủ cạnh tranh trong đó nêu rõ Phòng Trống, Loại Phòng, và các mức giá cho những ngày nghỉ lại theo yêu cầu của Thành viên.
                VUI LÒNG LƯU Ý: Thành viên không cần thực hiện đặt phòng trên website của đối thủ cạnh tranh, chỉ cần cho Mytour.vn thấy sự so sánh.
                ×
                Đăng Nhập
                                 Đăng nhập bằng tài khoản Facebook
                                 Đăng nhập bằng tài khoản Google
                            Hoặc đăng nhập bằng
                        Email*
                        Mật khẩu*
                        Quên mật khẩu?
                            Chưa có tài khoản/tạo tài khoản
                Đăng nhập
                         Nhớ đăng nhập
                ×
                Bản đồ
                    Tìm đường
                        Từ: 
                        Đến: 
                            Khách sạnĐịa danh Hiển thị các khách sạn ở gần Hiển thị các khu du lịch ở gần
                ×
                Yêu Cầu Lấy Giá
                                    Ngày nhận phòng
                                    Ngày trả phòng
                        Tên khách hàng
                        Email
                        Điện thoại
                        Nhân viên chăm sóc khách hàng sẽ gọi điện cho quý khách trong thời gian sớm nhất.
                        Quý khách có thể gọi điện đến cho Mytour để được tư vấn ngay:
                        Hà Nội: (04) 7109 9999, Hồ Chí Minh: (08) 7309 9899, Support
                            English: (+84)4-7309-9899.
                    Hoàn thành
                ×
                Gửi Thông Tin
                        Tên khách hàng
                        Email
                        Điện thoại
                            Quý khách sẽ thấy giá giảm ngay trên trang sau khi gửi thông tin
                    Hoàn thành
                ×
                Nhận Giá Tốt
                                    Ngày nhận phòng
                                    Ngày trả phòng
                        Tên khách hàng
                        Email
                        Điện thoại
                        Vì giá tốt không được công bố nên hệ thống sẽ gửi giá qua email đến quý khách và nhân viên chăm
                        sóc sẽ gọi điện cho quý khách trong thời gian sớm nhất.
                        Quý khách có thể gọi điện đến cho Mytour để được tư vấn ngay:
                        Hà Nội: (04) 7109 9999, Hồ Chí Minh: (08) 7309 9899, Support
                            English: (+84)4-7309-9899.
                    Hoàn thành
                ×
                ×
                ĐÁNH GIÁ 
                        Tên
                        Tiêu đề
                        Kiểu du lịch?
                                -- Chọn --Cá nhânCặp đôiGia đìnhBạn bèDoanh nghiệp
                        Nội dung
                                Đánh giá chi tiết
                                Chỗ ở
                                5
                                Thức ăn
                                5
                                Phương tiện
                                5
                                Hướng dẫn viên
                                5
                                Lịch trình
                                5
                    Gửi đánh giá
                    Hủy Bỏ
                ×
                Gửi lại email kích hoạt
                ×
                Thông tin chi tiết giá theo phòng
                    Chọn khoảng thời gian hiển thị giá phòng
                    Hiển thị giá
                ×
                Khóa phòng theo khoảng thời gian
                            Chọn khoảng thời gian check-in cần khóa/mở phòng
                            Khóa phòng
                            Mở phòng
                ×
                THUẾ VÀ PHÍ DỊCH VỤ
                17% thuế và phí dịch vụ bao gồm:
                    - 10% thuế và 5% phí dịch vụ hoàn trả lại cho khách sạn.
                    - 2% phí giao dịch tại Mytour.
                ×
                Bạn có hài lòng về website của Mytour?
                    Thông điệp nhắn nhủ:
                Mytour luôn mong muốn cải thiện dịch vụ để bạn có trải nghiệm tốt hơn!
                            Ảnh đính kèm
                        Đóng
                        Gửi
                ×
                    Những đóng góp của bạn đã được ghi nhận. Mytour cám ơn bạn !
                Quay lại website
                        Khách sạn tại Bắc Ninh
                                Thuận Thành 
                                Chùa Bút Tháp
                                Chùa Dâu
                                Chợ Hồ
                                Chợ Thị Trấn Huyện Thuận Thành
                                Đền Sĩ Nhiếp
                                Đền thờ và lăng mộ Kinh Dương Vương
                                Chùa Dâu
                                Đền Sĩ Nhiếp
                                Đền thờ An Sinh Vương Trần Liễu
                                Chùa Linh Ứng - Bắc Ninh
                                Hội chùa Dâu
                                Chùa Phúc Nghiêm
                            Giới thiệu Mytour
                            Đối tác khách sạn
                            Đăng nhập HMS
                            Tích lũy Vpoint
                            Điều khoản sử dụng
                            Quy chế hoạt động
                            Tuyển dụng
                            Liên hệ
                            Đăng ký nhận email
                                Đăng ký email để nhận khuyến mãi lên đến 70%
                                    Đăng
                                    ký
                    Công ty TNHH Mytour Việt Nam
                    Số ĐKKD: 0105983269 cấp ngày 30/08/2012
                    Văn phòng Hà Nội: Tầng 4, tòa nhà GP Invest, 170 Đê La Thành, Đống Đa
                    Văn phòng HCM: Tầng 5, Tòa Nhà HDTC, Số 36 Bùi Thị Xuân, Q.1
                Hotline
                        Hà Nội:
                        (04) 7109 9999
                        Tp. HCM:
                        (08) 7309 9899
                        ENGLISH SUPPORT:
                        (+84)4 7309 9899
