url:http://mytour.vn/c28/khach-san-tai-ha-nam.html
Tittle :Khách sạn Hà Nam giá tốt nhất - Mytour.vn
content :Đặt phòng trực tuyến, hoặc gọi
                                                            Hà Nội: (04) 7109 9999
                                                                                        - (04) 7309 9899
                                                            Hồ Chí Minh: (08) 7309 9899
                                                                                        - (08) 7109 9998
                        T2 - CN: 08:00 - 23:00
                    Toggle navigation
                                Bạn không có thông báo nào
                    |
                    ||
                                                            Tài khoản
                        Đăng nhập
                                Đăng kýKhách sạn yêu thích
                            Khách sạn
                            Tour
                            Cẩm nang du lịch
                            Thông tin
                                                Về Mytour
                                                Tin khuyến mãi
                                                Ưu đãi
                                                Hướng dẫn
                                                Liên hệ
                            Tốt nhất 2016
                ×
                Bạn có chắc muốn hủy đơn hàng?
                Lorem ipsum dolor sit amet, consectetur adipisicing elit. Iure corporis repudiandae nobis distinctio
                quae quos, officia modi, ab voluptatem pariatur ducimus mollitia, necessitatibus sed soluta dicta
                repellendus! Praesentium debitis, temporibus?
                    Đồng ý
                    Đóng
                    Khách sạnKhách sạn tại Hà Nam
                    Áp dụng
                    Đóng
            Tìm Kiếm Khách Sạn
                            Ngày nhận phòng
                            Ngày trả phòng
                    Số đêm
                    Số phòng
                        123456789101112
                    Người lớn
                        123456789101112
                    Tìm khách sạn
                                Bộ lọc tìm kiếm
                                        Theo mức giá
                                                        Dưới 500.000
                                                        500.000 - 1.000.000
                                                        1.000.000 - 1.500.000
                                                        1.500.000 - 2.000.000
                                                        2.000.000 - 2.500.000
                                                        2.500.000 - 3.000.000
                                                        Trên 3.000.000
                                    Hạng Khách Sạn
                                    Loại khách sạn
                                                    Khách sạn
                                                    Resort
                                Tiện nghi
                                                Đưa đón khách sạn sân bay
                                                Bữa sáng miễn phí
                                                Bể bơi ngoài trời
                                                Bãi đỗ xe
                                                Phòng họp
                                                Phòng tập thể thao
                                                Thang máy
                                                Thêm giường phụ
                                                Truyền hình cáp/vệ tinh
                                                Wifi miễn phí
                                                Giặt là
                                                Nhà hàng
                                                Spa
            Quận huyện
                        Phủ Lý 
                        Bình Lục
                        Duy Tiên 
                        Kim Bảng 
                        Lý Nhân 
                        Thanh Liêm 
            Khu vực
                        Hồ Đầm Vực
                        Bảo tàng Hà Nam
                        Chùa Bầu
                        Bến xe Phủ Lý
                        Đình Nhật Tân
                        Chùa Long Đọi Sơn
                        Quần thể đền Trúc - Ngũ Động Thi Sơn
                        Chùa Làng Chuông
                        Nhà Thờ Chính xứ Sở Kiện
                        Nhà thờ Giáo xứ Hạ Trang
                        Khu Đô thị Hòa Mạc
                        Chợ cầu Nga
                        Chùa Vĩnh Trụ
                        Chợ Dầu
                        Nhà thờ xứ Phú Đa
                        Chợ Bình Mỹ
                        Đền Lảnh Giang
                        Nhà thờ Phù Tải
                        Đền Trần Thương
                        Chợ Vọc
                        Chùa Cao Đà
             Giá tốt hơn so với đặt phòng trực
            tiếp tại khách sạn
             Đảm bảo 
            giá tốt nhất 
             Đảm bảo 
            hoàn tiền
             Nhân viên chăm sóc, tư vấn nhiều kinh nghiệm
             Hơn 5000 khách sạn tại Việt Nam với
            đánh giá thực
             Nhiều chương trình khuyến mãi và tích lũy điểm
             Thanh toán dễ dàng, đa dạng
                            Khách sạn tại Hà Nam
                                     Xem Bản Đồ
                            Hà Nam thuộc vùng đồng bằng sông Hồng. Hà Nam có nhiều điểm du lịch sinh thái và di tích lịch sử như khu du lịch đền Trúc, Ngũ Động Thi Sơn, Di tích Long Đọi Sơn, chùa Bà Đanh, Đền Lăng, Đền Trần Thương. Hãy để Mytour hỗ trợ bạn để có 1 chuyến đi thú vị, tiết kiệm bằng cách đặt phòng khách sạn Hà Nam ngay bây giờ với giá từ 611,000 VND.
                                Có 5
                                khách sạn ở
                                đây theo ngày đã chọn
                        Ngày nhận phòng
                        Ngày trả phòng
                Số đêm
                Số phòng
                    123456789101112
                Người lớn
                    123456789101112
                Cập nhật ngày
                             Bộ lọc
                                            Phổ biến nhất
                                     Hạng khách sạn
                                                                                                Hạng sao [5...1]
                                                                                                Hạng sao [1...5]
                                            Đánh giá cao nhất
                                            Khuyến mãi
                                     Giá
                                                                                                Giá tăng dần
                                                                                                Giá giảm dần
                            Sắp xếp:
                            Đánh giá cao nhất
                        Phổ biến nhấtĐánh giá cao nhấtGiá tăng dầnGiá giảm dầnHạng tăng dầnHạng giảm dầnKhuyến mãi
                            Khách Sạn Inco 515.9
                             Tòa Nhà Inco 515.9 Lê Hoàn, Phường Hai Bà Trưng, Phủ Lý , Hà Nam 
                            (Xem bản đồ)
                            Chùa Bầu
                                        “Khách Sạn Inco 515.9 Hà Nam với lối kiến trúc độc đáo hiện đại tọa lạc giữa khu trung tâm du lịch thành phố. Nơi đây gần điểm du lịch nổi tiếng như: Chùa Long Đọi Sơn, Tam Chúc, Chùa Bầu, Hang Luồn -...
                                        “
                                                Đảm bảo hoàn tiền
                                                Đảm bảo giá tốt nhất!
                                                            8.8
                                Tốt
                                    (2
                                        đánh giá)
                                Xem phòng
                            Hòa Bình
                             01 Duy Tan, Ha Nam 
                            (Xem bản đồ)
                            Chùa Làng Chuông
                                                                    Khách sạn đang chờ duyệt giá.
                                Xem phòng
                            Khách Sạn Hòa Bình
                             Đường Trần Phú, P. Quang Trung, Phủ Lý , Hà Nam 
                            (Xem bản đồ)
                            Chùa Bầu
                                                                    Khách sạn đang chờ duyệt giá.
                                Xem phòng
                            Khách sạn 30 Tháng 4
                             34 Biên Hòa, Minh Khai 
                            (Xem bản đồ)
                            Chùa Bầu
                                                                    Khách sạn đang chờ duyệt giá.
                                Xem phòng
                            Khách Sạn Hương Việt
                             278 Quốc Lộ 1A, Phủ Lý , Hà Nam 
                            (Xem bản đồ)
                            Chùa Bầu
                                                                    Khách sạn đang chờ duyệt giá.
                                                            8.0
                                Tốt
                                    (1
                                        đánh giá)
                                Xem phòng
                                Hà Nam
                            Đặt phòng khách sạn Hà Nam giá tốt nhất tại Mytour.vn, với nhiều khuyến mãi từ website và đơn vị khách sạn tiết kiệm lên đến 70%. Hơn 150.000 đánh giá từ khách hàng đã qua sử dụng khách sạn giúp bạn đưa ra những quyết định tốt nhất cho lựa chọn của mình. Đặc biệt chính sách ĐẢM BẢO HOÀN TIỀN chỉ có tại Mytour.vn, giờ đây bạn có thể hoàn toàn tin tưởng vào dịch vụ đặt phòng trực tuyến.Với hơn 5.000 khách sạn, resort tại 63 tỉnh/ thành phố, Mytour ngày càng được du khách tin dùng để tìm kiếm khách sạn. Mytour sẽ hỗ trợ quý khách đặt khách sạn Hà Nam với chi phí hợp lý để có chuyến đi thật thú vị và tiết kiệm. Ngoài việc cung cấp những khách sạn giá tốt nhất, bạn có còn có thể tìm thấy nhiều thông tin du lịch hữu ích và thú vị khác.  Hà Nam là tỉnh ở phía nam châu thổ sông Hồng, cửa ngõ phía nam của thủ đô Hà Nội. Phía bắc tỉnh Hà Nam giáp Hưng Yên và Hà Tây, phía đông giáp Thái Bình, phía tây giáp Hoà Bình, phía đông nam và nam giáp Nam Định và Ninh Bình. Địa hình của tỉnh đa dạng bao gồm chủ yếu là vùng đồng bằng chiêm trũng, vùng đồi núi, nửa đồi núi. Tỉnh có hai con sông lớn chảy qua đó là sông Đáy và sông Châu Giang.  Khi đặt khách sạn tại Hà Nam, Mytour với hệ thống đặt phòng có hơn 3 khách sạn được trang bị đầy đủ tiện nghi hiện đại cùng với dịch vụ chăm sóc khách hàng hoàn hảo sẽ mang lại cho bạn những trải nghiệm thú vị và hài lòng cả những du khách khó tính nhất.  Du lịch Hà Nam bạn sẽ được tham quan những thắng cảnh nổi tiếng nơi đây như:  Chùa bà Đanh: Chùa thờ Bà Chúa Đanh (thần Pháp Vũ) nổi tiếng linh thiêng. Ngôi chùa cách thị xã Phủ Lý 10km, nằm ở phía hữu ngạn sông Đáy.Khu danh thắng này có diện tích khoảng 10ha, với phong cảnh trời mây sông nước hữu tình, ở xa làng xóm nên tĩnh mịch. Ngôi chùa hướng chính nam nhìn ra dòng sông Đáy nên thơ. Tương truyền chùa có từ thế kỷ thứ 7, ban đầu nơi đây là một ngôi đền nhỏ thờ tứ pháp (Pháp Vân, Pháp Vũ, Pháp Lôi, Pháp Điện). Đến đời vua Lê Hy Tông ( 1675- 1705), đền được xây dựng lại to đẹp khang trang hơn. Người dân thấy phong cảnh đẹp, đền linh thiêng nên chuyển ngôi đền ở vị trí thường bị ngập lụt và rước tượng Phật về phối thờ, từ đó gọi là chùa Bà Đanh. Một trong số báu vật ở đây là bức tượng Bà Chúa Đanh (thần Pháp Vũ) tư thế ngồi trên ngai, toàn bộ đặt trên một gốc cây to; nhiều di vật khác được lưu giữ mang phong cách thời Lý-Trần. Nhiều người kể rằng do chùa Bà Đanh quá linh thiêng nên khách thập phương cũng ít dám ghé qua vì sợ nếu thất lễ sẽ bị trừng phạt. Nhưng cũng có ý kiến cho rằng chùa ở xa khu dân cư, cách trở núi sông, giao thông không thuận tiện nên ít người lui tới. Dù giải thích thế nào thì dường như nguồn gốc câu thành ngữ “Vắng như chùa Bà Đanh” vẫn là một bí ẩn!  Đền Trúc - Ngũ Động Sơn: Đền Trúc - Ngũ Động Sơn thờ người anh hùng dân tộc Lý Thường Kiệt. Khu danh thắng này có phong cảnh thiên nhiên hữu tình, núi non trùng điệp, có đền Trúc nằm giữa rừng Trúc nên thơ, có hệ thống hang động độc đáo. Lễ hội Đền Trúc được mở vào dịp đầu xuân hàng năm từ mùng 10 tháng Giêng đến mùng 6 tháng Hai âm lịch. Nét nổi bật nhất của lễ hội là trò hát dặm gồm 30 tiết mục với hơn 1.000 câu thơ tương truyền do Lý Thường Kiệt sáng tác... Đến bây giờ những câu hát dặm đã được các nghệ nhân nơi đây mang đi giới thiệu tới 16 quốc gia trên thế giới.  Khu du lịch hồ Tam Chúc thuộc xã Ba Sao huyện Kim Bảng, cách thị xã Phủ Lý khoảng 12km trên tuyến quốc lộ 21A tiếp giáp với Hoà Bình và Hà Tây, cách khu du lịch Hương Sơn khoảng 3km đường leo núi. Tổng diện tích khu du lịch là 1042 ha, trong đó hồ có diện tích 720ha, khu vực hồ Tam Chúc đang được tiến hành lập quy hoạch xây dựng dự án đầu tư xây dựng cơ sở hạ tầng, tạo ra khu du lịch sinh thái nghỉ cuối tuần bao gồm các sản phẩm du lịch chính là: Du lịch trên hồ, du lịch nghỉ dưỡng, du lịch leo núi, thể thao và vui chơi giải trí.  Bát Cảnh Sơn: Từ thị xã Phủ Lý, theo quốc lộ 22 đi 13km là đến quần thể danh thắng Bát cảnh sơn (hoặc có thể đi từ Đồng Văn theo quốc lộ 60). Dãy Bát Cảnh Sơn đứng bên tả ngạn sông Đáy, dựa lưng vào vòng cung Nam Công (Kim Bảng - Hà Nam và Tuyết Sơn, Hương Tích - Hà Tây), tạo thành thế núi hình sông kỳ thú. Xưa kia, ở Bát Cảnh Sơn có 8 ngôi chùa và một ngôi miếu thờ thổ đại thần linh được bài trí xây dựng theo thuyết bát quái ngũ hành. Ngày nay, một số cảnh quan đã bị hư hại nhưng hàng năm khách vãn cảnh chùa Hương và khách du lịch thập phương vẫn về thăm với một số lượng khá đông.  Bên cạnh đó, một yếu tố khác thu hút khách du lịch đó chính là nền ẩm thực phong phú và đa dạng. Lưu trú tại Hà Nam, quý khách sẽ được thưởng thức đặc sản bánh cuốn Hoa Cải, ôc đồng, bánh đa kê, mắm cáy Bình Lục, quýt Lý Nhân, bánh cuốn chả, cá kho nhân hậu, bánh đa khô tráng vừng…  Nếu bạn có kế họach đến nghỉ dưỡng hoặc công tác ở vùng đất Hà Nam, hãy để Mytour giúp bạn chuẩn bị 1 chuyến đi dễ dàng, thú vị, và tiết kiệm nhất bạn nhé!   
            Địa danh ở gần
                                    Ga Đồng Văn
                                     ~ 3.72km
                                                                Ga Phủ Lý tọa lạc ở thị trấn Đòng Văn, huyện Duy Tiên, tỉnh Hà Nam. Nơi đây được du khách thập phương biết tới là nơi là nơi trung chuyển hành khách đến khắp các tỉnh thành lân cận. Hãy để Mytour hỗ trợ bạn để có 1 chuyến đi thú vị, tiết kiệm bằng cách đặt phòng khách sạn tại khu vực Ga Đồng Văn ngay bây giờ với giá rẻ nhất.
                                    Phủ Lý Hà Nam
                                     ~ 3.72km
                                                                Phủ Lý Hà Nam nằm bên bờ phải sông Đáy, nơi hợp lưu với sông Châu Giang. Phủ Lý cách Hà Nội 60km về phía Nam, thành phố Nam Định 30 km về Phía Tây Bắc và thành phố Ninh Bình 33 km về phía Bắc. Hãy để Mytour hỗ trợ bạn để có 1 chuyến đi thú vị, tiết kiệm bằng cách đặt phòng khách sạn tại khu vực Phủ Lý Hà Nam ngay bây giờ với giá rẻ nhất.
                                    Chùa Duyên Ứng
                                     ~ 5.6km
                                                                Chùa Duyên Ứng hay chùa Long Đọi, tọa lạc trên núi Long Đọi thuộc xã Đọi Sơn, huyện Duy Tiên, tỉnh Hà Nam. Chùa được khởi dựng từ thời Lý bởi Vua Lý Nhân Tông sau khi ông dừng chân xem cảnh đẹp nơi đây. Hãy để Mytour hỗ trợ bạn để có 1 chuyến đi thú vị, tiết kiệm bằng cách đặt phòng khách sạn tại khu vực Chùa Duyên Ứng ngay bây giờ với giá rẻ nhất.
                                    Ga Phủ Lý
                                     ~ 5.76km
                                                                Ga Phủ Lý tọa lạc trên Quốc lộ 1A, thành phố Phủ Lý, tỉnh Hà Nam. Nơi đây được du khách thập phương biết tới là nơi là nơi trung chuyển hành khách đến khắp các tỉnh thành lân cận. Hãy để Mytour hỗ trợ bạn để có 1 chuyến đi thú vị, tiết kiệm bằng cách đặt phòng khách sạn tại khu vực Ga Phủ Lý ngay bây giờ với giá rẻ nhất.
                                    Làng trống Đọi Tam
                                     ~ 5.78km
                                                                Làng Ðọi Tam ở Ðọi Sơn, Duy Tiên, Hà Nam có nghề làm trống từ rất lâu đời. Theo truyền thuyết, 2 anh em cụ Năng, cụ Bản đã tự tay làm một cái trống to khi được tin vua Lê Ðại Hành sửa soạn về làng. Hãy để Mytour hỗ trợ bạn để có 1 chuyến đi thú vị, tiết kiệm bằng cách đặt phòng khách sạn tại khu vực Làng trống Đọi Tam ngay bây giờ với giá rẻ nhất.
                                    Đền Trúc-Ngũ Động Thi Sơn
                                     ~ 6.14km
                                                                Đền Trúc - Ngũ Động Thi Sơn ở Kim Bảng, Hà Nam thờ Lý Thường Kiệt. Khu danh thắng này có phong cảnh thiên nhiên hữu tình, có đền Trúc nằm giữa rừng Trúc và hệ thống hang độc đáo.  Hãy để Mytour hỗ trợ bạn để có 1 chuyến đi thú vị, tiết kiệm bằng cách đặt phòng khách sạn tại khu vực Đền Trúc - Ngũ Động Thi Sơn ngay bây giờ với giá rẻ nhất.
                                    Chùa Bà Đanh - núi Ngọc
                                     ~ 6.91km
                                                                Chùa Bà Đanh hay Bảo Sơn tự, nằm ở thôn Đanh, Ngọc Sơn, Kim Bảng, Hà Nam. Cũng như các ngôi chùa khác, chùa Bà Đanh thờ Phật, song ở chùa ngoài tượng Bồ Tát còn có tượng của hệ thống Tứ Phủ. Hãy để Mytour hỗ trợ bạn để có 1 chuyến đi thú vị, tiết kiệm bằng cách đặt phòng khách sạn tại khu vực Chùa Bà Đanh - núi Ngọc ngay bây giờ với giá rẻ nhất.
                                    Nhà thờ Kẻ Sở
                                     ~ 8.37km
                                                                Nhà thờ giáo xứ Sở Kiện nằm ở tỉnh Hà Nam với trần hình cung nhìn cao vút theo kiến trúc Gô-tích. Nhà thờ này cũng có các ô cửa kính màu vẽ các thánh hoặc các sự kiện trong Kinh Thánh. Hãy để Mytour hỗ trợ bạn để có 1 chuyến đi thú vị, tiết kiệm bằng cách đặt phòng khách sạn tại khu vực Nhà thờ giáo xứ Sở Kiện (Kẻ Sở) ngay bây giờ với giá rẻ nhất.
                                    Khu du lịch hồ Tam Chúc 
                                     ~ 9.25km
                                                                Khu du lịch hồ Tam Chúc ở xã Ba Sao. huyện Kim Bảng, Hà Nami. Khu Tam Chúc bao gồm các sản phẩm du lịch như du lịch trên hồ, du lịch nghỉ dưỡng, du lịch leo núi, thể thao và vui chơi giải trí. Hãy để Mytour hỗ trợ bạn để có 1 chuyến đi thú vị, tiết kiệm bằng cách đặt phòng khách sạn tại khu vực Khu du lịch hồ Tam Chúc ngay bây giờ với giá rẻ nhất.
                                    Đền Trần Thương
                                     ~ 16.07km
                                                                Đền Trần Thương là kho của nhà Trần nằm ở Hà Nam. Đền được xây trên một khu đất rộng, nằm biệt lập ở phía đầu làng, trên nền cũ kho lương thực đời Trần trong cuộc sống chống quân xâm lược lần thứ hai. Hãy để Mytour hỗ trợ bạn để có 1 chuyến đi thú vị, tiết kiệm bằng cách đặt phòng khách sạn tại khu vực Đền Trần Thương ngay bây giờ với giá rẻ nhất.
                 Du lịch Hà Nam 
                ×
                    Chính sách đảm bảo hoàn tiền của mytour
                    Bạn chưa tin tưởng việc đặt phòng khách sạn trực tuyến? Bạn e ngại rằng phòng khách sạn thực tế không đúng với thông tin trên website? Chúng tôi cam kết đưa đầy đủ và chính xác thông tin khách sạn trên website với chính sách “Đảm bảo Hoàn tiền”
                        Nếu khách hàng đặt khách sạn thành công trên Mytour nhưng khách sạn không có phòng, Mytour sẽ hoàn lại tiền cho khách và tặng kèm phiếu giảm giá có giá trị bằng với số tiền khách hàng đã trả.
                        Trong trường hợp loại phòng thực tế không đúng với loại phòng trên đơn hàng, Mytour sẽ quyết định nâng cấp miễn phí hoặc tặng phiếu giảm giá có giá trị bằng với số tiền khách hàng đã trả.
                        Trường hợp các tiện nghi phòng khách sạn (như bữa sáng, wifi…) không đúng với nội dung trên website, Mytour sẽ tặng phiếu giảm giá có giá trị bằng 10% số tiền khách đã trả (tối đa 500,000 VND)
                        Khách hàng cần gọi điện thoại 04-7309 9899 (Hà Nội), 08-7309 9899 (Hồ Chí Minh) hoặc email tới info@mytour.vn và cung cấp mã đơn hàng trong vòng 24 giờ từ lúc nhận phòng để được trợ giúp giải quyết khiếu nại (Hotline chỉ hỗ trợ trong giờ hành chính).
                        Mytour không chịu trách nhiệm bồi thường thiệt hại gián tiếp, ngẫu nhiên, hay do hậu quả phát sinh. Trong mọi trường hợp, trách nhiệm của Mytour không vượt quá tổng số tiền khách hàng thanh toán đặt phòng.
                ×
                    Đảm bảo giá tốt nhất
                    Nếu Thành viên đã đặt một phòng khách sạn được “Đảm Bảo” tại Mytour.vn và sau đó, cho Mytour.vn  thấy rằng Thành viên có thể đặt một phòng tương tự trong cùng khoảng thời gian ở mức giá tốt hơn có thể xem và đặt được trên một website khác, Mytour.vn sẽ giảm giá bằng hoặc thấp hơn mức giá đó.
                    Giá dùng để so sánh là giá sau khi áp dụng mức giảm giá công bố trên website Mytour.vn.
                    Chính sách “Đảm Bảo Giá Tốt Nhất” của Mytour.vn chỉ áp dụng cho các đặt phòng đã được xác nhận và phải thỏa mãn những điều kiện sau:
                Cùng khách sạnCùng thời gian nghỉ lạiCùng loại Phòng/GiườngCùng các yêu cầu mua Trước, yêu cầu trả trước và đặt cọc (nếu có)Cùng chính sách Hủy và Sửa Đổi
                    Phòng đó phải còn trống để được xác nhận ngay tại thời điểm các đại lý của Mytour.vn  kiểm tra phòng trống
                        Chính sách “Đảm Bảo Giá Tốt Nhất” không áp dụng cho các mức giá không công bố, như: chương trình khách hàng thân thiện.
                        Bất kỳ tổ chức nào với các mức giá dành cho nhóm cá nhân cụ thể và không nhằm mục đích áp dụng ra bên ngoài.
                        Thành viên có thể gửi khiếu nại theo địa chỉ : info@mytour.vn
                                Nêu mã đặt phòng Mytour.vn trong dòng tiêu đề thư
                                Gửi URL của website nơi Thành viên tìm thấy mức giá tốt hơn
                                Cung cấp ảnh chụp màn hình của website đối thủ cạnh tranh trong đó nêu rõ Phòng Trống, Loại Phòng, và các mức giá cho những ngày nghỉ lại theo yêu cầu của Thành viên.
                VUI LÒNG LƯU Ý: Thành viên không cần thực hiện đặt phòng trên website của đối thủ cạnh tranh, chỉ cần cho Mytour.vn thấy sự so sánh.
                ×
                Đăng Nhập
                                 Đăng nhập bằng tài khoản Facebook
                                 Đăng nhập bằng tài khoản Google
                            Hoặc đăng nhập bằng
                        Email*
                        Mật khẩu*
                        Quên mật khẩu?
                            Chưa có tài khoản/tạo tài khoản
                Đăng nhập
                         Nhớ đăng nhập
                ×
                Bản đồ
                                            Hà Nam
                    Tìm đường
                        Từ: 
                        Đến: 
                            Khách sạnĐịa danh Hiển thị các khách sạn ở gần Hiển thị các khu du lịch ở gần
                ×
                Yêu Cầu Lấy Giá
                                    Ngày nhận phòng
                                    Ngày trả phòng
                        Tên khách hàng
                        Email
                        Điện thoại
                        Nhân viên chăm sóc khách hàng sẽ gọi điện cho quý khách trong thời gian sớm nhất.
                        Quý khách có thể gọi điện đến cho Mytour để được tư vấn ngay:
                        Hà Nội: (04) 7109 9999, Hồ Chí Minh: (08) 7309 9899, Support
                            English: (+84)4-7309-9899.
                    Hoàn thành
                ×
                Gửi Thông Tin
                        Tên khách hàng
                        Email
                        Điện thoại
                            Quý khách sẽ thấy giá giảm ngay trên trang sau khi gửi thông tin
                    Hoàn thành
                ×
                Nhận Giá Tốt
                                    Ngày nhận phòng
                                    Ngày trả phòng
                        Tên khách hàng
                        Email
                        Điện thoại
                        Vì giá tốt không được công bố nên hệ thống sẽ gửi giá qua email đến quý khách và nhân viên chăm
                        sóc sẽ gọi điện cho quý khách trong thời gian sớm nhất.
                        Quý khách có thể gọi điện đến cho Mytour để được tư vấn ngay:
                        Hà Nội: (04) 7109 9999, Hồ Chí Minh: (08) 7309 9899, Support
                            English: (+84)4-7309-9899.
                    Hoàn thành
                ×
                ×
                ĐÁNH GIÁ 
                        Tên
                        Tiêu đề
                        Kiểu du lịch?
                                -- Chọn --Cá nhânCặp đôiGia đìnhBạn bèDoanh nghiệp
                        Nội dung
                                Đánh giá chi tiết
                                Chỗ ở
                                5
                                Thức ăn
                                5
                                Phương tiện
                                5
                                Hướng dẫn viên
                                5
                                Lịch trình
                                5
                    Gửi đánh giá
                    Hủy Bỏ
                ×
                Gửi lại email kích hoạt
                ×
                Thông tin chi tiết giá theo phòng
                    Chọn khoảng thời gian hiển thị giá phòng
                    Hiển thị giá
                ×
                Khóa phòng theo khoảng thời gian
                            Chọn khoảng thời gian check-in cần khóa/mở phòng
                            Khóa phòng
                            Mở phòng
                ×
                THUẾ VÀ PHÍ DỊCH VỤ
                17% thuế và phí dịch vụ bao gồm:
                    - 10% thuế và 5% phí dịch vụ hoàn trả lại cho khách sạn.
                    - 2% phí giao dịch tại Mytour.
                ×
                Bạn có hài lòng về website của Mytour?
                    Thông điệp nhắn nhủ:
                Mytour luôn mong muốn cải thiện dịch vụ để bạn có trải nghiệm tốt hơn!
                            Ảnh đính kèm
                        Đóng
                        Gửi
                ×
                    Những đóng góp của bạn đã được ghi nhận. Mytour cám ơn bạn !
                Quay lại website
            Khách sạn theo các tỉnh thành
                        An Giang
                        Bà Rịa - Vũng Tàu
                        Bắc Giang
                        Bắc Kạn
                        Bạc Liêu
                        Bắc Ninh
                        Bến Tre
                        Bình Định
                        Bình Dương
                        Bình Phước
                        Bình Thuận
                        Cà Mau
                        Cần Thơ
                        Cao Bằng
                        Đà Lạt
                        Đà Nẵng
                        Đắk Nông
                        Đắk Lắk
                        Điện Biên
                        Đồng Nai
                        Đồng Tháp
                        Gia Lai
                        Hà Giang
                        Hạ Long
                        Hà Nam
                        Hà Nội
                        Hà Tĩnh
                        Hải Dương
                        Hải Phòng
                        Hậu Giang
                        Hồ Chí Minh
                        Hoà Bình
                        Hội An
                        Hưng Yên
                        Khánh Hòa
                        Kiên Giang
                        Kon Tum
                        Lai Châu
                        Lâm Đồng
                        Lạng Sơn
                        Lào Cai
                        Long An
                        Nam Định
                        Nghệ An
                        Nha Trang
                        Ninh Bình
                        Ninh Thuận
                        Phan Thiết
                        Phú Quốc
                        Phú Thọ
                        Phú Yên
                        Quảng Bình
                        Quảng Nam
                        Quảng Ngãi
                        Quảng Ninh
                        Quảng Trị
                        Sa Pa
                        Sóc Trăng
                        Sơn La
                        Tây Ninh
                        Thái Bình
                        Thái Nguyên
                        Thanh Hoá
                        Thành Phố Huế
                        Thừa Thiên Huế
                        Tiền Giang
                        Trà Vinh
                        Tuyên Quang
                        Vĩnh Long
                        Vĩnh Phúc
                        Vũng Tàu
                        Yên Bái
                Du lịch Hà Nam
                                Du lịch Lý Nhân 
                                Du lịch Duy Tiên 
                                Du lịch Kim Bảng 
                                Du lịch Phủ Lý 
                                Du lịch Thanh Liêm 
                            Giới thiệu Mytour
                            Đối tác khách sạn
                            Đăng nhập HMS
                            Tích lũy Vpoint
                            Điều khoản sử dụng
                            Quy chế hoạt động
                            Tuyển dụng
                            Liên hệ
                            Đăng ký nhận email
                                Đăng ký email để nhận khuyến mãi lên đến 70%
                                    Đăng
                                    ký
                    Công ty TNHH Mytour Việt Nam
                    Số ĐKKD: 0105983269 cấp ngày 30/08/2012
                    Văn phòng Hà Nội: Tầng 4, tòa nhà GP Invest, 170 Đê La Thành, Đống Đa
                    Văn phòng HCM: Tầng 5, Tòa Nhà HDTC, Số 36 Bùi Thị Xuân, Q.1
                Hotline
                        Hà Nội:
                        (04) 7109 9999
                        Tp. HCM:
                        (08) 7309 9899
                        ENGLISH SUPPORT:
                        (+84)4 7309 9899
