url:http://mytour.vn/757-khach-san-hiep-dung.html
Tittle :Khách Sạn Hiệp Dũng - Quảng Ninh giá tốt nhất - Mytour.vn
content :Đặt phòng trực tuyến, hoặc gọi
                                                            Hà Nội: (04) 7109 9999
                                                                                        - (04) 7309 9899
                                                            Hồ Chí Minh: (08) 7309 9899
                                                                                        - (08) 7109 9998
                        T2 - CN: 08:00 - 23:00
                    Toggle navigation
                                Bạn không có thông báo nào
                    |
                    ||
                                                            Tài khoản
                        Đăng nhập
                                Đăng kýKhách sạn yêu thích
                            Khách sạn
                            Tour
                            Cẩm nang du lịch
                            Thông tin
                                                Về Mytour
                                                Tin khuyến mãi
                                                Ưu đãi
                                                Hướng dẫn
                                                Liên hệ
                            Tốt nhất 2016
                ×
                Bạn có chắc muốn hủy đơn hàng?
                Lorem ipsum dolor sit amet, consectetur adipisicing elit. Iure corporis repudiandae nobis distinctio
                quae quos, officia modi, ab voluptatem pariatur ducimus mollitia, necessitatibus sed soluta dicta
                repellendus! Praesentium debitis, temporibus?
                    Đồng ý
                    Đóng
                    Khách sạnQuảng NinhHạ Long Khách sạn gần Chợ Bãi CháyKhách Sạn Hiệp Dũng
                    Đóng
            Tìm Kiếm Khách Sạn
                            Ngày nhận phòng
                            Ngày trả phòng
                    Số đêm
                    Số phòng
                        123456789101112
                    Người lớn
                        123456789101112
                    Tìm khách sạn
                Giá tốt hơn so với đặt phòng trực tiếp tại khách sạn
                Đảm bảo 
                giá tốt nhất
                Đảm bảo 
                hoàn tiền
                Nhân viên chăm sóc, tư vấn nhiều kinh nghiệm
                Hơn 5000 khách sạn tại Việt Nam với đánh giá thực
                Nhiều chương trình khuyến mãi và tích lũy điểm
                Thanh toán dễ dàng, đa dạng
                        Khách Sạn Hiệp Dũng
                            (Cung cấp bởi khách sạn)
                                    Tất cả thông tin về tiêu chuẩn khách sạn trên website mytour.vn
                                    là do khách sạn tự cung cấp, chỉ mang tính chất tham khảo và không nhất thiết trùng
                                    hợp với hạng
                                    sao được cấp bởi sở Văn Hoá, Thể thao và du lịch.
                             92B Vườn Đào, Bãi Cháy, Hạ Long , Quảng Ninh 
                                Đặt phòng ngay giữ giá tốt
                                Đã thích
                                        6.9
                                            (2
                                            đánh giá)
                                Giới thiệu về Khách Sạn Hiệp Dũng 
                                    Khách sạn Hiệp Dũng nằm ngay trong khu trung tâm du lịch Bãi cháy Hạ Long. Từ ban công của khách sạn, có thể nhìn bao quát toàn cảnh vịnh Hạ Long với những cánh buồm nâu căng gió
Chỉ với 3 phút đi bộ là quý khách có thể ra bãi biển tắm mát, hay dạo bộ trên đường Hạ Long, ngắm cầu bãi cháy đẹp nhất Đông nam Á hoặc tản bộ chợ đêm và mua những món quà lưu niệm thú vị cho gia đình và người thân. 
Với hệ thống phòng đa dạng từ tiêu chuẩn 2 sao, phòng Gia đình, phòng VIP với các phòng đầy đủ tiện nghi như: Điều hòa, dụng cụ pha cà phê và trà, dịch vụ internet, tủ lạnh, phòng tắm riêng, truyền hình vệ tinh.
Ngoài ra Khách sạn Hiệp Dũng còn có những dịch vụ khác như: Dịch vụ cho thuê xe, Chỗ đỗ xe, Các dịch vụ Du lịch, Phục vụ phòng 24/24
Mytour sẽ tư vấn đặt phòng Khách sạn Hiệp Dũng phù hợp nhu cầu của bạn. Ngoài ra mytour cũng có dịch vụ đặt tour tham quan các địa danh nổi tiếng nơi đây như: vịnh hạ long, làng chài của vạn, đảo tuần châu, đảo quan lạn… 
Dù lý do bạn đến Quảng Ninh là gì, chuyến đi của bạn sẽ trọn vẹn và ý nghĩa hơn nếu bạn chọn Khách sạn Hiệp Dũng.
Với sự hỗ trợ của Mytour, bạn sẽ có cơ hội đặt phòng giá rẻ nhất cùng nhiều chương trình khuyến mại dành riêng cho khách hàng của Mytour. 
Nhanh tay đặt phòng Khách sạn Hiệp Dũng để tận hưởng dịch vụ đẳng cấp bạn nhé!
 
 
 
                                        Xem thêm 
                                Chọn ngày để xem giá và phòng trống
                                    Đảm bảo giá tốt nhất
                                                Ngày nhận phòng
                                                Ngày trả phòng
                                        Số đêm
                                        Số phòng
                                            123456789101112
                                        Người lớn
                                            123456789101112
                                        Cập nhật giá
                                Lưu ý: Vui lòng ẩn "Cập nhật giá" để cập nhật phòng
                                Chọn phòng Khách Sạn Hiệp Dũng
                                                Loại Phòng
                                                Giá 1 đêm
                                                Số phòng
                                                Đặt phòng
                                                                    Phòng Ba
                                                                        Điều kiện hủy phòng
                                                        phòng
                                                                                                                                                                            012345
                                                            Đặt ngay
                                                            Xác nhận ngay
                                                                    Phòng Đôi
                                                                        Điều kiện hủy phòng
                                                        phòng
                                                                                                                                                                            012345
                                                            Đặt ngay
                                                            Xác nhận ngay
                                    Tiện nghi Khách Sạn Hiệp Dũng 
                                                Bãi đỗ xe
                                                Internet
                                                Salon
                                                Thang máy
                                                Wifi miễn phí
                                                Nhà hàng
                                                Tắm hơi
                                Ghi chú: Ăn sáng miễn phí (nếu có) có thể thay đổi theo phòng và ngày
                                    Chính sách Khách Sạn Hiệp Dũng 
                                        Giờ nhận
                                        phòng: 14:00
                                        Giờ trả
                                        phòng: 12:00
            Đánh giá Khách Sạn Hiệp Dũng
                Viết đánh giá
                        Tất cả ( 2 )
                        Công tác ( 0 )
                        Cặp đôi ( 0 )
                        Gia đình ( 0 )
                        Bạn bè ( 0 )
                        Cá nhân ( 2 )
                        Đánh giá
                        6.9
                            Tất cả
                    Chi tiết điểm  (từ
                        2
                        nhận xét)
                            Vị trí
                                6.5
                                    % Complete
                            6.5
                            Phục vụ
                                7
                                    % Complete
                            7
                            Tiện nghi
                                6.5
                                    % Complete
                            6.5
                            Giá cả
                                7
                                    % Complete
                            7
                            Vệ sinh
                                7.5
                                    % Complete
                            7.5
                        Đánh giá
                        0
                            Công tác
                    Chi tiết điểm  (từ
                        0
                        nhận xét)
                            Vị trí
                                0
                                    % Complete
                            0
                            Phục vụ
                                0
                                    % Complete
                            0
                            Tiện nghi
                                0
                                    % Complete
                            0
                            Giá cả
                                0
                                    % Complete
                            0
                            Vệ sinh
                                0
                                    % Complete
                            0
                        Đánh giá
                        0
                            Cặp đôi
                    Chi tiết điểm  (từ
                        0
                        nhận xét)
                            Vị trí
                                0
                                    % Complete
                            0
                            Phục vụ
                                0
                                    % Complete
                            0
                            Tiện nghi
                                0
                                    % Complete
                            0
                            Giá cả
                                0
                                    % Complete
                            0
                            Vệ sinh
                                0
                                    % Complete
                            0
                        Đánh giá
                        0
                            Gia đình
                    Chi tiết điểm  (từ
                        0
                        nhận xét)
                            Vị trí
                                0
                                    % Complete
                            0
                            Phục vụ
                                0
                                    % Complete
                            0
                            Tiện nghi
                                0
                                    % Complete
                            0
                            Giá cả
                                0
                                    % Complete
                            0
                            Vệ sinh
                                0
                                    % Complete
                            0
                        Đánh giá
                        0
                            Bạn bè
                    Chi tiết điểm  (từ
                        0
                        nhận xét)
                            Vị trí
                                0
                                    % Complete
                            0
                            Phục vụ
                                0
                                    % Complete
                            0
                            Tiện nghi
                                0
                                    % Complete
                            0
                            Giá cả
                                0
                                    % Complete
                            0
                            Vệ sinh
                                0
                                    % Complete
                            0
                        Đánh giá
                        6.9
                            Cá nhân
                    Chi tiết điểm  (từ
                        2
                        nhận xét)
                            Vị trí
                                6.5
                                    % Complete
                            6.5
                            Phục vụ
                                7
                                    % Complete
                            7
                            Tiện nghi
                                6.5
                                    % Complete
                            6.5
                            Giá cả
                                7
                                    % Complete
                            7
                            Vệ sinh
                                7.5
                                    % Complete
                            7.5
                                    “Nước dùng trong nhà vệ sinh tại khách sạn Hiệp Dũng có mùi tanh, mong là khách sạn sớm khắc phục tình trạng này nhanh chóng. Ngoài ra, phòng không được dọn hằng ngày. Còn các đồ đạc tiện nghi vật chất tương đối tốt, đầy đủ. Nhân viên lễ tân khá thân thiện.
                                    “
                                Nguyễn Thị Minh Hiền
                                30/07/2015
                                Từ ngày mới đến cũ
                                Từ ngày cũ đến mới
                                Điểm từ thấp đến cao
                                Điểm từ cao đến thấp
                                Nguyễn Thị Minh Hiền
                                30-07-2015
                                            Đánh giá
                                            6.6
                                        "Nước dùng có mùi tanh "
                                                Vị trí
                                                    6 .0
                                                Phục vụ
                                                7 .0
                                                Tiện nghi
                                                6 .0
                                                Giá cả
                                                7 .0
                                                Vệ sinh
                                                7 .0
                                                “Nước dùng trong nhà vệ sinh tại khách sạn Hiệp Dũng có mùi tanh, mong là khách sạn sớm khắc phục tình trạng này nhanh chóng. Ngoài ra, phòng không được dọn hằng ngày. Còn các đồ đạc tiện nghi vật chất tương đối tốt, đầy đủ. Nhân viên lễ tân khá thân thiện.” 
                                Văn Hiệp
                                04-06-2013
                                            Đánh giá
                                            7.2
                                        "Khách sạn cơ bản "
                                                Vị trí
                                                    7 .0
                                                Phục vụ
                                                7 .0
                                                Tiện nghi
                                                7 .0
                                                Giá cả
                                                7 .0
                                                Vệ sinh
                                                8 .0
                                                “Các phòng đều sạch sẽ và rộng rãi, nhưng khá đơn giản. Các nhân viên  thân thiện, nhưng họ không nói được nhiều tiếng Anh. Sóng wifi của khách sạn khá khỏe.” 
                    Xem tất cả đánh giá ( 2 )
                                Đặt phòng ngay giữ giá tốt
            Khách hàng đã xem khách sạn này thường tham khảo thêm
                Được đề xuất cho bạn
            Khách sạn 2 sao có cùng tiện nghi
            Có thể bạn muốn xem
                    Khách sạn 2 sao tại Quảng Ninh
                        Khách sạn có nhà hàng tại Quảng Ninh
                        Khách sạn có wifi miễn phí tại Quảng Ninh
                        Khách sạn có thang máy tại Quảng Ninh
            Địa danh ở gần
                                    Chợ Bãi Cháy
                                     ~ 0.32km
                                    Chợ đêm Hạ Long
                                     ~ 0.41km
                                                                Chợ đêm Hạ Long gần bến phà Bãi Cháy và đi ngang qua sông Cửa Lục, Quảng Ninh. Chợ bắt đầu họp chờ từ 6h chiều, lúc này những người bán hàng đã dọn dẹp xong hàng quán của mình và mở cửa bán. Hãy để Mytour hỗ trợ bạn để có 1 chuyến đi thú vị, tiết kiệm bằng cách đặt phòng khách sạn tại khu vực Chợ đêm Hạ Long ngay bây giờ với giá rẻ nhất.
                                    Công viên Quốc tế Hoàng Gia
                                     ~ 0.85km
                                                                Công viên quốc tế Hoàng Gia nằm dọc theo bãi biển Bãi Cháy, chạy dài từ Cảng tàu du lịch Bãi Cháy đến sát khu chợ đêm Hạ Long. Đây là khu vui chơi giải trí liên hợp, diện tích khoảng 10 ha. Hãy để Mytour hỗ trợ bạn để có 1 chuyến đi thú vị, tiết kiệm bằng cách đặt phòng khách sạn tại khu vực Công viên Quốc tế Hoàng Gia ngay bây giờ với giá rẻ nhất.
                                    Đảo Ti Tốp
                                     ~ 0.85km
                                                                Đảo Ti Tốp nằm ở khu vực trung tâm di sản, kỳ quan thiên thế giới Vịnh Hạ Long. Đảo Ti Tốp là một trong những điểm đến hấp dẫn nhất được nhiều du khách lựa chọn trong hành trình tham quan Vịnh của mình. Hãy để Mytour hỗ trợ bạn để có 1 chuyến đi thú vị, tiết kiệm bằng cách đặt phòng khách sạn tại khu vực Đảo Ti Tốp ngay bây giờ với giá rẻ nhất.
                                    Đảo Rều
                                     ~ 0.85km
                                                                Đảo Rều (còn được gọi là đảo Khỉ) ở thành phố Cẩm Phả. Nơi đây là cuộc sống bán hoang dã của hơn ngàn con khỉ, cùng với một thiên nhiên gần như hoang vu có nhiều cây to hơn vòng tay người ôm cao lớn sừng sững. Hãy để Mytour hỗ trợ bạn để có 1 chuyến đi thú vị, tiết kiệm bằng cách đặt phòng khách sạn tại khu vực Đảo Rều ngay bây giờ với giá rẻ nhất.
                                    Bãi Cháy
                                     ~ 1.02km
                                                                Bãi Cháy là một phường có vị trí kinh tế và xã hội quan trọng của thành phố Hạ Long, tỉnh Quảng Ninh. Bãi Cháy nguyên là một đảo hình thoi dài 6 km, là nơi có bãi biển nổi tiếng của miền Bắc Việt Nam. Hãy để Mytour hỗ trợ bạn để có 1 chuyến đi thú vị, tiết kiệm bằng cách đặt phòng khách sạn tại khu vực Bãi Cháy ngay bây giờ với giá rẻ nhất.
                                    Bãi tắm Bãi Cháy
                                     ~ 1.24km
                                                                Bãi tắm Bãi Cháy là một bãi tắm nhân tạo, nằm dọc vịnh Hạ Long có bãi cát trải dài. Đây là bãi tắm thu hút rất đông du khách vào mùa du lịch biển, là một bãi biển nổi tiếng của miền Bắc Việt Nam. Hãy để Mytour hỗ trợ bạn để có 1 chuyến đi thú vị, tiết kiệm bằng cách đặt phòng khách sạn tại khu vực Bãi tắm Bãi Cháy ngay bây giờ với giá rẻ nhất.
                                    Chợ Hạ Long 
                                     ~ 1.36km
                                                                Chợ Hạ Long là chợ đầu mối thương mại của tỉnh Quảng Ninh nằm giữa trung tâm thành phố Hạ Long. Chợ được xây dựng khang trang, du khách rất dễ dàng tìm được những mặt hàng theo nhu cầu. Hãy để Mytour hỗ trợ bạn để có 1 chuyến đi thú vị, tiết kiệm bằng cách đặt phòng khách sạn tại khu vực Chợ Hạ Long ngay bây giờ với giá rẻ nhất.
                                    Cầu Bãi Cháy 
                                     ~ 1.74km
                                                                Cầu Bãi Cháy nối Hòn Gai với Bãi Cháy qua eo Cửa Lục, ngăn cách vịnh Cửa Lục với vịnh Hạ Long, tỉnh Quảng Ninh. Đây là loại cầu dây văng một mặt phẳng dây, dầm hộp bê tông cốt thép dự ứng lực. Hãy để Mytour hỗ trợ bạn để có 1 chuyến đi thú vị, tiết kiệm bằng cách đặt phòng khách sạn tại khu vực Cầu Bãi Cháy ngay bây giờ với giá rẻ nhất.
                                    Làng chài Cửa Vạn 
                                     ~ 2.07km
                                                                Làng chài Cửa Vạn nằm trong lòng Vịnh Hạ Long - Di sản thiên nhiên thế giới đã 2 lần được UNESCO công nhận từ nhiều năm nay, đã trở thành điểm du lịch hấp dẫn với du khách trong và ngoài nước. Hãy để Mytour hỗ trợ bạn để có 1 chuyến đi thú vị, tiết kiệm bằng cách đặt phòng khách sạn tại khu vực Làng chài Cửa Vạn ngay bây giờ với giá rẻ nhất.
                                    Động Kim Quy
                                     ~ 2.07km
                                                                Động Kim Quy nằm trên hòn Dầm Nam ở tỉnh Quảng Ninh, có đỉnh núi cao 187m. Phía trước là hòn Dầm Bắc, phía sau là đảo Soi Sim. Động dài 100m, rộng từ 5 – 10m trải dài theo hướng Bắc Nam. Hãy để Mytour hỗ trợ bạn để có 1 chuyến đi thú vị, tiết kiệm bằng cách đặt phòng khách sạn tại khu vực Động Kim Quy ngay bây giờ với giá rẻ nhất.
                                    Làng chài Cửa Vạn
                                     ~ 2.68km
                                    Núi Bài Thơ
                                     ~ 3.17km
                                                                Núi Bài Thơ là địa danh nổi tiếng trong danh mục du lịch Quảng Ninh và trong quần thể danh thắng vịnh Hạ Long. Có lẽ, dù có thể không biết nó thuộc tỉnh nào, nhưng ai cũng đã từng nghe cái tên núi Bài Thơ. Hãy để Mytour hỗ trợ bạn để có 1 chuyến đi thú vị, tiết kiệm bằng cách đặt phòng khách sạn tại khu vực Núi Bài Thơ ngay bây giờ với giá rẻ nhất.
                                    Chùa Long Tiên
                                     ~ 3.25km
                                                                Chùa Long Tiên là ngôi chùa tọa lạc tại phố Long Tiên, thành phố Hạ Long, Quảng Ninh, là di tích lịch sử với thắng cảnh nổi tiếng và cũng là ngôi chùa lớn nhất tại thành phố Hạ Long. Hãy để Mytour hỗ trợ bạn để có 1 chuyến đi thú vị, tiết kiệm bằng cách đặt phòng khách sạn tại khu vực Chùa Long Tiên ngay bây giờ với giá rẻ nhất.
                                    Chùa Long Tiên
                                     ~ 3.28km
                ×
                    Chính sách đảm bảo hoàn tiền của mytour
                    Bạn chưa tin tưởng việc đặt phòng khách sạn trực tuyến? Bạn e ngại rằng phòng khách sạn thực tế không đúng với thông tin trên website? Chúng tôi cam kết đưa đầy đủ và chính xác thông tin khách sạn trên website với chính sách “Đảm bảo Hoàn tiền”
                        Nếu khách hàng đặt khách sạn thành công trên Mytour nhưng khách sạn không có phòng, Mytour sẽ hoàn lại tiền cho khách và tặng kèm phiếu giảm giá có giá trị bằng với số tiền khách hàng đã trả.
                        Trong trường hợp loại phòng thực tế không đúng với loại phòng trên đơn hàng, Mytour sẽ quyết định nâng cấp miễn phí hoặc tặng phiếu giảm giá có giá trị bằng với số tiền khách hàng đã trả.
                        Trường hợp các tiện nghi phòng khách sạn (như bữa sáng, wifi…) không đúng với nội dung trên website, Mytour sẽ tặng phiếu giảm giá có giá trị bằng 10% số tiền khách đã trả (tối đa 500,000 VND)
                        Khách hàng cần gọi điện thoại 04-7309 9899 (Hà Nội), 08-7309 9899 (Hồ Chí Minh) hoặc email tới info@mytour.vn và cung cấp mã đơn hàng trong vòng 24 giờ từ lúc nhận phòng để được trợ giúp giải quyết khiếu nại (Hotline chỉ hỗ trợ trong giờ hành chính).
                        Mytour không chịu trách nhiệm bồi thường thiệt hại gián tiếp, ngẫu nhiên, hay do hậu quả phát sinh. Trong mọi trường hợp, trách nhiệm của Mytour không vượt quá tổng số tiền khách hàng thanh toán đặt phòng.
                ×
                    Đảm bảo giá tốt nhất
                    Nếu Thành viên đã đặt một phòng khách sạn được “Đảm Bảo” tại Mytour.vn và sau đó, cho Mytour.vn  thấy rằng Thành viên có thể đặt một phòng tương tự trong cùng khoảng thời gian ở mức giá tốt hơn có thể xem và đặt được trên một website khác, Mytour.vn sẽ giảm giá bằng hoặc thấp hơn mức giá đó.
                    Giá dùng để so sánh là giá sau khi áp dụng mức giảm giá công bố trên website Mytour.vn.
                    Chính sách “Đảm Bảo Giá Tốt Nhất” của Mytour.vn chỉ áp dụng cho các đặt phòng đã được xác nhận và phải thỏa mãn những điều kiện sau:
                Cùng khách sạnCùng thời gian nghỉ lạiCùng loại Phòng/GiườngCùng các yêu cầu mua Trước, yêu cầu trả trước và đặt cọc (nếu có)Cùng chính sách Hủy và Sửa Đổi
                    Phòng đó phải còn trống để được xác nhận ngay tại thời điểm các đại lý của Mytour.vn  kiểm tra phòng trống
                        Chính sách “Đảm Bảo Giá Tốt Nhất” không áp dụng cho các mức giá không công bố, như: chương trình khách hàng thân thiện.
                        Bất kỳ tổ chức nào với các mức giá dành cho nhóm cá nhân cụ thể và không nhằm mục đích áp dụng ra bên ngoài.
                        Thành viên có thể gửi khiếu nại theo địa chỉ : info@mytour.vn
                                Nêu mã đặt phòng Mytour.vn trong dòng tiêu đề thư
                                Gửi URL của website nơi Thành viên tìm thấy mức giá tốt hơn
                                Cung cấp ảnh chụp màn hình của website đối thủ cạnh tranh trong đó nêu rõ Phòng Trống, Loại Phòng, và các mức giá cho những ngày nghỉ lại theo yêu cầu của Thành viên.
                VUI LÒNG LƯU Ý: Thành viên không cần thực hiện đặt phòng trên website của đối thủ cạnh tranh, chỉ cần cho Mytour.vn thấy sự so sánh.
                ×
                Đăng Nhập
                                 Đăng nhập bằng tài khoản Facebook
                                 Đăng nhập bằng tài khoản Google
                            Hoặc đăng nhập bằng
                        Email*
                        Mật khẩu*
                        Quên mật khẩu?
                            Chưa có tài khoản/tạo tài khoản
                Đăng nhập
                         Nhớ đăng nhập
                ×
                Bản đồ
                                            Khách Sạn Hiệp Dũng
                    Tìm đường
                        Từ: 
                        Đến: 
                            Khách sạnĐịa danh Hiển thị các khách sạn ở gần Hiển thị các khu du lịch ở gần
                ×
                Yêu Cầu Lấy Giá
                                    Ngày nhận phòng
                                    Ngày trả phòng
                        Tên khách hàng
                        Email
                        Điện thoại
                        Nhân viên chăm sóc khách hàng sẽ gọi điện cho quý khách trong thời gian sớm nhất.
                        Quý khách có thể gọi điện đến cho Mytour để được tư vấn ngay:
                        Hà Nội: (04) 7109 9999, Hồ Chí Minh: (08) 7309 9899, Support
                            English: (+84)4-7309-9899.
                    Hoàn thành
                ×
                Gửi Thông Tin
                        Tên khách hàng
                        Email
                        Điện thoại
                            Quý khách sẽ thấy giá giảm ngay trên trang sau khi gửi thông tin
                    Hoàn thành
                ×
                Nhận Giá Tốt
                                    Ngày nhận phòng
                                    Ngày trả phòng
                        Tên khách hàng
                        Email
                        Điện thoại
                        Vì giá tốt không được công bố nên hệ thống sẽ gửi giá qua email đến quý khách và nhân viên chăm
                        sóc sẽ gọi điện cho quý khách trong thời gian sớm nhất.
                        Quý khách có thể gọi điện đến cho Mytour để được tư vấn ngay:
                        Hà Nội: (04) 7109 9999, Hồ Chí Minh: (08) 7309 9899, Support
                            English: (+84)4-7309-9899.
                    Hoàn thành
                ×
                ×
                ĐÁNH GIÁ 
                        Tên
                        Tiêu đề
                        Kiểu du lịch?
                                -- Chọn --Cá nhânCặp đôiGia đìnhBạn bèDoanh nghiệp
                        Nội dung
                                Đánh giá chi tiết
                                Chỗ ở
                                5
                                Thức ăn
                                5
                                Phương tiện
                                5
                                Hướng dẫn viên
                                5
                                Lịch trình
                                5
                    Gửi đánh giá
                    Hủy Bỏ
                ×
                Gửi lại email kích hoạt
                ×
                Thông tin chi tiết giá theo phòng
                    Chọn khoảng thời gian hiển thị giá phòng
                    Hiển thị giá
                ×
                Khóa phòng theo khoảng thời gian
                            Chọn khoảng thời gian check-in cần khóa/mở phòng
                            Khóa phòng
                            Mở phòng
                ×
                THUẾ VÀ PHÍ DỊCH VỤ
                17% thuế và phí dịch vụ bao gồm:
                    - 10% thuế và 5% phí dịch vụ hoàn trả lại cho khách sạn.
                    - 2% phí giao dịch tại Mytour.
                ×
                Bạn có hài lòng về website của Mytour?
                    Thông điệp nhắn nhủ:
                Mytour luôn mong muốn cải thiện dịch vụ để bạn có trải nghiệm tốt hơn!
                            Ảnh đính kèm
                        Đóng
                        Gửi
                ×
                    Những đóng góp của bạn đã được ghi nhận. Mytour cám ơn bạn !
                Quay lại website
                            Giới thiệu Mytour
                            Đối tác khách sạn
                            Đăng nhập HMS
                            Tích lũy Vpoint
                            Điều khoản sử dụng
                            Quy chế hoạt động
                            Tuyển dụng
                            Liên hệ
                            Đăng ký nhận email
                                Đăng ký email để nhận khuyến mãi lên đến 70%
                                    Đăng
                                    ký
                    Công ty TNHH Mytour Việt Nam
                    Số ĐKKD: 0105983269 cấp ngày 30/08/2012
                    Văn phòng Hà Nội: Tầng 4, tòa nhà GP Invest, 170 Đê La Thành, Đống Đa
                    Văn phòng HCM: Tầng 5, Tòa Nhà HDTC, Số 36 Bùi Thị Xuân, Q.1
                Hotline
                        Hà Nội:
                        (04) 7109 9999
                        Tp. HCM:
                        (08) 7309 9899
                        ENGLISH SUPPORT:
                        (+84)4 7309 9899
