url:http://mytour.vn/khach-san-4-sao.html
Tittle :Khách sạn 4 sao giá tốt nhất - Mytour.vn
content :Đặt phòng trực tuyến, hoặc gọi
                                                            Hà Nội: (04) 7109 9999
                                                                                        - (04) 7309 9899
                                                            Hồ Chí Minh: (08) 7309 9899
                                                                                        - (08) 7109 9998
                        T2 - CN: 08:00 - 23:00
                    Toggle navigation
                                Bạn không có thông báo nào
                    |
                    ||
                                                            Tài khoản
                        Đăng nhập
                                Đăng kýKhách sạn yêu thích
                            Khách sạn
                            Tour
                            Cẩm nang du lịch
                            Thông tin
                                                Về Mytour
                                                Tin khuyến mãi
                                                Ưu đãi
                                                Hướng dẫn
                                                Liên hệ
                            Tốt nhất 2016
                ×
                Bạn có chắc muốn hủy đơn hàng?
                Lorem ipsum dolor sit amet, consectetur adipisicing elit. Iure corporis repudiandae nobis distinctio
                quae quos, officia modi, ab voluptatem pariatur ducimus mollitia, necessitatibus sed soluta dicta
                repellendus! Praesentium debitis, temporibus?
                    Đồng ý
                    Đóng
                    Khách sạnKhách sạn 4 sao
                    Áp dụng
                    Đóng
            Tìm Kiếm Khách Sạn
                            Ngày nhận phòng
                            Ngày trả phòng
                    Số đêm
                    Số phòng
                        123456789101112
                    Người lớn
                        123456789101112
                    Tìm khách sạn
                                Bộ lọc tìm kiếm
                                    Loại khách sạn
                                                    Khách sạn
                                                    Resort
                                Tiện nghi
                                                Đưa đón khách sạn sân bay
                                                Bữa sáng miễn phí
                                                Bể bơi ngoài trời
                                                Bãi đỗ xe
                                                Phòng họp
                                                Phòng tập thể thao
                                                Thang máy
                                                Thêm giường phụ
                                                Truyền hình cáp/vệ tinh
                                                Wifi miễn phí
                                                Giặt là
                                                Nhà hàng
                                                Spa
                Khách sạn 4 sao tại:
                                Hà Nội
                                Hồ Chí Minh
                                Đà Nẵng
                                Bà Rịa - Vũng Tàu
                                Bình Thuận
                                Kiên Giang
                                Khánh Hòa
                                Lào Cai
                                Lâm Đồng
                                Quảng Nam
                                Quảng Ninh
                                Thừa Thiên Huế
                                An Giang
                                Bắc Ninh
                                Bắc Giang
                                Bình Dương
                                Bình Định
                                Bình Phước
                                Bến Tre
                                Bắc Kạn
                                Cần Thơ
                                Trà Vinh
                                Đồng Nai
                                Nam Định
                                Cà Mau
                                Cao Bằng
                                Gia Lai
                                Hà Giang
                                Hà Nam
                                Hà Tĩnh
                                Hải Dương
                                Hải Phòng
                                Hoà Bình
                                Hưng Yên
                                Kon Tum
                                Lai Châu
                                Lạng Sơn
                                Long An
                                Nghệ An
                                Ninh Bình
                                Ninh Thuận
                                Phú Thọ
                                Phú Yên
                                Quảng Bình
                                Quảng Ngãi
                                Quảng Trị
                                Sóc Trăng
                                Sơn La
                                Tây Ninh
                                Thái Bình
                                Thái Nguyên
                                Thanh Hoá
                                Tiền Giang
                                Tuyên Quang
                                Vĩnh Long
                                Vĩnh Phúc
                                Yên Bái
                                Đắk Lắk
                                Đồng Tháp
                                Đắk Nông
                                Hậu Giang
                                Bạc Liêu
                                Điện Biên
             Giá tốt hơn so với đặt phòng trực
            tiếp tại khách sạn
             Đảm bảo 
            giá tốt nhất 
             Đảm bảo 
            hoàn tiền
             Nhân viên chăm sóc, tư vấn nhiều kinh nghiệm
             Hơn 5000 khách sạn tại Việt Nam với
            đánh giá thực
             Nhiều chương trình khuyến mãi và tích lũy điểm
             Thanh toán dễ dàng, đa dạng
                            Khách sạn 4 sao
                                Có 527
                                khách sạn ở
                                đây theo ngày đã chọn
                        Ngày nhận phòng
                        Ngày trả phòng
                Số đêm
                Số phòng
                    123456789101112
                Người lớn
                    123456789101112
                Cập nhật ngày
                             Bộ lọc
                                            Phổ biến nhất
                                            Đánh giá cao nhất
                                            Khuyến mãi
                                     Giá
                                                                                                    Giá tăng dần
                                                                                                    Giá giảm dần
                            Sắp xếp:
                            Đánh giá cao nhất
                        Phổ biến nhấtĐánh giá cao nhấtGiá tăng dầnGiá giảm dầnHạng tăng dầnHạng giảm dầnKhuyến mãi
                            Victoria Sapa Resort & Spa
                             Hoàng Diệu, Thị Trấn Sa Pa, SaPa , Lào Cai 
                            (Xem bản đồ)
                            Nhà Thờ Đá
                                        “Victoria Sapa Resort & Spa có thiết kế mộc mạc, mang phong cách đậm chất truyền thống với gỗ. Đội ngũ nhân viên thân thiện, phục vụ chuyên nghiệp. Trang thiết bị hiện đại và được bài trí sang trọng, ấ...
                                        “
                                                Đảm bảo hoàn tiền
                                                Đảm bảo giá tốt nhất!
                                                            8.4
                                Tốt
                                    (59
                                        đánh giá)
                                Xem phòng
                            Starcity Halong Bay
                             Đường Hạ Long, Phường Bãi Cháy, Hạ Long , Quảng Ninh 
                            (Xem bản đồ)
                            Chợ Bãi Cháy
                                        “Starcity Halong Bay có thiết kế sang trọng, độc đáo, nội thất cùng trang thiết bị hiện đại. Nhiều tiện nghi như Massage & spa, nhà hàng riêng. Đội ngũ nhân viên khách sạn phục vụ thân thiện và nhiệt t...
                                        “
                                                Đảm bảo hoàn tiền
                                                Đảm bảo giá tốt nhất!
                                                            7.4
                                Đánh giá
                                    (86
                                        đánh giá)
                                Xem phòng
                            Khách Sạn Fortuna Hà Nội
                             6B Láng Hạ, Ba Đình, Hà Nội 
                            (Xem bản đồ)
                            Trung tâm Hội chợ Triển lãm Giảng Võ
                                        Khách sạn bán chạy nhất trên Mytour 2015
                                        “Khách Sạn Fortuna Hà Nội nằm gần trung tâm thành phố, thuận tiện đi lại và tham quan. Khách sạn sang trọng, tiện nghi và dịch vụ cao cấp. Đội ngũ nhân viên khách sạn phục vụ thân thiện và nhiệt tình....
                                        “
                                                Đảm bảo hoàn tiền
                                                Đảm bảo giá tốt nhất!
                                                            8.1
                                Tốt
                                    (86
                                        đánh giá)
                                Xem phòng
                            Sơn Trà Resort & Spa
                             Bãi Nam - Bãi Cồn, Thọ Quang, Sơn Trà, Đà Nẵng 
                            (Xem bản đồ)
                            Chùa Linh Ứng
                                        “Sơn Trà Resort & Spa Đà Nẵng nằm trên bán đảo Sơn Trà, gần bãi Rạng. Không gian thơ mộng cùng bãi biển riêng, là điểm đến lý tưởng cho quý khách. Đội ngũ nhân viên khách sạn phục vụ thân thiện và nhiệ...
                                        “
                                                Đảm bảo hoàn tiền
                                                Đảm bảo giá tốt nhất!
                                                            7.8
                                Đánh giá
                                    (54
                                        đánh giá)
                                Xem phòng
                            Khách Sạn Sài Gòn Hạ Long 
                             168 đường Hạ Long, Phường Bãi Cháy, Hạ Long , Quảng Ninh 
                            (Xem bản đồ)
                            Chợ Bãi Cháy
                                        “Khách Sạn Sài Gòn Hạ Long có thiết kế sang trọng, nội thất cùng trang thiết bị hiện đại. Nhiều tiện nghi như hồ bơi, Massage & spa, sân tennis. Đội ngũ nhân viên khách sạn phục vụ thân thiện và nhiệt...
                                        “
                                                Đảm bảo hoàn tiền
                                                Đảm bảo giá tốt nhất!
                                                            7.7
                                Đánh giá
                                    (107
                                        đánh giá)
                                Xem phòng
                            Khách Sạn Best Western Pearl River
                             Km8, Đường Phạm Văn Đồng, Phường  Anh Dũng, Dương Kinh, Hải Phòng 
                            (Xem bản đồ)
                            Cầu Rào
                                        “Khách Sạn Best Western Pearl River Hải Phòng nằm gần sân bay Cát Bi, thuận tiện du lịch. Đội ngũ nhân viên thân thiện, phục vụ chuyên nghiệp. Trang thiết bị hiện đại và được bài trí sang trọng, ấm cún...
                                        “
                                                Đảm bảo hoàn tiền
                                                Đảm bảo giá tốt nhất!
                                                            7.8
                                Đánh giá
                                    (14
                                        đánh giá)
                                Xem phòng
                            Khách Sạn Sincerity
                             01 Lê Đình Thám, Hội An, Quảng Nam, Hội An, Quảng Nam 
                            (Xem bản đồ)
                                        “Khách Sạn Sincerity Hội An, một chốn nghỉ dưỡng tuyệt vời, với tiện nghi chuẩn quốc tế và thiết kế thanh nhã cùng đội ngũ nhân viên chuyên nghiệp, hứa hẹn là điểm đến không thể bỏ qua cho bất kì ai.
                                        “
                                                Đảm bảo hoàn tiền
                                                Đảm bảo giá tốt nhất!
                                                            8.0
                                Tốt
                                    (1
                                        đánh giá)
                                Xem phòng
                            Khách Sạn Vĩnh Trung Plaza Apartments 
                             255-257 Hùng Vương, Hải Châu, Đà Nẵng 
                            (Xem bản đồ)
                            Chợ Cồn 
                                        “Khách Sạn Vĩnh Trung Plaza Apartments Đà Nẵng có thiết kế bắt mắt, nội thất được bài trí đơn giản nhưng cực kỳ sang trọng, trang thiết bị hiện đại. Nơi đây trở thành điểm đến vô cùng lý tưởng.
                                        “
                                                Đảm bảo hoàn tiền
                                                Đảm bảo giá tốt nhất!
                                                            7.8
                                Đánh giá
                                    (161
                                        đánh giá)
                                Xem phòng
                            Khách Sạn Hạ Long Plaza 
                             8 Hạ Long, Bãi Cháy, Hạ Long , Quảng Ninh 
                            (Xem bản đồ)
                            Bai Chay Beach (  Bãi tắm Bãi Cháy)
                                        “Khách Sạn Hạ Long Plaza có thiết kế sang trọng cùng trang thiết bị hiện đại. Nhiều tiện nghi như hồ bơi, quán bar và nhà hàng riêng. Ngoài ra, nhân viên cũng rất thân thiện và hiếu khách
                                        “
                                                Đảm bảo hoàn tiền
                                                Đảm bảo giá tốt nhất!
                                                            8.1
                                Tốt
                                    (41
                                        đánh giá)
                                Xem phòng
                            Khách Sạn Grand Hạ Long
                             Đường Hạ Long, Bãi Cháy, Hạ Long , Quảng Ninh 
                            (Xem bản đồ)
                            Bai Chay Beach (  Bãi tắm Bãi Cháy)
                                        Khách sạn bán chạy nhất trên Mytour 2015
                                        “Khách Sạn Grand Hạ Long có thiết kế sang trọng, nội thất cùng trang thiết bị hiện đại. Nhiều tiện nghi như hồ bơi, Massage & spa, phòng họp và đặc biệt là giá cả hợp lí
                                        “
                                                Đảm bảo hoàn tiền
                                                Đảm bảo giá tốt nhất!
                                                            7.8
                                Đánh giá
                                    (78
                                        đánh giá)
                                Xem phòng
                            Khách Sạn Hạ Long Dream 
                             Số 10 đường Hạ Long, Hạ Long , Quảng Ninh 
                            (Xem bản đồ)
                            Chợ Bãi Cháy
                                        “Khách Sạn Hạ Long Dream có thiết kế sang trọng, nội thất cùng trang thiết bị hiện đại. Nhiều tiện nghi như hồ bơi, dịch vụ Massage & Spa. Đội ngũ nhân viên khách sạn thân thiện nhiệt tình.
                                        “
                                                Đảm bảo hoàn tiền
                                                Đảm bảo giá tốt nhất!
                                                            7.1
                                Đánh giá
                                    (43
                                        đánh giá)
                                Xem phòng
                            Khách Sạn Asean Hạ Long
                             Hậu Cần, Phường Bãi Cháy,, Hạ Long , Quảng Ninh 
                            (Xem bản đồ)
                            Chợ Bãi Cháy
                                        “Khách Sạn Asean Hạ Long có thiết kế sang trọng, nội thất cùng trang thiết bị hiện đại. Nhiều tiện nghi như hồ bơi, phòng tập thể thao. Với giá cả hợp lí đây là một điểm đến lí tưởng
                                        “
                                                Đảm bảo hoàn tiền
                                                Đảm bảo giá tốt nhất!
                                                            7.8
                                Đánh giá
                                    (13
                                        đánh giá)
                                Xem phòng
                            Khách Sạn Mithrin Hạ Long 
                             Đường Hùng Thắng, Cái Dăm, Phường Bãi Cháy 
                            (Xem bản đồ)
                            Chợ Bãi Cháy
                                        “Khách Sạn Mithrin Hạ Long có nội thất cùng trang thiết bị hiện đại. Nhiều tiện nghi như hồ bơi, Massage & spa, phòng họp. Bên cạnh đó là sự tận tình, chuyên nghiệp đến từ nhân viên nơi đây
                                        “
                                                Đảm bảo hoàn tiền
                                                Đảm bảo giá tốt nhất!
                                                            7.8
                                Đánh giá
                                    (42
                                        đánh giá)
                                Xem phòng
                            Sài Gòn Hồ Cốc Beach Seaside Resort & Hotel
                             Tỉnh Lộ 55, Xã Bưng Riềng, Xuyên Mộc, Bà Rịa - Vũng Tàu 
                            (Xem bản đồ)
                            Khu bảo tồn thiên nhiên Bình Châu - Phước Bửu
                                        “Sài Gòn Hồ Cóc Beach Vũng Tàu có tiện nghi như quán Bar, phòng hội họp, Spa & Massage, đảm bảo quý khách có thời gian thư giãn tuyệt vời nhất. Nơi đây là điểm đến lý tưởng cho du khách.
                                        “
                                                Đảm bảo hoàn tiền
                                                Đảm bảo giá tốt nhất!
                                                            6.8
                                Đánh giá
                                    (79
                                        đánh giá)
                                Xem phòng
                            Khách Sạn Green Plaza Đà Nẵng
                             238 Bạch Đằng, Hải Châu, Đà Nẵng 
                            (Xem bản đồ)
                            Trung Tâm Thành Phố / Sân Bay
                                        “Khách Sạn Green Plaza Đà Nẵng nằm bên bờ sông Hàn thơ mộng, khung cảnh về đêm nhìn ra cầu Rồng hết sức ấn tượng, đảm bảo bạn sẽ thấy hài lòng. Đội ngũ nhân viên khách sạn phục vụ thân thiện và nhiệt t...
                                        “
                                                Đảm bảo hoàn tiền
                                                Đảm bảo giá tốt nhất!
                                                            7.7
                                Đánh giá
                                    (99
                                        đánh giá)
                                Xem phòng
                            Khách Sạn Green World
                             44 Nguyễn Thị Minh Khai, Phường Lộc Thọ, Nha Trang, Khánh Hòa 
                            (Xem bản đồ)
                            Yến Sào Khánh Hòa
                                        “Khách Sạn Green World Nha Trang nằm ngay trung tâm thành phố biển Nha Trang. Các phòng được thiết kế rộng rãi và thoáng mát với nhiều loại diện tích khác nhau, trang bị hiện đại, thanh lịch và thiết k...
                                        “
                                                Đảm bảo hoàn tiền
                                                Đảm bảo giá tốt nhất!
                                                            7.4
                                Đánh giá
                                    (43
                                        đánh giá)
                                Xem phòng
                            Khách Sạn Golden Lotus Luxury 
                             53-55 Hàng Trống, Hoàn Kiếm, Hà Nội 
                            (Xem bản đồ)
                            Nhà Thờ Lớn
                                        “Khách Sạn Golden Lotus Luxury Hà Nội nằm tại vị trí thuận lợi để ngắm cảnh, mua sắm, ngắm nhìn thành phố xinh đẹp. Hãy tận hưởng hết vô số dịch vụ và tiện nghi không gì sánh được ở khách sạn Hà Nội nà...
                                        “
                                                Đảm bảo hoàn tiền
                                                Đảm bảo giá tốt nhất!
                                                            8.1
                                Tốt
                                    (29
                                        đánh giá)
                                Xem phòng
                            Khách Sạn Hà Nội
                             D8, Phố Giảng Võ, Ba Đình, Hà Nội 
                            (Xem bản đồ)
                            Trung tâm Hội chợ Triển lãm Giảng Võ
                                        “Khách Sạn Hà Nội nằm ngay trung tâm thành phố và nằm cạnh bên hồ Giảng Võ. Đội ngũ nhân viên của khách sạn thân thiện, nhiệt tình và hữu ích. Trang thiết bị hiện đại và được bài trí sang trọng, ấm cún...
                                        “
                                                Đảm bảo hoàn tiền
                                                Đảm bảo giá tốt nhất!
                                                            8.1
                                Tốt
                                    (92
                                        đánh giá)
                                Xem phòng
                            Khách Sạn Hanoi Club & Lake Palais Residences 
                             76 Yên Phụ, Quận Tây Hồ 
                            (Xem bản đồ)
                            Đình Yên Phụ
                                        “Khách Sạn Hanoi Club & Lake Palais Residences nằm ngay trung tâm, cạnh bên hồ Tây thơ mộng. Đội ngũ nhân viên thân thiện, nhiệt tình và hữu ích. Trang thiết bị hiện đại và được bài trí sang trọng, ấm...
                                        “
                                                Đảm bảo hoàn tiền
                                                Đảm bảo giá tốt nhất!
                                                            8.3
                                Tốt
                                    (59
                                        đánh giá)
                                Xem phòng
                            Khách Sạn Novotel Hạ Long
                             Hạ Long, Phường Bãi Cháy, Hạ Long , Quảng Ninh 
                            (Xem bản đồ)
                            Chợ Bãi Cháy
                                        “Khách Sạn Novotel Hạ Long có thiết kế sang trọng, độc đáo, nội thất cùng trang thiết bị hiện đại. Nhiều tiện nghi như Massage & spa, phòng họp, hồ bơi sẽ làm hài lòng quý khách
                                        “
                                                Đảm bảo hoàn tiền
                                                Đảm bảo giá tốt nhất!
                                                            8.2
                                Tốt
                                    (72
                                        đánh giá)
                                Xem phòng
                «
                Trang trước
                1
                2
                3
                4
                5
                6
                7
                8
                    ..
                    26
                    27
                Trang sau
                »
                ×
                    Chính sách đảm bảo hoàn tiền của mytour
                    Bạn chưa tin tưởng việc đặt phòng khách sạn trực tuyến? Bạn e ngại rằng phòng khách sạn thực tế không đúng với thông tin trên website? Chúng tôi cam kết đưa đầy đủ và chính xác thông tin khách sạn trên website với chính sách “Đảm bảo Hoàn tiền”
                        Nếu khách hàng đặt khách sạn thành công trên Mytour nhưng khách sạn không có phòng, Mytour sẽ hoàn lại tiền cho khách và tặng kèm phiếu giảm giá có giá trị bằng với số tiền khách hàng đã trả.
                        Trong trường hợp loại phòng thực tế không đúng với loại phòng trên đơn hàng, Mytour sẽ quyết định nâng cấp miễn phí hoặc tặng phiếu giảm giá có giá trị bằng với số tiền khách hàng đã trả.
                        Trường hợp các tiện nghi phòng khách sạn (như bữa sáng, wifi…) không đúng với nội dung trên website, Mytour sẽ tặng phiếu giảm giá có giá trị bằng 10% số tiền khách đã trả (tối đa 500,000 VND)
                        Khách hàng cần gọi điện thoại 04-7309 9899 (Hà Nội), 08-7309 9899 (Hồ Chí Minh) hoặc email tới info@mytour.vn và cung cấp mã đơn hàng trong vòng 24 giờ từ lúc nhận phòng để được trợ giúp giải quyết khiếu nại (Hotline chỉ hỗ trợ trong giờ hành chính).
                        Mytour không chịu trách nhiệm bồi thường thiệt hại gián tiếp, ngẫu nhiên, hay do hậu quả phát sinh. Trong mọi trường hợp, trách nhiệm của Mytour không vượt quá tổng số tiền khách hàng thanh toán đặt phòng.
                ×
                    Đảm bảo giá tốt nhất
                    Nếu Thành viên đã đặt một phòng khách sạn được “Đảm Bảo” tại Mytour.vn và sau đó, cho Mytour.vn  thấy rằng Thành viên có thể đặt một phòng tương tự trong cùng khoảng thời gian ở mức giá tốt hơn có thể xem và đặt được trên một website khác, Mytour.vn sẽ giảm giá bằng hoặc thấp hơn mức giá đó.
                    Giá dùng để so sánh là giá sau khi áp dụng mức giảm giá công bố trên website Mytour.vn.
                    Chính sách “Đảm Bảo Giá Tốt Nhất” của Mytour.vn chỉ áp dụng cho các đặt phòng đã được xác nhận và phải thỏa mãn những điều kiện sau:
                Cùng khách sạnCùng thời gian nghỉ lạiCùng loại Phòng/GiườngCùng các yêu cầu mua Trước, yêu cầu trả trước và đặt cọc (nếu có)Cùng chính sách Hủy và Sửa Đổi
                    Phòng đó phải còn trống để được xác nhận ngay tại thời điểm các đại lý của Mytour.vn  kiểm tra phòng trống
                        Chính sách “Đảm Bảo Giá Tốt Nhất” không áp dụng cho các mức giá không công bố, như: chương trình khách hàng thân thiện.
                        Bất kỳ tổ chức nào với các mức giá dành cho nhóm cá nhân cụ thể và không nhằm mục đích áp dụng ra bên ngoài.
                        Thành viên có thể gửi khiếu nại theo địa chỉ : info@mytour.vn
                                Nêu mã đặt phòng Mytour.vn trong dòng tiêu đề thư
                                Gửi URL của website nơi Thành viên tìm thấy mức giá tốt hơn
                                Cung cấp ảnh chụp màn hình của website đối thủ cạnh tranh trong đó nêu rõ Phòng Trống, Loại Phòng, và các mức giá cho những ngày nghỉ lại theo yêu cầu của Thành viên.
                VUI LÒNG LƯU Ý: Thành viên không cần thực hiện đặt phòng trên website của đối thủ cạnh tranh, chỉ cần cho Mytour.vn thấy sự so sánh.
                ×
                Đăng Nhập
                                 Đăng nhập bằng tài khoản Facebook
                                 Đăng nhập bằng tài khoản Google
                            Hoặc đăng nhập bằng
                        Email*
                        Mật khẩu*
                        Quên mật khẩu?
                            Chưa có tài khoản/tạo tài khoản
                Đăng nhập
                         Nhớ đăng nhập
                ×
                Bản đồ
                                            Việt Nam
                    Tìm đường
                        Từ: 
                        Đến: 
                            Khách sạnĐịa danh Hiển thị các khách sạn ở gần Hiển thị các khu du lịch ở gần
                ×
                Yêu Cầu Lấy Giá
                                    Ngày nhận phòng
                                    Ngày trả phòng
                        Tên khách hàng
                        Email
                        Điện thoại
                        Nhân viên chăm sóc khách hàng sẽ gọi điện cho quý khách trong thời gian sớm nhất.
                        Quý khách có thể gọi điện đến cho Mytour để được tư vấn ngay:
                        Hà Nội: (04) 7109 9999, Hồ Chí Minh: (08) 7309 9899, Support
                            English: (+84)4-7309-9899.
                    Hoàn thành
                ×
                Gửi Thông Tin
                        Tên khách hàng
                        Email
                        Điện thoại
                            Quý khách sẽ thấy giá giảm ngay trên trang sau khi gửi thông tin
                    Hoàn thành
                ×
                Nhận Giá Tốt
                                    Ngày nhận phòng
                                    Ngày trả phòng
                        Tên khách hàng
                        Email
                        Điện thoại
                        Vì giá tốt không được công bố nên hệ thống sẽ gửi giá qua email đến quý khách và nhân viên chăm
                        sóc sẽ gọi điện cho quý khách trong thời gian sớm nhất.
                        Quý khách có thể gọi điện đến cho Mytour để được tư vấn ngay:
                        Hà Nội: (04) 7109 9999, Hồ Chí Minh: (08) 7309 9899, Support
                            English: (+84)4-7309-9899.
                    Hoàn thành
                ×
                ×
                ĐÁNH GIÁ 
                        Tên
                        Tiêu đề
                        Kiểu du lịch?
                                -- Chọn --Cá nhânCặp đôiGia đìnhBạn bèDoanh nghiệp
                        Nội dung
                                Đánh giá chi tiết
                                Chỗ ở
                                5
                                Thức ăn
                                5
                                Phương tiện
                                5
                                Hướng dẫn viên
                                5
                                Lịch trình
                                5
                    Gửi đánh giá
                    Hủy Bỏ
                ×
                Gửi lại email kích hoạt
                ×
                Thông tin chi tiết giá theo phòng
                    Chọn khoảng thời gian hiển thị giá phòng
                    Hiển thị giá
                ×
                Khóa phòng theo khoảng thời gian
                            Chọn khoảng thời gian check-in cần khóa/mở phòng
                            Khóa phòng
                            Mở phòng
                ×
                THUẾ VÀ PHÍ DỊCH VỤ
                17% thuế và phí dịch vụ bao gồm:
                    - 10% thuế và 5% phí dịch vụ hoàn trả lại cho khách sạn.
                    - 2% phí giao dịch tại Mytour.
                ×
                Bạn có hài lòng về website của Mytour?
                    Thông điệp nhắn nhủ:
                Mytour luôn mong muốn cải thiện dịch vụ để bạn có trải nghiệm tốt hơn!
                            Ảnh đính kèm
                        Đóng
                        Gửi
                ×
                    Những đóng góp của bạn đã được ghi nhận. Mytour cám ơn bạn !
                Quay lại website
                            Giới thiệu Mytour
                            Đối tác khách sạn
                            Đăng nhập HMS
                            Tích lũy Vpoint
                            Điều khoản sử dụng
                            Quy chế hoạt động
                            Tuyển dụng
                            Liên hệ
                            Đăng ký nhận email
                                Đăng ký email để nhận khuyến mãi lên đến 70%
                                    Đăng
                                    ký
                    Công ty TNHH Mytour Việt Nam
                    Số ĐKKD: 0105983269 cấp ngày 30/08/2012
                    Văn phòng Hà Nội: Tầng 4, tòa nhà GP Invest, 170 Đê La Thành, Đống Đa
                    Văn phòng HCM: Tầng 5, Tòa Nhà HDTC, Số 36 Bùi Thị Xuân, Q.1
                Hotline
                        Hà Nội:
                        (04) 7109 9999
                        Tp. HCM:
                        (08) 7309 9899
                        ENGLISH SUPPORT:
                        (+84)4 7309 9899
