url:http://mytour.vn/a381/khach-san-khu-vuc-khu-du-lich-kawasami.html
Tittle :Khách sạn gần Khu Du Lịch Kawasami - Bà Rịa - Vũng Tàu giá tốt nhất - Mytour.vn
content :Đặt phòng trực tuyến, hoặc gọi
                                                            Hà Nội: (04) 7109 9999
                                                                                        - (04) 7309 9899
                                                            Hồ Chí Minh: (08) 7309 9899
                                                                                        - (08) 7109 9998
                        T2 - CN: 08:00 - 23:00
                    Toggle navigation
                                Bạn không có thông báo nào
                    |
                    ||
                                                            Tài khoản
                        Đăng nhập
                                Đăng kýKhách sạn yêu thích
                            Khách sạn
                            Tour
                            Cẩm nang du lịch
                            Thông tin
                                                Về Mytour
                                                Tin khuyến mãi
                                                Ưu đãi
                                                Hướng dẫn
                                                Liên hệ
                            Tốt nhất 2016
                ×
                Bạn có chắc muốn hủy đơn hàng?
                Lorem ipsum dolor sit amet, consectetur adipisicing elit. Iure corporis repudiandae nobis distinctio
                quae quos, officia modi, ab voluptatem pariatur ducimus mollitia, necessitatibus sed soluta dicta
                repellendus! Praesentium debitis, temporibus?
                    Đồng ý
                    Đóng
                    Khách sạnBà Rịa - Vũng TàuĐất ĐỏKhách sạn gần Khu Du Lịch Kawasami
                    Áp dụng
                    Đóng
            Tìm Kiếm Khách Sạn
                            Ngày nhận phòng
                            Ngày trả phòng
                    Số đêm
                    Số phòng
                        123456789101112
                    Người lớn
                        123456789101112
                    Tìm khách sạn
                                Bộ lọc tìm kiếm
                                        Theo mức giá
                                                        Dưới 500.000
                                                        500.000 - 1.000.000
                                                        1.000.000 - 1.500.000
                                                        1.500.000 - 2.000.000
                                                        2.000.000 - 2.500.000
                                                        2.500.000 - 3.000.000
                                                        Trên 3.000.000
                                    Hạng Khách Sạn
                                    Loại khách sạn
                                                    Khách sạn
                                                    Resort
                                Tiện nghi
                                                Đưa đón khách sạn sân bay
                                                Bữa sáng miễn phí
                                                Bể bơi ngoài trời
                                                Bãi đỗ xe
                                                Phòng họp
                                                Phòng tập thể thao
                                                Thang máy
                                                Thêm giường phụ
                                                Truyền hình cáp/vệ tinh
                                                Wifi miễn phí
                                                Giặt là
                                                Nhà hàng
                                                Spa
            Quận huyện
                        Đất Đỏ
             Giá tốt hơn so với đặt phòng trực
            tiếp tại khách sạn
             Đảm bảo 
            giá tốt nhất 
             Đảm bảo 
            hoàn tiền
             Nhân viên chăm sóc, tư vấn nhiều kinh nghiệm
             Hơn 5000 khách sạn tại Việt Nam với
            đánh giá thực
             Nhiều chương trình khuyến mãi và tích lũy điểm
             Thanh toán dễ dàng, đa dạng
                            Khách sạn gần Khu Du Lịch Kawasami
                                     Xem Bản Đồ
                            Khu Du Lịch Kawasami nằm ngay bờ biển, với bãi cát dài nên phù hợp với các trò chơi thể thao trên biển như bóng chuyền. Gần khu du lịch Kawasami còn có khu du lịch Đèo Nước Ngọt cũng hấp dẫn không kém. Hãy để Mytour hỗ trợ bạn để có 1 chuyến đi thú vị, tiết kiệm bằng cách đặt phòng khách sạn Khu Du Lịch Kawasami ngay bây giờ với giá từ 500,000 VND.
                                Có 5
                                khách sạn ở
                                đây theo ngày đã chọn
                        Ngày nhận phòng
                        Ngày trả phòng
                Số đêm
                Số phòng
                    123456789101112
                Người lớn
                    123456789101112
                Cập nhật ngày
                             Bộ lọc
                                            Phổ biến nhất
                                     Hạng khách sạn
                                                                                                Hạng sao [5...1]
                                                                                                Hạng sao [1...5]
                                            Đánh giá cao nhất
                                            Khuyến mãi
                                     Giá
                                                                                                Giá tăng dần
                                                                                                Giá giảm dần
                            Sắp xếp:
                            Đánh giá cao nhất
                        Phổ biến nhấtĐánh giá cao nhấtGiá tăng dầnGiá giảm dầnHạng tăng dầnHạng giảm dầnKhuyến mãi
                            Long Hải Beach Resort
                             TL44, Long Hải, Long Điền, Bà Rịa - Vũng Tàu 
                            (Xem bản đồ)
                                                ~ 4.64km
                            Mộ Cô
                                        “Long Hải Beach Resort có vị trí hết sức thuận lợi để khám phá vẻ đẹp Long Hải. Đến với khách sạn, du khách sẽ nhận được những dịch vụ chu đáo trong một không gian đầy sang trọng, thanh lịch và ấm cúng...
                                        “
                                                Đảm bảo hoàn tiền
                                                Đảm bảo giá tốt nhất!
                                                            7.3
                                Đánh giá
                                    (188
                                        đánh giá)
                                Xem phòng
                            Thùy Dương Beach Resort
                             Thị trấn Phước Hải, Đất Đỏ, Bà Rịa - Vũng Tàu 
                            (Xem bản đồ)
                                                ~ 1.96km
                            Khu di tích lịch sử Minh Đạm
                                        “Thùy Dương Beach Resort Bà Rịa - Vũng Tàu có vị trị khá thuận lợi để tham quan du lịch lẫn công tác. Tại đây có các dịch vụ chu đáo và tiện nghi dễ chịu. 
                                        “
                                                Đảm bảo hoàn tiền
                                                Đảm bảo giá tốt nhất!
                                                            7.3
                                Đánh giá
                                    (99
                                        đánh giá)
                                Xem phòng
                            Tropicana Beach Resort 
                             Tỉnh Lộ 44A, Phước Hải, Đất Đỏ, Bà Rịa - Vũng Tàu 
                            (Xem bản đồ)
                                                ~ 0.43km
                            Khu Du Lịch Kawasami
                                        “Tropicana Beach Resort Bà Rịa - Vũng Tàu đạt tiêu chuẩn quốc tế với nội thất phong cách hiện đại ấm áp. Đến đây, du khách sẽ được nghỉ ngơi thư giãn với đội ngũ nhân viên thân thiện và dịch vụ chu đáo...
                                        “
                                                Đảm bảo hoàn tiền
                                                Đảm bảo giá tốt nhất!
                                                            7.6
                                Đánh giá
                                    (49
                                        đánh giá)
                                Xem phòng
                            Khách Sạn Minh Đạm
                             Khu Phố Hải Sơn, Thị Trấn Phước Hải, Đất Đỏ, Bà Rịa - Vũng Tàu 
                            (Xem bản đồ)
                                                ~ 1.35km
                            Khu Du Lịch Kawasami
                                        “Khách Sạn Minh Đạm Vũng Tàu nằm tại huyện Đất Đỏ, nơi nghỉ chân tuyệt vời để tiếp tục khám phá thành phố sôi động. Với giá cả hợp lý, khách sạn Minh Đạm sẽ là điểm nghỉ ngơi lý tưởng cho du khách.
                                        “
                                                Đảm bảo hoàn tiền
                                                Đảm bảo giá tốt nhất!
                                                            5.5
                                Đánh giá
                                    (6
                                        đánh giá)
                                Xem phòng
                            Sao Mai Boutique Villas
                             Tỉnh lộ 44A, Thị Trấn Phước Hải, Đất Đỏ, Bà Rịa - Vũng Tàu 
                            (Xem bản đồ)
                                                ~ 2.03km
                            Khu di tích lịch sử Minh Đạm
                                        “Sao Mai Boutique Villas Vũng Tàu nằm dọc bờ biển thơ mộng với khung cảnh thiên nhiên xanh mát, hữu tình. Đây là nơi lý tưởng để bạn nghỉ ngơi, thư giãn cùng người thân sau những ngày làm việc căng thẳ...
                                        “
                                                Đảm bảo hoàn tiền
                                                Đảm bảo giá tốt nhất!
                                                            6.2
                                Đánh giá
                                    (1
                                        đánh giá)
                                            (2
                                            Reviews)
                                Xem phòng
                                Khu Du Lịch Kawasami
                            Với hơn 5.000 khách sạn, resort tại 63 tỉnh/ thành phố, Mytour ngày càng được du khách tin dùng để đặt khách sạn. Mytour sẽ hỗ trợ quý khách đặt khách sạn gần Khu du lịch Kawasami với chi phí hợp lý để có chuyến đi thật thú vị và tiết kiệm. Ngoài việc cung cấp những khách sạn giá tốt nhất, bạn còn có thể tìm thấy nhiều thông tin du lịch hữu ích và thú vị khác.  Đặt phòng khách sạn gần Khu du lịch Kawasami giá tốt nhất tại Mytour.vn, với nhiều khuyến mãi từ website và đơn vị khách sạn tiết kiệm lên đến 70%. Hơn 150.000 đánh giá từ khách hàng đã qua sử dụng khách sạn giúp bạn đưa ra những quyết định tốt nhất cho lựa chọn của mình. Đặc biệt chính sách ĐẢM BẢO HOÀN TIỀN chỉ có tại Mytour.vn, giờ đây bạn có thể hoàn toàn tin tưởng vào dịch vụ đặt phòng trực tuyến.  Khu Du Lịch Kawasami nằm tại Phước Hải, Đất Đỏ, Bà Rịa – Vũng Tàu. Khu du lịch mới đi vào hoạt động từ đầu năm 2011 với thiết kế phù hợp cho nhu cầu cắp trại và vui chơi. Tại đây có hệ thống tiện nghi, nước sinh hoạt đầy đủ, khu vực vệ sinh và có hơn 50 phòng tắm. An ninh 24/24. Cây xanh bao phủ mang đến không khí trong lành, mát mẻ. Vì nằm ngay bờ biển, với bãi cát dài nên phù hợp với các trò chơi thể thao trên biển như kéo co, bóng chuyền,….  Ngoài ra nơi đây cũng là điểm lý tưởng để cấm trại, hoặc đốt lửa trại về đêm.  Khám phá Khu du lịch Kawasami, bạn sẽ được tắm biển thỏa thích, ngắm cảnh đẹp, tham gia các trò chơi vui nhộn, xem các ngư dân kéo chày. Cạnh bên còn có Khu du lịch Đèo Nước Ngọt cũng hấp dẫn không kém, nếu có thời gian bạn cũng có thể ghé thăm một lần. Đặc biệt, ngoài những món hải sản tươi ngon vừa được đánh bắt ngoài khơi, món lẩu súng độc đáo của vùng Phước Hải nơi đây cũng để lại nhiều ấn tượng trong lòng thực khách.  Nhanh tay đặt tour du lịch đến Phước Hải với chi phí hợp lý và tiết kiệm nhất. Đến với Mytour bạn sẽ được hỗ trợ cho chuyến đi của mình trở nên dễ dàng và thuận tiện hơn!!
                ×
                    Chính sách đảm bảo hoàn tiền của mytour
                    Bạn chưa tin tưởng việc đặt phòng khách sạn trực tuyến? Bạn e ngại rằng phòng khách sạn thực tế không đúng với thông tin trên website? Chúng tôi cam kết đưa đầy đủ và chính xác thông tin khách sạn trên website với chính sách “Đảm bảo Hoàn tiền”
                        Nếu khách hàng đặt khách sạn thành công trên Mytour nhưng khách sạn không có phòng, Mytour sẽ hoàn lại tiền cho khách và tặng kèm phiếu giảm giá có giá trị bằng với số tiền khách hàng đã trả.
                        Trong trường hợp loại phòng thực tế không đúng với loại phòng trên đơn hàng, Mytour sẽ quyết định nâng cấp miễn phí hoặc tặng phiếu giảm giá có giá trị bằng với số tiền khách hàng đã trả.
                        Trường hợp các tiện nghi phòng khách sạn (như bữa sáng, wifi…) không đúng với nội dung trên website, Mytour sẽ tặng phiếu giảm giá có giá trị bằng 10% số tiền khách đã trả (tối đa 500,000 VND)
                        Khách hàng cần gọi điện thoại 04-7309 9899 (Hà Nội), 08-7309 9899 (Hồ Chí Minh) hoặc email tới info@mytour.vn và cung cấp mã đơn hàng trong vòng 24 giờ từ lúc nhận phòng để được trợ giúp giải quyết khiếu nại (Hotline chỉ hỗ trợ trong giờ hành chính).
                        Mytour không chịu trách nhiệm bồi thường thiệt hại gián tiếp, ngẫu nhiên, hay do hậu quả phát sinh. Trong mọi trường hợp, trách nhiệm của Mytour không vượt quá tổng số tiền khách hàng thanh toán đặt phòng.
                ×
                    Đảm bảo giá tốt nhất
                    Nếu Thành viên đã đặt một phòng khách sạn được “Đảm Bảo” tại Mytour.vn và sau đó, cho Mytour.vn  thấy rằng Thành viên có thể đặt một phòng tương tự trong cùng khoảng thời gian ở mức giá tốt hơn có thể xem và đặt được trên một website khác, Mytour.vn sẽ giảm giá bằng hoặc thấp hơn mức giá đó.
                    Giá dùng để so sánh là giá sau khi áp dụng mức giảm giá công bố trên website Mytour.vn.
                    Chính sách “Đảm Bảo Giá Tốt Nhất” của Mytour.vn chỉ áp dụng cho các đặt phòng đã được xác nhận và phải thỏa mãn những điều kiện sau:
                Cùng khách sạnCùng thời gian nghỉ lạiCùng loại Phòng/GiườngCùng các yêu cầu mua Trước, yêu cầu trả trước và đặt cọc (nếu có)Cùng chính sách Hủy và Sửa Đổi
                    Phòng đó phải còn trống để được xác nhận ngay tại thời điểm các đại lý của Mytour.vn  kiểm tra phòng trống
                        Chính sách “Đảm Bảo Giá Tốt Nhất” không áp dụng cho các mức giá không công bố, như: chương trình khách hàng thân thiện.
                        Bất kỳ tổ chức nào với các mức giá dành cho nhóm cá nhân cụ thể và không nhằm mục đích áp dụng ra bên ngoài.
                        Thành viên có thể gửi khiếu nại theo địa chỉ : info@mytour.vn
                                Nêu mã đặt phòng Mytour.vn trong dòng tiêu đề thư
                                Gửi URL của website nơi Thành viên tìm thấy mức giá tốt hơn
                                Cung cấp ảnh chụp màn hình của website đối thủ cạnh tranh trong đó nêu rõ Phòng Trống, Loại Phòng, và các mức giá cho những ngày nghỉ lại theo yêu cầu của Thành viên.
                VUI LÒNG LƯU Ý: Thành viên không cần thực hiện đặt phòng trên website của đối thủ cạnh tranh, chỉ cần cho Mytour.vn thấy sự so sánh.
                ×
                Đăng Nhập
                                 Đăng nhập bằng tài khoản Facebook
                                 Đăng nhập bằng tài khoản Google
                            Hoặc đăng nhập bằng
                        Email*
                        Mật khẩu*
                        Quên mật khẩu?
                            Chưa có tài khoản/tạo tài khoản
                Đăng nhập
                         Nhớ đăng nhập
                ×
                Bản đồ
                                            Khu Du Lịch Kawasami
                    Tìm đường
                        Từ: 
                        Đến: 
                            Khách sạnĐịa danh Hiển thị các khách sạn ở gần Hiển thị các khu du lịch ở gần
                ×
                Yêu Cầu Lấy Giá
                                    Ngày nhận phòng
                                    Ngày trả phòng
                        Tên khách hàng
                        Email
                        Điện thoại
                        Nhân viên chăm sóc khách hàng sẽ gọi điện cho quý khách trong thời gian sớm nhất.
                        Quý khách có thể gọi điện đến cho Mytour để được tư vấn ngay:
                        Hà Nội: (04) 7109 9999, Hồ Chí Minh: (08) 7309 9899, Support
                            English: (+84)4-7309-9899.
                    Hoàn thành
                ×
                Gửi Thông Tin
                        Tên khách hàng
                        Email
                        Điện thoại
                            Quý khách sẽ thấy giá giảm ngay trên trang sau khi gửi thông tin
                    Hoàn thành
                ×
                Nhận Giá Tốt
                                    Ngày nhận phòng
                                    Ngày trả phòng
                        Tên khách hàng
                        Email
                        Điện thoại
                        Vì giá tốt không được công bố nên hệ thống sẽ gửi giá qua email đến quý khách và nhân viên chăm
                        sóc sẽ gọi điện cho quý khách trong thời gian sớm nhất.
                        Quý khách có thể gọi điện đến cho Mytour để được tư vấn ngay:
                        Hà Nội: (04) 7109 9999, Hồ Chí Minh: (08) 7309 9899, Support
                            English: (+84)4-7309-9899.
                    Hoàn thành
                ×
                ×
                ĐÁNH GIÁ 
                        Tên
                        Tiêu đề
                        Kiểu du lịch?
                                -- Chọn --Cá nhânCặp đôiGia đìnhBạn bèDoanh nghiệp
                        Nội dung
                                Đánh giá chi tiết
                                Chỗ ở
                                5
                                Thức ăn
                                5
                                Phương tiện
                                5
                                Hướng dẫn viên
                                5
                                Lịch trình
                                5
                    Gửi đánh giá
                    Hủy Bỏ
                ×
                Gửi lại email kích hoạt
                ×
                Thông tin chi tiết giá theo phòng
                    Chọn khoảng thời gian hiển thị giá phòng
                    Hiển thị giá
                ×
                Khóa phòng theo khoảng thời gian
                            Chọn khoảng thời gian check-in cần khóa/mở phòng
                            Khóa phòng
                            Mở phòng
                ×
                THUẾ VÀ PHÍ DỊCH VỤ
                17% thuế và phí dịch vụ bao gồm:
                    - 10% thuế và 5% phí dịch vụ hoàn trả lại cho khách sạn.
                    - 2% phí giao dịch tại Mytour.
                ×
                Bạn có hài lòng về website của Mytour?
                    Thông điệp nhắn nhủ:
                Mytour luôn mong muốn cải thiện dịch vụ để bạn có trải nghiệm tốt hơn!
                            Ảnh đính kèm
                        Đóng
                        Gửi
                ×
                    Những đóng góp của bạn đã được ghi nhận. Mytour cám ơn bạn !
                Quay lại website
                Du lịch Khu Du Lịch Kawasami
                                Du lịch Thiền tôn Phật Quang
                                Du lịch Địa đạo Long Phước
                                Du lịch Nhà tưởng niệm nữ anh hùng Võ Thị Sáu
                                Du lịch Lễ hội Dinh Cô
                                Du lịch Căn cứ Minh Đạm
                                Du lịch Alma Oasis Long Hải Resort - Thiên đường nghỉ dưỡng gần Sài Gòn
                                Du lịch Núi Chân Tiên 
                                Du lịch Biển Phước Hải – nguyên sơ và thơ mộng ở phố biển Vũng Tàu
                                Du lịch Trường THPT Phước Bửu
                                Du lịch Bến Lội
                            Giới thiệu Mytour
                            Đối tác khách sạn
                            Đăng nhập HMS
                            Tích lũy Vpoint
                            Điều khoản sử dụng
                            Quy chế hoạt động
                            Tuyển dụng
                            Liên hệ
                            Đăng ký nhận email
                                Đăng ký email để nhận khuyến mãi lên đến 70%
                                    Đăng
                                    ký
                    Công ty TNHH Mytour Việt Nam
                    Số ĐKKD: 0105983269 cấp ngày 30/08/2012
                    Văn phòng Hà Nội: Tầng 4, tòa nhà GP Invest, 170 Đê La Thành, Đống Đa
                    Văn phòng HCM: Tầng 5, Tòa Nhà HDTC, Số 36 Bùi Thị Xuân, Q.1
                Hotline
                        Hà Nội:
                        (04) 7109 9999
                        Tp. HCM:
                        (08) 7309 9899
                        ENGLISH SUPPORT:
                        (+84)4 7309 9899
