url:http://mytour.vn/l94/khach-san-o-gan-tuong-chua-jesus.html
Tittle :Khách sạn gần Tượng chúa Jesus -  giá tốt nhất - Mytour.vn
content :Đặt phòng trực tuyến, hoặc gọi
                                                            Hà Nội: (04) 7109 9999
                                                                                        - (04) 7309 9899
                                                            Hồ Chí Minh: (08) 7309 9899
                                                                                        - (08) 7109 9998
                        T2 - CN: 08:00 - 23:00
                    Toggle navigation
                                Bạn không có thông báo nào
                    |
                    ||
                                                            Tài khoản
                        Đăng nhập
                                Đăng kýKhách sạn yêu thích
                            Khách sạn
                            Tour
                            Cẩm nang du lịch
                            Thông tin
                                                Về Mytour
                                                Tin khuyến mãi
                                                Ưu đãi
                                                Hướng dẫn
                                                Liên hệ
                            Tốt nhất 2016
                ×
                Bạn có chắc muốn hủy đơn hàng?
                Lorem ipsum dolor sit amet, consectetur adipisicing elit. Iure corporis repudiandae nobis distinctio
                quae quos, officia modi, ab voluptatem pariatur ducimus mollitia, necessitatibus sed soluta dicta
                repellendus! Praesentium debitis, temporibus?
                    Đồng ý
                    Đóng
                    Khách sạnKhách sạn gần Tượng chúa Jesus
                    Áp dụng
                    Đóng
            Tìm Kiếm Khách Sạn
                            Ngày nhận phòng
                            Ngày trả phòng
                    Số đêm
                    Số phòng
                        123456789101112
                    Người lớn
                        123456789101112
                    Tìm khách sạn
                                Bộ lọc tìm kiếm
                                        Theo mức giá
                                                        Dưới 500.000
                                                        500.000 - 1.000.000
                                                        1.000.000 - 1.500.000
                                                        1.500.000 - 2.000.000
                                                        2.000.000 - 2.500.000
                                                        2.500.000 - 3.000.000
                                                        Trên 3.000.000
                                    Hạng Khách Sạn
                                    Loại khách sạn
                                                    Khách sạn
                                                    Resort
                                Tiện nghi
                                                Đưa đón khách sạn sân bay
                                                Bữa sáng miễn phí
                                                Bể bơi ngoài trời
                                                Bãi đỗ xe
                                                Phòng họp
                                                Phòng tập thể thao
                                                Thang máy
                                                Thêm giường phụ
                                                Truyền hình cáp/vệ tinh
                                                Wifi miễn phí
                                                Giặt là
                                                Nhà hàng
                                                Spa
            Quận huyện
             Giá tốt hơn so với đặt phòng trực
            tiếp tại khách sạn
             Đảm bảo 
            giá tốt nhất 
             Đảm bảo 
            hoàn tiền
             Nhân viên chăm sóc, tư vấn nhiều kinh nghiệm
             Hơn 5000 khách sạn tại Việt Nam với
            đánh giá thực
             Nhiều chương trình khuyến mãi và tích lũy điểm
             Thanh toán dễ dàng, đa dạng
                            Khách sạn gần Tượng chúa Jesus
                                     Xem Bản Đồ
                                Có 138
                                khách sạn ở
                                đây theo ngày đã chọn
                        Ngày nhận phòng
                        Ngày trả phòng
                Số đêm
                Số phòng
                    123456789101112
                Người lớn
                    123456789101112
                Cập nhật ngày
                             Bộ lọc
                                            Phổ biến nhất
                                     Hạng khách sạn
                                                                                                Hạng sao [5...1]
                                                                                                Hạng sao [1...5]
                                            Đánh giá cao nhất
                                            Khuyến mãi
                                     Giá
                                                                                                Giá tăng dần
                                                                                                Giá giảm dần
                            Sắp xếp:
                            Đánh giá cao nhất
                        Phổ biến nhấtĐánh giá cao nhấtGiá tăng dầnGiá giảm dầnHạng tăng dầnHạng giảm dầnKhuyến mãi
                            Khách Sạn CapSaint Jacques
                             169 Thuỳ Vân, Phường 8, Vũng Tàu, Bà Rịa - Vũng Tàu 
                            (Xem bản đồ)
                                                ~ 3.2km
                            Trung Tâm Thành Phố Vũng Tàu
                                        “Khách Sạn CapSaint Jacques Vũng Tàu có thiết kế ấm cúng và sang trọng cùng trang thiết bị hiện đại. Đội ngũ nhân viên thân thiện và nhiệt tình. Nằm ở vị trí đẹp ở Bãi Sau, chỉ cách 200 m từ sân golf P...
                                        “
                                                Đảm bảo hoàn tiền
                                                Đảm bảo giá tốt nhất!
                                                            7.1
                                Đánh giá
                                    (138
                                        đánh giá)
                                Xem phòng
                            Khách Sạn Dic Star
                             169 Thùy Vân, Phường 8, Vũng Tàu, Bà Rịa - Vũng Tàu 
                            (Xem bản đồ)
                                                ~ 3.18km
                            Trung Tâm Thành Phố Vũng Tàu
                                        “Khách Sạn Dic Star Vũng Tàu nằm trên đường Thùy Vân, là trung tâm khu du lịch Bãi Sau, phong cách phục vụ chuyên nghiệp, tận tình, chu đáo. Trang thiết bị hiện đại và được bài trí sang trọng, ấm cúng....
                                        “
                                                Đảm bảo hoàn tiền
                                                Đảm bảo giá tốt nhất!
                                                            7.4
                                Đánh giá
                                    (74
                                        đánh giá)
                                Xem phòng
                            Khách Sạn Minh Hiếu
                             Số 5 Phó Đức Chính, Phường Thắng Tam, Vũng Tàu, Bà Rịa - Vũng Tàu 
                            (Xem bản đồ)
                                                ~ 1.3km
                            Bãi Sau
                                        “Với vị trí thuận để bạn đễ dàng đi lại cho việc tham quan địa điểm tham quan nổi tiếng nổi tiếng và thưởng thức những món đặc sản của nơi đây. Khách Sạn Minh Hiếu Vũng Tàu quả thật là một điểm đến đán...
                                        “
                                                Đảm bảo hoàn tiền
                                                Đảm bảo giá tốt nhất!
                                                            8.0
                                Tốt
                                    (51
                                        đánh giá)
                                Xem phòng
                            Khách Sạn Vũng Tàu Victory
                             149 Thùy Vân, Vũng Tàu, Bà Rịa - Vũng Tàu 
                            (Xem bản đồ)
                                                ~ 1.44km
                            Bãi Sau
                                        “Khách Sạn Vũng Tàu Victory nằm bãi sau rất thích hợp cho vui chơi, tham quan và tắm biển, đội ngũ nhân viên rất nhiệt tình và thân thiện. Trang thiết bị hiện đại và được bài trí sang trọng, ấm cúng.
                                        “
                                                Đảm bảo hoàn tiền
                                                Đảm bảo giá tốt nhất!
                                                            7.4
                                Đánh giá
                                    (68
                                        đánh giá)
                                Xem phòng
                            Khách Sạn Vũng Tàu P&T
                             158 Hạ Long, Vũng Tàu, Bà Rịa - Vũng Tàu 
                            (Xem bản đồ)
                                                ~ 1.99km
                            Bãi Trước
                                        “Khách Sạn Vũng Tàu P&T có khuôn viên rộng rãi, thoáng mát, sạch đẹp, thuận tiện cho du khách tắm biển, nghĩ dưỡng, vui chơi giải trí. Đội ngũ nhân viên khách sạn phục vụ thân thiện và nhiệt tình.
                                        “
                                                Đảm bảo hoàn tiền
                                                Đảm bảo giá tốt nhất!
                                                            7.7
                                Đánh giá
                                    (107
                                        đánh giá)
                                Xem phòng
                            Khách Sạn Dầu Khí Petro 
                             9-11 Hoàng Diệu, Vũng Tàu, Bà Rịa - Vũng Tàu 
                            (Xem bản đồ)
                                                ~ 2.97km
                            Bạch Dinh
                                        “Khách Sạn Dầu Khí Petro Vũng Tàu là khu nghỉ dưỡng tuyệt vời giúp quý khách cảm nhận được sự sang trọng và yên bình mỗi khi dừng chân. Trang thiết bị hiện đại và được bài trí sang trọng, ấm cúng.
                                        “
                                                Đảm bảo hoàn tiền
                                                Đảm bảo giá tốt nhất!
                                                            7.8
                                Đánh giá
                                    (94
                                        đánh giá)
                                Xem phòng
                            Khách Sạn Tháng Mười 
                             151 Thùy Vân, Vũng Tàu, Bà Rịa - Vũng Tàu 
                            (Xem bản đồ)
                                                ~ 1.64km
                            Bãi Sau
                                        “Khách Sạn Tháng Mười Vũng Tàu nằm trên con đường Thùy Vân sầm uất nhất Vũng Tàu, ngay trên bãi sau, thuận tiện vui chơi và tắm biển. Đội ngũ nhân viên khách sạn phục vụ thân thiện và nhiệt tình.
                                        “
                                                Đảm bảo hoàn tiền
                                                Đảm bảo giá tốt nhất!
                                                            7.4
                                Đánh giá
                                    (171
                                        đánh giá)
                                Xem phòng
                            Khách Sạn Long Cung
                             01 Lê Hồng Phong, Phường Thắng Tam, Tp. Vũng Tàu 
                            (Xem bản đồ)
                                                ~ 2.61km
                            Trung Tâm Thành Phố Vũng Tàu
                                        “Khách Sạn Long Cung Vũng Tàu, một chốn nghỉ dưỡng tuyệt vời, với tiện nghi chuẩn quốc tế và thiết kế thanh nhã cùng đội ngũ nhân viên chuyên nghiệp, hứa hẹn là điểm đến không thể bỏ qua cho bất kì ai....
                                        “
                                                Đảm bảo hoàn tiền
                                                Đảm bảo giá tốt nhất!
                                                            8.5
                                Tốt
                                    (5
                                        đánh giá)
                                Xem phòng
                            Khách Sạn Công Đoàn Vũng Tàu
                             4 Trần Hưng Đạo, Vũng Tàu, Bà Rịa - Vũng Tàu 
                            (Xem bản đồ)
                                                ~ 1.91km
                            Bãi Trước
                                        “Khách Sạn Công Đoàn Vũng Tàu phòng ốc thoáng mát và sạch sẽ, nhân viên thân thiện và nhiệt tình, gần bãi trước nên dễ dàng tham quan, tắm biển. Trang thiết bị hiện đại và được bài trí sang trọng, ấm c...
                                        “
                                                Đảm bảo hoàn tiền
                                                Đảm bảo giá tốt nhất!
                                                            7.4
                                Đánh giá
                                    (109
                                        đánh giá)
                                Xem phòng
                            Khách Sạn Rex Vũng Tàu
                             1 Lê Quí Đôn, Vũng Tàu, Bà Rịa - Vũng Tàu 
                            (Xem bản đồ)
                                                ~ 2.78km
                            Bạch Dinh
                                        “Khách Sạn Rex Vũng Tàu được thiết kế sang trọng, hiện đại, có thể đáp ứng những yêu cầu khắt khe của du khách, phong cách phục vụ ân cần, chu đáo. Trang thiết bị hiện đại và được bài trí sang trọng, ấ...
                                        “
                                                Đảm bảo hoàn tiền
                                                Đảm bảo giá tốt nhất!
                                                            7.7
                                Đánh giá
                                    (48
                                        đánh giá)
                                Xem phòng
                            Khách Sạn Mỹ Lệ Vũng Tàu
                             57-59 Thùy Vân ( Bãi Sau ), Phường 2, Vũng Tàu, Bà Rịa - Vũng Tàu 
                            (Xem bản đồ)
                                                ~ 0.71km
                            Tượng chúa Giêsu Kitô
                                        “Khách Sạn Mỹ Lệ Vũng Tàu có không gian thoáng mát, nội thất bắt mắt và bài trí hợp lý. Khách sạn nằm gần biển nên rất thuận tiện vui chơi giải trí. Đội ngũ nhân viên khách sạn phục vụ thân thiện và nh...
                                        “
                                                Đảm bảo hoàn tiền
                                                Đảm bảo giá tốt nhất!
                                                            8.0
                                Tốt
                                    (148
                                        đánh giá)
                                Xem phòng
                            Khách Sạn Cao Bằng
                             15A Phan Văn Trị, Phường Thắng Tam, Vũng Tàu, Bà Rịa - Vũng Tàu 
                            (Xem bản đồ)
                                                ~ 1.36km
                            Bãi Sau
                                        “Với vị trí nằm ngay trung tâm thành phố cùng với đầy đủ các tiện nghi như hồ bơi, các bữa ăn đặc biệt cùng phong cách trang trí hiện đại. Khách Sạn Cao Bằng Vũng Tàu quả thật là một điểm đên đáng tin...
                                        “
                                                Đảm bảo hoàn tiền
                                                Đảm bảo giá tốt nhất!
                                                            7.1
                                Đánh giá
                                    (60
                                        đánh giá)
                                Xem phòng
                            Khách Sạn Đồi Dừa
                             300 Phan Chu Trinh, Phường2, Vũng Tàu, Bà Rịa - Vũng Tàu 
                            (Xem bản đồ)
                                                ~ 0.4km
                            Tượng chúa Giêsu Kitô
                                                Đảm bảo hoàn tiền
                                                Đảm bảo giá tốt nhất!
                                                            6.9
                                Đánh giá
                                    (59
                                        đánh giá)
                                Xem phòng
                            Khách Sạn Lam Sơn
                             7 Lê Ngọc Hân, Phường 1, Vũng Tàu, Bà Rịa - Vũng Tàu 
                            (Xem bản đồ)
                                                ~ 3.05km
                            Bạch Dinh
                                        “Khách Sạn Lam Sơn Vũng Tàu nằm gần bãi trước, thuận tiện đi lại tham quan và tắm biển, đội ngũ nhân viên thân thiện và nhiệt tình. Trang thiết bị hiện đại và được bài trí sang trọng, ấm cúng.
                                        “
                                                Đảm bảo hoàn tiền
                                                Đảm bảo giá tốt nhất!
                                                            7.4
                                Đánh giá
                                    (104
                                        đánh giá)
                                Xem phòng
                            Khách Sạn Grand
                             2 Nguyễn Du, Vũng Tàu, Bà Rịa - Vũng Tàu 
                            (Xem bản đồ)
                                                ~ 2.12km
                            Bãi Trước
                                        “Khách Sạn Grand Vũng Tàu mang trong mình nét đẹp vừa cổ kính, vừa hiện đại, với kiến trúc kiểu Pháp như một điểm nhấn cho Bãi Trước thêm quyến rũ. Trang thiết bị hiện đại và được bài trí sang trọng, ấ...
                                        “
                                                Đảm bảo hoàn tiền
                                                Đảm bảo giá tốt nhất!
                                                            7.9
                                Đánh giá
                                    (60
                                        đánh giá)
                                Xem phòng
                            Darby Park Serviced Residences 
                             5 Lê Quí Đôn, Phường 1, Vũng Tàu, Bà Rịa - Vũng Tàu 
                            (Xem bản đồ)
                                                ~ 2.82km
                            Bạch Dinh
                                        “Darby Park Serviced Residences Vũng Tàu có nội thất trang nhã, ấm cúng, cùng vị trí thuận lợi giữa trung tâm thành phố, hứa hẹn là nơi nghỉ dưỡng tuyệt vời cũng như là một điểm đến không thể bỏ qua.
                                        “
                                                Đảm bảo hoàn tiền
                                                Đảm bảo giá tốt nhất!
                                                            7.4
                                Đánh giá
                                    (18
                                        đánh giá)
                                            (4
                                            Reviews)
                                Xem phòng
                            Khách Sạn Du Lịch Điện Lực Vũng Tàu
                             147 Phan Chu Trinh, Phường 2, Vũng Tàu, Bà Rịa - Vũng Tàu 
                            (Xem bản đồ)
                                                ~ 0.45km
                            Tượng chúa Giêsu Kitô
                                        “Khách Sạn Du Lịch Điện Lực Vũng Tàu đạt tiêu chuẩn quốc tế với nội thất phong cách hiện đại và ấm áp. Du khách sẽ được nghỉ ngơi thư giãn với đội ngũ nhân viên thân thiện và dịch vụ chu đáo tận tâm.
                                        “
                                                Đảm bảo hoàn tiền
                                                Đảm bảo giá tốt nhất!
                                                            7.5
                                Đánh giá
                                    (15
                                        đánh giá)
                                Xem phòng
                            Khách Sạn Imperial Vũng Tàu
                             159 Thùy Vân, Vũng Tàu, Bà Rịa - Vũng Tàu 
                            (Xem bản đồ)
                                                ~ 2.39km
                            Trung Tâm Thành Phố Vũng Tàu
                                        “Khách Sạn Imperial Vũng Tàu mang đậm nét cổ điển phương Tây, là một trong những khách sạn thu hút được nhiều du khách về sự sang trọng, hiện đại. Đội ngũ nhân viên khách sạn phục vụ thân thiện và nhiệ...
                                        “
                                                Đảm bảo hoàn tiền
                                                Đảm bảo giá tốt nhất!
                                                            8.3
                                Tốt
                                    (138
                                        đánh giá)
                                Xem phòng
                            Khách Sạn Palace Vũng Tàu
                             1 Nguyễn Trãi, Phường 1, Vũng Tàu, Bà Rịa - Vũng Tàu 
                            (Xem bản đồ)
                                                ~ 2km
                            Bãi Trước
                                        “Khách Sạn Palace Vũng Tàu đạt tiêu chuẩn quốc tế với nội thất phong cách hiện đại và ấm áp. Đến với khách sạn, du khách sẽ được nghỉ ngơi thư giãn với đội ngũ nhân viên thân thiện và dịch vụ chu đáo t...
                                        “
                                                Đảm bảo hoàn tiền
                                                Đảm bảo giá tốt nhất!
                                                            8.0
                                Tốt
                                    (56
                                        đánh giá)
                                Xem phòng
                            Khách Sạn Sông Hương
                             9 Trương Vĩnh Ký, Vũng Tàu, Bà Rịa - Vũng Tàu 
                            (Xem bản đồ)
                                                ~ 2.89km
                            Bạch Dinh
                                        “Khách Sạn Sông Hương Vũng Tàu có thiết kế ấm cúng, nội thất sang trọng cùng nhiều tiện nghi như sân tennis, hồ bơi, phòng tập thể thao. Đội ngũ nhân viên khách sạn phục vụ thân thiện và nhiệt tình.
                                        “
                                                Đảm bảo hoàn tiền
                                                Đảm bảo giá tốt nhất!
                                                            6.6
                                Đánh giá
                                    (17
                                        đánh giá)
                                Xem phòng
                «
                Trang trước
                1
                2
                3
                4
                5
                6
                7
                Trang sau
                »
                                Tượng chúa Jesus
                ×
                    Chính sách đảm bảo hoàn tiền của mytour
                    Bạn chưa tin tưởng việc đặt phòng khách sạn trực tuyến? Bạn e ngại rằng phòng khách sạn thực tế không đúng với thông tin trên website? Chúng tôi cam kết đưa đầy đủ và chính xác thông tin khách sạn trên website với chính sách “Đảm bảo Hoàn tiền”
                        Nếu khách hàng đặt khách sạn thành công trên Mytour nhưng khách sạn không có phòng, Mytour sẽ hoàn lại tiền cho khách và tặng kèm phiếu giảm giá có giá trị bằng với số tiền khách hàng đã trả.
                        Trong trường hợp loại phòng thực tế không đúng với loại phòng trên đơn hàng, Mytour sẽ quyết định nâng cấp miễn phí hoặc tặng phiếu giảm giá có giá trị bằng với số tiền khách hàng đã trả.
                        Trường hợp các tiện nghi phòng khách sạn (như bữa sáng, wifi…) không đúng với nội dung trên website, Mytour sẽ tặng phiếu giảm giá có giá trị bằng 10% số tiền khách đã trả (tối đa 500,000 VND)
                        Khách hàng cần gọi điện thoại 04-7309 9899 (Hà Nội), 08-7309 9899 (Hồ Chí Minh) hoặc email tới info@mytour.vn và cung cấp mã đơn hàng trong vòng 24 giờ từ lúc nhận phòng để được trợ giúp giải quyết khiếu nại (Hotline chỉ hỗ trợ trong giờ hành chính).
                        Mytour không chịu trách nhiệm bồi thường thiệt hại gián tiếp, ngẫu nhiên, hay do hậu quả phát sinh. Trong mọi trường hợp, trách nhiệm của Mytour không vượt quá tổng số tiền khách hàng thanh toán đặt phòng.
                ×
                    Đảm bảo giá tốt nhất
                    Nếu Thành viên đã đặt một phòng khách sạn được “Đảm Bảo” tại Mytour.vn và sau đó, cho Mytour.vn  thấy rằng Thành viên có thể đặt một phòng tương tự trong cùng khoảng thời gian ở mức giá tốt hơn có thể xem và đặt được trên một website khác, Mytour.vn sẽ giảm giá bằng hoặc thấp hơn mức giá đó.
                    Giá dùng để so sánh là giá sau khi áp dụng mức giảm giá công bố trên website Mytour.vn.
                    Chính sách “Đảm Bảo Giá Tốt Nhất” của Mytour.vn chỉ áp dụng cho các đặt phòng đã được xác nhận và phải thỏa mãn những điều kiện sau:
                Cùng khách sạnCùng thời gian nghỉ lạiCùng loại Phòng/GiườngCùng các yêu cầu mua Trước, yêu cầu trả trước và đặt cọc (nếu có)Cùng chính sách Hủy và Sửa Đổi
                    Phòng đó phải còn trống để được xác nhận ngay tại thời điểm các đại lý của Mytour.vn  kiểm tra phòng trống
                        Chính sách “Đảm Bảo Giá Tốt Nhất” không áp dụng cho các mức giá không công bố, như: chương trình khách hàng thân thiện.
                        Bất kỳ tổ chức nào với các mức giá dành cho nhóm cá nhân cụ thể và không nhằm mục đích áp dụng ra bên ngoài.
                        Thành viên có thể gửi khiếu nại theo địa chỉ : info@mytour.vn
                                Nêu mã đặt phòng Mytour.vn trong dòng tiêu đề thư
                                Gửi URL của website nơi Thành viên tìm thấy mức giá tốt hơn
                                Cung cấp ảnh chụp màn hình của website đối thủ cạnh tranh trong đó nêu rõ Phòng Trống, Loại Phòng, và các mức giá cho những ngày nghỉ lại theo yêu cầu của Thành viên.
                VUI LÒNG LƯU Ý: Thành viên không cần thực hiện đặt phòng trên website của đối thủ cạnh tranh, chỉ cần cho Mytour.vn thấy sự so sánh.
                ×
                Đăng Nhập
                                 Đăng nhập bằng tài khoản Facebook
                                 Đăng nhập bằng tài khoản Google
                            Hoặc đăng nhập bằng
                        Email*
                        Mật khẩu*
                        Quên mật khẩu?
                            Chưa có tài khoản/tạo tài khoản
                Đăng nhập
                         Nhớ đăng nhập
                ×
                Bản đồ
                                            Tượng chúa Jesus
                    Tìm đường
                        Từ: 
                        Đến: 
                            Khách sạnĐịa danh Hiển thị các khách sạn ở gần Hiển thị các khu du lịch ở gần
                ×
                Yêu Cầu Lấy Giá
                                    Ngày nhận phòng
                                    Ngày trả phòng
                        Tên khách hàng
                        Email
                        Điện thoại
                        Nhân viên chăm sóc khách hàng sẽ gọi điện cho quý khách trong thời gian sớm nhất.
                        Quý khách có thể gọi điện đến cho Mytour để được tư vấn ngay:
                        Hà Nội: (04) 7109 9999, Hồ Chí Minh: (08) 7309 9899, Support
                            English: (+84)4-7309-9899.
                    Hoàn thành
                ×
                Gửi Thông Tin
                        Tên khách hàng
                        Email
                        Điện thoại
                            Quý khách sẽ thấy giá giảm ngay trên trang sau khi gửi thông tin
                    Hoàn thành
                ×
                Nhận Giá Tốt
                                    Ngày nhận phòng
                                    Ngày trả phòng
                        Tên khách hàng
                        Email
                        Điện thoại
                        Vì giá tốt không được công bố nên hệ thống sẽ gửi giá qua email đến quý khách và nhân viên chăm
                        sóc sẽ gọi điện cho quý khách trong thời gian sớm nhất.
                        Quý khách có thể gọi điện đến cho Mytour để được tư vấn ngay:
                        Hà Nội: (04) 7109 9999, Hồ Chí Minh: (08) 7309 9899, Support
                            English: (+84)4-7309-9899.
                    Hoàn thành
                ×
                ×
                ĐÁNH GIÁ 
                        Tên
                        Tiêu đề
                        Kiểu du lịch?
                                -- Chọn --Cá nhânCặp đôiGia đìnhBạn bèDoanh nghiệp
                        Nội dung
                                Đánh giá chi tiết
                                Chỗ ở
                                5
                                Thức ăn
                                5
                                Phương tiện
                                5
                                Hướng dẫn viên
                                5
                                Lịch trình
                                5
                    Gửi đánh giá
                    Hủy Bỏ
                ×
                Gửi lại email kích hoạt
                ×
                Thông tin chi tiết giá theo phòng
                    Chọn khoảng thời gian hiển thị giá phòng
                    Hiển thị giá
                ×
                Khóa phòng theo khoảng thời gian
                            Chọn khoảng thời gian check-in cần khóa/mở phòng
                            Khóa phòng
                            Mở phòng
                ×
                THUẾ VÀ PHÍ DỊCH VỤ
                17% thuế và phí dịch vụ bao gồm:
                    - 10% thuế và 5% phí dịch vụ hoàn trả lại cho khách sạn.
                    - 2% phí giao dịch tại Mytour.
                ×
                Bạn có hài lòng về website của Mytour?
                    Thông điệp nhắn nhủ:
                Mytour luôn mong muốn cải thiện dịch vụ để bạn có trải nghiệm tốt hơn!
                            Ảnh đính kèm
                        Đóng
                        Gửi
                ×
                    Những đóng góp của bạn đã được ghi nhận. Mytour cám ơn bạn !
                Quay lại website
                Du lịch Tượng chúa Jesus
                                Du lịch Đi Vũng Tàu nên chọn bãi tắm nào?
                                Du lịch Dạo quanh bãi Trước Vũng Tàu - thành phố biển bậc nhất Việt Nam
                                Du lịch Những địa điểm với ưu đãi hấp dẫn cho lễ 2/9 từ Mytour
                                Du lịch 4 món hải sản làm ngất ngây du khách ở Vũng Tàu
                                Du lịch Bãi Sau Vũng Tàu - địa điểm nghỉ mát lý tưởng 
                                Du lịch Khu du lịch Hồ Mây
                                Du lịch Tượng Đức Mẹ Bãi Dâu
                                Du lịch Bạch Dinh - nàng thơ của thành phố Vũng Tàu
                                Du lịch Tìm về Bãi Dứa êm đềm tại Vũng Tàu
                                Du lịch Thưởng thức bánh Khọt - Nét độc đáo văn hóa ẩm thực Vũng Tàu
                            Giới thiệu Mytour
                            Đối tác khách sạn
                            Đăng nhập HMS
                            Tích lũy Vpoint
                            Điều khoản sử dụng
                            Quy chế hoạt động
                            Tuyển dụng
                            Liên hệ
                            Đăng ký nhận email
                                Đăng ký email để nhận khuyến mãi lên đến 70%
                                    Đăng
                                    ký
                    Công ty TNHH Mytour Việt Nam
                    Số ĐKKD: 0105983269 cấp ngày 30/08/2012
                    Văn phòng Hà Nội: Tầng 4, tòa nhà GP Invest, 170 Đê La Thành, Đống Đa
                    Văn phòng HCM: Tầng 5, Tòa Nhà HDTC, Số 36 Bùi Thị Xuân, Q.1
                Hotline
                        Hà Nội:
                        (04) 7109 9999
                        Tp. HCM:
                        (08) 7309 9899
                        ENGLISH SUPPORT:
                        (+84)4 7309 9899
