url:http://mytour.vn/c22/khach-san-4-sao-tai-dong-nai.html
Tittle :Khách sạn 4 sao tại Đồng Nai giá tốt nhất - Mytour.vn
content :Đặt phòng trực tuyến, hoặc gọi
                                                            Hà Nội: (04) 7109 9999
                                                                                        - (04) 7309 9899
                                                            Hồ Chí Minh: (08) 7309 9899
                                                                                        - (08) 7109 9998
                        T2 - CN: 08:00 - 23:00
                    Toggle navigation
                                Bạn không có thông báo nào
                    |
                    ||
                                                            Tài khoản
                        Đăng nhập
                                Đăng kýKhách sạn yêu thích
                            Khách sạn
                            Tour
                            Cẩm nang du lịch
                            Thông tin
                                                Về Mytour
                                                Tin khuyến mãi
                                                Ưu đãi
                                                Hướng dẫn
                                                Liên hệ
                            Tốt nhất 2016
                ×
                Bạn có chắc muốn hủy đơn hàng?
                Lorem ipsum dolor sit amet, consectetur adipisicing elit. Iure corporis repudiandae nobis distinctio
                quae quos, officia modi, ab voluptatem pariatur ducimus mollitia, necessitatibus sed soluta dicta
                repellendus! Praesentium debitis, temporibus?
                    Đồng ý
                    Đóng
                    Khách sạnKhách sạn tại Đồng NaiKhách sạn 4 sao tại Đồng Nai
                    Áp dụng
                    Đóng
            Tìm Kiếm Khách Sạn
                            Ngày nhận phòng
                            Ngày trả phòng
                    Số đêm
                    Số phòng
                        123456789101112
                    Người lớn
                        123456789101112
                    Tìm khách sạn
                                Bộ lọc tìm kiếm
                                        Theo mức giá
                                                        Dưới 500.000
                                                        500.000 - 1.000.000
                                                        1.000.000 - 1.500.000
                                                        1.500.000 - 2.000.000
                                                        2.000.000 - 2.500.000
                                                        2.500.000 - 3.000.000
                                                        Trên 3.000.000
                                    Hạng Khách Sạn
                                    Loại khách sạn
                                                    Khách sạn
                                                    Resort
                                Tiện nghi
                                                Đưa đón khách sạn sân bay
                                                Bữa sáng miễn phí
                                                Bể bơi ngoài trời
                                                Bãi đỗ xe
                                                Phòng họp
                                                Phòng tập thể thao
                                                Thang máy
                                                Thêm giường phụ
                                                Truyền hình cáp/vệ tinh
                                                Wifi miễn phí
                                                Giặt là
                                                Nhà hàng
                                                Spa
            Quận huyện
                        Biên Hòa 
                        Tân Phú
                        Long Thành 
                        Cẩm Mỹ 
                        Định Quán 
                        Long Khánh 
                        Nhơn Trạch 
                        Thống Nhất 
                        Trảng Bom 
                        Vĩnh Cửu 
                        Xuân Lộc 
            Khu vực
                        Nhà thờ Dốc Mơ
                        Chợ định Quán
                        Nhà Thờ Bình Lộc
                        Hồ Bàu Hàm
                        Công viên văn hóa Suối Tre
                        Ga Dầu Giây
                        Nhà máy thủy điện Trị An
                        Hồ Sông Mây
                        Nhà thờ Hàng Gòn
                        Giáo xứ Định Quán
                        Thác Giang Điền
                        Đồi Năm Cho
                        Giáo xứ Gò Xoài
                        Hồ Suối Vọng
                        Chợ Cẩm Mỹ
                        Ngã 3 ông Đồn
                        Khu du lịch sinh thái Vườn Xoài
                        Hồ Suối Rang
                        Sân golf Long Thành
                        Chợ Mới Long Thành
                        Ga Biên Hòa
                        Chùa Long Phước Thọ
                        Chợ Phương Lâm
                        Thiền viện Thường Chiếu
                        Hồ Đa T Tổng
                        Rừng chiến khu D
                        Chùa Long Hương
                        Vườn quốc gia Cát Tiên
                        Chợ Xuân Hòa
                        Chợ Hòa Bình
                        Khu du lịch bò cạp vàng
                        Biên Hòa
                        Long Thành
             Giá tốt hơn so với đặt phòng trực
            tiếp tại khách sạn
             Đảm bảo 
            giá tốt nhất 
             Đảm bảo 
            hoàn tiền
             Nhân viên chăm sóc, tư vấn nhiều kinh nghiệm
             Hơn 5000 khách sạn tại Việt Nam với
            đánh giá thực
             Nhiều chương trình khuyến mãi và tích lũy điểm
             Thanh toán dễ dàng, đa dạng
                            Khách sạn 4 sao tại Đồng Nai
                                     Xem Bản Đồ
                            Đồng Nai một tỉnh cửa ngõ đi vào vùng kinh tế Đông Nam Bộ, đi đầu với việc kinh tế phát triển và năng động. Đồng Nai nổi tiếng với các địa điểm du lịch như: Thác Giang Điền, khu du lịch Bò Cạp Vàng, Núi Chưa Chan… Hãy để Mytour hỗ trợ bạn để có 1 chuyến đi thú vị, tiết kiệm bằng cách đặt phòng khách sạn 4 sao Đồng Nai ngay bây giờ với giá từ 1,589,000 VND.
                                Có 1
                                khách sạn ở
                                đây theo ngày đã chọn
                        Ngày nhận phòng
                        Ngày trả phòng
                Số đêm
                Số phòng
                    123456789101112
                Người lớn
                    123456789101112
                Cập nhật ngày
                             Bộ lọc
                                            Phổ biến nhất
                                     Hạng khách sạn
                                                                                                Hạng sao [5...1]
                                                                                                Hạng sao [1...5]
                                            Đánh giá cao nhất
                                            Khuyến mãi
                                     Giá
                                                                                                Giá tăng dần
                                                                                                Giá giảm dần
                            Sắp xếp:
                            Đánh giá cao nhất
                        Phổ biến nhấtĐánh giá cao nhấtGiá tăng dầnGiá giảm dầnHạng tăng dầnHạng giảm dầnKhuyến mãi
                            Khách sạn Aurora 
                             253 Phạm Văn Thuận, Phường Tân Mai, Biên Hòa , Đồng Nai 
                            (Xem bản đồ)
                            Ga Biên Hòa
                                        “Khách sạn Aurora Đồng Nai đạt tiêu chuẩn quốc tế với nội thất phong cách hiện đại và ấm áp. Đến với khách sạn, du khách sẽ được nghỉ ngơi thư giãn với đội ngũ nhân viên thân thiện và dịch vụ chu đáo t...
                                        “
                                                Đảm bảo hoàn tiền
                                                Đảm bảo giá tốt nhất!
                                                            7.8
                                Đánh giá
                                    (31
                                        đánh giá)
                                Xem phòng
                                Đồng Nai
                            Đặt phòng khách sạn Đồng Nai giá tốt nhất tại Mytour.vn, với nhiều khuyến mãi từ website và đơn vị khách sạn tiết kiệm lên đến 70%. Hơn 150.000 đánh giá từ khách hàng đã qua sử dụng khách sạn giúp bạn đưa ra những quyết định tốt nhất cho lựa chọn của mình. Đặc biệt chính sách ĐẢM BẢO HOÀN TIỀN chỉ có tại Mytour.vn, giờ đây bạn có thể hoàn toàn tin tưởng vào dịch vụ đặt phòng trực tuyến.Với hơn 5.000 khách sạn, resort tại 63 tỉnh/ thành phố, Mytour ngày càng được du khách tin dùng để tìm kiếm khách sạn. Mytour sẽ hỗ trợ quý khách đặt khách sạn Đồng Nai với chi phí hợp lý để có chuyến đi thật thú vị và tiết kiệm. Ngoài việc cung cấp những khách sạn giá tốt nhất, bạn có còn có thể tìm thấy nhiều thông tin du lịch hữu ích và thú vị khác.  "Bến Nghé của tiền tan bọt nước  Đồng Nai tranh ngói nhuốm màu mây”  (Trích: Chạy Tây – Cụ Đồ Chiểu)  Đồng Nai là một tỉnh vùng miền Đông Nam Bộ nước Việt Nam. Tỉnh Đồng Nai cách Thành phố Hồ Chí Minh khoảng 30 km, cách Hà Nội 1.684 km theo đường quốc lộ 1A. Tỉnh được xem là một tỉnh cửa ngõ đi vào vùng kinh tế Đông Nam Bộ - vùng kinh tếphát triển và năng động nhất cả nước. Đồng Nai có nhiều di tích lịch sử, văn hoá và các điểm du lịch có tiềm năng.  Khi đặt khách sạn tại Đồng Nai, Mytour với hệ thống đặt phòng có hơn 12 khách sạn được trang bị đầy đủ tiện nghi hiện đại cùng với dịch vụ chăm sóc khách hàng hoàn hảo sẽ mang lại cho bạn những trải nghiệm thú vị và hài lòng cả những du khách khó tính nhất.  Du lịch Đồng Nai bạn sẽ được tham quan những thắng cảnh nổi tiếng nơi đây như:  Núi Chứa Chan là điểm du lịch tâm linh lý tưởng khi đến Đồng Nai. Núi Chứa Chan là ngọn núi cao thứ hai ở Nam bộ (sau núi Bà Đen - Tây Ninh) với độ cao 837m so với mực nước biển, sườn dốc 30-35 độ, đôi chỗ là vách dựng đứng. Đây là một thắng cảnh hữu tình, độc nhất vô nhị ở Đồng Nai và hiếm gặp ở Nam bộ. Núi có dáng hình vòng cung gồm ba ngọn đồi liên tiếp nhau giống hình bát úp. Thế núi hùng vĩ, cao chót vót; vào buổi sáng, núi rực rỡ xanh dưới ánh nắng nhẹ của mặt trời; lúc chiều tà núi sừng sững âm u trên nền trời trắng xám; tháng mười núi mờ ảo trong sương mù cùng với những dải mây trắng lững lờ bay lượn, bao phủ ôm lấy núi. Cảnh quan thiên nhiên núi Chứa Chan đẹp và hấp dẫn với nhiều dòng suối quanh năm tươi mát ẩn mình dưới những rừng cây bạt ngàn, nước chảy không bao giờ cạn; ở lưng chừng núi có nhiều “giếng Tiên” cùng với những di tích do con người tạo nên như chùa Bửu Quang, chùa Lâm Sơn, chùa Linh Sơn, nhà nghỉ mát của toàn quyền Pháp, vườn trà của vua Bảo Đại… tạo thành một quần thể thắng cảnh độc đáo ở Đông Nam bộ. Đặc biệt nơi đây còn nổi tiếng “Cây da ba gốc một ngọn”, Mật Khu Hầm Hinh và các bãi đá tự nhiên trùng trùng điệp điệp, xen lẫn nhau tạo thành những bức tường đá kỳ vĩ và những hang động được tạo thành bởi sự sắp xếp của các khối đá to lớn chạy ngầm trong lòng núi. Trong lòng các hang động có các khe suối nhỏ nước chảy quanh năm, từ xa xưa đã có nhiều vị thiền sư chọn làm nơi thiền định, đến nay vẫn còn dấu tích.  Vườn Quốc Gia Cát Tiên: được UNESCO công nhận là 1 trong 6 khu dự trữ sinh quyển của thế giới. Hấp dẫn du khách bởi nét hùng vĩ của núi rừng, đây cũng chính là bảo tàng quốc tế có ý nghĩa về khoa học và văn hóa của Việt Nam. Du khách có thể tham quan du lịch theo các tuyến Ghềnh Bến Cự, tuyến thác Mỏ Vẹt, tuyến thác Trời - thác Dựng, tuyến di chỉ văn hóa Cát Tiên, tuyến sinh thái, tuyến xem thú đêm, tuyến vườn thực vật.  Ngoài ra, du khách còn có thể dạo bộ trong rừng, đi xe đạp, ngồi trên ôtô hoặc du thuyền trên sông để thưởng lãm cảnh quan thiên nhiên hùng vĩ, thơ mộng. Đắm mình trong những âm thanh huyền diệu của núi rừng, bạn sẽ có được những phút giây thư giãn thật thú vị.  KDL Bửu Long: cách thành phố Biên Hòa 6km về hướng Tây Nam, khu du lịch Bửu Long được xây dựng quanh hồ nước nhân tạo Long Ẩn rộng hàng chục hecta. Có thể nói hồ Long Ẩn là một bức tranh thu nhỏ của Vịnh Hạ Long. Vô số vách đá soi bóng trên mặt nước xanh tạo cho hồ vẻ đẹp hấp dẫn trong một cảnh sắc thiên nhiên mỹ lệ: núi cao, hồ rộng, hài hòa với các công trình kiến trúc nghệ thuật mang dấu ấn tôn giáo của nhiều thời đại. Đây là điểm đến tuyệt vời để cho bạn xả stress hoặc du lịch ngắn ngày. Cạnh hồ là hai ngọn núi thấp, trên núi Bửu Long có ngôi chùa cổ Bửu Phong nổi tiếng nằm thấp thoáng sau cây bồ đề lớn. Sau khi vui chơi, tham thú Bửu Long, bạn nên ghé vào chùa vừa để vãn cảnh, vừa để cầu mong những may mắn đến với mình và người thân.  Đá Ba Chồng: Nằm giữa khu dân cư sầm uất Đình Quán, trên con đường đi Đà Lạt, đá Ba Chồng là 3 hòn đá xếp chồng lên nhau, cao 36 mét. Hòn đá phía dưới cùng lớn gấp hai hòn nằm trên, hòn trên cùng thì nằm chìa hẳn ra ngoài, chừng như muốn đổ xuống bất kỳ lúc nào. Hình thù kỳ lạ này đã thu hút biết bao khách phải dừng chân và tham quan khu thắng cảnh. Cạnh đá Ba Chồng còn có núi Đá hay gọi là núi Bạch Tượng, với hình trù trông giống như hai chú voi đang phủ phục. Trên đỉnh núi Bạch Tượng là tượng phật Thích ca và phía dưới là hang Bạch Hổ. Quần thể núi đá liên tiếp, san sát nhau tại đây đã tạo nên những hang động kỳ bí hấp dẫn du khách.  Bên cạnh đó, một yếu tố khác thu hút khách du lịch đó chính là nền ẩm thực phong phú và đa dạng. Lưu trú tại Đồng Nai, quý khách sẽ được thưởng thức đặc sản như bánh canh đầu cá lóc, gỏi cá, sầu riêng, bưởi Tân Triếu, cá lóc kho tiêu, cháo đậu nước cốt dừa, canh bầu nấu với cá trê vàng, cá lóc kho thơm, canh chua cá lóc, mắm kho ghém rau sống, mắm đồng chưng trứng, canh khổ qua dồn thịt...  Nếu bạn có kế họach đến nghỉ dưỡng hoặc công tác ở vùng đất Đồng Nai, hãy để Mytour giúp bạn chuẩn bị 1 chuyến đi dễ dàng, thú vị, và tiết kiệm nhất bạn nhé!
            Địa danh ở gần
                                    Chùa Bửu Phong
                                     ~ 0km
                                    Chùa Bửu Ðức
                                     ~ 0km
                                    Tịnh Xá Ngọc Nhẫn    
                                     ~ 0km
                                    Chùa Từ Tôn - Đồng Nai
                                     ~ 0km
                                    Chùa Phước Viên - Đồng Nai
                                     ~ 0km
                                    Kỳ thú hồ Trị An
                                     ~ 17.78km
                                                                Kỳ Thú Hồ Trị An thuộc huyện Vĩnh Cửu, tỉnh Đồng Nai. Từ đây, du khách có cơ hội đến thăm nhiều địa điểm nổi tiếng như: chùa Bửu Phong, văn miếu Trấn Biên, chùa Phật tích Tòng Lâm, chùa Bửu Đức, chùa Đai Giác… Hãy để Mytour hỗ trợ bạn để có 1 chuyến đi thú vị, tiết kiệm bằng cách đặt phòng khách sạn khu vực Kỳ Thú Hồ Trị An bây giờ với giá rẻ nhất.
                                    Thác Giang Điền
                                     ~ 24.99km
                                                                Thác Giang Điền tọa lạc tại xã Giang Điền, huyện Trảng Bom, Đồng Nai. Ngoài ra, du khách có cơ hội đến thăm nhiều địa điểm nổi tiếng như: Khu Du Lịch Sinh Thái thác Đá Hàn, sân golf Đồng Nai… Hãy để Mytour hỗ trợ bạn để có 1 chuyến đi thú vị, tiết kiệm bằng cách đặt phòng khách sạn khu vực Thác Giang Điền ngay bây giờ với giá rẻ nhất.
                                    Chùa Bạch Liên
                                     ~ 33.34km
                                                                Chùa Bạch Liên tọa lạc tại huyện Long Thành, Đồng Nai. Ngoài ra, du khách có cơ hội đến thăm nhiều địa điểm nổi tiếng như: KDL vườn Xoài, trạm bò sữa An Phước, Chùa Phước Hải… Hãy để Mytour hỗ trợ bạn để có 1 chuyến đi thú vị, tiết kiệm bằng cách đặt phòng khách sạn khu vực chùa Bạch Liên ngay bây giờ với giá chỉ từ 605,000 VND.
                                    Chùa Phật Tích Tòng Lâm
                                     ~ 33.66km
                                                                Chùa Phật Tích Tòng Lâm tọa lạc ở huyện Long Thành, Đồng Nai. Ngoài ra, du khách có cơ hội đến thăm nhiều địa điểm nổi tiếng như: KDL vườn Xoài, trạm bò sữa An Phước, Chùa Phước Hải… Hãy để Mytour hỗ trợ bạn có 1 chuyến đi thú vị, tiết kiệm bằng cách đặt phòng khách sạn khu vực Chùa Phật Tích Tòng Lâm ngay bây giờ với giá chỉ từ 605,000 VND.
                                    Đại học Đồng Nai
                                     ~ 35.27km
                                                                Đại Học Đồng Nai tọa lạc tại Biên Hòa, Đồng Nai. Đến với Đại Học Đồng Nai, du khách có cơ hội tham quan các địa điểm du lịch nổi tiếng như Khu du lịch Bò Cạp Vàng, Thác Giang Điền, Bằng Lăng Tím..Hãy để Mytour hỗ trợ bạn để có 1 chuyến đi thú vị, tiết kiệm bằng cách đặt phòng khách sạn tại khu vực Đại Học Đồng Nai ngay bây giờ với giá rẻ nhất.
                                    Sân bay Nước Trong
                                     ~ 35.72km
                                                                Sân bay Nước Trong tọa lạc tại huyện Long Thành, Đồng Nai. Từ đây, du khách có cơ hội đến thăm nhiều địa điểm nổi tiếng như: KDL vườn Xoài, trạm bò sữa An Phước, Chùa Phước Hải… Hãy để Mytour hỗ trợ bạn để có 1 chuyến đi thú vị, tiết kiệm bằng cách đặt phòng khách sạn khu vực Sân bay Nước Trong ngay bây giờ với giá chỉ từ 605,000 VND.
                                    Thiền Viện Thường Chiếu - Trung tâm thiền học của Phật giáo Việt Nam
                                     ~ 35.91km
                                                                Thiền Viện Thường Chiếu - Trung tâm thiền học của Phật giáo Việt Nam tọa lạc tại huyện Long Thành, Ðồng Nai. Ngoài ra, du khách có cơ hội đến thăm KDL vườn Xoài, chùa Phước Hải… Hãy để Mytour hỗ trợ bạn để có 1 chuyến đi thú vị, tiết kiệm bằng cách đặt phòng khách sạn khu vực Thiền Viện Thường Chiếu ngay bây giờ với giá chỉ từ 605,000 VND.
                                    Ga Biên Hòa
                                     ~ 39.17km
                                                                Ga Biên Hòa tọa lạc tại Biên Hòa, tỉnh Đồng Nai. Từ đây, du khách có cơ hội đến thăm nhiều địa điểm nổi tiếng như: chùa Bửu Phong, văn miếu Trấn Biên, chùa Phật tích Tòng Lâm, chùa Bửu Đức, chùa Đai Giác… Hãy để Mytour hỗ trợ bạn có 1 chuyến đi thú vị, tiết kiệm bằng cách đặt phòng khách sạn khu vực Ga Biên Hòa bây giờ với giá chỉ từ 291,000 VND.
                                    Khu du lịch Bửu Long - hồ Long Ẩn
                                     ~ 40.28km
                                                                Hồ Long Ẩn địa điểm du lịch nổi tiếng Đồng Nai. Đến với Hồ Long Ẩn, du khách có cơ hội tham quan các địa điểm du lịch nổi tiếng như Khu du lịch Bò Cạp Vàng, Thác Giang Điền, Bằng Lăng Tím..Hãy để Mytour hỗ trợ bạn để có 1 chuyến đi thú vị, tiết kiệm bằng cách đặt phòng khách sạn tại khu vực Hồ Long Ẩn ngay bây giờ với giá rẻ nhất.
                                    Thiền viện Viên Chiếu
                                     ~ 43.6km
                                                                Thiền viện Viên Chiếu thuộc huyện Long Thành, Ðồng Nai. Ngoài ra, du khách có cơ hội đến thăm nhiều địa điểm nổi tiếng như: KDL vườn Xoài, trạm bò sữa An Phước, Chùa Phước Hải… Hãy để Mytour hỗ trợ bạn để có 1 chuyến đi thú vị, tiết kiệm bằng cách đặt phòng khách sạn khu vực Thiền viện Viên Chiếu ngay bây giờ với giá chỉ từ 605,000 VND.
                                    Thiền viện Liễu Đức
                                     ~ 45.23km
                                                                Thiền viện Liễu Đức tọa lạc tại huyện Long Thành, Đồng Nai. Ngoài ra, du khách có cơ hội đến thăm nhiều địa điểm nổi tiếng như: KDL vườn Xoài, trạm bò sữa An Phước, Chùa Phước Hải… Hãy để Mytour hỗ trợ bạn để có 1 chuyến đi thú vị, tiết kiệm bằng cách đặt phòng khách sạn khu vực Thiền viện Liễu Đức ngay bây giờ với giá chỉ từ 605,000 VND.
                                    Thiền viện Tuệ Thông
                                     ~ 45.23km
                                                                Thiền viện Tuệ Thông thuộc huyện Long Thành, Đồng Nai. Ngoài ra, du khách có cơ hội đến thăm nhiều địa điểm nổi tiếng như: KDL vườn Xoài, trạm bò sữa An Phước, Chùa Phước Hải… Hãy để Mytour hỗ trợ bạn để có 1 chuyến đi thú vị, tiết kiệm bằng cách đặt phòng khách sạn khu vực Thiền viện Tuệ Thông ngay bây giờ với giá chỉ từ 605,000 VND.
                                    Thiền viện Đạo Huệ
                                     ~ 45.23km
                                                                Thiền viện Đạo Huệ tọa lạc tại huyện Long Thành, Đồng Nai. Ngoài ra, du khách có cơ hội đến thăm nhiều địa điểm nổi tiếng như: KDL vườn Xoài, trạm bò sữa An Phước, Chùa Phước Hải… Hãy để Mytour hỗ trợ bạn để có 1 chuyến đi thú vị, tiết kiệm bằng cách đặt phòng khách sạn khu vực Thiền viện Đạo Huệ ngay bây giờ với giá chỉ từ 605,000 VND.
                                    Tu viện Phước Hải
                                     ~ 45.23km
                                                                Tu viện Phước Hải tọa lạc tại huyện Long Thành, Đồng Nai. Ngoài ra, du khách có cơ hội đến thăm nhiều địa điểm nổi tiếng như: KDL vườn Xoài, trạm bò sữa An Phước, Chùa Phước Hải… Hãy để Mytour hỗ trợ bạn để có 1 chuyến đi thú vị, tiết kiệm bằng cách đặt phòng khách sạn khu vực Tu viện Phước Hải ngay bây giờ với giá chỉ từ 605,000 VND.
                 Du lịch Đồng Nai 
                ×
                    Chính sách đảm bảo hoàn tiền của mytour
                    Bạn chưa tin tưởng việc đặt phòng khách sạn trực tuyến? Bạn e ngại rằng phòng khách sạn thực tế không đúng với thông tin trên website? Chúng tôi cam kết đưa đầy đủ và chính xác thông tin khách sạn trên website với chính sách “Đảm bảo Hoàn tiền”
                        Nếu khách hàng đặt khách sạn thành công trên Mytour nhưng khách sạn không có phòng, Mytour sẽ hoàn lại tiền cho khách và tặng kèm phiếu giảm giá có giá trị bằng với số tiền khách hàng đã trả.
                        Trong trường hợp loại phòng thực tế không đúng với loại phòng trên đơn hàng, Mytour sẽ quyết định nâng cấp miễn phí hoặc tặng phiếu giảm giá có giá trị bằng với số tiền khách hàng đã trả.
                        Trường hợp các tiện nghi phòng khách sạn (như bữa sáng, wifi…) không đúng với nội dung trên website, Mytour sẽ tặng phiếu giảm giá có giá trị bằng 10% số tiền khách đã trả (tối đa 500,000 VND)
                        Khách hàng cần gọi điện thoại 04-7309 9899 (Hà Nội), 08-7309 9899 (Hồ Chí Minh) hoặc email tới info@mytour.vn và cung cấp mã đơn hàng trong vòng 24 giờ từ lúc nhận phòng để được trợ giúp giải quyết khiếu nại (Hotline chỉ hỗ trợ trong giờ hành chính).
                        Mytour không chịu trách nhiệm bồi thường thiệt hại gián tiếp, ngẫu nhiên, hay do hậu quả phát sinh. Trong mọi trường hợp, trách nhiệm của Mytour không vượt quá tổng số tiền khách hàng thanh toán đặt phòng.
                ×
                    Đảm bảo giá tốt nhất
                    Nếu Thành viên đã đặt một phòng khách sạn được “Đảm Bảo” tại Mytour.vn và sau đó, cho Mytour.vn  thấy rằng Thành viên có thể đặt một phòng tương tự trong cùng khoảng thời gian ở mức giá tốt hơn có thể xem và đặt được trên một website khác, Mytour.vn sẽ giảm giá bằng hoặc thấp hơn mức giá đó.
                    Giá dùng để so sánh là giá sau khi áp dụng mức giảm giá công bố trên website Mytour.vn.
                    Chính sách “Đảm Bảo Giá Tốt Nhất” của Mytour.vn chỉ áp dụng cho các đặt phòng đã được xác nhận và phải thỏa mãn những điều kiện sau:
                Cùng khách sạnCùng thời gian nghỉ lạiCùng loại Phòng/GiườngCùng các yêu cầu mua Trước, yêu cầu trả trước và đặt cọc (nếu có)Cùng chính sách Hủy và Sửa Đổi
                    Phòng đó phải còn trống để được xác nhận ngay tại thời điểm các đại lý của Mytour.vn  kiểm tra phòng trống
                        Chính sách “Đảm Bảo Giá Tốt Nhất” không áp dụng cho các mức giá không công bố, như: chương trình khách hàng thân thiện.
                        Bất kỳ tổ chức nào với các mức giá dành cho nhóm cá nhân cụ thể và không nhằm mục đích áp dụng ra bên ngoài.
                        Thành viên có thể gửi khiếu nại theo địa chỉ : info@mytour.vn
                                Nêu mã đặt phòng Mytour.vn trong dòng tiêu đề thư
                                Gửi URL của website nơi Thành viên tìm thấy mức giá tốt hơn
                                Cung cấp ảnh chụp màn hình của website đối thủ cạnh tranh trong đó nêu rõ Phòng Trống, Loại Phòng, và các mức giá cho những ngày nghỉ lại theo yêu cầu của Thành viên.
                VUI LÒNG LƯU Ý: Thành viên không cần thực hiện đặt phòng trên website của đối thủ cạnh tranh, chỉ cần cho Mytour.vn thấy sự so sánh.
                ×
                Đăng Nhập
                                 Đăng nhập bằng tài khoản Facebook
                                 Đăng nhập bằng tài khoản Google
                            Hoặc đăng nhập bằng
                        Email*
                        Mật khẩu*
                        Quên mật khẩu?
                            Chưa có tài khoản/tạo tài khoản
                Đăng nhập
                         Nhớ đăng nhập
                ×
                Bản đồ
                                            Đồng Nai
                    Tìm đường
                        Từ: 
                        Đến: 
                            Khách sạnĐịa danh Hiển thị các khách sạn ở gần Hiển thị các khu du lịch ở gần
                ×
                Yêu Cầu Lấy Giá
                                    Ngày nhận phòng
                                    Ngày trả phòng
                        Tên khách hàng
                        Email
                        Điện thoại
                        Nhân viên chăm sóc khách hàng sẽ gọi điện cho quý khách trong thời gian sớm nhất.
                        Quý khách có thể gọi điện đến cho Mytour để được tư vấn ngay:
                        Hà Nội: (04) 7109 9999, Hồ Chí Minh: (08) 7309 9899, Support
                            English: (+84)4-7309-9899.
                    Hoàn thành
                ×
                Gửi Thông Tin
                        Tên khách hàng
                        Email
                        Điện thoại
                            Quý khách sẽ thấy giá giảm ngay trên trang sau khi gửi thông tin
                    Hoàn thành
                ×
                Nhận Giá Tốt
                                    Ngày nhận phòng
                                    Ngày trả phòng
                        Tên khách hàng
                        Email
                        Điện thoại
                        Vì giá tốt không được công bố nên hệ thống sẽ gửi giá qua email đến quý khách và nhân viên chăm
                        sóc sẽ gọi điện cho quý khách trong thời gian sớm nhất.
                        Quý khách có thể gọi điện đến cho Mytour để được tư vấn ngay:
                        Hà Nội: (04) 7109 9999, Hồ Chí Minh: (08) 7309 9899, Support
                            English: (+84)4-7309-9899.
                    Hoàn thành
                ×
                ×
                ĐÁNH GIÁ 
                        Tên
                        Tiêu đề
                        Kiểu du lịch?
                                -- Chọn --Cá nhânCặp đôiGia đìnhBạn bèDoanh nghiệp
                        Nội dung
                                Đánh giá chi tiết
                                Chỗ ở
                                5
                                Thức ăn
                                5
                                Phương tiện
                                5
                                Hướng dẫn viên
                                5
                                Lịch trình
                                5
                    Gửi đánh giá
                    Hủy Bỏ
                ×
                Gửi lại email kích hoạt
                ×
                Thông tin chi tiết giá theo phòng
                    Chọn khoảng thời gian hiển thị giá phòng
                    Hiển thị giá
                ×
                Khóa phòng theo khoảng thời gian
                            Chọn khoảng thời gian check-in cần khóa/mở phòng
                            Khóa phòng
                            Mở phòng
                ×
                THUẾ VÀ PHÍ DỊCH VỤ
                17% thuế và phí dịch vụ bao gồm:
                    - 10% thuế và 5% phí dịch vụ hoàn trả lại cho khách sạn.
                    - 2% phí giao dịch tại Mytour.
                ×
                Bạn có hài lòng về website của Mytour?
                    Thông điệp nhắn nhủ:
                Mytour luôn mong muốn cải thiện dịch vụ để bạn có trải nghiệm tốt hơn!
                            Ảnh đính kèm
                        Đóng
                        Gửi
                ×
                    Những đóng góp của bạn đã được ghi nhận. Mytour cám ơn bạn !
                Quay lại website
            Khách sạn theo các tỉnh thành
                        An Giang
                        Bà Rịa - Vũng Tàu
                        Bắc Giang
                        Bắc Kạn
                        Bạc Liêu
                        Bắc Ninh
                        Bến Tre
                        Bình Định
                        Bình Dương
                        Bình Phước
                        Bình Thuận
                        Cà Mau
                        Cần Thơ
                        Cao Bằng
                        Đà Lạt
                        Đà Nẵng
                        Đắk Nông
                        Đắk Lắk
                        Điện Biên
                        Đồng Nai
                        Đồng Tháp
                        Gia Lai
                        Hà Giang
                        Hạ Long
                        Hà Nam
                        Hà Nội
                        Hà Tĩnh
                        Hải Dương
                        Hải Phòng
                        Hậu Giang
                        Hồ Chí Minh
                        Hoà Bình
                        Hội An
                        Hưng Yên
                        Khánh Hòa
                        Kiên Giang
                        Kon Tum
                        Lai Châu
                        Lâm Đồng
                        Lạng Sơn
                        Lào Cai
                        Long An
                        Nam Định
                        Nghệ An
                        Nha Trang
                        Ninh Bình
                        Ninh Thuận
                        Phan Thiết
                        Phú Quốc
                        Phú Thọ
                        Phú Yên
                        Quảng Bình
                        Quảng Nam
                        Quảng Ngãi
                        Quảng Ninh
                        Quảng Trị
                        Sa Pa
                        Sóc Trăng
                        Sơn La
                        Tây Ninh
                        Thái Bình
                        Thái Nguyên
                        Thanh Hoá
                        Thành Phố Huế
                        Thừa Thiên Huế
                        Tiền Giang
                        Trà Vinh
                        Tuyên Quang
                        Vĩnh Long
                        Vĩnh Phúc
                        Vũng Tàu
                        Yên Bái
                Du lịch Đồng Nai
                                Du lịch Biên Hòa 
                                Du lịch Long Thành 
                                Du lịch Thống Nhất 
                                Du lịch Định Quán 
                                Du lịch Vĩnh Cửu 
                                Du lịch Long Khánh 
                                Du lịch Trảng Bom 
                                Du lịch Xuân Lộc 
                                Du lịch Tân Phú
                            Giới thiệu Mytour
                            Đối tác khách sạn
                            Đăng nhập HMS
                            Tích lũy Vpoint
                            Điều khoản sử dụng
                            Quy chế hoạt động
                            Tuyển dụng
                            Liên hệ
                            Đăng ký nhận email
                                Đăng ký email để nhận khuyến mãi lên đến 70%
                                    Đăng
                                    ký
                    Công ty TNHH Mytour Việt Nam
                    Số ĐKKD: 0105983269 cấp ngày 30/08/2012
                    Văn phòng Hà Nội: Tầng 4, tòa nhà GP Invest, 170 Đê La Thành, Đống Đa
                    Văn phòng HCM: Tầng 5, Tòa Nhà HDTC, Số 36 Bùi Thị Xuân, Q.1
                Hotline
                        Hà Nội:
                        (04) 7109 9999
                        Tp. HCM:
                        (08) 7309 9899
                        ENGLISH SUPPORT:
                        (+84)4 7309 9899
