url:http://mytour.vn/news/ca300/uu-dai.html?page=8
Tittle :Tin ưu đãi - Trang 8
content :Đặt phòng trực tuyến, hoặc gọi
                                                            Hà Nội: (04) 7109 9999
                                                                                        - (04) 7309 9899
                                                            Hồ Chí Minh: (08) 7309 9899
                                                                                        - (08) 7109 9998
                        T2 - CN: 08:00 - 23:00
                    Toggle navigation
                                Bạn không có thông báo nào
                    |
                    ||
                                                            Tài khoản
                        Đăng nhập
                                Đăng kýKhách sạn yêu thích
                            Khách sạn
                            Tour
                            Cẩm nang du lịch
                            Thông tin
                                                Về Mytour
                                                Tin khuyến mãi
                                                Ưu đãi
                                                Hướng dẫn
                                                Liên hệ
                            Tốt nhất 2016
                ×
                Bạn có chắc muốn hủy đơn hàng?
                Lorem ipsum dolor sit amet, consectetur adipisicing elit. Iure corporis repudiandae nobis distinctio
                quae quos, officia modi, ab voluptatem pariatur ducimus mollitia, necessitatibus sed soluta dicta
                repellendus! Praesentium debitis, temporibus?
                    Đồng ý
                    Đóng
        Trang chủTin tứcThông tinƯu đãiƯu đãi - trang 8
        Tuyển dụngMytour Hotel AwardĐại sứ Mytour
                        Thông tin
                        Ưu đãiTin khuyến mãi
                        Về Mytour
                        Giới thiệu MytourQuy chế hoạt độngHướng dẫn sử dụngHướng dẫn quản lý
            Tìm Kiếm Khách Sạn
                            Ngày nhận phòng
                            Ngày trả phòng
                    Số đêm
                    Số phòng
                        123456789101112
                    Người lớn
                        123456789101112
                    Tìm khách sạn
                 Khách sạn bán chạy 
                Giá tốt hơn so với đặt phòng trực tiếp tại khách sạn
                Đảm bảo 
                giá tốt nhất
                Đảm bảo 
                hoàn tiền
                Nhân viên chăm sóc, tư vấn nhiều kinh nghiệm
                Hơn 5000 khách sạn tại Việt Nam với đánh giá thực
                Nhiều chương trình khuyến mãi và tích lũy điểm
                Thanh toán dễ dàng, đa dạng
                        Tin ưu đãi - Trang 8
                                            Thông báo kết quả Minigame "Tìm đàn tuần lộc" ...
                                            23/12/2015
                                            443
                                        Trước khi ra mắt minigame được trông chờ nhất mùa giáng sinh này " Ơn giời quà đây rồi" ( 24/12/2015), Mytour xin được thông báo danh sách những khách hàng đã giúp ông già Noel tìm đàn tuần...
                                                Xem thêm
                                            Voucher 100.000Đ cho khách hàng Mytour khi mua sắm hàng ...
                                            22/12/2015
                                            770
                                        Nhân dịp lễ giáng sinh, từ ngày 21/12/2015 – 21/01/2016, các khách hàng Mytour sẽ nhận được voucher 100.000Đ khi mua sắm trên Leflair.vn.  \r\n\r\nLeflair là trang web đầu tiên tại Việt Nam mang đến n...
                                                Xem thêm
                                            Thông báo kết quả minigame “Thành phố trong mơ”  ( 12/1 ...
                                            17/12/2015
                                            601
                                        Kết thúc minigame đầu tiên của mùa lễ hội 2015, Mytour xin chúc mừng các Mytourists được "xướng tên" để nhận những món quà trong minigame " Thành phố trong mơ"
                                                Xem thêm
                                            Ưu đãi 10% cho khách hàng Mytour khi mua sắm sản phẩm K ...
                                            15/12/2015
                                            264
                                        KDK là một thương hiệu nổi tiếng của Nhật Bản về chất lượng vượt trội đặc biệt là sản phẩm quạt điện với hiệu suất cao, hoạt động êm ái và tiêu thụ điện năng thấp. Nhiều thế hệ đã tin tưởng KDK như là...
                                                Xem thêm
                                            Ưu đãi cho khách hàng Mytour của Ionah
                                            09/12/2015
                                            332
                                        Với hy vọng làm thay đổi bộ mặt giải trí ở Hà Nội, một chương trình nghệ thuật mới mang tên “Ionah” sẽ được ra mắt trong tháng 9 tới. Chương trình gồm nhiều loại hình từ múa, kịch, xiếc, hip-hop, nghệ...
                                                Xem thêm
                                            Ưu đãi dành cho chủ thẻ NCB
                                            01/12/2015
                                            273
                                        Từ ngày 01/12/2015 - 29/02/2016, Mytour triển khai chương trình ưu đãi hấp dẫn cuối năm dành tặng các chủ thẻ của ngân hàng Thương mại Cổ phần Quốc Dân NCB với mức giảm giá 10% khi đặt phòng khách sạn...
                                                Xem thêm
                                            Mytour đồng hành cùng Zalora trong chương trình mua sắm ...
                                            26/11/2015
                                            1577
                                        "Online Fever - Cơn sốt mua sắm trực tuyến" 2015 đã trở lại!\r\n\r\n \r\n\r\nChương trình sẽ diễn ra chính thức trong vòng 4 ngày từ 9 - 12/12/2015 với sự tham gia của hơn 50 đối tác thương...
                                                Xem thêm
                                            ƯU ĐÃI 20% CHO KHÁCH HÀNG CỦA MYTOUR TẠI T-CLB
                                            24/11/2015
                                            352
                                        T-CLB là Câu lạc bộ giải trí dành cho giới trẻ từ 13 đến 25 tuổi. Đến với T-CLB, các bạn trẻ sẽ được tham gia nhiều khu vực chơi hấp dẫn như Billiard, Bowling, Karaoke… Ngoài ra, T-CLB còn tích hợp Qu...
                                                Xem thêm
                                            Ưu đãi 10% cho khách hàng Mytour khi mua sắm tại Lazada
                                            10/11/2015
                                            886
                                        Các khách hàng thân thương của Mytour ơi, nhanh tay đặt phòng và tham gia ngay chương trình “Online Revolution – Cách mạng mua sắm trực tuyến”, chương trình khuyến mãi siêu khủng và hấp dẫn nhất trong...
                                                Xem thêm
                                            ƯU ĐÃI ĐẶT PHÒNG DÀNH CHO CHỦ THẺ HD BANK
                                            07/11/2015
                                            585
                                        Từ ngày 06/11/2015 - 31/01/2016, Mytour hợp tác cùng HD Bank triển khai chương trình ưu đãi hấp dẫn du lịch mùa cuối năm dành tặng cho các chủ thẻ HD Bank với mức giảm giá 20% trên tổng giá trị đơn ph...
                                                Xem thêm
                                            ƯU ĐÃI 10% CHO KHÁCH HÀNG MYTOUR KHI ĐĂNG KÍ TẬP TẠI ST ...
                                            31/10/2015
                                            300
                                        Sức khỏe lúc nào cũng là điều quan trọng nhất trong cuộc sống của chúng ta, chính vì vậy mà Mytour đã có cơ hội hợp tác với Studio Five Yoga & Wellness để có thể mang đến cho khách hàng Mytour ưu đãi...
                                                Xem thêm
                                            Khách Sạn The Ann Khuyến Mãi Giảm 30%
                                            30/10/2015
                                            559
                                        Tọa lạc ngay giữa trung tâm thủ đô Hà Nội, chỉ cách phố cổ và bước chân và cách sân bay quốc tế Nội Bài 30 phút lái xe, cùng với kiến trúc thanh lịch và đội ngũ nhân viên chuyên nghiệp , Khách sạn The...
                                                Xem thêm
                «
                1
                2
                ..
            6
            7
            8
            9
            10
                ..
                13
                14
                »
                ×
                    Chính sách đảm bảo hoàn tiền của mytour
                    Bạn chưa tin tưởng việc đặt phòng khách sạn trực tuyến? Bạn e ngại rằng phòng khách sạn thực tế không đúng với thông tin trên website? Chúng tôi cam kết đưa đầy đủ và chính xác thông tin khách sạn trên website với chính sách “Đảm bảo Hoàn tiền”
                        Nếu khách hàng đặt khách sạn thành công trên Mytour nhưng khách sạn không có phòng, Mytour sẽ hoàn lại tiền cho khách và tặng kèm phiếu giảm giá có giá trị bằng với số tiền khách hàng đã trả.
                        Trong trường hợp loại phòng thực tế không đúng với loại phòng trên đơn hàng, Mytour sẽ quyết định nâng cấp miễn phí hoặc tặng phiếu giảm giá có giá trị bằng với số tiền khách hàng đã trả.
                        Trường hợp các tiện nghi phòng khách sạn (như bữa sáng, wifi…) không đúng với nội dung trên website, Mytour sẽ tặng phiếu giảm giá có giá trị bằng 10% số tiền khách đã trả (tối đa 500,000 VND)
                        Khách hàng cần gọi điện thoại 04-7309 9899 (Hà Nội), 08-7309 9899 (Hồ Chí Minh) hoặc email tới info@mytour.vn và cung cấp mã đơn hàng trong vòng 24 giờ từ lúc nhận phòng để được trợ giúp giải quyết khiếu nại (Hotline chỉ hỗ trợ trong giờ hành chính).
                        Mytour không chịu trách nhiệm bồi thường thiệt hại gián tiếp, ngẫu nhiên, hay do hậu quả phát sinh. Trong mọi trường hợp, trách nhiệm của Mytour không vượt quá tổng số tiền khách hàng thanh toán đặt phòng.
                ×
                    Đảm bảo giá tốt nhất
                    Nếu Thành viên đã đặt một phòng khách sạn được “Đảm Bảo” tại Mytour.vn và sau đó, cho Mytour.vn  thấy rằng Thành viên có thể đặt một phòng tương tự trong cùng khoảng thời gian ở mức giá tốt hơn có thể xem và đặt được trên một website khác, Mytour.vn sẽ giảm giá bằng hoặc thấp hơn mức giá đó.
                    Giá dùng để so sánh là giá sau khi áp dụng mức giảm giá công bố trên website Mytour.vn.
                    Chính sách “Đảm Bảo Giá Tốt Nhất” của Mytour.vn chỉ áp dụng cho các đặt phòng đã được xác nhận và phải thỏa mãn những điều kiện sau:
                Cùng khách sạnCùng thời gian nghỉ lạiCùng loại Phòng/GiườngCùng các yêu cầu mua Trước, yêu cầu trả trước và đặt cọc (nếu có)Cùng chính sách Hủy và Sửa Đổi
                    Phòng đó phải còn trống để được xác nhận ngay tại thời điểm các đại lý của Mytour.vn  kiểm tra phòng trống
                        Chính sách “Đảm Bảo Giá Tốt Nhất” không áp dụng cho các mức giá không công bố, như: chương trình khách hàng thân thiện.
                        Bất kỳ tổ chức nào với các mức giá dành cho nhóm cá nhân cụ thể và không nhằm mục đích áp dụng ra bên ngoài.
                        Thành viên có thể gửi khiếu nại theo địa chỉ : info@mytour.vn
                                Nêu mã đặt phòng Mytour.vn trong dòng tiêu đề thư
                                Gửi URL của website nơi Thành viên tìm thấy mức giá tốt hơn
                                Cung cấp ảnh chụp màn hình của website đối thủ cạnh tranh trong đó nêu rõ Phòng Trống, Loại Phòng, và các mức giá cho những ngày nghỉ lại theo yêu cầu của Thành viên.
                VUI LÒNG LƯU Ý: Thành viên không cần thực hiện đặt phòng trên website của đối thủ cạnh tranh, chỉ cần cho Mytour.vn thấy sự so sánh.
                ×
                Đăng Nhập
                                 Đăng nhập bằng tài khoản Facebook
                                 Đăng nhập bằng tài khoản Google
                            Hoặc đăng nhập bằng
                        Email*
                        Mật khẩu*
                        Quên mật khẩu?
                            Chưa có tài khoản/tạo tài khoản
                Đăng nhập
                         Nhớ đăng nhập
                ×
                Bản đồ
                    Tìm đường
                        Từ: 
                        Đến: 
                            Khách sạnĐịa danh Hiển thị các khách sạn ở gần Hiển thị các khu du lịch ở gần
                ×
                Yêu Cầu Lấy Giá
                                    Ngày nhận phòng
                                    Ngày trả phòng
                        Tên khách hàng
                        Email
                        Điện thoại
                        Nhân viên chăm sóc khách hàng sẽ gọi điện cho quý khách trong thời gian sớm nhất.
                        Quý khách có thể gọi điện đến cho Mytour để được tư vấn ngay:
                        Hà Nội: (04) 7109 9999, Hồ Chí Minh: (08) 7309 9899, Support
                            English: (+84)4-7309-9899.
                    Hoàn thành
                ×
                Gửi Thông Tin
                        Tên khách hàng
                        Email
                        Điện thoại
                            Quý khách sẽ thấy giá giảm ngay trên trang sau khi gửi thông tin
                    Hoàn thành
                ×
                Nhận Giá Tốt
                                    Ngày nhận phòng
                                    Ngày trả phòng
                        Tên khách hàng
                        Email
                        Điện thoại
                        Vì giá tốt không được công bố nên hệ thống sẽ gửi giá qua email đến quý khách và nhân viên chăm
                        sóc sẽ gọi điện cho quý khách trong thời gian sớm nhất.
                        Quý khách có thể gọi điện đến cho Mytour để được tư vấn ngay:
                        Hà Nội: (04) 7109 9999, Hồ Chí Minh: (08) 7309 9899, Support
                            English: (+84)4-7309-9899.
                    Hoàn thành
                ×
                ×
                ĐÁNH GIÁ 
                        Tên
                        Tiêu đề
                        Kiểu du lịch?
                                -- Chọn --Cá nhânCặp đôiGia đìnhBạn bèDoanh nghiệp
                        Nội dung
                                Đánh giá chi tiết
                                Chỗ ở
                                5
                                Thức ăn
                                5
                                Phương tiện
                                5
                                Hướng dẫn viên
                                5
                                Lịch trình
                                5
                    Gửi đánh giá
                    Hủy Bỏ
                ×
                Gửi lại email kích hoạt
                ×
                Thông tin chi tiết giá theo phòng
                    Chọn khoảng thời gian hiển thị giá phòng
                    Hiển thị giá
                ×
                Khóa phòng theo khoảng thời gian
                            Chọn khoảng thời gian check-in cần khóa/mở phòng
                            Khóa phòng
                            Mở phòng
                ×
                THUẾ VÀ PHÍ DỊCH VỤ
                17% thuế và phí dịch vụ bao gồm:
                    - 10% thuế và 5% phí dịch vụ hoàn trả lại cho khách sạn.
                    - 2% phí giao dịch tại Mytour.
                ×
                Bạn có hài lòng về website của Mytour?
                    Thông điệp nhắn nhủ:
                Mytour luôn mong muốn cải thiện dịch vụ để bạn có trải nghiệm tốt hơn!
                            Ảnh đính kèm
                        Đóng
                        Gửi
                ×
                    Những đóng góp của bạn đã được ghi nhận. Mytour cám ơn bạn !
                Quay lại website
                            Giới thiệu Mytour
                            Đối tác khách sạn
                            Đăng nhập HMS
                            Tích lũy Vpoint
                            Điều khoản sử dụng
                            Quy chế hoạt động
                            Tuyển dụng
                            Liên hệ
                            Đăng ký nhận email
                                Đăng ký email để nhận khuyến mãi lên đến 70%
                                    Đăng
                                    ký
                    Công ty TNHH Mytour Việt Nam
                    Số ĐKKD: 0105983269 cấp ngày 30/08/2012
                    Văn phòng Hà Nội: Tầng 4, tòa nhà GP Invest, 170 Đê La Thành, Đống Đa
                    Văn phòng HCM: Tầng 5, Tòa Nhà HDTC, Số 36 Bùi Thị Xuân, Q.1
                Hotline
                        Hà Nội:
                        (04) 7109 9999
                        Tp. HCM:
                        (08) 7309 9899
                        ENGLISH SUPPORT:
                        (+84)4 7309 9899
