url:http://mytour.vn/c55/resort-tai-thanh-hoa.html
Tittle :Resort Thanh Hoá giá tốt nhất - Mytour.vn
content :Đặt phòng trực tuyến, hoặc gọi
                                                            Hà Nội: (04) 7109 9999
                                                                                        - (04) 7309 9899
                                                            Hồ Chí Minh: (08) 7309 9899
                                                                                        - (08) 7109 9998
                        T2 - CN: 08:00 - 23:00
                    Toggle navigation
                                Bạn không có thông báo nào
                    |
                    ||
                                                            Tài khoản
                        Đăng nhập
                                Đăng kýKhách sạn yêu thích
                            Khách sạn
                            Tour
                            Cẩm nang du lịch
                            Thông tin
                                                Về Mytour
                                                Tin khuyến mãi
                                                Ưu đãi
                                                Hướng dẫn
                                                Liên hệ
                            Tốt nhất 2016
                ×
                Bạn có chắc muốn hủy đơn hàng?
                Lorem ipsum dolor sit amet, consectetur adipisicing elit. Iure corporis repudiandae nobis distinctio
                quae quos, officia modi, ab voluptatem pariatur ducimus mollitia, necessitatibus sed soluta dicta
                repellendus! Praesentium debitis, temporibus?
                    Đồng ý
                    Đóng
                    Khách sạnKhách sạn tại Thanh HoáResort tại Thanh Hoá
                    Áp dụng
                    Đóng
            Tìm Kiếm Khách Sạn
                            Ngày nhận phòng
                            Ngày trả phòng
                    Số đêm
                    Số phòng
                        123456789101112
                    Người lớn
                        123456789101112
                    Tìm khách sạn
                                Bộ lọc tìm kiếm
                                        Theo mức giá
                                                        Dưới 500.000
                                                        500.000 - 1.000.000
                                                        1.000.000 - 1.500.000
                                                        1.500.000 - 2.000.000
                                                        2.000.000 - 2.500.000
                                                        2.500.000 - 3.000.000
                                                        Trên 3.000.000
                                    Hạng Khách Sạn
                                    Loại khách sạn
                                                    Khách sạn
                                                    Resort
                                Tiện nghi
                                                Đưa đón khách sạn sân bay
                                                Bữa sáng miễn phí
                                                Bể bơi ngoài trời
                                                Bãi đỗ xe
                                                Phòng họp
                                                Phòng tập thể thao
                                                Thang máy
                                                Thêm giường phụ
                                                Truyền hình cáp/vệ tinh
                                                Wifi miễn phí
                                                Giặt là
                                                Nhà hàng
                                                Spa
            Quận huyện
                        Sầm Sơn 
                        Thành phố Thanh Hóa
                        Hoằng Hóa 
                        Tĩnh Gia 
                        Bá Thước 
                        Bỉm Sơn
                        Cẩm Thủy 
                        Hà Trung 
                        Hậu Lộc 
                        Lang Chánh 
                        Mường Lát 
                        Nga Sơn 
                        Ngọc Lặc 
                        Nông Cống 
                        Quan Hóa 
                        Quan Sơn 
                        Quảng Xương 
                        Thạch Thành 
                        Thiệu Hóa 
                        Thọ Xuân 
                        Thường Xuân 
                        Triệu Sơn 
                        Vĩnh Lộc 
                        Yên Định 
                        Đông Sơn 
                        Như Thanh
                        Như Xuân 
            Khu vực
                        Thành cổ Thanh Hóa
                        Thành Phố Thanh Hóa
                        Chợ Quảng Thắng
                        rừng Thông
                        Cảng Lễ Môn
                        Chợ Môi
                        Bưu điện Bút Sơn
                        Cầu phao Vồm
                        Đền thờ An Dương Vương
                        Bãi Biển Sầm Sơn
                        Biển Hải Tiến
                        Ga Nghĩa Trang
                        ga Yên Thái
                        Chợ Mới
                        chợ Phủ
                        chợ Vạn
                        Đền Bà Triệu
                        Khu du lịch biển Hải Tiến
                        núi con Voi
                        Chợ Giắt
                        hồ Mỏ Crôm
                        Đài Tưởng niệm các anh hùng liệt sĩ,
                        Rừng Sến quốc gia Tam Quy
                        Chợ Hưng Lộc
                        Chợ Gũ
                        Cầu Ghép
                        Chùa Báo Ân
                        Gò Bơn
                        khu nuôi trồng thủy sản Thanh Thủy
                        Phủ Na
                        chợ Sim
                        chợ Nông Cống
                        Chợ Khu
                        Hồ Đá Kẽm
                        Chợ Năm Tầng
                        Khu di tích chiến khu Ngọc Trạo
                        Ga Bỉm Sơn
                        Đền Hổ Bái
                        Chợ Đền Hà Long
                        Vườn Quốc gia Bến En
                        Mỏ đá Đông Sơn
                        Sân bay Thọ Xuân
                        Thành nhà Hồ
                        Chùa Tiên
                        hồ Đóng Bèo
                        chợ Yên Cát
                        hồ Yên Mỹ
                        Khu di tích Lam Kinh
                        Cầu Cẩm Phú
                        Cảng cá Hải Bình
                        Thị Trấn Thường Xuân
                        hồ Bỉnh Công
                        chợ Bãi Trành
                        Bến xe huyện Ngọc Lặc
                        Đảo Nghi Sơn
                        Hồ Thủy điện Cửa Đạt
                        Hạt Quản lý Đường bộ Cẩm Thủy
                        Suối Cá thần Cẩm Lương
                        Khu bảo tồn Thiên nhiên Xuân Liên
                        Hang cá thần Văn Nho
                        Chợ Cành Nàng
                        Xã Yên Khương
                        Hồ Con Rồng
                        Khu bảo tồn Thiên nhiên Pù Luông
                        Khu bảo tồn Thiên nhiên Pù Hu
                        Chợ Na Mèo
                        Thủy điện Trung Sơn
                        Cột mốc biên giới 311 Việt Nam- Lào
                        Khu bảo tồn Thiên nhiên Xuân Nha
                        Cửa khẩu Tén Tằn
             Giá tốt hơn so với đặt phòng trực
            tiếp tại khách sạn
             Đảm bảo 
            giá tốt nhất 
             Đảm bảo 
            hoàn tiền
             Nhân viên chăm sóc, tư vấn nhiều kinh nghiệm
             Hơn 5000 khách sạn tại Việt Nam với
            đánh giá thực
             Nhiều chương trình khuyến mãi và tích lũy điểm
             Thanh toán dễ dàng, đa dạng
                            Resort tại Thanh Hoá
                                     Xem Bản Đồ
                            Thanh Hóa là tỉnh cực Bắc miền Trung, một trong những địa điểm sinh sống đầu tiên của người Việt cổ. Đến với Thanh Hóa, bạn có thể tham cầu Hàm Rồng, bãi biển Sầm Sơn, Hải Hòa, vườn Cúc Phương... Hãy để Mytour hỗ trợ bạn để có 1 chuyến đi thú vị, tiết kiệm bằng cách đặt phòng resort  Thanh Hoá ngay bây giờ với giá từ 454,000 VND.
                                Có 5
                                khách sạn ở
                                đây theo ngày đã chọn
                        Ngày nhận phòng
                        Ngày trả phòng
                Số đêm
                Số phòng
                    123456789101112
                Người lớn
                    123456789101112
                Cập nhật ngày
                             Bộ lọc
                                            Phổ biến nhất
                                     Hạng khách sạn
                                                                                                Hạng sao [5...1]
                                                                                                Hạng sao [1...5]
                                            Đánh giá cao nhất
                                            Khuyến mãi
                                     Giá
                                                                                                Giá tăng dần
                                                                                                Giá giảm dần
                            Sắp xếp:
                            Đánh giá cao nhất
                        Phổ biến nhấtĐánh giá cao nhấtGiá tăng dầnGiá giảm dầnHạng tăng dầnHạng giảm dầnKhuyến mãi
                            FLC Luxury Resort Sầm Sơn
                             Quảng Cư, Sầm Sơn , Thanh Hoá 
                            (Xem bản đồ)
                            Bãi Biển Sầm Sơn
                                        “Fusion Resort Sầm Sơn Thanh Hóa có tiện nghi như phòng hội họp, dịch vụ Spa & Massage, đảm bảo quý khách có thời gian thư giãn tuyệt vời nhất.
                                        “
                                                Đảm bảo hoàn tiền
                                                Đảm bảo giá tốt nhất!
                                                            7.0
                                Đánh giá
                                    (1
                                        đánh giá)
                                Xem phòng
                            Vạn Chài Resort
                             Quảng Cư, Sầm Sơn , Thanh Hoá 
                            (Xem bản đồ)
                            Bãi Biển Sầm Sơn
                                        “Vạn Chài Resort Thanh Hóa có lối kiến trúc nghệ thuật, thơ mộng, thanh bình và yên tĩnh. Với hệ thống dịch vụ chu đáo và tận tâm, du khách đến đây sẽ có những trải nghiệm trên cả tuyệt vời tại Sầm Sơn...
                                        “
                                                Đảm bảo hoàn tiền
                                                Đảm bảo giá tốt nhất!
                                                            7.7
                                Đánh giá
                                    (142
                                        đánh giá)
                                Xem phòng
                            Eureka Linh Trường Resort
                             Hoằng Trường, Hoằng Hóa , Thanh Hoá 
                            (Xem bản đồ)
                            Khu du lịch biển Hải Tiến
                                        “Eureka Resort Thanh Hóa được nhiều du khách biết đến và lựa chọn bởi trang thiết bị tiện nghi, hiện đại, đội ngũ nhân viên nhiệt tình, chuyên nghiệp và các chương trình ưu đãi đặc biệt cho mọi du khác...
                                        “
                                                Đảm bảo hoàn tiền
                                                Đảm bảo giá tốt nhất!
                                                            7.1
                                Đánh giá
                                    (145
                                        đánh giá)
                                Xem phòng
                            Hải Tiến Resort
                             Xã Hoằng Tiến, Hoằng Hóa , Thanh Hoá 
                            (Xem bản đồ)
                            Khu du lịch biển Hải Tiến
                                        “Với vị trí thuận để bạn đễ dàng đi lại cho việc tham quan địa điểm tham quan nổi tiếng và thưởng thức những món đặc sản của nơi đây. Hải Tiến Resort - Thanh Hóa quả thật là một điểm đến đáng tin cậy....
                                        “
                                                Đảm bảo hoàn tiền
                                                Đảm bảo giá tốt nhất!
                                                            7.0
                                Đánh giá
                                    (42
                                        đánh giá)
                                Xem phòng
                            Puluong Retreat
                             Xã Pu luong huyện Bá Thước Tỉnh Thanh Hóa, Bá Thước , Thanh Hoá 
                            (Xem bản đồ)
                            Khu bảo tồn Thiên nhiên Pù Luông
                                                Đảm bảo hoàn tiền
                                                Đảm bảo giá tốt nhất!
                                Xem phòng
                                Thanh Hoá
                            Đặt phòng khách sạn Thanh Hóa giá tốt nhất tại Mytour.vn, với nhiều khuyến mãi từ website và đơn vị khách sạn tiết kiệm lên đến 70%. Hơn 150.000 đánh giá từ khách hàng đã qua sử dụng khách sạn giúp bạn đưa ra những quyết định tốt nhất cho lựa chọn của mình. Đặc biệt chính sách ĐẢM BẢO HOÀN TIỀN chỉ có tại Mytour.vn, giờ đây bạn có thể hoàn toàn tin tưởng vào dịch vụ đặt phòng trực tuyến.  Ngoài ra, chúng tôi cũng trân trọng giới thiệu đến bạn những khách sạn đoạt giải tại Thanh Hóa trong các hạng mục Best Seller và Top Review trên website Mytour.vn năm 2015. Đây là những khách sạn đạt tiêu chuẩn rất cao và làm hài lòng cả những vị khách khó tính nhất.Với hơn 5.000 khách sạn, resort tại 63 tỉnh/ thành phố, Mytour ngày càng được du khách tin dùng để tìm kiếm khách sạn. Mytour sẽ hỗ trợ quý khách đặt khách sạn Thanh Hóa với chi phí hợp lý để có chuyến đi thật thú vị và tiết kiệm. Ngoài việc cung cấp những khách sạn giá tốt nhất, bạn có còn có thể tìm thấy nhiều thông tin du lịch hữu ích và thú vị khác.  Thanh Hóa là tỉnh cực Bắc miền Trung Việt Nam, cách thủ đô Hà Nội khoảng 140 km về phía Nam và cách thành phố Hồ Chí Minh1.560 km về hướng Bắc. Đây là một tỉnh lớn của Việt Nam, đứng thứ 5 về diện tích và thứ 3 về dân số trong số các đơn vị hành chính trực thuộc trung ương, cũng là một trong những địa điểm sinh sống đầu tiên của người Việt. Thanh Hóa là tỉnh có tiềm năng về du lịch. Hàng năm du lịch Thanh Hóa năm đón tiếp gần 1,7 triệu lượt khách, chủ yếu là khách trong nước đến tham quan nghỉ mát tại đô thị du lịch biển Sầm Sơn.  Khi đặt khách sạn tại Thanh Hóa, Mytour với hệ thống đặt phòng có hơn 60 khách sạn được trang bị đầy đủ tiện nghi hiện đại cùng với dịch vụ chăm sóc khách hàng hoàn hảo sẽ mang lại cho bạn những trải nghiệm thú vị.  Du lịch Thanh Hóa bạn sẽ được tham quan những thắng cảnh nổi tiếng nơi đây như:                               Biển Sầm Sơn: từ thành phố rẽ hướng đông tỉnh lộ 8, du khách đi khoảng 16km thì sẽ tới thị xã Sầm Sơn. Nơi đây từ lâu ai cũng biết có một bãi tắm lý tưởng. Đầu thế kỷ, một nhà học giả người Pháp là Le Breton đã có nhận xét về bãi tắm Sầm Sơn: “ đây là bãi tắm tốt nhất để phục hồi sức khỏe”, vì bãi biển này chỉ là một nơi nghỉ ngơi, chu không phải như bãi biển thông thường ở Đồ Sơn vả lại nước biển ở đây rất trong. Điều đáng chú ý là bãi tắm Sầm Sơn có một dải cát trắng mịn, chạy thoai thoải ra khơi, không hề có đá ngầm hoặc các mảnh vỏ sò, ốc sóng bạc đầu vỗ vừa phải, nên người tắm có thể ra xa bờ hàng trăm mét mà vẫn an toàn, thú vị. Song cũng do đặc điểm này của bãi tắm nên một số người cứ mãi miết bơi ra xa đến khi muốn trở lại vào bờ thì đã mệt sức nên lại bị sóng ngầm cuốn trở ra và xói cát dưới đáy thành những lạch sâu không lường trước được nên dễ xảy ra tai nạn. Vì thế số người mê tín đã cho rằng thần biển ở đây rất dữ, hàng năm thế nào cũng phải hiến thân một sinh mạng. Bãi tắm Sầm Sơn chạy dài hàng chục cây số, từ chân núi Trường Lệ đến xã Quảng Tiến phía Bắc gồm ba bãi tắm.  Cầu Hàm Rồng: Ai đã từng vào Nam ra Bắc, qua niềm “đất lửa” năm xưa, nơi sơn thủy hữu tình, khí thiêng hội tụ, phát tích nền văn hóa Đông Sơn hẳn còn lưu giữa hình ảnh cầu Hàm Rồng nối đôi bờ Sông Mã, gối đầu lên núi Ngọc, núi Rồng; dòng sông xanh lặng lờ uốn khúc chở nặng phù sa, mang theo điệu hò neo đậu lòng người ngược xuôi của những chàng trai cô gái xứ Thanh… Cầu Hàm Rồng có vị trí giao thông rất quan trọng là cầu đường sắt duy nhất đi qua sông Mã. Đây là cây cầu rất nổi tiếng trong chiến tranh Việt Nam là trọng điểm của cuộc đấu tranh đánh phá và bảo vệ giao thông. Không lực Hoa Kỳ liên tục đánh phá với cường độ rất cao và với các chiến thuật khác nhau. Các đơn vị bảo vệ cầu đã chiến đấu hàng trăm trận, bắn rơi hơn 100 máy bay các loại. Không quân Việt Nam tại đây bắn rơi 4 máy bay Mỹ. Trung đoàn pháo phòng không 228 bảo vệ cầu Hàm Rồng đã bắn rơi 90 máy bay, được phong danh hiệu Anh hùng lực lượng vũ trang Nhân dân và được mang tên Đoàn Hàm Rồng. Vị thế của cầu rất đặc biệt làm cho cầu rất khó bị bom đánh trúng: tại hai đầu Bắc và Nam của cầu có hai hòn núi (núi Rồng và núi Ngọc) đã chắn hết các bom định ném xuống cầu và là nơi các lực lượng phòng không bảo vệ cầu bắn đón đầu các máy bay oanh tạc phải bay theo một hướng bắt buộc.  Hang Cá Cẩm Lương: Khu du lịch Suối cá Cẩm Lương hay còn gọi là "suối cá thần" là một trong những điểm du lịch sinh thái “độc nhất, vô nhị” của tỉnh Thanh Hóa nói riêng và của cả nước nói chung, bởi nơi đây có rất nhiều các loài cá đẹp, nhiều màu sắc. Cảnh vật của khu du lịch còn hoang sơ, với hệ thống hang động và rừng nguyên sinh rộng lớn. Việc công bố quy hoạch chi tiết khu du lịch Suối cá Cẩm Lương sẽ tạo tiền đề thu hút nhiều khách du lịch và các nhà đầu tư đến tham quan, làm ăn tại khu du lịch này.  Hòn Trống Mái: Trên đường từ đền Độc Cước đến đền Cô Tiên, du khách sẽ gặp hai hòn đá lớn, chồng lên trên một bệ đá chênh vênh, lấy tay đẩy còn thấy rung rinh, ấy thế mà chúng đã đứng trụ vững chãi với mưa, gió, không biết tự thuở nào. Hòn trống mái có 3 tảng đá xếp trồng lên nhau. Một hòn có đầu nhọn nằm chồng lên trên trông giống hình dáng con gà trống; hòn đối diện nhỏ hơn, có dáng tựa con gà mái. Các khối đá có hình dáng đẹp thơ mộng được gắn với truyền thuyết về một mối tình chung thủy, đã cùng nhau chết trong một trân đại hồng thuỷ và đặt tên là hòn Trống Mái.  Bên cạnh đó, một yếu tố khác thu hút khách du lịch đó chính là nền ẩm thực phong phú và đa dạng. Lưu trú tại Thanh Hóa, quý khách sẽ được thưởng thức đặc sản nổi tiếng như nem chua, chè lam Phủ Quảng, dê núi đá, gà đồi, bánh gai Tứ Trụ, các món chế biến từ hến làng Giàng, bánh đa cầu Bố, mía đen Kim Tân, chim mía và hải sản.  Hãy nhanh tay đặt tour tại Thanh Hóa qua hệ thống đặt phòng, đặt tour trực tuyến của Mytour để chúng tôi có thể hỗ trợ quý khách có một chuyến đi thật thú vị và tiết kiệm với chi phí hợp lý nhất!  Đến với Mytour.vn, bạn sẽ có cơ hội đặt phòng khách sạn giá rẻ tại Thanh Hóa cùng nhiều chương trình khuyến mại hấp dẫn chỉ dành riêng cho khách hàng Mytour nữa đấy!
            Địa danh ở gần
                                    Ga Thanh Hóa
                                     ~ 0km
                                    Biển Hải Hòa
                                     ~ 0km
                                    Chùa Thanh Hà Thanh Hóa
                                     ~ 0.02km
                                                                Chùa Thanh Hà là ngôi chùa lớn của tỉnh Thanh Hóa, khởi nguyên là ngôi chùa làng và ra đời đồng thời với Đức Thọ Vạn. Gần chùa Thanh Hà có các địa danh như: biển Sầm Sơn, thành Nhà Hồ, suối Cá Thần. Hãy để Mytour hỗ trợ bạn để có 1 chuyến đi thú vị, tiết kiệm bằng cách đặt phòng khách sạn gần chùa Thanh Hà Thanh Hóa ngay bây giờ với giá rẻ nhất.
                                    Thanh Hóa
                                     ~ 0.02km
                                                                Thanh Hóa là một tỉnh lớn của Việt Nam, đứng thứ 5 về diện tích và thứ 3 về dân số trong số các đơn vị hành chính trực thuộc trung ương. Tại Thanh Hóa có các địa danh như: Khu di tích lịch sử Lam Kinh, thành Nhà Hồ. Hãy để Mytour hỗ trợ bạn để có 1 chuyến đi thú vị, tiết kiệm bằng cách đặt phòng khách sạn tại Thanh Hóa ngay bây giờ với giá rẻ nhất.
                                    Nhà thờ Chánh tòa Thanh Hóa 
                                     ~ 1.07km
                                                                Nhà thờ Chánh tòa Thanh Hóa là nơi sinh hoạt văn hóa tín ngưỡng và các hoạt động từ thiện của người dân địa phương. Gần nhà thờ Chánh tòa Thanh Hóa có các địa danh như: biển Sầm Sơn, hòn Trống Mai. Hãy để Mytour hỗ trợ bạn để có 1 chuyến đi thú vị, tiết kiệm bằng cách đặt phòng khách sạn gần nhà thờ Chánh tòa Thanh Hóa ngay bây giờ với giá rẻ nhất.
                                    Cầu Hàm Rồng Thanh Hoá
                                     ~ 3.63km
                                                                Cầu Hàm Rồng Thanh Hoá là một trong những thắng cảnh nổi tiếng, đồng thời cũng là một địa danh ghi dấu lịch sử oai hùng của dân tộc ta. Gần cầu Hàm Rồng có các địa danh như: biển Sầm Sơn, hòn Trống Mái. Hãy để Mytour hỗ trợ bạn để có 1 chuyến đi thú vị, tiết kiệm bằng cách đặt phòng khách sạn gần cầu Hàm Rồng Thanh Hóa ngay bây giờ với giá rẻ nhất.
                                    Trường THPT Quảng Xương 2
                                     ~ 8.07km
                                                                Trường THPT Quảng Xương 2 nằm tại huyện Quảng Xương, Thanh Hóa. Từ đây, du khách có cơ hội đến thăm các địa điểm như: Từ Đường họ Nguyễn Công, Chùa Yên Cát, Đền thờ An Dương Vương Mị Châu… Hãy để Mytour hỗ trợ bạn để có 1 chuyến đi thú vị, tiết kiệm bằng cách đặt phòng khách sạn khu vực Trường THPT Quảng Xương 2 bây giờ với giá rẻ nhất.
                                    Biển Hải Tiến
                                     ~ 12.07km
                                                                Biển Hải Tiến có bãi biển thoải dài, ẩn chứa nét hoang sơ, cảnh quan tự nhiên hấp dẫn thu hút nhiều khách du lịch trong và ngoài nước. Gần biển Hải Tiến có các địa danh như: núi Rồng, động Tiên Sơn, hồ Kim Quy. Hãy để Mytour hỗ trợ bạn để có 1 chuyến đi thú vị, tiết kiệm bằng cách đặt phòng khách sạn gần biển Hải Tiến ngay bây giờ với giá rẻ nhất.
                                    Chùa Cô Tiên
                                     ~ 13.93km
                                                                Chùa Cô Tiên không chỉ là điểm đến tâm linh mà còn là điểm tham quan cho du khách những ngày nghỉ dưỡng tại Sầm Sơn khi bạn du lịch Thanh Hóa. Gần chùa Cô Tiên có các địa danh như: hòn Trống Mái, biển Sầm Sơn. Hãy để Mytour hỗ trợ bạn để có 1 chuyến đi thú vị, tiết kiệm bằng cách đặt phòng khách sạn gần chùa Cô Tiên ngay bây giờ với giá rẻ nhất.
                                    Bãi biển Sầm Sơn
                                     ~ 14.08km
                                                                Bãi biển Sầm Sơn là một trong những khu du lịch nghỉ mát nổi tiếng của Việt Nam sở hữu nhiều danh lam thắng cảnh nổi tiếng. Gần bãi biển Sầm Sơn có các địa danh như: núi Trường Lệ, hòn Trống Mái. Hãy để Mytour hỗ trợ bạn để có 1 chuyến đi thú vị, tiết kiệm bằng cách đặt phòng khách sạn gần bãi biển Sầm Sơn ngay bây giờ với giá rẻ nhất.
                                    Hòn Trống Mái
                                     ~ 14.31km
                                                                Hòn Trống Mái là một danh thắng nổi tiếng của Sầm Sơn nói riêng và của tỉnh Thanh Hoá nói chung. Gần hòn Trống Mái có các điểm tham quan hấp dẫn như: biển Sầm Sơn, cầu Hàm Rồng, chùa Cô Tiên. Hãy để Mytour hỗ trợ bạn để có 1 chuyến đi thú vị, tiết kiệm bằng cách đặt phòng khách sạn gần hòn Trống Mái ngay bây giờ với giá rẻ nhất.
                                    Đền Độc Cước
                                     ~ 14.72km
                                                                Đền Độc Cước nằm trên đỉnh núi Cổ Giải thuộc dãy núi Trường Lệ ở khu du lịch Sầm Sơn, ngay cạnh bãi biển Sầm Sơn. Gần đền Độc Cước có các địa danh như: biển Sầm Sơn, hòn Trống Mái, chùa Cô Tiên. Hãy để Mytour hỗ trợ bạn để có 1 chuyến đi thú vị, tiết kiệm bằng cách đặt phòng khách sạn gần đền Độc Cước ngay bây giờ với giá rẻ nhất.
                 Du lịch Thanh Hoá 
                ×
                    Chính sách đảm bảo hoàn tiền của mytour
                    Bạn chưa tin tưởng việc đặt phòng khách sạn trực tuyến? Bạn e ngại rằng phòng khách sạn thực tế không đúng với thông tin trên website? Chúng tôi cam kết đưa đầy đủ và chính xác thông tin khách sạn trên website với chính sách “Đảm bảo Hoàn tiền”
                        Nếu khách hàng đặt khách sạn thành công trên Mytour nhưng khách sạn không có phòng, Mytour sẽ hoàn lại tiền cho khách và tặng kèm phiếu giảm giá có giá trị bằng với số tiền khách hàng đã trả.
                        Trong trường hợp loại phòng thực tế không đúng với loại phòng trên đơn hàng, Mytour sẽ quyết định nâng cấp miễn phí hoặc tặng phiếu giảm giá có giá trị bằng với số tiền khách hàng đã trả.
                        Trường hợp các tiện nghi phòng khách sạn (như bữa sáng, wifi…) không đúng với nội dung trên website, Mytour sẽ tặng phiếu giảm giá có giá trị bằng 10% số tiền khách đã trả (tối đa 500,000 VND)
                        Khách hàng cần gọi điện thoại 04-7309 9899 (Hà Nội), 08-7309 9899 (Hồ Chí Minh) hoặc email tới info@mytour.vn và cung cấp mã đơn hàng trong vòng 24 giờ từ lúc nhận phòng để được trợ giúp giải quyết khiếu nại (Hotline chỉ hỗ trợ trong giờ hành chính).
                        Mytour không chịu trách nhiệm bồi thường thiệt hại gián tiếp, ngẫu nhiên, hay do hậu quả phát sinh. Trong mọi trường hợp, trách nhiệm của Mytour không vượt quá tổng số tiền khách hàng thanh toán đặt phòng.
                ×
                    Đảm bảo giá tốt nhất
                    Nếu Thành viên đã đặt một phòng khách sạn được “Đảm Bảo” tại Mytour.vn và sau đó, cho Mytour.vn  thấy rằng Thành viên có thể đặt một phòng tương tự trong cùng khoảng thời gian ở mức giá tốt hơn có thể xem và đặt được trên một website khác, Mytour.vn sẽ giảm giá bằng hoặc thấp hơn mức giá đó.
                    Giá dùng để so sánh là giá sau khi áp dụng mức giảm giá công bố trên website Mytour.vn.
                    Chính sách “Đảm Bảo Giá Tốt Nhất” của Mytour.vn chỉ áp dụng cho các đặt phòng đã được xác nhận và phải thỏa mãn những điều kiện sau:
                Cùng khách sạnCùng thời gian nghỉ lạiCùng loại Phòng/GiườngCùng các yêu cầu mua Trước, yêu cầu trả trước và đặt cọc (nếu có)Cùng chính sách Hủy và Sửa Đổi
                    Phòng đó phải còn trống để được xác nhận ngay tại thời điểm các đại lý của Mytour.vn  kiểm tra phòng trống
                        Chính sách “Đảm Bảo Giá Tốt Nhất” không áp dụng cho các mức giá không công bố, như: chương trình khách hàng thân thiện.
                        Bất kỳ tổ chức nào với các mức giá dành cho nhóm cá nhân cụ thể và không nhằm mục đích áp dụng ra bên ngoài.
                        Thành viên có thể gửi khiếu nại theo địa chỉ : info@mytour.vn
                                Nêu mã đặt phòng Mytour.vn trong dòng tiêu đề thư
                                Gửi URL của website nơi Thành viên tìm thấy mức giá tốt hơn
                                Cung cấp ảnh chụp màn hình của website đối thủ cạnh tranh trong đó nêu rõ Phòng Trống, Loại Phòng, và các mức giá cho những ngày nghỉ lại theo yêu cầu của Thành viên.
                VUI LÒNG LƯU Ý: Thành viên không cần thực hiện đặt phòng trên website của đối thủ cạnh tranh, chỉ cần cho Mytour.vn thấy sự so sánh.
                ×
                Đăng Nhập
                                 Đăng nhập bằng tài khoản Facebook
                                 Đăng nhập bằng tài khoản Google
                            Hoặc đăng nhập bằng
                        Email*
                        Mật khẩu*
                        Quên mật khẩu?
                            Chưa có tài khoản/tạo tài khoản
                Đăng nhập
                         Nhớ đăng nhập
                ×
                Bản đồ
                                            Thanh Hoá
                    Tìm đường
                        Từ: 
                        Đến: 
                            Khách sạnĐịa danh Hiển thị các khách sạn ở gần Hiển thị các khu du lịch ở gần
                ×
                Yêu Cầu Lấy Giá
                                    Ngày nhận phòng
                                    Ngày trả phòng
                        Tên khách hàng
                        Email
                        Điện thoại
                        Nhân viên chăm sóc khách hàng sẽ gọi điện cho quý khách trong thời gian sớm nhất.
                        Quý khách có thể gọi điện đến cho Mytour để được tư vấn ngay:
                        Hà Nội: (04) 7109 9999, Hồ Chí Minh: (08) 7309 9899, Support
                            English: (+84)4-7309-9899.
                    Hoàn thành
                ×
                Gửi Thông Tin
                        Tên khách hàng
                        Email
                        Điện thoại
                            Quý khách sẽ thấy giá giảm ngay trên trang sau khi gửi thông tin
                    Hoàn thành
                ×
                Nhận Giá Tốt
                                    Ngày nhận phòng
                                    Ngày trả phòng
                        Tên khách hàng
                        Email
                        Điện thoại
                        Vì giá tốt không được công bố nên hệ thống sẽ gửi giá qua email đến quý khách và nhân viên chăm
                        sóc sẽ gọi điện cho quý khách trong thời gian sớm nhất.
                        Quý khách có thể gọi điện đến cho Mytour để được tư vấn ngay:
                        Hà Nội: (04) 7109 9999, Hồ Chí Minh: (08) 7309 9899, Support
                            English: (+84)4-7309-9899.
                    Hoàn thành
                ×
                ×
                ĐÁNH GIÁ 
                        Tên
                        Tiêu đề
                        Kiểu du lịch?
                                -- Chọn --Cá nhânCặp đôiGia đìnhBạn bèDoanh nghiệp
                        Nội dung
                                Đánh giá chi tiết
                                Chỗ ở
                                5
                                Thức ăn
                                5
                                Phương tiện
                                5
                                Hướng dẫn viên
                                5
                                Lịch trình
                                5
                    Gửi đánh giá
                    Hủy Bỏ
                ×
                Gửi lại email kích hoạt
                ×
                Thông tin chi tiết giá theo phòng
                    Chọn khoảng thời gian hiển thị giá phòng
                    Hiển thị giá
                ×
                Khóa phòng theo khoảng thời gian
                            Chọn khoảng thời gian check-in cần khóa/mở phòng
                            Khóa phòng
                            Mở phòng
                ×
                THUẾ VÀ PHÍ DỊCH VỤ
                17% thuế và phí dịch vụ bao gồm:
                    - 10% thuế và 5% phí dịch vụ hoàn trả lại cho khách sạn.
                    - 2% phí giao dịch tại Mytour.
                ×
                Bạn có hài lòng về website của Mytour?
                    Thông điệp nhắn nhủ:
                Mytour luôn mong muốn cải thiện dịch vụ để bạn có trải nghiệm tốt hơn!
                            Ảnh đính kèm
                        Đóng
                        Gửi
                ×
                    Những đóng góp của bạn đã được ghi nhận. Mytour cám ơn bạn !
                Quay lại website
            Khách sạn theo các tỉnh thành
                        An Giang
                        Bà Rịa - Vũng Tàu
                        Bắc Giang
                        Bắc Kạn
                        Bạc Liêu
                        Bắc Ninh
                        Bến Tre
                        Bình Định
                        Bình Dương
                        Bình Phước
                        Bình Thuận
                        Cà Mau
                        Cần Thơ
                        Cao Bằng
                        Đà Lạt
                        Đà Nẵng
                        Đắk Nông
                        Đắk Lắk
                        Điện Biên
                        Đồng Nai
                        Đồng Tháp
                        Gia Lai
                        Hà Giang
                        Hạ Long
                        Hà Nam
                        Hà Nội
                        Hà Tĩnh
                        Hải Dương
                        Hải Phòng
                        Hậu Giang
                        Hồ Chí Minh
                        Hoà Bình
                        Hội An
                        Hưng Yên
                        Khánh Hòa
                        Kiên Giang
                        Kon Tum
                        Lai Châu
                        Lâm Đồng
                        Lạng Sơn
                        Lào Cai
                        Long An
                        Nam Định
                        Nghệ An
                        Nha Trang
                        Ninh Bình
                        Ninh Thuận
                        Phan Thiết
                        Phú Quốc
                        Phú Thọ
                        Phú Yên
                        Quảng Bình
                        Quảng Nam
                        Quảng Ngãi
                        Quảng Ninh
                        Quảng Trị
                        Sa Pa
                        Sóc Trăng
                        Sơn La
                        Tây Ninh
                        Thái Bình
                        Thái Nguyên
                        Thanh Hoá
                        Thành Phố Huế
                        Thừa Thiên Huế
                        Tiền Giang
                        Trà Vinh
                        Tuyên Quang
                        Vĩnh Long
                        Vĩnh Phúc
                        Vũng Tàu
                        Yên Bái
                Du lịch Thanh Hoá
                                Du lịch Sầm Sơn 
                                Du lịch Thành phố Thanh Hóa
                                Du lịch Tĩnh Gia 
                                Du lịch Bá Thước 
                                Du lịch Cẩm Thủy 
                                Du lịch Thọ Xuân 
                                Du lịch Hậu Lộc 
                                Du lịch Hoằng Hóa 
                                Du lịch Vĩnh Lộc 
                                Du lịch Yên Định 
                            Giới thiệu Mytour
                            Đối tác khách sạn
                            Đăng nhập HMS
                            Tích lũy Vpoint
                            Điều khoản sử dụng
                            Quy chế hoạt động
                            Tuyển dụng
                            Liên hệ
                            Đăng ký nhận email
                                Đăng ký email để nhận khuyến mãi lên đến 70%
                                    Đăng
                                    ký
                    Công ty TNHH Mytour Việt Nam
                    Số ĐKKD: 0105983269 cấp ngày 30/08/2012
                    Văn phòng Hà Nội: Tầng 4, tòa nhà GP Invest, 170 Đê La Thành, Đống Đa
                    Văn phòng HCM: Tầng 5, Tòa Nhà HDTC, Số 36 Bùi Thị Xuân, Q.1
                Hotline
                        Hà Nội:
                        (04) 7109 9999
                        Tp. HCM:
                        (08) 7309 9899
                        ENGLISH SUPPORT:
                        (+84)4 7309 9899
