url:http://mytour.vn/11625-khach-san-lavender-nha-trang.html
Tittle :Khách Sạn Lavender Nha Trang  - Khánh Hòa giá tốt nhất - Mytour.vn
content :Đặt phòng trực tuyến, hoặc gọi
                                                            Hà Nội: (04) 7109 9999
                                                                                        - (04) 7309 9899
                                                            Hồ Chí Minh: (08) 7309 9899
                                                                                        - (08) 7109 9998
                        T2 - CN: 08:00 - 23:00
                    Toggle navigation
                                Bạn không có thông báo nào
                    |
                    ||
                                                            Tài khoản
                        Đăng nhập
                                Đăng kýKhách sạn yêu thích
                            Khách sạn
                            Tour
                            Cẩm nang du lịch
                            Thông tin
                                                Về Mytour
                                                Tin khuyến mãi
                                                Ưu đãi
                                                Hướng dẫn
                                                Liên hệ
                            Tốt nhất 2016
                ×
                Bạn có chắc muốn hủy đơn hàng?
                Lorem ipsum dolor sit amet, consectetur adipisicing elit. Iure corporis repudiandae nobis distinctio
                quae quos, officia modi, ab voluptatem pariatur ducimus mollitia, necessitatibus sed soluta dicta
                repellendus! Praesentium debitis, temporibus?
                    Đồng ý
                    Đóng
                    Khách sạnKhánh HòaNha TrangKhách sạn gần Biển / Đường Trần PhúKhách Sạn Lavender Nha Trang 
                    Đóng
            Tìm Kiếm Khách Sạn
                            Ngày nhận phòng
                            Ngày trả phòng
                    Số đêm
                    Số phòng
                        123456789101112
                    Người lớn
                        123456789101112
                    Tìm khách sạn
                Giá tốt hơn so với đặt phòng trực tiếp tại khách sạn
                Đảm bảo 
                giá tốt nhất
                Đảm bảo 
                hoàn tiền
                Nhân viên chăm sóc, tư vấn nhiều kinh nghiệm
                Hơn 5000 khách sạn tại Việt Nam với đánh giá thực
                Nhiều chương trình khuyến mãi và tích lũy điểm
                Thanh toán dễ dàng, đa dạng
                        Khách Sạn Lavender Nha Trang 
                            (Cung cấp bởi khách sạn)
                                    Tất cả thông tin về tiêu chuẩn khách sạn trên website mytour.vn
                                    là do khách sạn tự cung cấp, chỉ mang tính chất tham khảo và không nhất thiết trùng
                                    hợp với hạng
                                    sao được cấp bởi sở Văn Hoá, Thể thao và du lịch.
                             98C/4 Trần Phú, Nha Trang, Khánh Hòa 
                                Đặt phòng ngay giữ giá tốt
                                Đã thích
                                        8.1
                                            (177
                                            đánh giá)
                                Giới thiệu về Khách Sạn Lavender Nha Trang  
                                    Khách sạn Lavender Nha Trang tọa lạc vị trí cực kỳ lý tưởng, nằm gần bờ biển tuyệt đẹp và trung tâm khu phố tây, Từ khách sạn quí khách có thể ngắm nhìn vẻ đẹp hùng vĩ của Vịnh Nha Trang, một trong 29 Vịnh đẹp nhất thế giới được Unesco công nhận. Hơn nữa, sẽ rất thuận tiện cho Quí khách chọn lựa các dịch vụ sử dụng từ mua sắm, tour du lịch, cà phê, siêu thị. Vì khách sạn nằm trong trung tâm thành phố Nha Trang.
Với 45 phòng nghỉ, phong phú và đa dạng các loại phòng, đặc biệt Khách sạn Lavender Nha Trang có hạng phòng ngủ cao cấp dành cho Khách VIP và phòng cho khách gia đình rất tiện nghi với giá cả hợp lí.
Nhà hàng vị trí tại tầng 2 với sức chứa 45-50 khách. Chuyên phục vụ buffet sáng và các món ăn ẩm thực: Á, Âu và các món ăn truyền thống ba miền của Việt Nam sẽ làm hài lòng quý khách.
Với lối kiến trúc độc đáo, sang trọng kết hợp kiến trúc Âu-Á, rất ấm cúng và tiện nghi, cùng với những dịch vụ tiện ích đẳng cấp và chuyên nghiệp. Cung cách phục vụ tận tâm, nhiệt tình của nhân viên khách sạn, sẽ để lại ấn tượng đẹp và sâu sắc cho quí khách khi đến lưu trú tại đây.
Từ Khách sạn Lavender Nha Trang, khách du lịch sẽ được thoả sức đắm chìm trong những cảnh đẹp của Khánh Hòa như bãi biển Cà Ná, bãi biển Nha Trang, chợ đêm, tháp Trầm Hương, công viên nước Phù Đổng… Quý khách có thể tự thiết kế riêng cho mình một lịch trình tham quan, nghỉ dưỡng hoặc đặt tour du lịch khám phá các địa danh nổi tiếng tại quầy khách sạn để có được chuyến đi đáng nhớ nhất.
Đến với Mytour.vn, quý khách sẽ có cơ hội đặt khách sạn giá rẻ nhất cùng với nhiều chương trình khuyến mại hấp dẫn chỉ dành riêng cho khách hàng của Mytour.
Còn chần chừ gì nữa, hãy nhanh tay đặt phòng khách Sạn tại Khách sạn Lavender Nha Trang trên Mytour và tận hưởng kì nghỉ thú vị của quý khách ngay từ bây giờ nhé!
 
                                        Xem thêm 
                                Chọn ngày để xem giá và phòng trống
                                    Đảm bảo giá tốt nhất
                                                                            Giá ưu đãi chỉ dành cho khách nội địa.
                                                Ngày nhận phòng
                                                Ngày trả phòng
                                        Số đêm
                                        Số phòng
                                            123456789101112
                                        Người lớn
                                            123456789101112
                                        Cập nhật giá
                                Lưu ý: Vui lòng ẩn "Cập nhật giá" để cập nhật phòng
                                Chọn phòng Khách Sạn Lavender Nha Trang 
                                                Loại Phòng
                                                Giá 1 đêm
                                                Số phòng
                                                Đặt phòng
                                                                    Deluxe (Hill view & City view)
                                                                        Điều kiện hủy phòng
                                                        ** Chính sách trẻ em :Thêm người : 300.000đMiễn phí cho 2 trẻ em dưới 05 tuổi hoặc trẻ em có chiều cao dưới 0,9m ngủ chung với bố mẹ.Tính 50% phí của người ở thêm cho trẻ em từ 05 đến 10 tuổi,hoặc trẻ em có chiều cao 0,9m đến 1,4m.Tính 50% phí của người ở thêm cho trẻ em dưới 5 tuổi nếu yêu cầu giường cho bé.Tính phí như người ở thêm cho trẻ trên 10 tuổi hoặc trẻ em có chiều cao trên 1,4m
 
                                                        phòng
                                                                                                                                                                            012345
                                                            Đặt ngay
                                                            Xác nhận ngay
                                                                    Superior
                                                                        Điều kiện hủy phòng
                                                        ** Chính sách trẻ em :Thêm người : 300.000đMiễn phí cho 2 trẻ em dưới 05 tuổi hoặc trẻ em có chiều cao dưới 0,9m ngủ chung với bố mẹ. Tính 50% phí của người ở thêm cho trẻ em từ 05 đến 10 tuổi,hoặc trẻ em có chiều cao 0,9m đến 1,4m.Tính 50% phí của người ở thêm cho trẻ em dưới 5 tuổi nếu yêu cầu giường cho bé.Tính phí như người ở thêm cho trẻ trên 10 tuổi hoặc trẻ em có chiều cao trên 1,4m
 
                                                        phòng
                                                                                                                                                                            0123456
                                                            Đặt ngay
                                                            Xác nhận ngay
                                                                    Senior Deluxe 
                                                                        Điều kiện hủy phòng
                                                        ** Chính sách trẻ em :Thêm người : 300.000đMiễn phí cho 2 trẻ em dưới 05 tuổi hoặc trẻ em có chiều cao dưới 0,9m ngủ chung với bố mẹ.Tính 50% phí của người ở thêm cho trẻ em từ 05 đến 10 tuổi,hoặc trẻ em có chiều cao 0,9m đến 1,4m.Tính 50% phí của người ở thêm cho trẻ em dưới 5 tuổi nếu yêu cầu giường cho bé.Tính phí như người ở thêm cho trẻ trên 10 tuổi hoặc trẻ em có chiều cao trên 1,4m
 
                                                        phòng
                                                                                                                                                                            012345
                                                            Đặt ngay
                                                            Xác nhận ngay
                                                                    Deluxe Triple
                                                                        Điều kiện hủy phòng
                                                        ** Chính sách trẻ em :Thêm người : 300.000đMiễn phí cho 2 trẻ em dưới 05 tuổi hoặc trẻ em có chiều cao dưới 0,9m ngủ chung với bố mẹ.Tính 50% phí của người ở thêm cho trẻ em từ 05 đến 10 tuổi,hoặc trẻ em có chiều cao 0,9m đến 1,4m.Tính 50% phí của người ở thêm cho trẻ em dưới 5 tuổi nếu yêu cầu giường cho bé.Tính phí như người ở thêm cho trẻ trên 10 tuổi hoặc trẻ em có chiều cao trên 1,4m
 
                                                        phòng
                                                                                                                                                                            0123
                                                            Đặt ngay
                                                            Xác nhận ngay
                                    Tiện nghi Khách Sạn Lavender Nha Trang  
                                                Đưa đón khách sạn sân bay
                                                Bữa sáng miễn phí
                                                Bãi đỗ xe
                                                Cửa hàng lưu niệm
                                                Internet
                                                Internet (không dây)
                                                internet ( miễn phí )
                                                Phòng hút thuốc
                                                Thang máy
                                                Thêm giường phụ
                                                Truyền hình cáp/vệ tinh
                                                Wifi miễn phí
                                                Giặt là
                                                Hỗ trợ đặt tour
                                                Nhà hàng
                                                Quán cafe
                                                Thuê xe, taxi
                                                Tiếp tân 24/24
                                                vé tàu xe, máy bay
                                                Đổi tiền
                                                Massage
                                                Tắm nước nóng
                                Ghi chú: Ăn sáng miễn phí (nếu có) có thể thay đổi theo phòng và ngày
                                    Chính sách Khách Sạn Lavender Nha Trang  
                                        Giờ nhận
                                        phòng: 14:00
                                        Giờ trả
                                        phòng: 12:00
            Đánh giá Khách Sạn Lavender Nha Trang 
                Viết đánh giá
                        Tất cả ( 177 )
                        Công tác ( 0 )
                        Cặp đôi ( 8 )
                        Gia đình ( 13 )
                        Bạn bè ( 4 )
                        Cá nhân ( 150 )
                        Tốt
                        8.1
                            Tất cả
                    Chi tiết điểm  (từ
                        177
                        nhận xét)
                            Vị trí
                                8
                                    % Complete
                            8
                            Phục vụ
                                8.1
                                    % Complete
                            8.1
                            Tiện nghi
                                8.1
                                    % Complete
                            8.1
                            Giá cả
                                8.2
                                    % Complete
                            8.2
                            Vệ sinh
                                8.2
                                    % Complete
                            8.2
                        Đánh giá
                        0
                            Công tác
                    Chi tiết điểm  (từ
                        0
                        nhận xét)
                            Vị trí
                                0
                                    % Complete
                            0
                            Phục vụ
                                0
                                    % Complete
                            0
                            Tiện nghi
                                0
                                    % Complete
                            0
                            Giá cả
                                0
                                    % Complete
                            0
                            Vệ sinh
                                0
                                    % Complete
                            0
                        Đánh giá
                        7.8
                            Cặp đôi
                    Chi tiết điểm  (từ
                        8
                        nhận xét)
                            Vị trí
                                7
                                    % Complete
                            7
                            Phục vụ
                                8.4
                                    % Complete
                            8.4
                            Tiện nghi
                                7.1
                                    % Complete
                            7.1
                            Giá cả
                                8.4
                                    % Complete
                            8.4
                            Vệ sinh
                                8.3
                                    % Complete
                            8.3
                        Tốt
                        8.1
                            Gia đình
                    Chi tiết điểm  (từ
                        13
                        nhận xét)
                            Vị trí
                                8
                                    % Complete
                            8
                            Phục vụ
                                8.2
                                    % Complete
                            8.2
                            Tiện nghi
                                7.9
                                    % Complete
                            7.9
                            Giá cả
                                8.5
                                    % Complete
                            8.5
                            Vệ sinh
                                8.1
                                    % Complete
                            8.1
                        Đánh giá
                        7.3
                            Bạn bè
                    Chi tiết điểm  (từ
                        4
                        nhận xét)
                            Vị trí
                                6.5
                                    % Complete
                            6.5
                            Phục vụ
                                6.8
                                    % Complete
                            6.8
                            Tiện nghi
                                7.8
                                    % Complete
                            7.8
                            Giá cả
                                7.8
                                    % Complete
                            7.8
                            Vệ sinh
                                7.5
                                    % Complete
                            7.5
                        Tốt
                        8.1
                            Cá nhân
                    Chi tiết điểm  (từ
                        150
                        nhận xét)
                            Vị trí
                                8.1
                                    % Complete
                            8.1
                            Phục vụ
                                8.1
                                    % Complete
                            8.1
                            Tiện nghi
                                8.1
                                    % Complete
                            8.1
                            Giá cả
                                8.1
                                    % Complete
                            8.1
                            Vệ sinh
                                8.2
                                    % Complete
                            8.2
                                Từ ngày mới đến cũ
                                Từ ngày cũ đến mới
                                Điểm từ thấp đến cao
                                Điểm từ cao đến thấp
                                Vũ Thị Phượng
                                11-11-2016
                                            Tốt
                                            8
                                        "Mọi người đều niềm nở "
                                                Vị trí
                                                    8 .0
                                                Phục vụ
                                                8 .0
                                                Tiện nghi
                                                8 .0
                                                Giá cả
                                                8 .0
                                                Vệ sinh
                                                8 .0
                                                “Thái độ đón tiếp cũng như phục vụ của nhân viên tốt, mọi người đều niềm nở và thân thiện với khách hàng. Căn phòng tôi ở cũng sạch, chỉ mỗi tội hơi nhiều kiến, nếu khách sạn chú trọng kiểm tra kỹ hơn sẽ ok.” 
                                Chi Yến
                                11-11-2016
                                            Rất tốt
                                            9
                                        "Nhân viên nhiệt tình "
                                                Vị trí
                                                    9 .0
                                                Phục vụ
                                                9 .0
                                                Tiện nghi
                                                9 .0
                                                Giá cả
                                                9 .0
                                                Vệ sinh
                                                9 .0
                                                “Trong chuyến đi đén Nha Trang vừa rồi tôi có nghỉ tại khách sạn Lavender Nha Trang nhìn chung tôi hài lòng với khách sạn này, nhân viên thì nhiệt tình, thân thiện, phòng ở được dọn vệ sinh tốt, tiện nghi được cung cấp đầy đủ.” 
                                Đinh Văn Bình
                                26-10-2016
                                            Tốt
                                            8
                                        "Căn phòng sạch sẽ "
                                                Vị trí
                                                    8 .0
                                                Phục vụ
                                                8 .0
                                                Tiện nghi
                                                8 .0
                                                Giá cả
                                                8 .0
                                                Vệ sinh
                                                8 .0
                                                “Ở Khách Sạn Lavender Nha Trang này không có vấn đề gì khiến tôi phải phàn nàn cả. Chất lượng phòng nghỉ tốt, không gian căn phòng sạch sẽ. Đội ngũ nhân viên phục vụ khách hàng một cách thân thiện, niềm nở.” 
                                Vũ Đức Tân
                                26-10-2016
                                            Tốt
                                            8
                                        "Khá hài lòng, dịch vụ ổn "
                                                Vị trí
                                                    8 .0
                                                Phục vụ
                                                8 .0
                                                Tiện nghi
                                                8 .0
                                                Giá cả
                                                8 .0
                                                Vệ sinh
                                                8 .0
                                                “Vừa qua, tôi có nghỉ tại Khách Sạn Lavender Nha Trang, tôi thấy dịch vụ phòng ở đây khá tốt, nghỉ ngơi không có gì phiền lòng cả, vệ sinh phòng sạch sẽ, gọn gàng, tiện nghi đầy đủ. Nhân viên thì lịch sự, nhiệt tình. Vị trí đi lại cũng thuận tiện, mọi thứ đều ổn, giá cả lại hợp lý, tôi hài lòng khi nghỉ tại đây.” 
                                Nguyễn Thị Thanh Nhàn
                                20-10-2016
                                            Tốt
                                            8
                                        "Khách sạn ổn "
                                                Vị trí
                                                    8 .0
                                                Phục vụ
                                                8 .0
                                                Tiện nghi
                                                8 .0
                                                Giá cả
                                                8 .0
                                                Vệ sinh
                                                8 .0
                                                “Khách sạn ổn, con người cũng tốt các bạn khá hòa đồng với khách hàng, nội thất hay các đồ dùng cá nhân trong phòng cũng được bài trí đầy đủ, xắp xếp gọn gàng. Giá tiền tương đối phù hợp, tôi hài lòng với những gì đã nhận được.” 
                    Xem tất cả đánh giá ( 177 )
                                Đặt phòng ngay giữ giá tốt
            Khách hàng đã xem khách sạn này thường tham khảo thêm
                Được đề xuất cho bạn
            Khách sạn 3 sao có cùng tiện nghi
            Có thể bạn muốn xem
                    Khách sạn 3 sao tại Khánh Hòa
                        Khách sạn có Đưa đón khách sạn sân bay tại Khánh Hòa
                        Khách sạn có nhà hàng tại Khánh Hòa
                        Khách sạn có giặt là tại Khánh Hòa
            Địa danh ở gần
                                    Sân bay Nha Trang
                                     ~ 0.68km
                                    Dốc Lết
                                     ~ 1.4km
                                                                Dốc Lết ở thị xã Ninh Hòa, Khánh Hòa. Đây là bãi biển trải dài với bãi cát trắng cao phía trên hàng dương, ngăn cách đất liền với biển. Dốc Lết đang trở thành nơi nghỉ dưỡng lý tưởng và du lịch biển kỳ thú. Hãy để Mytour hỗ trợ bạn để có 1 chuyến đi thú vị, tiết kiệm bằng cách đặt phòng khách sạn tại khu vực Dốc Lết ngay bây giờ với giá rẻ nhất.
                                    Hòn Hèo
                                     ~ 1.4km
                                                                Hòn Hèo nằm ở phía Nam đầm Nha Phu, thị xã Ninh Hòa, tỉnh Khánh Hòa. Hòn Hèo hay Phước Hà Sơn là một quần thể có trên 10 ngọn núi lớn, nhỏ khác nhau, cao nhất là Hòn Hèo (813m) nằm chính giữa.  Hãy để Mytour hỗ trợ bạn để có 1 chuyến đi thú vị, tiết kiệm bằng cách đặt phòng khách sạn tại khu vực Hòn Hèo ngay bây giờ với giá chỉ từ 189.000đ
                                    Suối Hoa Lan
                                     ~ 2.09km
                                    Khu Du Lịch Nha Trang xưa
                                     ~ 2.09km
                                    Dinh Bảo Đại
                                     ~ 2.54km
                                    Nhà thờ Đá
                                     ~ 2.57km
                                                                Nhà thờ Đá ở trên đỉnh đồi Hoàng Lân, thành phố Nha Trang, tỉnh Khánh Hòa. Nhà thờ có bố cục chắc khỏe, điểm cao nhất nhà thờ là nơi đặt Thánh Giá trên đỉnh tháp chuông, cao 38m tính từ mặt đường. Hãy để Mytour hỗ trợ bạn để có 1 chuyến đi thú vị, tiết kiệm bằng cách đặt phòng khách sạn tại khu vực Nhà thờ Đá ngay bây giờ với giá chỉ từ 189.000đ
                                    Viện Hải Dương Học
                                     ~ 2.69km
                                                                Viện Hải Dương học Nha Trang là viện nghiên cứu đời sống động thực vật hải dương, thuộc hệ thống viện nghiên cứu chuyên ngành của Trung tâm Khoa học tự nhiên và Công nghệ Quốc gia Việt Nam. Hãy để Mytour hỗ trợ bạn để có 1 chuyến đi thú vị, tiết kiệm bằng cách đặt phòng khách sạn tại khu vực Viện Hải Dương Học ngay bây giờ với giá chỉ từ 189.000đ
                                    Chùa Nghĩa Phương
                                     ~ 2.73km
                                    Viện Pasteur Nha Trang
                                     ~ 2.88km
                                    Chùa Hội Phước Khánh Hòa
                                     ~ 2.97km
                                    Chợ Đầm
                                     ~ 3.25km
                                    Chùa Long Sơn
                                     ~ 3.47km
                                                                Chùa Long Sơn tọa lạc dưới chân núi Trại Thủy, phường Phương Sơn, thành phố Nha Trang, Khánh Hòa. Chùa do Hòa thượng Thích Ngộ Chí dựng trên núi Trại Thủy (xưa còn có tên là núi con Dơi). Hãy để Mytour hỗ trợ bạn để có 1 chuyến đi thú vị, tiết kiệm bằng cách đặt phòng khách sạn tại khu vực Chùa Long Sơn ngay bây giờ với giá chỉ từ 189.000đ
                                    Chùa Hải Đức
                                     ~ 3.52km
                ×
                    Chính sách đảm bảo hoàn tiền của mytour
                    Bạn chưa tin tưởng việc đặt phòng khách sạn trực tuyến? Bạn e ngại rằng phòng khách sạn thực tế không đúng với thông tin trên website? Chúng tôi cam kết đưa đầy đủ và chính xác thông tin khách sạn trên website với chính sách “Đảm bảo Hoàn tiền”
                        Nếu khách hàng đặt khách sạn thành công trên Mytour nhưng khách sạn không có phòng, Mytour sẽ hoàn lại tiền cho khách và tặng kèm phiếu giảm giá có giá trị bằng với số tiền khách hàng đã trả.
                        Trong trường hợp loại phòng thực tế không đúng với loại phòng trên đơn hàng, Mytour sẽ quyết định nâng cấp miễn phí hoặc tặng phiếu giảm giá có giá trị bằng với số tiền khách hàng đã trả.
                        Trường hợp các tiện nghi phòng khách sạn (như bữa sáng, wifi…) không đúng với nội dung trên website, Mytour sẽ tặng phiếu giảm giá có giá trị bằng 10% số tiền khách đã trả (tối đa 500,000 VND)
                        Khách hàng cần gọi điện thoại 04-7309 9899 (Hà Nội), 08-7309 9899 (Hồ Chí Minh) hoặc email tới info@mytour.vn và cung cấp mã đơn hàng trong vòng 24 giờ từ lúc nhận phòng để được trợ giúp giải quyết khiếu nại (Hotline chỉ hỗ trợ trong giờ hành chính).
                        Mytour không chịu trách nhiệm bồi thường thiệt hại gián tiếp, ngẫu nhiên, hay do hậu quả phát sinh. Trong mọi trường hợp, trách nhiệm của Mytour không vượt quá tổng số tiền khách hàng thanh toán đặt phòng.
                ×
                    Đảm bảo giá tốt nhất
                    Nếu Thành viên đã đặt một phòng khách sạn được “Đảm Bảo” tại Mytour.vn và sau đó, cho Mytour.vn  thấy rằng Thành viên có thể đặt một phòng tương tự trong cùng khoảng thời gian ở mức giá tốt hơn có thể xem và đặt được trên một website khác, Mytour.vn sẽ giảm giá bằng hoặc thấp hơn mức giá đó.
                    Giá dùng để so sánh là giá sau khi áp dụng mức giảm giá công bố trên website Mytour.vn.
                    Chính sách “Đảm Bảo Giá Tốt Nhất” của Mytour.vn chỉ áp dụng cho các đặt phòng đã được xác nhận và phải thỏa mãn những điều kiện sau:
                Cùng khách sạnCùng thời gian nghỉ lạiCùng loại Phòng/GiườngCùng các yêu cầu mua Trước, yêu cầu trả trước và đặt cọc (nếu có)Cùng chính sách Hủy và Sửa Đổi
                    Phòng đó phải còn trống để được xác nhận ngay tại thời điểm các đại lý của Mytour.vn  kiểm tra phòng trống
                        Chính sách “Đảm Bảo Giá Tốt Nhất” không áp dụng cho các mức giá không công bố, như: chương trình khách hàng thân thiện.
                        Bất kỳ tổ chức nào với các mức giá dành cho nhóm cá nhân cụ thể và không nhằm mục đích áp dụng ra bên ngoài.
                        Thành viên có thể gửi khiếu nại theo địa chỉ : info@mytour.vn
                                Nêu mã đặt phòng Mytour.vn trong dòng tiêu đề thư
                                Gửi URL của website nơi Thành viên tìm thấy mức giá tốt hơn
                                Cung cấp ảnh chụp màn hình của website đối thủ cạnh tranh trong đó nêu rõ Phòng Trống, Loại Phòng, và các mức giá cho những ngày nghỉ lại theo yêu cầu của Thành viên.
                VUI LÒNG LƯU Ý: Thành viên không cần thực hiện đặt phòng trên website của đối thủ cạnh tranh, chỉ cần cho Mytour.vn thấy sự so sánh.
                ×
                Đăng Nhập
                                 Đăng nhập bằng tài khoản Facebook
                                 Đăng nhập bằng tài khoản Google
                            Hoặc đăng nhập bằng
                        Email*
                        Mật khẩu*
                        Quên mật khẩu?
                            Chưa có tài khoản/tạo tài khoản
                Đăng nhập
                         Nhớ đăng nhập
                ×
                Bản đồ
                                            Khách Sạn Lavender Nha Trang 
                    Tìm đường
                        Từ: 
                        Đến: 
                            Khách sạnĐịa danh Hiển thị các khách sạn ở gần Hiển thị các khu du lịch ở gần
                ×
                Yêu Cầu Lấy Giá
                                    Ngày nhận phòng
                                    Ngày trả phòng
                        Tên khách hàng
                        Email
                        Điện thoại
                        Nhân viên chăm sóc khách hàng sẽ gọi điện cho quý khách trong thời gian sớm nhất.
                        Quý khách có thể gọi điện đến cho Mytour để được tư vấn ngay:
                        Hà Nội: (04) 7109 9999, Hồ Chí Minh: (08) 7309 9899, Support
                            English: (+84)4-7309-9899.
                    Hoàn thành
                ×
                Gửi Thông Tin
                        Tên khách hàng
                        Email
                        Điện thoại
                            Quý khách sẽ thấy giá giảm ngay trên trang sau khi gửi thông tin
                    Hoàn thành
                ×
                Nhận Giá Tốt
                                    Ngày nhận phòng
                                    Ngày trả phòng
                        Tên khách hàng
                        Email
                        Điện thoại
                        Vì giá tốt không được công bố nên hệ thống sẽ gửi giá qua email đến quý khách và nhân viên chăm
                        sóc sẽ gọi điện cho quý khách trong thời gian sớm nhất.
                        Quý khách có thể gọi điện đến cho Mytour để được tư vấn ngay:
                        Hà Nội: (04) 7109 9999, Hồ Chí Minh: (08) 7309 9899, Support
                            English: (+84)4-7309-9899.
                    Hoàn thành
                ×
                ×
                ĐÁNH GIÁ 
                        Tên
                        Tiêu đề
                        Kiểu du lịch?
                                -- Chọn --Cá nhânCặp đôiGia đìnhBạn bèDoanh nghiệp
                        Nội dung
                                Đánh giá chi tiết
                                Chỗ ở
                                5
                                Thức ăn
                                5
                                Phương tiện
                                5
                                Hướng dẫn viên
                                5
                                Lịch trình
                                5
                    Gửi đánh giá
                    Hủy Bỏ
                ×
                Gửi lại email kích hoạt
                ×
                Thông tin chi tiết giá theo phòng
                    Chọn khoảng thời gian hiển thị giá phòng
                    Hiển thị giá
                ×
                Khóa phòng theo khoảng thời gian
                            Chọn khoảng thời gian check-in cần khóa/mở phòng
                            Khóa phòng
                            Mở phòng
                ×
                THUẾ VÀ PHÍ DỊCH VỤ
                17% thuế và phí dịch vụ bao gồm:
                    - 10% thuế và 5% phí dịch vụ hoàn trả lại cho khách sạn.
                    - 2% phí giao dịch tại Mytour.
                ×
                Bạn có hài lòng về website của Mytour?
                    Thông điệp nhắn nhủ:
                Mytour luôn mong muốn cải thiện dịch vụ để bạn có trải nghiệm tốt hơn!
                            Ảnh đính kèm
                        Đóng
                        Gửi
                ×
                    Những đóng góp của bạn đã được ghi nhận. Mytour cám ơn bạn !
                Quay lại website
                            Giới thiệu Mytour
                            Đối tác khách sạn
                            Đăng nhập HMS
                            Tích lũy Vpoint
                            Điều khoản sử dụng
                            Quy chế hoạt động
                            Tuyển dụng
                            Liên hệ
                            Đăng ký nhận email
                                Đăng ký email để nhận khuyến mãi lên đến 70%
                                    Đăng
                                    ký
                    Công ty TNHH Mytour Việt Nam
                    Số ĐKKD: 0105983269 cấp ngày 30/08/2012
                    Văn phòng Hà Nội: Tầng 4, tòa nhà GP Invest, 170 Đê La Thành, Đống Đa
                    Văn phòng HCM: Tầng 5, Tòa Nhà HDTC, Số 36 Bùi Thị Xuân, Q.1
                Hotline
                        Hà Nội:
                        (04) 7109 9999
                        Tp. HCM:
                        (08) 7309 9899
                        ENGLISH SUPPORT:
                        (+84)4 7309 9899
