url:http://mytour.vn/c11/khach-san-tai-binh-thuan.html
Tittle :Khách sạn Bình Thuận giá tốt nhất - Mytour.vn
content :Đặt phòng trực tuyến, hoặc gọi
                                                            Hà Nội: (04) 7109 9999
                                                                                        - (04) 7309 9899
                                                            Hồ Chí Minh: (08) 7309 9899
                                                                                        - (08) 7109 9998
                        T2 - CN: 08:00 - 23:00
                    Toggle navigation
                                Bạn không có thông báo nào
                    |
                    ||
                                                            Tài khoản
                        Đăng nhập
                                Đăng kýKhách sạn yêu thích
                            Khách sạn
                            Tour
                            Cẩm nang du lịch
                            Thông tin
                                                Về Mytour
                                                Tin khuyến mãi
                                                Ưu đãi
                                                Hướng dẫn
                                                Liên hệ
                            Tốt nhất 2016
                ×
                Bạn có chắc muốn hủy đơn hàng?
                Lorem ipsum dolor sit amet, consectetur adipisicing elit. Iure corporis repudiandae nobis distinctio
                quae quos, officia modi, ab voluptatem pariatur ducimus mollitia, necessitatibus sed soluta dicta
                repellendus! Praesentium debitis, temporibus?
                    Đồng ý
                    Đóng
                    Khách sạnKhách sạn tại Bình Thuận
                    Áp dụng
                    Đóng
            Tìm Kiếm Khách Sạn
                            Ngày nhận phòng
                            Ngày trả phòng
                    Số đêm
                    Số phòng
                        123456789101112
                    Người lớn
                        123456789101112
                    Tìm khách sạn
                                Bộ lọc tìm kiếm
                                        Theo mức giá
                                                        Dưới 500.000
                                                        500.000 - 1.000.000
                                                        1.000.000 - 1.500.000
                                                        1.500.000 - 2.000.000
                                                        2.000.000 - 2.500.000
                                                        2.500.000 - 3.000.000
                                                        Trên 3.000.000
                                    Hạng Khách Sạn
                                    Loại khách sạn
                                                    Khách sạn
                                                    Resort
                                Tiện nghi
                                                Đưa đón khách sạn sân bay
                                                Bữa sáng miễn phí
                                                Bể bơi ngoài trời
                                                Bãi đỗ xe
                                                Phòng họp
                                                Phòng tập thể thao
                                                Thang máy
                                                Thêm giường phụ
                                                Truyền hình cáp/vệ tinh
                                                Wifi miễn phí
                                                Giặt là
                                                Nhà hàng
                                                Spa
            Quận huyện
                        Phan Thiết 
                        Hàm Thuận Nam
                        La Gi
                        Tuy Phong 
                        Hàm Tân 
                        Bắc Bình 
                        Đức Linh
                        Hàm Thuận Bắc
                        Phú Quý
                        Tánh Linh
            Khu vực
                        Chợ Hàm Tiến
                        Trung Tâm Bãi Biển Mũi Né
                        Mũi Né / Đông Hàm Tiên
                        Chợ Mũi Né
                        Nhà Thờ Mũi Né
                        Chùa Linh Long
                        Khu Du lịch Hòn Rơm
                        Mũi Né / Đồi Cát
                        Khu du lịch gôn Sea Links
                        Mũi Né / Bãi Biển Phú Hải
                        Bãi Biển Suối Nước
                        Trung Tâm Thành Phố / Sân Golf Cồn Cát Đại Dương
                        Chùa Vạn Thiện
                        Nhà Thờ Vĩnh Phú
                        Bến xe khách Bình Thuận
                        Sông Cà Ty
                        Đình làng Đức Thắng
                        Chùa Vạn Thủy Tú
                        Dinh Vạn Thủy Tú
                        Thị trấn Ma Lâm
                        Bảo Tàng Hồ Chí Minh
                        Chợ Phan Thiết
                        Chùa Ông
                        Nhà Thờ Chính Tòa Phan Thiết
                        Đồi cát bay
                        Hồ Hàm Tri
                        Bãi Biển Tiến Thành
                        Ga Mương Mán
                        Mũi Kê Gà
                        Chùa Linh Sơn Trường Thọ Núi Tà Cú
                        Ga Song Mao
                        Hải đăng Kê Gà
                        Khu Du lịch núi Tà Kú
                        Hồ Cà Dây
                        Dinh Thầy Thím
                        Khu Du Lịch Chùa Cổ Thạch
                        Hồ Hàm Thuận
                        Hồ Núi Đất
                        Hồ Đa Mi
                        Thiền Viện Trúc Lâm Chánh Thiện
                        Chợ Liên Hương
                        Ka Lon - Sông Mao
                        Chợ La Gi
                        Chợ Tân Minh
                        Ga Gia Huynh
                        Hồ Biển Lạc
                        Thị trẫn Võ Xu
                        Nhà Thờ Dakai
                        Đập Trà Tân
                        Vạn Thương Hải
                        Chùa Linh Sơn
                        Lăng Cô Mỹ Khê
             Giá tốt hơn so với đặt phòng trực
            tiếp tại khách sạn
             Đảm bảo 
            giá tốt nhất 
             Đảm bảo 
            hoàn tiền
             Nhân viên chăm sóc, tư vấn nhiều kinh nghiệm
             Hơn 5000 khách sạn tại Việt Nam với
            đánh giá thực
             Nhiều chương trình khuyến mãi và tích lũy điểm
             Thanh toán dễ dàng, đa dạng
                            Khách sạn tại Bình Thuận
                                     Xem Bản Đồ
                            Bình Thuận là một trong những trung tâm du lịch trọng điểm của Việt Nam hiện nay. Nơi đây nổi tiếng với nhiều địa điểm du lịch hấp dẫn như: Hải Đăng Kê Gà, Mũi Né, Tháp Chàm Poshanư, núi Tà Cú… Hãy để Mytour hỗ trợ bạn để có 1 chuyến đi thú vị, tiết kiệm bằng cách đặt phòng khách sạn Bình Thuận ngay bây giờ với giá từ 653,000 VND.
                                Có 209
                                khách sạn ở
                                đây theo ngày đã chọn
                        Ngày nhận phòng
                        Ngày trả phòng
                Số đêm
                Số phòng
                    123456789101112
                Người lớn
                    123456789101112
                Cập nhật ngày
                             Bộ lọc
                                            Phổ biến nhất
                                     Hạng khách sạn
                                                                                                Hạng sao [5...1]
                                                                                                Hạng sao [1...5]
                                            Đánh giá cao nhất
                                            Khuyến mãi
                                     Giá
                                                                                                Giá tăng dần
                                                                                                Giá giảm dần
                            Sắp xếp:
                            Đánh giá cao nhất
                        Phổ biến nhấtĐánh giá cao nhấtGiá tăng dầnGiá giảm dầnHạng tăng dầnHạng giảm dầnKhuyến mãi
                            Swiss Village Resort & Spa (Làng Thuỵ Sỹ Resort)
                             44 Nguyễn Đình Chiểu, Phan Thiết , Bình Thuận 
                            (Xem bản đồ)
                            Khu du lịch gôn Sea Links
                                                Đảm bảo hoàn tiền
                                                Đảm bảo giá tốt nhất!
                                Xem phòng
                            Dynasty Beach Resort 
                             140A Nguyễn Đình Chiểu, phường Hàm Tiến,Tp. Phan Thiết 
                            (Xem bản đồ)
                            Trung Tâm Bãi Biển Mũi Né
                                        “Dynasty Beach Resort Phan Thiết bảo đảm mang đến cho quý khách sự hài lòng, với sự chọn lọc khắt khe những trang thiết bị hàng đầu cho khách sạn. Đội ngũ nhân viên khách sạn phục vụ thân thiện và nhiệ...
                                        “
                                                Đảm bảo hoàn tiền
                                                Đảm bảo giá tốt nhất!
                                                            7.4
                                Đánh giá
                                    (61
                                        đánh giá)
                                Xem phòng
                            Seahorse Resort & Spa 
                             KM 11, Hàm Tiến, Phan Thiết, Bình Thuận, Phan Thiết , Bình Thuận 
                            (Xem bản đồ)
                            Khu du lịch gôn Sea Links
                                        “Seahorse Resort & Spa Phan Thiết được thiết kế sang trọng theo tiêu chuẩn quốc tế, khách sạn được trang bị những tiện nghi hiện đại và thoải mái. Đội ngũ nhân viên khách sạn phục vụ thân thiện và nhiệ...
                                        “
                                                Đảm bảo hoàn tiền
                                                Đảm bảo giá tốt nhất!
                                                            8.0
                                Tốt
                                    (85
                                        đánh giá)
                                Xem phòng
                            Pandanus Resort 
                             Khu phố 5, Mũi Né, Phan Thiết , Bình Thuận 
                            (Xem bản đồ)
                            Mũi Né / Đông Hàm Tiên
                                        “Pandanus Resort Phan Thiết có tầm nhìn bao quát, tùy vào vị trí phòng nghỉ bạn có thể thấy được rừng cây, đồi cát thơ mộng hay cảnh biển bao la. Trang thiết bị hiện đại và được bài trí sang trọng, ấm...
                                        “
                                                Đảm bảo hoàn tiền
                                                Đảm bảo giá tốt nhất!
                                                            7.9
                                Đánh giá
                                    (59
                                        đánh giá)
                                Xem phòng
                            Canary Beach Resort
                             60 Huỳnh Thúc Kháng, Phường Hàm Tiến, Phan Thiết , Bình Thuận 
                            (Xem bản đồ)
                            Chợ Hàm Tiến
                                        “Canary Beach Resort Phan Thiết là lựa chọn lý tưởng cho bạn để đi du lịch hay đi công tác với giá cả hợp lí. Các phòng nghỉ đầy đủ tiện nghi. Đội ngũ nhân viên khách sạn phục vụ thân thiện và nhiệt tì...
                                        “
                                                Đảm bảo hoàn tiền
                                                Đảm bảo giá tốt nhất!
                                                            7.6
                                Đánh giá
                                    (85
                                        đánh giá)
                                Xem phòng
                            Romana Resort & Spa
                             Km 8, Mũi Né, Phan Thiết , Bình Thuận 
                            (Xem bản đồ)
                            Mũi Né / Bãi Biển Phú Hải
                                        “Romana Resort & Spa Phan Thiết nằm trên bờ biển hoang sơ Mũi Né, với đầy đủ những dịch vụ và tiện nghi đáp ứng được mọi nhu cầu của du khách. Đội ngũ nhân viên khách sạn phục vụ thân thiện và nhiệt tì...
                                        “
                                                Đảm bảo hoàn tiền
                                                Đảm bảo giá tốt nhất!
                                                            8.0
                                Tốt
                                    (147
                                        đánh giá)
                                Xem phòng
                            Phan Thiet Ocean Dunes Resort
                             1 Tôn Đức Thắng, Phan Thiết , Bình Thuận 
                            (Xem bản đồ)
                            Nhà Thờ Vĩnh Phú
                                        “Phan Thiet Ocean Dunes Resort là một khu nghỉ mát tầm cỡ quốc tế đầu tiên của Việt Nam có những chương trình vui chơi giải trí hết sức độc đáo. Đội ngũ nhân viên khách sạn phục vụ thân thiện và nhiệt...
                                        “
                                                Đảm bảo hoàn tiền
                                                Đảm bảo giá tốt nhất!
                                                            8.2
                                Tốt
                                    (79
                                        đánh giá)
                                Xem phòng
                            Blue Waves Resort & Spa (Tiến Đạt Resort)
                             94A Nguyễn Đình Chiểu, Hàm Tiến, Phan Thiết , Bình Thuận 
                            (Xem bản đồ)
                            Trung Tâm Bãi Biển Mũi Né
                                        “Blue Waves Resort & Spa Phan Thiết là lựa chọn lý tưởng cho bạn để đi du lịch hay đi công tác với giá cả hợp lí. Các phòng nghỉ đầy đủ tiện nghi. Đội ngũ nhân viên khách sạn phục vụ thân thiện và nhiệ...
                                        “
                                                Đảm bảo hoàn tiền
                                                Đảm bảo giá tốt nhất!
                                                            7.8
                                Đánh giá
                                    (160
                                        đánh giá)
                                Xem phòng
                            Bamboo Village Beach Resort & Spa 
                             38 Nguyễn Đình Chiểu, Hàm Tiến, Mũi Né, Phan Thiết , Bình Thuận 
                            (Xem bản đồ)
                            Khu du lịch gôn Sea Links
                                        “Bamboo Village Beach Resort & Spa Phan Thiết có phong cách phục vụ chu đáo, nhiệt tình chắc chắn sẽ làm bạn hài lòng và mang đến cảm giác thú vị. Trang thiết bị hiện đại và được bài trí sang trọng, ấm...
                                        “
                                                Đảm bảo hoàn tiền
                                                Đảm bảo giá tốt nhất!
                                                            8.2
                                Tốt
                                    (79
                                        đánh giá)
                                Xem phòng
                            Terracotta Resort & Spa
                             28 Nguyễn Đình Chiểu, Hàm Tiên, Phan Thiết , Bình Thuận 
                            (Xem bản đồ)
                            Khu du lịch gôn Sea Links
                                        “Terracotta Resort & Spa Phan Thiết có phong cách phục vụ chu đáo, nhiệt tình chắc chắn sẽ làm quý khách hài lòng và mang đến cảm giác thoải mái. Trang thiết bị hiện đại và được bài trí sang trọng, ấm...
                                        “
                                                Đảm bảo hoàn tiền
                                                Đảm bảo giá tốt nhất!
                                                            8.1
                                Tốt
                                    (102
                                        đánh giá)
                                Xem phòng
                            Phú Hải Resort
                             Km 8, Nguyễn Đình Chiểu, Phan Thiết , Bình Thuận 
                            (Xem bản đồ)
                            Mũi Né / Bãi Biển Phú Hải
                                        “Phú Hải Resort Phan Thiết nằm trên bãi biển Mũi Né thơ mộng, bình dị, là một sự kết hợp hài hòa giữa môi trường tiện nghi hiện đại và thiên nhiên. Đội ngũ nhân viên khách sạn phục vụ thân thiện và nhi...
                                        “
                                                Đảm bảo hoàn tiền
                                                Đảm bảo giá tốt nhất!
                                                            8.1
                                Tốt
                                    (107
                                        đánh giá)
                                Xem phòng
                            Sài Gòn Mũi Né Resort
                             56-97 Nguyễn Đình Chiểu, Phan Thiết , Bình Thuận 
                            (Xem bản đồ)
                            Khu du lịch gôn Sea Links
                                        “Sài Gòn Mũi Né Resort Phan Thiết có phong cách phục vụ chu đáo, nhiệt tình chắc chắn sẽ làm quý khách hài lòng và mang đến cảm giác thoải mái. Trang thiết bị hiện đại và được bài trí sang trọng, ấm cú...
                                        “
                                                Đảm bảo hoàn tiền
                                                Đảm bảo giá tốt nhất!
                                                            7.9
                                Đánh giá
                                    (37
                                        đánh giá)
                                Xem phòng
                            Coco Beach Resort
                             58 Nguyễn Đình Chiểu, Phan Thiết , Bình Thuận 
                            (Xem bản đồ)
                            Khu du lịch gôn Sea Links
                                        “Coco Beach Resort Phan Thiết là lựa chọn lý tưởng cho bạn để đi du lịch hay đi công tác với giá cả hợp lí. Các phòng nghỉ đầy đủ tiện nghi. Đội ngũ nhân viên khách sạn phục vụ thân thiện và nhiệt tình...
                                        “
                                                Đảm bảo hoàn tiền
                                                Đảm bảo giá tốt nhất!
                                                            7.9
                                Đánh giá
                                    (11
                                        đánh giá)
                                Xem phòng
                            Dessole Sea Lion Beach Resort Mui Ne
                             12 Nguyễn Đình Chiểu, Hàm Tiến, Phan Thiết , Bình Thuận 
                            (Xem bản đồ)
                            Khu du lịch gôn Sea Links
                                        “Dessole Sea Lion Beach Resort Mui Ne có phong cách phục vụ chu đáo, nhiệt tình chắc chắn sẽ làm quý khách hài lòng và mang đến cảm giác thư giãn. Trang thiết bị hiện đại và được bài trí sang trọng, ấm...
                                        “
                                                Đảm bảo hoàn tiền
                                                Đảm bảo giá tốt nhất!
                                                            7.3
                                Đánh giá
                                    (64
                                        đánh giá)
                                Xem phòng
                            Hoàng Ngọc Beach Resort
                             152 Nguyễn Đình Chiểu, Phan Thiết , Bình Thuận 
                            (Xem bản đồ)
                            Trung Tâm Bãi Biển Mũi Né
                                        “Hoàng Ngọc Beach Resort Phan Thiết có thiết kế mang đậm màu sắc và tinh thần Việt, vừa gần gũi với thiên nhiên, vừa khoáng đạt vừa mạnh mẽ. Đội ngũ nhân viên khách sạn phục vụ thân thiện và nhiệt tình...
                                        “
                                                Đảm bảo hoàn tiền
                                                Đảm bảo giá tốt nhất!
                                                            7.4
                                Đánh giá
                                    (36
                                        đánh giá)
                                Xem phòng
                            Hải Âu Resort & Spa
                             32 Huỳnh Thúc Kháng, Hàm Tiến, Phan Thiết , Bình Thuận 
                            (Xem bản đồ)
                            Chợ Hàm Tiến
                                        “Hải  Âu Resort & Spa Phan Thiết là lựa chọn lý tưởng cho bạn để đi du lịch hay đi công tác với giá cả hợp lí. Các phòng nghỉ đầy đủ tiện nghi. Đội ngũ nhân viên khách sạn phục vụ thân thiện và nhiệt t...
                                        “
                                                Đảm bảo hoàn tiền
                                                Đảm bảo giá tốt nhất!
                                                            8.1
                                Tốt
                                    (8
                                        đánh giá)
                                Xem phòng
                            Riva Resort Mũi Né
                             94 Nguyễn Đình Chiểu, Hàm Tiến, Tp.Phan Thiết, Phan Thiết , Bình Thuận 
                            (Xem bản đồ)
                                                Đảm bảo hoàn tiền
                                                Đảm bảo giá tốt nhất!
                                Xem phòng
                            Victoria Phan Thiết Beach Resort & Spa
                             Km số 9 Phú Hải, Phan Thiết , Bình Thuận 
                            (Xem bản đồ)
                            Mũi Né / Bãi Biển Phú Hải
                                        “Victoria Phan Thiết Beach Resort & Spa như một ngôi làng nhỏ với những mái nhà tranh thấp thoáng yên bình được bao bọc bởi bãi biển tuyệt đẹp. Đội ngũ nhân viên khách sạn phục vụ thân thiện và nhiệt t...
                                        “
                                                Đảm bảo hoàn tiền
                                                Đảm bảo giá tốt nhất!
                                                            7.9
                                Đánh giá
                                    (47
                                        đánh giá)
                                Xem phòng
                            Bốn Biển Resort
                             30 Nguyễn Đình Chiểu, Hàm Tiến, Phan Thiết , Bình Thuận 
                            (Xem bản đồ)
                            Khu du lịch gôn Sea Links
                                        “Bốn Biển Resort Phan Thiết nằm trên đường Nguyễn Đình Chiểu, gần với trung tâm Mũi Né với nhiều dịch vụ ẩm thực, mua sắm, đồi cát, bàu trắng. Trang thiết bị hiện đại và được bài trí sang trọng, ấm cún...
                                        “
                                                Đảm bảo hoàn tiền
                                                Đảm bảo giá tốt nhất!
                                                            7.9
                                Đánh giá
                                    (10
                                        đánh giá)
                                Xem phòng
                            Vĩnh Sương Seaside Resort
                             46 Nguyễn Đình Chiểu, Phan Thiết , Bình Thuận 
                            (Xem bản đồ)
                            Khu du lịch gôn Sea Links
                                        “Vĩnh Sương Seaside Resort Phan Thiết là lựa chọn lý tưởng cho bạn để đi du lịch hay công tác với giá cả hợp lí. Các phòng nghỉ đầy đủ tiện nghi. Đội ngũ nhân viên khách sạn phục vụ thân thiện và nhiệt...
                                        “
                                                Đảm bảo hoàn tiền
                                                Đảm bảo giá tốt nhất!
                                                            7.0
                                Đánh giá
                                    (35
                                        đánh giá)
                                Xem phòng
                «
                Trang trước
                1
                2
                3
                4
                5
                6
                7
                8
                    ..
                    10
                    11
                Trang sau
                »
                                Bình Thuận
                            Đặt phòng khách sạn Bình Thuận giá tốt nhất tại Mytour.vn, với nhiều khuyến mãi từ website và đơn vị khách sạn tiết kiệm lên đến 70%. Hơn 150.000 đánh giá từ khách hàng đã qua sử dụng khách sạn giúp bạn đưa ra những quyết định tốt nhất cho lựa chọn của mình. Đặc biệt chính sách ĐẢM BẢO HOÀN TIỀN chỉ có tại Mytour.vn, giờ đây bạn có thể hoàn toàn tin tưởng vào dịch vụ đặt phòng trực tuyến.  Ngoài ra, chúng tôi cũng trân trọng giới thiệu đến bạn những khách sạn Bình Thuận tốt nhất 2016 trong các hạng mục Best Seller và Top Review trên website Mytour.vn. Đây là những khách sạn đạt tiêu chuẩn rất cao và làm hài lòng cả những vị khách khó tính nhất.Với hơn 5.000 khách sạn, resort tại 63 tỉnh/ thành phố, Mytour ngày càng được du khách tin dùng để tìm kiếm khách sạn. Mytour sẽ hỗ trợ quý khách đặt khách sạn Bình Thuận với chi phí hợp lý để có chuyến đi thật thú vị và tiết kiệm. Ngoài việc cung cấp những khách sạn giá tốt nhất, bạn có còn có thể tìm thấy nhiều thông tin du lịch hữu ích và thú vị khác.  Bình Thuận trở thành điểm đến cho những du khách trong và ngoài nước yêu thích vẻ đẹp thiên nhiên hoang sơ và quyến rũ với bãi biển cát trắng, nước trong xanh cùng với những danh lam thắng cảnh cùng di tích lịch sử nổi tiếng. Bình Thuận có vị trí địa lý thuận lợi, nằm giữa các trung tâm du lịch lớn ở phía Nam như: TP.Hồ Chí Minh, Vũng Tàu, Đà Lạt, Nha Trang.  Có 157 khách sạn tại Phan Thiết – Bình Thuận để bạn chọn lựa cùng nhiều chương trình khuyến mãi hấp dẫn của Mytour. Mytour cam kết sẽ cung cấp phòng khách sạn với dịch vụ tốt nhất cho bạn khi ghé thăm và đặt khách sạn tại Phan Thiết – Bình Thuận.  Tour du lịch Phan Thiết luôn là điểm đến hấp dẫn cho cả du khách trong nước và cả bạn bè Quốc tế. Mỗi năm, Phan Thiết đón hơn 1 triệu lượt khách tham quan. Đến với dịch vụ đặt tour du lịch Phan Thiết, bạn sẽ được tham quan Đồi cát ở Mũi Né, bãi Rạng của biển Phan Thiết, Tháp chàm Posanu, Vịnh Đá Nhảy, Bãi Kê Gà… Bên cạnh đó, ẩm thực cũng là một yếu tố để níu chân du khách khi tham quan ở đây. Hai loại đặc sản của Bình Thuận từ lâu đã có tiếng trên thị trường trong nước và xuất khẩu là nước mắm Phan Thiết và trái thanh long. Bên cạnh đó, các món ăn thú vị khác được như: mực một nắng, bánh xèo, bánh căn ở đường Tuyên Quang (Phan Thiết), bánh hỏi, bánh tráng ở trị trấn Phú Long (Hàm Thuận Bắc), cháo hàu, hải sản tươi ở khu vực Hàm Tiến-Mũi Né, bánh cốm, bánh rế (Bắc Bình) … Ở hầu hết các resort lớn, các món ăn của nhiều nước trên thế giới như Nga, Pháp, Ý, Nhật, Trung Quốc, Hàn Quốc, Ấn Độ… được các đầu bếp người nước ấy trực tiếp thực hiện để phục vụ du khách. Ẩm thực hấp dẫn, bãi biển đẹp mê hồn, cảnh đẹp quyến rũ và con người thân thiện là những điểm thu hút khách du lịch đến Phan Thiết.  Nếu bạn có kế họach đến nghỉ dưỡng hoặc công tác ở thành phố của thiên đường du lịch Phan Thiết, hãy để Mytour giúp bạn chuẩn bị 1 chuyến đi dễ dàng, thú vị, và tiết kiệm nhất bạn nhé!  Đến với Mytour.vn, bạn sẽ có cơ hội đặt phòng khách sạn giá rẻ tại Phan Thiết cùng nhiều chương trình khuyến mại hấp dẫn chỉ dành riêng cho khách hàng Mytour nữa đấy!
            Địa danh ở gần
                                    Hòn Rơm
                                     ~ 0km
                                    Ga Phan Thiết
                                     ~ 0km
                                    Đình Đức Thắng
                                     ~ 0km
                                    Di tích lịch sử trường Dục Thanh
                                     ~ 0km
                                    Tịnh Xá Ngọc Cát  
                                     ~ 0km
                                    Princess D'Annam Resort 
                                     ~ 0km
                                    Đập Trà Tân
                                     ~ 0km
                                    Hồ Cà Dây
                                     ~ 0km
                                    Đồi cát bay
                                     ~ 0km
                                    Thiền Viện Trúc Lâm Chánh Thiện
                                     ~ 0km
                                    Chợ Tân Minh
                                     ~ 0km
                                    Hồ Hàm Thuận
                                     ~ 0km
                                    Hồ Hàm Tri
                                     ~ 0km
                                    Thị trấn Ma Lâm
                                     ~ 0km
                                    Ga Mương Mán
                                     ~ 0km
                                    Khu Du lịch núi Tà Kú
                                     ~ 0km
                                    Hải đăng Kê Gà
                                     ~ 0km
                                    Chùa Linh Sơn
                                     ~ 0km
                                    Vạn Thương Hải
                                     ~ 0km
                                    Lăng Cô Mỹ Khê
                                     ~ 0km
                                    Hồ Đa Mi
                                     ~ 0km
                                    Hồ Biển Lạc
                                     ~ 0km
                                    Ga Gia Huynh
                                     ~ 0km
                                    Ka Lon - Sông Mao
                                     ~ 0km
                                    Chợ Liên Hương
                                     ~ 0km
                                    Khu Du Lịch Chùa Cổ Thạch
                                     ~ 0km
                                    Mũi Né
                                     ~ 0km
                                    Khu du lịch gôn Sea Links
                                     ~ 0km
                                    Chợ Mũi Né
                                     ~ 0km
                                    Khu Du lịch Hòn Rơm
                                     ~ 0km
                 Du lịch Bình Thuận 
                  Những món quà không thể bỏ qua khi du lịch Phan Thiết   Những điều cần lưu ý khi du lịch Phan Thiết   Dạo chơi ở Phan Thiết trong những ngày nắng đẹp   Du lịch Phan Thiết và những gì cần biết về phương tiện di chuyển   Cẩm nang du lịch Phan Thiết từ A đến Z   Ở đâu khi du lịch Phan Thiết?   Du lịch Phan Thiết lý tưởng nhất vào lúc nào?   Những nét văn hóa thú vị ở đô thị miền Nam Trung Bộ: Phan Thiết   Ăn gì khi du lịch Phan Thiết?  
                ×
                    Chính sách đảm bảo hoàn tiền của mytour
                    Bạn chưa tin tưởng việc đặt phòng khách sạn trực tuyến? Bạn e ngại rằng phòng khách sạn thực tế không đúng với thông tin trên website? Chúng tôi cam kết đưa đầy đủ và chính xác thông tin khách sạn trên website với chính sách “Đảm bảo Hoàn tiền”
                        Nếu khách hàng đặt khách sạn thành công trên Mytour nhưng khách sạn không có phòng, Mytour sẽ hoàn lại tiền cho khách và tặng kèm phiếu giảm giá có giá trị bằng với số tiền khách hàng đã trả.
                        Trong trường hợp loại phòng thực tế không đúng với loại phòng trên đơn hàng, Mytour sẽ quyết định nâng cấp miễn phí hoặc tặng phiếu giảm giá có giá trị bằng với số tiền khách hàng đã trả.
                        Trường hợp các tiện nghi phòng khách sạn (như bữa sáng, wifi…) không đúng với nội dung trên website, Mytour sẽ tặng phiếu giảm giá có giá trị bằng 10% số tiền khách đã trả (tối đa 500,000 VND)
                        Khách hàng cần gọi điện thoại 04-7309 9899 (Hà Nội), 08-7309 9899 (Hồ Chí Minh) hoặc email tới info@mytour.vn và cung cấp mã đơn hàng trong vòng 24 giờ từ lúc nhận phòng để được trợ giúp giải quyết khiếu nại (Hotline chỉ hỗ trợ trong giờ hành chính).
                        Mytour không chịu trách nhiệm bồi thường thiệt hại gián tiếp, ngẫu nhiên, hay do hậu quả phát sinh. Trong mọi trường hợp, trách nhiệm của Mytour không vượt quá tổng số tiền khách hàng thanh toán đặt phòng.
                ×
                    Đảm bảo giá tốt nhất
                    Nếu Thành viên đã đặt một phòng khách sạn được “Đảm Bảo” tại Mytour.vn và sau đó, cho Mytour.vn  thấy rằng Thành viên có thể đặt một phòng tương tự trong cùng khoảng thời gian ở mức giá tốt hơn có thể xem và đặt được trên một website khác, Mytour.vn sẽ giảm giá bằng hoặc thấp hơn mức giá đó.
                    Giá dùng để so sánh là giá sau khi áp dụng mức giảm giá công bố trên website Mytour.vn.
                    Chính sách “Đảm Bảo Giá Tốt Nhất” của Mytour.vn chỉ áp dụng cho các đặt phòng đã được xác nhận và phải thỏa mãn những điều kiện sau:
                Cùng khách sạnCùng thời gian nghỉ lạiCùng loại Phòng/GiườngCùng các yêu cầu mua Trước, yêu cầu trả trước và đặt cọc (nếu có)Cùng chính sách Hủy và Sửa Đổi
                    Phòng đó phải còn trống để được xác nhận ngay tại thời điểm các đại lý của Mytour.vn  kiểm tra phòng trống
                        Chính sách “Đảm Bảo Giá Tốt Nhất” không áp dụng cho các mức giá không công bố, như: chương trình khách hàng thân thiện.
                        Bất kỳ tổ chức nào với các mức giá dành cho nhóm cá nhân cụ thể và không nhằm mục đích áp dụng ra bên ngoài.
                        Thành viên có thể gửi khiếu nại theo địa chỉ : info@mytour.vn
                                Nêu mã đặt phòng Mytour.vn trong dòng tiêu đề thư
                                Gửi URL của website nơi Thành viên tìm thấy mức giá tốt hơn
                                Cung cấp ảnh chụp màn hình của website đối thủ cạnh tranh trong đó nêu rõ Phòng Trống, Loại Phòng, và các mức giá cho những ngày nghỉ lại theo yêu cầu của Thành viên.
                VUI LÒNG LƯU Ý: Thành viên không cần thực hiện đặt phòng trên website của đối thủ cạnh tranh, chỉ cần cho Mytour.vn thấy sự so sánh.
                ×
                Đăng Nhập
                                 Đăng nhập bằng tài khoản Facebook
                                 Đăng nhập bằng tài khoản Google
                            Hoặc đăng nhập bằng
                        Email*
                        Mật khẩu*
                        Quên mật khẩu?
                            Chưa có tài khoản/tạo tài khoản
                Đăng nhập
                         Nhớ đăng nhập
                ×
                Bản đồ
                                            Bình Thuận
                    Tìm đường
                        Từ: 
                        Đến: 
                            Khách sạnĐịa danh Hiển thị các khách sạn ở gần Hiển thị các khu du lịch ở gần
                ×
                Yêu Cầu Lấy Giá
                                    Ngày nhận phòng
                                    Ngày trả phòng
                        Tên khách hàng
                        Email
                        Điện thoại
                        Nhân viên chăm sóc khách hàng sẽ gọi điện cho quý khách trong thời gian sớm nhất.
                        Quý khách có thể gọi điện đến cho Mytour để được tư vấn ngay:
                        Hà Nội: (04) 7109 9999, Hồ Chí Minh: (08) 7309 9899, Support
                            English: (+84)4-7309-9899.
                    Hoàn thành
                ×
                Gửi Thông Tin
                        Tên khách hàng
                        Email
                        Điện thoại
                            Quý khách sẽ thấy giá giảm ngay trên trang sau khi gửi thông tin
                    Hoàn thành
                ×
                Nhận Giá Tốt
                                    Ngày nhận phòng
                                    Ngày trả phòng
                        Tên khách hàng
                        Email
                        Điện thoại
                        Vì giá tốt không được công bố nên hệ thống sẽ gửi giá qua email đến quý khách và nhân viên chăm
                        sóc sẽ gọi điện cho quý khách trong thời gian sớm nhất.
                        Quý khách có thể gọi điện đến cho Mytour để được tư vấn ngay:
                        Hà Nội: (04) 7109 9999, Hồ Chí Minh: (08) 7309 9899, Support
                            English: (+84)4-7309-9899.
                    Hoàn thành
                ×
                ×
                ĐÁNH GIÁ 
                        Tên
                        Tiêu đề
                        Kiểu du lịch?
                                -- Chọn --Cá nhânCặp đôiGia đìnhBạn bèDoanh nghiệp
                        Nội dung
                                Đánh giá chi tiết
                                Chỗ ở
                                5
                                Thức ăn
                                5
                                Phương tiện
                                5
                                Hướng dẫn viên
                                5
                                Lịch trình
                                5
                    Gửi đánh giá
                    Hủy Bỏ
                ×
                Gửi lại email kích hoạt
                ×
                Thông tin chi tiết giá theo phòng
                    Chọn khoảng thời gian hiển thị giá phòng
                    Hiển thị giá
                ×
                Khóa phòng theo khoảng thời gian
                            Chọn khoảng thời gian check-in cần khóa/mở phòng
                            Khóa phòng
                            Mở phòng
                ×
                THUẾ VÀ PHÍ DỊCH VỤ
                17% thuế và phí dịch vụ bao gồm:
                    - 10% thuế và 5% phí dịch vụ hoàn trả lại cho khách sạn.
                    - 2% phí giao dịch tại Mytour.
                ×
                Bạn có hài lòng về website của Mytour?
                    Thông điệp nhắn nhủ:
                Mytour luôn mong muốn cải thiện dịch vụ để bạn có trải nghiệm tốt hơn!
                            Ảnh đính kèm
                        Đóng
                        Gửi
                ×
                    Những đóng góp của bạn đã được ghi nhận. Mytour cám ơn bạn !
                Quay lại website
            Khách sạn theo các tỉnh thành
                        An Giang
                        Bà Rịa - Vũng Tàu
                        Bắc Giang
                        Bắc Kạn
                        Bạc Liêu
                        Bắc Ninh
                        Bến Tre
                        Bình Định
                        Bình Dương
                        Bình Phước
                        Bình Thuận
                        Cà Mau
                        Cần Thơ
                        Cao Bằng
                        Đà Lạt
                        Đà Nẵng
                        Đắk Nông
                        Đắk Lắk
                        Điện Biên
                        Đồng Nai
                        Đồng Tháp
                        Gia Lai
                        Hà Giang
                        Hạ Long
                        Hà Nam
                        Hà Nội
                        Hà Tĩnh
                        Hải Dương
                        Hải Phòng
                        Hậu Giang
                        Hồ Chí Minh
                        Hoà Bình
                        Hội An
                        Hưng Yên
                        Khánh Hòa
                        Kiên Giang
                        Kon Tum
                        Lai Châu
                        Lâm Đồng
                        Lạng Sơn
                        Lào Cai
                        Long An
                        Nam Định
                        Nghệ An
                        Nha Trang
                        Ninh Bình
                        Ninh Thuận
                        Phan Thiết
                        Phú Quốc
                        Phú Thọ
                        Phú Yên
                        Quảng Bình
                        Quảng Nam
                        Quảng Ngãi
                        Quảng Ninh
                        Quảng Trị
                        Sa Pa
                        Sóc Trăng
                        Sơn La
                        Tây Ninh
                        Thái Bình
                        Thái Nguyên
                        Thanh Hoá
                        Thành Phố Huế
                        Thừa Thiên Huế
                        Tiền Giang
                        Trà Vinh
                        Tuyên Quang
                        Vĩnh Long
                        Vĩnh Phúc
                        Vũng Tàu
                        Yên Bái
                Du lịch Bình Thuận
                                Du lịch Phan Thiết 
                                Du lịch Tuy Phong 
                                Du lịch Hàm Thuận Nam
                                Du lịch Phú Quý
                                Du lịch Bắc Bình 
                                Du lịch Hàm Thuận Bắc
                                Du lịch La Gi
                                Du lịch Tánh Linh
                                Du lịch Hàm Tân 
                                Du lịch Đức Linh
                            Giới thiệu Mytour
                            Đối tác khách sạn
                            Đăng nhập HMS
                            Tích lũy Vpoint
                            Điều khoản sử dụng
                            Quy chế hoạt động
                            Tuyển dụng
                            Liên hệ
                            Đăng ký nhận email
                                Đăng ký email để nhận khuyến mãi lên đến 70%
                                    Đăng
                                    ký
                    Công ty TNHH Mytour Việt Nam
                    Số ĐKKD: 0105983269 cấp ngày 30/08/2012
                    Văn phòng Hà Nội: Tầng 4, tòa nhà GP Invest, 170 Đê La Thành, Đống Đa
                    Văn phòng HCM: Tầng 5, Tòa Nhà HDTC, Số 36 Bùi Thị Xuân, Q.1
                Hotline
                        Hà Nội:
                        (04) 7109 9999
                        Tp. HCM:
                        (08) 7309 9899
                        ENGLISH SUPPORT:
                        (+84)4 7309 9899
