url:http://mytour.vn/location
Tittle :Cẩm nang, kinh nghiệm du lịch  - Mytour.vn
content :Đặt phòng trực tuyến, hoặc gọi
                                                            Hà Nội: (04) 7109 9999
                                                                                        - (04) 7309 9899
                                                            Hồ Chí Minh: (08) 7309 9899
                                                                                        - (08) 7109 9998
                        T2 - CN: 08:00 - 23:00
                    Toggle navigation
                                Bạn không có thông báo nào
                    |
                    ||
                                                            Tài khoản
                        Đăng nhập
                                Đăng kýKhách sạn yêu thích
                            Khách sạn
                            Tour
                            Cẩm nang du lịch
                            Thông tin
                                                Về Mytour
                                                Tin khuyến mãi
                                                Ưu đãi
                                                Hướng dẫn
                                                Liên hệ
                            Tốt nhất 2016
                ×
                Bạn có chắc muốn hủy đơn hàng?
                Lorem ipsum dolor sit amet, consectetur adipisicing elit. Iure corporis repudiandae nobis distinctio
                quae quos, officia modi, ab voluptatem pariatur ducimus mollitia, necessitatibus sed soluta dicta
                repellendus! Praesentium debitis, temporibus?
                    Đồng ý
                    Đóng
        Cẩm nang du lịch 
                Miền Bắc
                Hà NộiBắc NinhBắc GiangBắc KạnLào CaiQuảng NinhNam ĐịnhCao BằngHà GiangHà NamHải DươngHải PhòngHoà BìnhHưng YênLai ChâuLạng SơnNinh BìnhPhú ThọSơn LaThái BìnhThái NguyênTuyên QuangVĩnh PhúcYên BáiĐiện Biên
                Miền Trung
                Bình ĐịnhĐà NẵngKhánh HòaThừa Thiên HuếGia LaiHà TĩnhKon TumNghệ AnPhú YênQuảng BìnhQuảng NamQuảng NgãiQuảng TrịThanh HoáĐắk Lắk
                Miền Nam
                Hồ Chí MinhAn GiangBà Rịa - Vũng TàuBình DươngBình PhướcBình ThuậnBến TreCần ThơTrà VinhĐồng NaiCà MauKiên GiangLâm ĐồngLong AnNinh ThuậnSóc TrăngTây NinhTiền GiangVĩnh LongĐồng ThápĐắk NôngHậu GiangBạc Liêu
                Địa danh nổi bật
                Hà NộiHồ Chí MinhĐà NẵngVũng TàuPhan Thiết Phú Quốc Nha TrangSaPa Đà LạtHội AnHạ Long Huế
                Bãi biển đẹp
                Bãi Đồ Sơn - Hải PhòngBãi Trà Cổ - Hạ LongBãi Quan Lạn - Hạ LongBãi Ti Tốp - Hạ LongBãi Tuần Châu - Hạ LongBãi Cháy - Hạ LongBãi Nhật Lệ - Quảng BìnhBãi Đá Nhảy - Quảng BìnhBãi Non Nước - Đà NẵngBán đảo Sơn Trà - Đà NẵngBãi Mỹ Khê - Đà NẵngBãi Thanh Bình - Đà NẵngBãi Dài - Nha TrangDốc Lết - Nha TrangBãi Đại Lãnh - Nha TrangBãi Ninh Chữ - Ninh ThuậnBãi Bình Tiên - Ninh ThuậnBãi biển Đồi Dương - Phan ThiếtBãi Rạng - Phan ThiếtBãi Cổ Thạch - Phan ThiếtBãi Phú Hài - Phan ThiếtHồ Cốc - Bà Rịa Vũng TàuBãi Dâu - Bà Rịa Vũng TàuBãi Dứa - Bà Rịa Vũng TàuBãi Trước - Bà Rịa Vũng TàuBãi sau - Bà Rịa Vũng TàuBãi Trường - Phú QuốcBãi Sao - Phú Quốc
             Điểm đến
                    Đóng
                    }
                    }
                    }
                    }
                    }
                    }
                    }
                    }
            Tìm Kiếm Địa Danh
            ĐI ĐẾN
            Chuyên mục
                             Ẩm thực 
                             Cảnh đẹp 
                             Khám phá 
                             Du lịch biển 
                             Di sản văn hóa 
                             Mẹo du lịch 
                             Du lịch tâm linh 
                             Vui chơi - Giải trí 
                             Thế giới đó đây 
                             Lịch trình du lịch A-Z 
                             Lễ hội - Sự kiện 
                             Du lịch cộng đồng 
                             Nghỉ dưỡng 
            Điểm đến
            Địa danh nổi bật
            Hà NộiHồ Chí MinhĐà NẵngVũng TàuPhan Thiết Phú Quốc Nha TrangSaPa Đà LạtHội AnHạ Long Huế
            Bãi biển đẹp
            Bãi Đồ Sơn - Hải PhòngBãi Trà Cổ - Hạ LongBãi Quan Lạn - Hạ LongBãi Ti Tốp - Hạ LongBãi Tuần Châu - Hạ LongBãi Cháy - Hạ LongBãi Nhật Lệ - Quảng BìnhBãi Đá Nhảy - Quảng BìnhBãi Non Nước - Đà NẵngBán đảo Sơn Trà - Đà NẵngBãi Mỹ Khê - Đà NẵngBãi Thanh Bình - Đà NẵngBãi Dài - Nha TrangDốc Lết - Nha TrangBãi Đại Lãnh - Nha TrangBãi Ninh Chữ - Ninh ThuậnBãi Bình Tiên - Ninh ThuậnBãi biển Đồi Dương - Phan ThiếtBãi Rạng - Phan ThiếtBãi Cổ Thạch - Phan ThiếtBãi Phú Hài - Phan ThiếtHồ Cốc - Bà Rịa Vũng TàuBãi Dâu - Bà Rịa Vũng TàuBãi Dứa - Bà Rịa Vũng TàuBãi Trước - Bà Rịa Vũng TàuBãi sau - Bà Rịa Vũng TàuBãi Trường - Phú QuốcBãi Sao - Phú Quốc
            Miền Bắc
            Hà NộiBắc NinhBắc GiangBắc KạnLào CaiQuảng NinhNam ĐịnhCao BằngHà GiangHà NamHải DươngHải PhòngHoà BìnhHưng YênLai ChâuLạng SơnNinh BìnhPhú ThọSơn LaThái BìnhThái NguyênTuyên QuangVĩnh PhúcYên BáiĐiện Biên
            Miền Trung
            Bình ĐịnhĐà NẵngKhánh HòaThừa Thiên HuếGia LaiHà TĩnhKon TumNghệ AnPhú YênQuảng BìnhQuảng NamQuảng NgãiQuảng TrịThanh HoáĐắk Lắk
            Miền Nam
            Hồ Chí MinhAn GiangBà Rịa - Vũng TàuBình DươngBình PhướcBình ThuậnBến TreCần ThơTrà VinhĐồng NaiCà MauKiên GiangLâm ĐồngLong AnNinh ThuậnSóc TrăngTây NinhTiền GiangVĩnh LongĐồng ThápĐắk NôngHậu GiangBạc Liêu
            BÀI VIẾT XEM NHIỀU NHẤT
                                5 phát minh hài hước và độc đáo của giới phượt
                                11 quốc gia mà ai cũng có thể du lịch với ví tiền sinh viên
                                5 điểm đến ở Việt Nam không thể bỏ lỡ trong năm 2016
                                Top những thành phố quyến rũ nhất Việt Nam
                                Khám phá 5 địa điểm ngoài hành tinh trên mảnh đất hình chữ S
                                Cẩm nang du lịch “Xứ sở sương mù” Đà Lạt
                                Top 10 địa điểm lãng mạn nhất Việt Nam dành cho các cặp tình nhân - Phần 2
                                Những ngôi làng siêu đáng yêu của Địa cầu - Phần 2
                                Những điểm đến không nên bỏ lỡ khi du lịch Vũng Tàu
                                Những cánh đồng hoa đẹp ngất ngây ở Việt Nam
                Khách sạn 
                Giá tốt hơn so với đặt phòng trực tiếp tại khách sạn
                Đảm bảo 
                giá tốt nhất
                Đảm bảo 
                hoàn tiền
                Nhân viên chăm sóc, tư vấn nhiều kinh nghiệm
                Hơn 5000 khách sạn tại Việt Nam với đánh giá thực
                Nhiều chương trình khuyến mãi và tích lũy điểm
                Thanh toán dễ dàng, đa dạng
                     Cẩm nang du lịch 
                                     Lạc giữa thành phố toàn ‘địa ngục’ ở Nhật Bản, bạn ... 
                                        10/11/2016
                                        10
                                    Nằm ở miền ôn đới, Nhật Bản cuốn hút với những gam màu ngây ngất lòng người suốt cả bốn mùa. Là hương xuân mát lành với sắc hoa anh đào, là mùa hạ tưng bừng lễ hội, là mùa thu lãng mạn sắc phong đỏ và mùa đông đặc biệt bên vô vàn bông tuyết trắng tinh. Không chỉ có thế,...
                                        Xem thêm 
                                     Không cần đi xa, ngoại ô Hà Thành cũng có một cao ... 
                                        10/11/2016
                                        43
                                    Nếu muốn một chuyến đi đến cao nguyên đá hoang sơ chỉ trong vòng một ngày thì có thể không? Chắc hẳn là có thể rồi vì giờ đây, không chỉ Hà Giang xa xôi mới có cao nguyên đá mà ngay giữa ngoại thành Hà Nội cũng có một cao nguyên đá đẹp đến mê hồn. Đến Núi Trầm và check...
                                        Xem thêm 
                                     Hóa thân thành Tarzan tại ngôi nhà trên cây ở ngoạ ... 
                                        10/11/2016
                                        77
                                    Người ta nhớ thương một mảnh đất bởi vì điều gì? Đó là một mùa thu Hà Nội khiến người ta chỉ muốn bỏ hết tất cả để đặt chân đến thành phố này và tận hưởng những điều rất riêng. Hay một nơi mà ở đó, có thể gửi trọn tâm tình vào những mùa hoa theo gánh hàng rong len lỏi k...
                                        Xem thêm 
                                     Một mảnh trong veo nơi cung đường biển trải đầy nắ ... 
                                        10/11/2016
                                        18
                                    Là gió là phải được tự do. Đã bao giờ bạn ước mình được như cơn gió mênh mang vô định, đi mãi về miền xa lạ, không chốn dừng chân và cũng không hề mỏi mệt? Có những cung đường, khiến người ta tự biến mình thành cơn gió thoảng. Cứ len hết mình đi về phía trước, trong làn...
                                        Xem thêm 
                                     Vẻ đẹp thơ mộng mùa lá đỏ Nhật Bản 
                                        10/11/2016
                                        7
                                    Mùa thu Nhật Bản bắt đầu từ đầu tháng 10 và kéo dài đến cuối tháng 11. Màu xanh của lá bắt đầu chuyển sắc từ hòn đảo Hokkaido và lan dần xuống phía nam hòn đảo Kyushu. Đầu thu luôn là thời điểm tuyệt vời ở Nhật Bản với cơn gió lạnh đầu mùa dịu nhẹ, và những tán cây phon...
                                        Xem thêm 
                                     Hòa mình vào thiên nhiên Đà Lạt siêu đẹp ở homesta ... 
                                        10/11/2016
                                        355
                                    Đà Lạt vốn đường biết đến là “thiên đường nghỉ dưỡng” với đặc điểm tự nhiên và cảnh quan thiên nhiên cực kỳ hấp dẫn, không chỉ vậy thành phố xinh đẹp này còn có những nơi lưu trú hết sức đáng yêu khiến du khách phát cuồng. Bên cạnh “bộ sưu tập” homestay, hostel chất lừ...
                                        Xem thêm 
                                     Rùng rợn thành phố "quỷ khóc ma gào" ở Trung Quố ... 
                                        10/11/2016
                                        15
                                    Thế giới muôn màu chứa đựng vô vàn những bí ẩn mà dù có cố gắng đến thế nào, chúng ta vẫn chẳng thể đi và giải mã hết. Từ lòng đại dương sâu thẳm đến núi non cao vợi, từ sa mạc hoang vu đến rừng xanh đại ngàn, nơi nào cũng khiến con tim ‘loạn nhịp’ mỗi lần được chiêm ng...
                                        Xem thêm 
                                     Mallorca - lạc lối ở xứ sở mặt trời phía Nam châu ... 
                                        09/11/2016
                                        27
                                    Mallorca được mệnh danh là đảo thanh bình của xứ bò tót. Khi châu  u rạng rỡ bắt đầu vươn mình đón những đợt lạnh đầu tiên thì nắng vàng vẫn óng ánh bên bờ Mallorca. Nơi đây là điểm đến hấp dẫn của  u châu bởi thời tiết ấm áp và quanh năm khô ráo. Nhờ vẻ hấp dẫn của mìn...
                                        Xem thêm 
                                     Ngày đông trong căn nhà gỗ xinh xẻo của Đà Lạt 
                                        09/11/2016
                                        200
                                    Mùa đầu đông, tôi – cô gái thích lang thang một mình lại gói ghém hành lý tha lôi đến Đà Lạt như tìm đến bên kẻ người tình vụng dại. Tôi bỏ lại thành phố quen, bỏ lại những thân thuộc mùi lẩu nướng bên bạn bè để tới một thành phố cách nơi sống hơn ngàn cây số. Đà Lạt đô...
                                        Xem thêm 
                                     Muốn sống ảo, đừng quên 6 app này khi đi du lịch 
                                        09/11/2016
                                        359
                                    Hỡi các cô gái xinh đẹp và ham mê du lịch! Khi bắt đầu những chuyến đi, điều các nàng quan tâm nhất là gì? Phải chăng đó là làm sao để thật là xịn xò, thật là ăn ảnh, thật là vui vẻ với những trải nghiệm mới. Nếu vậy thì Mytour xin chiều ý các nàng, chia sẻ 8 app chụp ả...
                                        Xem thêm 
                                     Có môt dốc cỏ lau hồng mơ mộng bên thành phố biển ... 
                                        09/11/2016
                                        145
                                    Bạn đã bao giờ tự hỏi, cùng một địa điểm, liệu rằng ngược đường, ngược chiều đi về người ta có cảm thấy những cảnh vật khác nhau mà vô tình bỏ lỡ. Một thoáng ngẩn ngơ hóa ra mình đã lướt qua một điều đẹp đẽ trong buổi chiều tháng 9 hanh hao ấy. Ở Nha Trang, có một nơi b...
                                        Xem thêm 
                                     Tam Hải, đi tìm hòn ngọc chưa giũa của biển Đông 
                                        09/11/2016
                                        42
                                    Mùa này nói chuyện đi biển, các bạn có muốn nghe không? Đi biển mùa đông cảm giác hơi kỳ thôi chứ hay ho phải biết. Nó dường như trở thành thói quen của tôi, năm nào cũng vậy, cứ đông về bận mấy thì bận cũng phải lăn ra biển cho kỳ được. Chuyện mùa đông năm nay, xin hẹn...
                                        Xem thêm 
                «
                Trang trước
                1
                2
                3
                4
                5
                6
                7
                8
                    ..
                    819
                    820
                Trang sau
                »
                ×
                    Chính sách đảm bảo hoàn tiền của mytour
                    Bạn chưa tin tưởng việc đặt phòng khách sạn trực tuyến? Bạn e ngại rằng phòng khách sạn thực tế không đúng với thông tin trên website? Chúng tôi cam kết đưa đầy đủ và chính xác thông tin khách sạn trên website với chính sách “Đảm bảo Hoàn tiền”
                        Nếu khách hàng đặt khách sạn thành công trên Mytour nhưng khách sạn không có phòng, Mytour sẽ hoàn lại tiền cho khách và tặng kèm phiếu giảm giá có giá trị bằng với số tiền khách hàng đã trả.
                        Trong trường hợp loại phòng thực tế không đúng với loại phòng trên đơn hàng, Mytour sẽ quyết định nâng cấp miễn phí hoặc tặng phiếu giảm giá có giá trị bằng với số tiền khách hàng đã trả.
                        Trường hợp các tiện nghi phòng khách sạn (như bữa sáng, wifi…) không đúng với nội dung trên website, Mytour sẽ tặng phiếu giảm giá có giá trị bằng 10% số tiền khách đã trả (tối đa 500,000 VND)
                        Khách hàng cần gọi điện thoại 04-7309 9899 (Hà Nội), 08-7309 9899 (Hồ Chí Minh) hoặc email tới info@mytour.vn và cung cấp mã đơn hàng trong vòng 24 giờ từ lúc nhận phòng để được trợ giúp giải quyết khiếu nại (Hotline chỉ hỗ trợ trong giờ hành chính).
                        Mytour không chịu trách nhiệm bồi thường thiệt hại gián tiếp, ngẫu nhiên, hay do hậu quả phát sinh. Trong mọi trường hợp, trách nhiệm của Mytour không vượt quá tổng số tiền khách hàng thanh toán đặt phòng.
                ×
                    Đảm bảo giá tốt nhất
                    Nếu Thành viên đã đặt một phòng khách sạn được “Đảm Bảo” tại Mytour.vn và sau đó, cho Mytour.vn  thấy rằng Thành viên có thể đặt một phòng tương tự trong cùng khoảng thời gian ở mức giá tốt hơn có thể xem và đặt được trên một website khác, Mytour.vn sẽ giảm giá bằng hoặc thấp hơn mức giá đó.
                    Giá dùng để so sánh là giá sau khi áp dụng mức giảm giá công bố trên website Mytour.vn.
                    Chính sách “Đảm Bảo Giá Tốt Nhất” của Mytour.vn chỉ áp dụng cho các đặt phòng đã được xác nhận và phải thỏa mãn những điều kiện sau:
                Cùng khách sạnCùng thời gian nghỉ lạiCùng loại Phòng/GiườngCùng các yêu cầu mua Trước, yêu cầu trả trước và đặt cọc (nếu có)Cùng chính sách Hủy và Sửa Đổi
                    Phòng đó phải còn trống để được xác nhận ngay tại thời điểm các đại lý của Mytour.vn  kiểm tra phòng trống
                        Chính sách “Đảm Bảo Giá Tốt Nhất” không áp dụng cho các mức giá không công bố, như: chương trình khách hàng thân thiện.
                        Bất kỳ tổ chức nào với các mức giá dành cho nhóm cá nhân cụ thể và không nhằm mục đích áp dụng ra bên ngoài.
                        Thành viên có thể gửi khiếu nại theo địa chỉ : info@mytour.vn
                                Nêu mã đặt phòng Mytour.vn trong dòng tiêu đề thư
                                Gửi URL của website nơi Thành viên tìm thấy mức giá tốt hơn
                                Cung cấp ảnh chụp màn hình của website đối thủ cạnh tranh trong đó nêu rõ Phòng Trống, Loại Phòng, và các mức giá cho những ngày nghỉ lại theo yêu cầu của Thành viên.
                VUI LÒNG LƯU Ý: Thành viên không cần thực hiện đặt phòng trên website của đối thủ cạnh tranh, chỉ cần cho Mytour.vn thấy sự so sánh.
                ×
                Đăng Nhập
                                 Đăng nhập bằng tài khoản Facebook
                                 Đăng nhập bằng tài khoản Google
                            Hoặc đăng nhập bằng
                        Email*
                        Mật khẩu*
                        Quên mật khẩu?
                            Chưa có tài khoản/tạo tài khoản
                Đăng nhập
                         Nhớ đăng nhập
                ×
                Bản đồ
                    Tìm đường
                        Từ: 
                        Đến: 
                            Khách sạnĐịa danh Hiển thị các khách sạn ở gần Hiển thị các khu du lịch ở gần
                ×
                Yêu Cầu Lấy Giá
                                    Ngày nhận phòng
                                    Ngày trả phòng
                        Tên khách hàng
                        Email
                        Điện thoại
                        Nhân viên chăm sóc khách hàng sẽ gọi điện cho quý khách trong thời gian sớm nhất.
                        Quý khách có thể gọi điện đến cho Mytour để được tư vấn ngay:
                        Hà Nội: (04) 7109 9999, Hồ Chí Minh: (08) 7309 9899, Support
                            English: (+84)4-7309-9899.
                    Hoàn thành
                ×
                Gửi Thông Tin
                        Tên khách hàng
                        Email
                        Điện thoại
                            Quý khách sẽ thấy giá giảm ngay trên trang sau khi gửi thông tin
                    Hoàn thành
                ×
                Nhận Giá Tốt
                                    Ngày nhận phòng
                                    Ngày trả phòng
                        Tên khách hàng
                        Email
                        Điện thoại
                        Vì giá tốt không được công bố nên hệ thống sẽ gửi giá qua email đến quý khách và nhân viên chăm
                        sóc sẽ gọi điện cho quý khách trong thời gian sớm nhất.
                        Quý khách có thể gọi điện đến cho Mytour để được tư vấn ngay:
                        Hà Nội: (04) 7109 9999, Hồ Chí Minh: (08) 7309 9899, Support
                            English: (+84)4-7309-9899.
                    Hoàn thành
                ×
                ×
                ĐÁNH GIÁ 
                        Tên
                        Tiêu đề
                        Kiểu du lịch?
                                -- Chọn --Cá nhânCặp đôiGia đìnhBạn bèDoanh nghiệp
                        Nội dung
                                Đánh giá chi tiết
                                Chỗ ở
                                5
                                Thức ăn
                                5
                                Phương tiện
                                5
                                Hướng dẫn viên
                                5
                                Lịch trình
                                5
                    Gửi đánh giá
                    Hủy Bỏ
                ×
                Gửi lại email kích hoạt
                ×
                Thông tin chi tiết giá theo phòng
                    Chọn khoảng thời gian hiển thị giá phòng
                    Hiển thị giá
                ×
                Khóa phòng theo khoảng thời gian
                            Chọn khoảng thời gian check-in cần khóa/mở phòng
                            Khóa phòng
                            Mở phòng
                ×
                THUẾ VÀ PHÍ DỊCH VỤ
                17% thuế và phí dịch vụ bao gồm:
                    - 10% thuế và 5% phí dịch vụ hoàn trả lại cho khách sạn.
                    - 2% phí giao dịch tại Mytour.
                ×
                Bạn có hài lòng về website của Mytour?
                    Thông điệp nhắn nhủ:
                Mytour luôn mong muốn cải thiện dịch vụ để bạn có trải nghiệm tốt hơn!
                            Ảnh đính kèm
                        Đóng
                        Gửi
                ×
                    Những đóng góp của bạn đã được ghi nhận. Mytour cám ơn bạn !
                Quay lại website
            Khách sạn theo các tỉnh thành
                        An Giang
                        Bà Rịa - Vũng Tàu
                        Bắc Giang
                        Bắc Kạn
                        Bạc Liêu
                        Bắc Ninh
                        Bến Tre
                        Bình Định
                        Bình Dương
                        Bình Phước
                        Bình Thuận
                        Cà Mau
                        Cần Thơ
                        Cao Bằng
                        Đà Lạt
                        Đà Nẵng
                        Đắk Nông
                        Đắk Lắk
                        Điện Biên
                        Đồng Nai
                        Đồng Tháp
                        Gia Lai
                        Hà Giang
                        Hạ Long
                        Hà Nam
                        Hà Nội
                        Hà Tĩnh
                        Hải Dương
                        Hải Phòng
                        Hậu Giang
                        Hồ Chí Minh
                        Hoà Bình
                        Hội An
                        Hưng Yên
                        Khánh Hòa
                        Kiên Giang
                        Kon Tum
                        Lai Châu
                        Lâm Đồng
                        Lạng Sơn
                        Lào Cai
                        Long An
                        Nam Định
                        Nghệ An
                        Nha Trang
                        Ninh Bình
                        Ninh Thuận
                        Phan Thiết
                        Phú Quốc
                        Phú Thọ
                        Phú Yên
                        Quảng Bình
                        Quảng Nam
                        Quảng Ngãi
                        Quảng Ninh
                        Quảng Trị
                        Sa Pa
                        Sóc Trăng
                        Sơn La
                        Tây Ninh
                        Thái Bình
                        Thái Nguyên
                        Thanh Hoá
                        Thành Phố Huế
                        Thừa Thiên Huế
                        Tiền Giang
                        Trà Vinh
                        Tuyên Quang
                        Vĩnh Long
                        Vĩnh Phúc
                        Vũng Tàu
                        Yên Bái
                            Giới thiệu Mytour
                            Đối tác khách sạn
                            Đăng nhập HMS
                            Tích lũy Vpoint
                            Điều khoản sử dụng
                            Quy chế hoạt động
                            Tuyển dụng
                            Liên hệ
                            Đăng ký nhận email
                                Đăng ký email để nhận khuyến mãi lên đến 70%
                                    Đăng
                                    ký
                    Công ty TNHH Mytour Việt Nam
                    Số ĐKKD: 0105983269 cấp ngày 30/08/2012
                    Văn phòng Hà Nội: Tầng 4, tòa nhà GP Invest, 170 Đê La Thành, Đống Đa
                    Văn phòng HCM: Tầng 5, Tòa Nhà HDTC, Số 36 Bùi Thị Xuân, Q.1
                Hotline
                        Hà Nội:
                        (04) 7109 9999
                        Tp. HCM:
                        (08) 7309 9899
                        ENGLISH SUPPORT:
                        (+84)4 7309 9899
