url:http://mytour.vn/264-khach-san-thang-muoi.html
Tittle :Khách Sạn Tháng Mười  - Bà Rịa - Vũng Tàu giá tốt nhất - Mytour.vn
content :Đặt phòng trực tuyến, hoặc gọi
                                                            Hà Nội: (04) 7109 9999
                                                                                        - (04) 7309 9899
                                                            Hồ Chí Minh: (08) 7309 9899
                                                                                        - (08) 7109 9998
                        T2 - CN: 08:00 - 23:00
                    Toggle navigation
                                Bạn không có thông báo nào
                    |
                    ||
                                                            Tài khoản
                        Đăng nhập
                                Đăng kýKhách sạn yêu thích
                            Khách sạn
                            Tour
                            Cẩm nang du lịch
                            Thông tin
                                                Về Mytour
                                                Tin khuyến mãi
                                                Ưu đãi
                                                Hướng dẫn
                                                Liên hệ
                            Tốt nhất 2016
                ×
                Bạn có chắc muốn hủy đơn hàng?
                Lorem ipsum dolor sit amet, consectetur adipisicing elit. Iure corporis repudiandae nobis distinctio
                quae quos, officia modi, ab voluptatem pariatur ducimus mollitia, necessitatibus sed soluta dicta
                repellendus! Praesentium debitis, temporibus?
                    Đồng ý
                    Đóng
                    Khách sạnBà Rịa - Vũng TàuVũng TàuKhách sạn gần Bãi SauKhách Sạn Tháng Mười 
                    Đóng
            Tìm Kiếm Khách Sạn
                            Ngày nhận phòng
                            Ngày trả phòng
                    Số đêm
                    Số phòng
                        123456789101112
                    Người lớn
                        123456789101112
                    Tìm khách sạn
                Giá tốt hơn so với đặt phòng trực tiếp tại khách sạn
                Đảm bảo 
                giá tốt nhất
                Đảm bảo 
                hoàn tiền
                Nhân viên chăm sóc, tư vấn nhiều kinh nghiệm
                Hơn 5000 khách sạn tại Việt Nam với đánh giá thực
                Nhiều chương trình khuyến mãi và tích lũy điểm
                Thanh toán dễ dàng, đa dạng
                        Khách Sạn Tháng Mười 
                            (Cung cấp bởi khách sạn)
                                    Tất cả thông tin về tiêu chuẩn khách sạn trên website mytour.vn
                                    là do khách sạn tự cung cấp, chỉ mang tính chất tham khảo và không nhất thiết trùng
                                    hợp với hạng
                                    sao được cấp bởi sở Văn Hoá, Thể thao và du lịch.
                             151 Thùy Vân, Vũng Tàu, Bà Rịa - Vũng Tàu 
                                Đặt phòng ngay giữ giá tốt
                                Đã thích
                                        7.4
                                            (171
                                            đánh giá)
                                Giới thiệu về Khách Sạn Tháng Mười  
                                    Khách Sạn Tháng Mười - Tọa lạc tại 151 Thùy Vân, thành phố Vũng Tàu.
Nằm ở vị trí thuận lợi thuộc Vũng Tàu, Khách Sạn Tháng Mười là một nơi nghỉ chân tuyệt vời để tiếp tục khám phá thành phố sôi động. Từ đây, khách có thể dễ dàng tiếp cận được nét đẹp sống động của thành phố ở mọi góc cạnh. Và cũng có thể dễ dàng đến Khu Imperial Plaza, Lighthouse, Hải đăng.
Hãy tận hưởng hết vô số dịch vụ và tiện nghi không gì sánh được ở khách sạn Vũng Tàu này. Khách sạn cung cấp quầy lễ tân 24 giờ, dịch vụ du lịch, dịch vụ Internet, nhà chờ chung / khu vực tivi, dịch vụ trông xe để đảm bảo khách của họ được thoải mái nhất. 
Chất lượng Khách Sạn Tháng Mười được phản ánh qua mỗi phòng. vòi hoa sen, tủ lạnh, truyền hình cáp, truy cập internet không dây, truy cập internet không dây (miễn phí) là một số thiết bị mà bạn có thể sử dụng và hài lòng. Bên cạnh đó, khách sạn còn gợi ý cho bạn những hoạt động vui chơi giải trí bảo đảm bạn luôn thấy hứng thú trong suốt kì nghỉ. Dù cho lý do của bạn khi tham quan Vũng Tàu là gì đi nữa, Khách Sạn Tháng Mười là một nơi tuyệt vời cho chuyến nghỉ mát vui vẻ và thú vị.
Ngoài ra Khách Sạn Tháng Mười có những dịch vụ tư vấn đặt tour tham quan các điểm du lịch nổi tiếng như Lộc An, Hồ Tràm, Hồ Cốc, suối nước nóng Bình Châu… 
Đến với Thành Phố Biển Vũng Tàu là một ý tưởng hay cho chuyến du lịch sắp tới của bạn. Chuyến du lịch này sẽ  ý nghĩa và trọn vẹn hơn nếu bạn chọn Khách Sạn Tháng Mười.
Với sự hỗ trợ của Mytour, bạn sẽ có cơ hội đặt phòng giá rẻ nhất cùng nhiều chương trình khuyến mại dành riêng cho khách hàng của Mytour.
Nhanh tay đặt phòng Khách Sạn Tháng Mười để tận hưởng dịch vụ đẳng cấp bạn nhé!
 
                                        Xem thêm 
                                Chọn ngày để xem giá và phòng trống
                                    Đảm bảo giá tốt nhất
                                                                            Giá ưu đãi chỉ dành cho khách nội địa.
                                                Ngày nhận phòng
                                                Ngày trả phòng
                                        Số đêm
                                        Số phòng
                                            123456789101112
                                        Người lớn
                                            123456789101112
                                        Cập nhật giá
                                Lưu ý: Vui lòng ẩn "Cập nhật giá" để cập nhật phòng
                                Chọn phòng Khách Sạn Tháng Mười 
                                                Loại Phòng
                                                Giá 1 đêm
                                                Số phòng
                                                Đặt phòng
                                                                    Phòng 2 Khách
                                                                        Điều kiện hủy phòng
                                                        Extra person : Ngày thường: 150.000đ/khách; Ngày Lễ Tết: 350.000vnd/khách
Extra person Tết Âm Lịch phụ thu 25% tiền phòng/ phòng/khách
- Ngủ ghép phòng tính thêm 25% tiền phòng / người.- Trẻ em: dưới 5 tuổi miễn phí; từ 6 đến 11 tuổi tính ½ người lớn;- Từ 12 tuổi trở lên tính bằng người lớn
                                                        phòng
                                                                                                                                                                            0123456789101112131415161718192021222324252627
                                                            Đặt ngay
                                                            Xác nhận ngay
                                                                    Phòng 3 Khách 
                                                                        Điều kiện hủy phòng
                                                        - Ngủ ghép phòng tính thêm 25% tiền phòng / người.- Trẻ em: dưới 5 tuổi miễn phí; từ 6 đến 11 tuổi tính ½ người lớn;- Từ 12 tuổi trở lên tính bằng người lớn- Giường phụ : 150.000đ
                                                        phòng
                                                                                                                                                                            012345
                                                            Đặt ngay
                                                            Xác nhận ngay
                                                                    Phòng 4 Khách
                                                                        Điều kiện hủy phòng
                                                        Phòng 03 giường đơn hoặc 01 giường đôi & 01 giường đơn. Khách Sạn sẽ sắp xếp loại giường cho khách tùy vào tình trạng phòng vào thời điểm đó. Nếu Quý khách có yêu cầu loại giường cụ thể, vui lòng liên hệ với bộ CSKH để được hỗ trợ.- Ngủ ghép phòng tính thêm 25% tiền phòng / người.- Trẻ em: dưới 5 tuổi miễn phí; từ 6 đến 11 tuổi tính ½ người lớn;- Từ 12 tuổi trở lên tính bằng người lớn
                                                        phòng
                                                                                                                                                                            012345
                                                            Đặt ngay
                                                            Xác nhận ngay
                                    Tiện nghi Khách Sạn Tháng Mười  
                                                Bữa sáng miễn phí
                                                Bãi đỗ xe
                                                Cửa hàng lưu niệm
                                                Internet
                                                Internet (không dây)
                                                internet ( miễn phí )
                                                Phòng họp
                                                Phòng hút thuốc
                                                Wifi miễn phí
                                                Giặt là
                                                Hỗ trợ đặt tour
                                                Nhà hàng
                                                Quán cafe
                                                Tiếp tân 24/24
                                                vé tàu xe, máy bay
                                                Đổi tiền
                                                Gia đình
                                                Massage
                                                Sân golf
                                                Sân tennis
                                Ghi chú: Ăn sáng miễn phí (nếu có) có thể thay đổi theo phòng và ngày
                                    Chính sách Khách Sạn Tháng Mười  
                                        Giờ nhận
                                        phòng: 14:00
                                        Giờ trả
                                        phòng: 12:00
            Đánh giá Khách Sạn Tháng Mười 
                Viết đánh giá
                        Tất cả ( 171 )
                        Công tác ( 1 )
                        Cặp đôi ( 29 )
                        Gia đình ( 42 )
                        Bạn bè ( 11 )
                        Cá nhân ( 88 )
                        Đánh giá
                        7.4
                            Tất cả
                    Chi tiết điểm  (từ
                        171
                        nhận xét)
                            Vị trí
                                7.6
                                    % Complete
                            7.6
                            Phục vụ
                                7.5
                                    % Complete
                            7.5
                            Tiện nghi
                                7.3
                                    % Complete
                            7.3
                            Giá cả
                                7.4
                                    % Complete
                            7.4
                            Vệ sinh
                                7.4
                                    % Complete
                            7.4
                                    “Khách Sạn Tháng Mười bố trí cho tôi căn phòng hơi xa vì ở góc cuối mà nhà tôi đi lại có bé nhỏ nữa. Ngoài vấn đề đó ra, thì dịch vụ cũng ok, khách sạn sạch sẽ, khang trang, tôi thấy thoải mái khi ở đây.
                                    “
                                Nguyễn Thanh Tuyền
                                30/06/2016
                        Đánh giá
                        5.8
                            Công tác
                    Chi tiết điểm  (từ
                        1
                        nhận xét)
                            Vị trí
                                7
                                    % Complete
                            7
                            Phục vụ
                                5
                                    % Complete
                            5
                            Tiện nghi
                                5
                                    % Complete
                            5
                            Giá cả
                                6
                                    % Complete
                            6
                            Vệ sinh
                                6
                                    % Complete
                            6
                                    “Khách sạn nhỏ, phòng khá cũ và ẩm thấp. Đồ ăn sáng khá được, nhân viên phục vụ tốt. Thêm nữa là phòng mình không bắt sóng được wifi nhưng do tính chất công việc mình có yêu cầu đổi phòng nhưng không được đổi. Nếu cần dùng wifi nên yêu cầu xếp phòng có wifi trước khi nhận phòng.
                                    “
                                Đỗ Hoàng Yến
                                02/07/2012
                        Đánh giá
                        7.3
                            Cặp đôi
                    Chi tiết điểm  (từ
                        29
                        nhận xét)
                            Vị trí
                                7.4
                                    % Complete
                            7.4
                            Phục vụ
                                7.3
                                    % Complete
                            7.3
                            Tiện nghi
                                7.1
                                    % Complete
                            7.1
                            Giá cả
                                7.2
                                    % Complete
                            7.2
                            Vệ sinh
                                7.2
                                    % Complete
                            7.2
                                    “Chất lượng khách sạn Tháng Mười ổn, tiện nghi, nội thất phù hợp với tiêu chuẩn khách sạn 2 sao. Tuy nhiên nếu so sánh với mặt bằng chung ở đây thì tôi thấy giá như vậy hơi cao.
                                    “
                                Hồ Xuân Bảo
                                15/06/2015
                        Đánh giá
                        7.2
                            Gia đình
                    Chi tiết điểm  (từ
                        42
                        nhận xét)
                            Vị trí
                                7.3
                                    % Complete
                            7.3
                            Phục vụ
                                7.3
                                    % Complete
                            7.3
                            Tiện nghi
                                7.1
                                    % Complete
                            7.1
                            Giá cả
                                7.1
                                    % Complete
                            7.1
                            Vệ sinh
                                7.1
                                    % Complete
                            7.1
                                    “Khách sạn Tháng Mười có dịch vụ tương đối tốt : nhân viên phục vụ nhiệt tình, vệ sinh sạch sẽ, yên tĩnh. Có nhiều hoạt động vui chơi được tổ chức tại khách sạn mang đến sự thích thú.
                                    “
                                Nguyễn Văn Tường
                                21/07/2015
                        Đánh giá
                        7.7
                            Bạn bè
                    Chi tiết điểm  (từ
                        11
                        nhận xét)
                            Vị trí
                                7.8
                                    % Complete
                            7.8
                            Phục vụ
                                7.8
                                    % Complete
                            7.8
                            Tiện nghi
                                7.5
                                    % Complete
                            7.5
                            Giá cả
                                7.6
                                    % Complete
                            7.6
                            Vệ sinh
                                7.8
                                    % Complete
                            7.8
                                    “Khách sạn xây dựng đã lâu nên không được mới. Tuy nhiên, chất lượng phòng vẫn rất tốt, rất sạch sẽ. Được lợi thế ngay gần biển nên rất tiện để đi dạo và ngắm cảnh. giá cả hấp dẫn và phù hợp với nhiều người.
                                    “
                                Nguyễn Ngọc Huy
                                02/04/2015
                        Đánh giá
                        7.6
                            Cá nhân
                    Chi tiết điểm  (từ
                        88
                        nhận xét)
                            Vị trí
                                7.8
                                    % Complete
                            7.8
                            Phục vụ
                                7.7
                                    % Complete
                            7.7
                            Tiện nghi
                                7.6
                                    % Complete
                            7.6
                            Giá cả
                                7.6
                                    % Complete
                            7.6
                            Vệ sinh
                                7.5
                                    % Complete
                            7.5
                                    “Khách Sạn Tháng Mười bố trí cho tôi căn phòng hơi xa vì ở góc cuối mà nhà tôi đi lại có bé nhỏ nữa. Ngoài vấn đề đó ra, thì dịch vụ cũng ok, khách sạn sạch sẽ, khang trang, tôi thấy thoải mái khi ở đây.
                                    “
                                Nguyễn Thanh Tuyền
                                30/06/2016
                                Từ ngày mới đến cũ
                                Từ ngày cũ đến mới
                                Điểm từ thấp đến cao
                                Điểm từ cao đến thấp
                                Anh Tùng
                                13-09-2016
                                            Đánh giá
                                            7
                                        "Phòng ổn "
                                                Vị trí
                                                    7 .0
                                                Phục vụ
                                                7 .0
                                                Tiện nghi
                                                7 .0
                                                Giá cả
                                                7 .0
                                                Vệ sinh
                                                7 .0
                                                “Tôi nghỉ lại khách sạn Tháng Mười thấy ổn, không có vấn đề gì cả. Nói chung phòng ổn, tương đối sạch sẽ và gọn gàng, lễ tân làm việc ok, địa điểm cũng gần biển và giá mềm. Tôi có thể chấm được điểm 7.” 
                                Nguyễn Văn Nhất
                                12-09-2016
                                            Đánh giá
                                            3
                                        "Cách ứng xử tồi "
                                                Vị trí
                                                    3 .0
                                                Phục vụ
                                                3 .0
                                                Tiện nghi
                                                3 .0
                                                Giá cả
                                                3 .0
                                                Vệ sinh
                                                3 .0
                                                “Việc đầu tiên là tất cả các phòng của khách sạn Tháng Mười đều đã xuống cấp, phòng được cải tạo từ một căn nhà cấp 4 lên do đó rất kém. Đã vậy cách ứng xử của nhân viên làm việc còn tệ hơn. Theo quy định là 14h check in nhưng đến 21h tôi mới đến nhận phòng, tôi không nói lời nào cả thế mà hôm check out tôi có việc xin ở tới chiều thì họ chẳng chấp nhận bảo đã có khách. Lúc tôi trả phòng thì chậm 1h thôi mà nhân viên yêu cầu tôi phải thanh toán 50% phí, tôi bực muốn làm việc với quản lý thì họ không cho, tôi phải làm lớn chuyện lên thì nhân viên mới xin lỗi và không lấy thêm phí. Cách làm việc như vậy là cực kì tồi, làm tiền khách hàng, mytour nên xem lại đối tác này.” 
                                Nguyễn Thanh Tuyền
                                30-06-2016
                                            Rất tốt
                                            9
                                        "Dịch vụ cũng ok "
                                                Vị trí
                                                    9 .0
                                                Phục vụ
                                                9 .0
                                                Tiện nghi
                                                9 .0
                                                Giá cả
                                                9 .0
                                                Vệ sinh
                                                9 .0
                                                “Khách Sạn Tháng Mười bố trí cho tôi căn phòng hơi xa vì ở góc cuối mà nhà tôi đi lại có bé nhỏ nữa. Ngoài vấn đề đó ra, thì dịch vụ cũng ok, khách sạn sạch sẽ, khang trang, tôi thấy thoải mái khi ở đây.” 
                                Tuyết Trinh
                                16-06-2016
                                            Tốt
                                            8
                                        "Cơ sở vật chất cũ, xuống cấp "
                                                Vị trí
                                                    8 .0
                                                Phục vụ
                                                8 .0
                                                Tiện nghi
                                                8 .0
                                                Giá cả
                                                8 .0
                                                Vệ sinh
                                                8 .0
                                                “Tôi thấy phòng ốc, cơ sở vật chất ở khách sạn Tháng Mười này khá cũ, khá xuống cấp. Nhưng bù lại thì vệ sinh cũng sạch sẽ, đầy đủ tiện nghi. Cách làm việc của nhân viên cũng tốt, lịch sự, vui vẻ. Với mức giá như vậy thì tôi thấy hợp lý, giá tương xứng với dịch vụ chung của khách sạn, tôi hài lòng khi nghỉ tại đây.” 
                                Truong Thi Ngoc Bich
                                16-06-2016
                                            Rất tốt
                                            10
                                        "Hài lòng về tất cả "
                                                Vị trí
                                                    10 .0
                                                Phục vụ
                                                10 .0
                                                Tiện nghi
                                                10 .0
                                                Giá cả
                                                10 .0
                                                Vệ sinh
                                                10 .0
                                                “Tôi đánh giá cao chất lượng dịch vụ ở khách sạn Tháng Mười này. Các dịch vụ và tiện ích cơ bản ở đây đều đáp ứng được yêu cầu của tôi. Từ vệ sinh phòng ốc, sạch sẽ, gọn gàng, đầy đủ tiện nghi đến cách làm việc của nhân viên thì lịch sự, vui vẻ. Mọi thứ đều ổn, vị trí cũng đẹp, tôi hài lòng khi nghỉ tại đây, dịch vụ không có gì phàn nàn.” 
                    Xem tất cả đánh giá ( 171 )
                                Đặt phòng ngay giữ giá tốt
            Khách hàng đã xem khách sạn này thường tham khảo thêm
                Được đề xuất cho bạn
            Khách sạn 2 sao có cùng tiện nghi
            Có thể bạn muốn xem
                    Khách sạn 2 sao tại Bà Rịa - Vũng Tàu
                        Khách sạn có nhà hàng tại Bà Rịa - Vũng Tàu
                        Khách sạn có giặt là tại Bà Rịa - Vũng Tàu
                        Khách sạn có wifi miễn phí tại Bà Rịa - Vũng Tàu
            Địa danh ở gần
                                    Khu du lịch Biển Đông 
                                     ~ 0.87km
                                                                Khu du lịch Biển Đông với chiều dài 750m bờ biển, nằm ngay trung tâm Bãi Sau (bãi tắm Thùy Vân) thành phố biển Vũng Tàu - một trong những bãi biển được xem là đẹp nhất Việt Nam. Hãy để Mytour hỗ trợ bạn để có 1 chuyến đi thú vị, tiết kiệm bằng cách đặt phòng khách sạn tại khu vực Khu du lịch Biển Đông ngay bây giờ với giá chỉ từ 171.000đ
                                    Đài liệt sĩ Vũng Tàu 
                                     ~ 0.89km
                                                                Đài liệt sĩ Vũng Tàu ở ngay Bãi Sau, gồm một Đài liệt sĩ nằm giữa vòng xoay và một đền thờ nằm trên đỉnh đồi bên cạnh. Đây là địa điểm vui chơi và hóng mát mỗi chiều của dân địa phương. Hãy để Mytour hỗ trợ bạn để có 1 chuyến đi thú vị, tiết kiệm bằng cách đặt phòng khách sạn tại khu vực Đài liệt sĩ Vũng Tàu ngay bây giờ với giá chỉ từ 309.000đ
                                    Bãi sau
                                     ~ 0.91km
                                    Lăng Cá Ông
                                     ~ 0.98km
                                    Đình thần Thắng Tam
                                     ~ 0.99km
                                    Miếu Bà Ngũ Hành
                                     ~ 1.03km
                                    Bãi Thùy Vân (Bãi Sau)
                                     ~ 1.13km
                                                                Bãi Sau tọa lạc ở phía đông nam thành phố Vũng Tàu, dài khoảng trên 8km từ chân núi Nhỏ đến Cửa Lấp. Đây là một trong những bãi biển du lịch đẹp và lớn nhất của Việt Nam. Hãy để Mytour hỗ trợ bạn để có 1 chuyến đi thú vị, tiết kiệm bằng cách đặt phòng khách sạn tại khu vực Bãi Thùy Vân (Bãi Sau) ngay bây giờ với giá chỉ từ 171.000đ
                                    Tượng chúa Jesus
                                     ~ 1.64km
                                    Tượng Chúa Kitô
                                     ~ 1.64km
                                                                Tượng chúa kitô cao 32m ở Nghinh Phong – Vọng Nguyệt, Bà Rịa - Vũng Tàu. Nhờ bàn tay con người cải tạo mạn cực nam Núi Nhỏ và xây dựng nơi đây một công trình kiến trúc điêu khắc đồ sộ. Hãy để Mytour hỗ trợ bạn để có 1 chuyến đi thú vị, tiết kiệm bằng cách đặt phòng khách sạn tại khu vực Tượng Chúa Kitô ngay bây giờ với giá rẻ nhất.
                                    Mũi Nghinh Phong
                                     ~ 1.85km
                                                                Mũi Nghinh Phong là khu du lịch có ưu thế trước mặt là biển sau lưng là núi. Nơi đây có không khí trong lành và phong cảnh hữu tình với nước biển xanh mát tại bãi biển Ô Quắn. Hãy để Mytour hỗ trợ bạn để có 1 chuyến đi thú vị, tiết kiệm bằng cách đặt phòng khách sạn tại khu vực Mũi Nghinh Phong ngay bây giờ với giá chỉ từ 171.000đ
                                    Nhà Thờ Vũng Tàu
                                     ~ 1.96km
                                                                Nhà Thờ Vũng Tàu  là một trong những địa điểm du lịch tâm linh của Vũng Tàu.. Đến với Nhà Thờ Vũng Tàu , du khách có cơ hội tham quan các địa điểm  như núi Tao Phùng, Côn Đảo, Bạch Dinh, Hải Đăng ..Hãy để Mytour hỗ trợ bạn để có 1 chuyến đi thú vị, tiết kiệm bằng cách đặt phòng khách sạn tại khu vực Nhà Thờ Vũng Tàu  ngay bây giờ với giá rẻ nhất.
                                    Bãi Dứa
                                     ~ 2km
                                    Khu du lịch Paradise
                                     ~ 2.16km
                                                                Khu du lịch Paradise ở Vũng Tàu được bao bọc xung quanh bởi bờ biển và sân golf, là nơi nghỉ dưỡng có không gian mở với thiên nhiên và hoàn toàn tách biệt với bụi bặm và sự ồn ào của đường phố. Hãy để Mytour hỗ trợ bạn để có 1 chuyến đi thú vị, tiết kiệm bằng cách đặt phòng khách sạn tại khu vực Khu du lịch Paradise ngay bây giờ với giá rẻ nhất.
                                    Cảng Cầu Đá 
                                     ~ 2.17km
                                                                Cầu Đá là một trong những di tích du lịch thu hút số lượng lớn du khách mỗi năm của Vũng Tàu.. Đến với Cầu Đá, du khách có cơ hội tham quan các địa điểm  như núi Tao Phùng, Côn Đảo, Bạch Dinh, Hải Đăng ..Hãy để Mytour hỗ trợ bạn để có 1 chuyến đi thú vị, tiết kiệm bằng cách đặt phòng khách sạn tại khu vực Cầu Đá ngay bây giờ với giá rẻ nhất.
                                    Bến tàu Cánh ngầm
                                     ~ 2.27km
                                    Mũi Nghinh Phong
                                     ~ 2.31km
                                    Bãi Tầm Dương (Bãi Trước)
                                     ~ 2.42km
                                                                Là mặt tiền của Vũng Tàu, nằm về hướng tây-nam, còn gọi là bãi Tầm Dương. Bãi Trước như một nửa vành trăng tựa lưng vào đất liền, hai đầu là hai ngọn núi Tương Kỳ và Tao Phùng. Hãy để Mytour hỗ trợ bạn để có 1 chuyến đi thú vị, tiết kiệm bằng cách đặt phòng khách sạn tại khu vực Bãi Tầm Dương (Bãi Trước) ngay bây giờ với giá chỉ từ 171.000đ
                                    Lăng Cá Ông ở Đình Thần Thắng Tam
                                     ~ 2.42km
                                                                Đình thần Thắng Tam ở trên khu đất rộng ở đường Hoàng Hoa Thám, thành phố Vũng Tàu, là quần thể kiến trúc, di tích gồm ba công trình: đình Thắng Tam, miếu Bà và lăng cá Ông. Hãy để Mytour hỗ trợ bạn để có 1 chuyến đi thú vị, tiết kiệm bằng cách đặt phòng khách sạn tại khu vực Lăng Cá Ông ở Đình Thần Thắng Tam ngay bây giờ với giá chỉ từ 171.000đ
                                    Sân vận động Lam Sơn
                                     ~ 2.48km
                                                                Sân vận động Lam Sơn ở thành phố Vũng Tàu, du khách thường đến đây vào cuối tuần để xem “môn điền kinh đua chó” có một không hai ở Việt Nam, đây là điểm khác biệt với các sân vận động khác. Hãy để Mytour hỗ trợ bạn để có 1 chuyến đi thú vị, tiết kiệm bằng cách đặt phòng khách sạn tại khu vực Sân vận động Lam Sơn ngay bây giờ với giá chỉ từ 171.000đ
                                    Đền Hùng ở Bến Đình
                                     ~ 2.66km
                                                                Đền Hùng là một địa điểm du lịch tâm linh nổi tiếng Vũng Tàu. Đến với Đền Hùng , du khách có cơ hội tham quan các địa điểm nổi tiếng như Núi Tao Phùng, Hải Đăng Vũng Tàu, Côn Đảo, Bãi Thùy Vân… Hãy để Mytour hỗ trợ bạn để có 1 chuyến đi thú vị, tiết kiệm bằng cách đặt phòng khách sạn tại khu vực Đền Hùng ngay bây giờ với giá rẻ nhất.
                ×
                    Chính sách đảm bảo hoàn tiền của mytour
                    Bạn chưa tin tưởng việc đặt phòng khách sạn trực tuyến? Bạn e ngại rằng phòng khách sạn thực tế không đúng với thông tin trên website? Chúng tôi cam kết đưa đầy đủ và chính xác thông tin khách sạn trên website với chính sách “Đảm bảo Hoàn tiền”
                        Nếu khách hàng đặt khách sạn thành công trên Mytour nhưng khách sạn không có phòng, Mytour sẽ hoàn lại tiền cho khách và tặng kèm phiếu giảm giá có giá trị bằng với số tiền khách hàng đã trả.
                        Trong trường hợp loại phòng thực tế không đúng với loại phòng trên đơn hàng, Mytour sẽ quyết định nâng cấp miễn phí hoặc tặng phiếu giảm giá có giá trị bằng với số tiền khách hàng đã trả.
                        Trường hợp các tiện nghi phòng khách sạn (như bữa sáng, wifi…) không đúng với nội dung trên website, Mytour sẽ tặng phiếu giảm giá có giá trị bằng 10% số tiền khách đã trả (tối đa 500,000 VND)
                        Khách hàng cần gọi điện thoại 04-7309 9899 (Hà Nội), 08-7309 9899 (Hồ Chí Minh) hoặc email tới info@mytour.vn và cung cấp mã đơn hàng trong vòng 24 giờ từ lúc nhận phòng để được trợ giúp giải quyết khiếu nại (Hotline chỉ hỗ trợ trong giờ hành chính).
                        Mytour không chịu trách nhiệm bồi thường thiệt hại gián tiếp, ngẫu nhiên, hay do hậu quả phát sinh. Trong mọi trường hợp, trách nhiệm của Mytour không vượt quá tổng số tiền khách hàng thanh toán đặt phòng.
                ×
                    Đảm bảo giá tốt nhất
                    Nếu Thành viên đã đặt một phòng khách sạn được “Đảm Bảo” tại Mytour.vn và sau đó, cho Mytour.vn  thấy rằng Thành viên có thể đặt một phòng tương tự trong cùng khoảng thời gian ở mức giá tốt hơn có thể xem và đặt được trên một website khác, Mytour.vn sẽ giảm giá bằng hoặc thấp hơn mức giá đó.
                    Giá dùng để so sánh là giá sau khi áp dụng mức giảm giá công bố trên website Mytour.vn.
                    Chính sách “Đảm Bảo Giá Tốt Nhất” của Mytour.vn chỉ áp dụng cho các đặt phòng đã được xác nhận và phải thỏa mãn những điều kiện sau:
                Cùng khách sạnCùng thời gian nghỉ lạiCùng loại Phòng/GiườngCùng các yêu cầu mua Trước, yêu cầu trả trước và đặt cọc (nếu có)Cùng chính sách Hủy và Sửa Đổi
                    Phòng đó phải còn trống để được xác nhận ngay tại thời điểm các đại lý của Mytour.vn  kiểm tra phòng trống
                        Chính sách “Đảm Bảo Giá Tốt Nhất” không áp dụng cho các mức giá không công bố, như: chương trình khách hàng thân thiện.
                        Bất kỳ tổ chức nào với các mức giá dành cho nhóm cá nhân cụ thể và không nhằm mục đích áp dụng ra bên ngoài.
                        Thành viên có thể gửi khiếu nại theo địa chỉ : info@mytour.vn
                                Nêu mã đặt phòng Mytour.vn trong dòng tiêu đề thư
                                Gửi URL của website nơi Thành viên tìm thấy mức giá tốt hơn
                                Cung cấp ảnh chụp màn hình của website đối thủ cạnh tranh trong đó nêu rõ Phòng Trống, Loại Phòng, và các mức giá cho những ngày nghỉ lại theo yêu cầu của Thành viên.
                VUI LÒNG LƯU Ý: Thành viên không cần thực hiện đặt phòng trên website của đối thủ cạnh tranh, chỉ cần cho Mytour.vn thấy sự so sánh.
                ×
                Đăng Nhập
                                 Đăng nhập bằng tài khoản Facebook
                                 Đăng nhập bằng tài khoản Google
                            Hoặc đăng nhập bằng
                        Email*
                        Mật khẩu*
                        Quên mật khẩu?
                            Chưa có tài khoản/tạo tài khoản
                Đăng nhập
                         Nhớ đăng nhập
                ×
                Bản đồ
                                            Khách Sạn Tháng Mười 
                    Tìm đường
                        Từ: 
                        Đến: 
                            Khách sạnĐịa danh Hiển thị các khách sạn ở gần Hiển thị các khu du lịch ở gần
                ×
                Yêu Cầu Lấy Giá
                                    Ngày nhận phòng
                                    Ngày trả phòng
                        Tên khách hàng
                        Email
                        Điện thoại
                        Nhân viên chăm sóc khách hàng sẽ gọi điện cho quý khách trong thời gian sớm nhất.
                        Quý khách có thể gọi điện đến cho Mytour để được tư vấn ngay:
                        Hà Nội: (04) 7109 9999, Hồ Chí Minh: (08) 7309 9899, Support
                            English: (+84)4-7309-9899.
                    Hoàn thành
                ×
                Gửi Thông Tin
                        Tên khách hàng
                        Email
                        Điện thoại
                            Quý khách sẽ thấy giá giảm ngay trên trang sau khi gửi thông tin
                    Hoàn thành
                ×
                Nhận Giá Tốt
                                    Ngày nhận phòng
                                    Ngày trả phòng
                        Tên khách hàng
                        Email
                        Điện thoại
                        Vì giá tốt không được công bố nên hệ thống sẽ gửi giá qua email đến quý khách và nhân viên chăm
                        sóc sẽ gọi điện cho quý khách trong thời gian sớm nhất.
                        Quý khách có thể gọi điện đến cho Mytour để được tư vấn ngay:
                        Hà Nội: (04) 7109 9999, Hồ Chí Minh: (08) 7309 9899, Support
                            English: (+84)4-7309-9899.
                    Hoàn thành
                ×
                ×
                ĐÁNH GIÁ 
                        Tên
                        Tiêu đề
                        Kiểu du lịch?
                                -- Chọn --Cá nhânCặp đôiGia đìnhBạn bèDoanh nghiệp
                        Nội dung
                                Đánh giá chi tiết
                                Chỗ ở
                                5
                                Thức ăn
                                5
                                Phương tiện
                                5
                                Hướng dẫn viên
                                5
                                Lịch trình
                                5
                    Gửi đánh giá
                    Hủy Bỏ
                ×
                Gửi lại email kích hoạt
                ×
                Thông tin chi tiết giá theo phòng
                    Chọn khoảng thời gian hiển thị giá phòng
                    Hiển thị giá
                ×
                Khóa phòng theo khoảng thời gian
                            Chọn khoảng thời gian check-in cần khóa/mở phòng
                            Khóa phòng
                            Mở phòng
                ×
                THUẾ VÀ PHÍ DỊCH VỤ
                17% thuế và phí dịch vụ bao gồm:
                    - 10% thuế và 5% phí dịch vụ hoàn trả lại cho khách sạn.
                    - 2% phí giao dịch tại Mytour.
                ×
                Bạn có hài lòng về website của Mytour?
                    Thông điệp nhắn nhủ:
                Mytour luôn mong muốn cải thiện dịch vụ để bạn có trải nghiệm tốt hơn!
                            Ảnh đính kèm
                        Đóng
                        Gửi
                ×
                    Những đóng góp của bạn đã được ghi nhận. Mytour cám ơn bạn !
                Quay lại website
                            Giới thiệu Mytour
                            Đối tác khách sạn
                            Đăng nhập HMS
                            Tích lũy Vpoint
                            Điều khoản sử dụng
                            Quy chế hoạt động
                            Tuyển dụng
                            Liên hệ
                            Đăng ký nhận email
                                Đăng ký email để nhận khuyến mãi lên đến 70%
                                    Đăng
                                    ký
                    Công ty TNHH Mytour Việt Nam
                    Số ĐKKD: 0105983269 cấp ngày 30/08/2012
                    Văn phòng Hà Nội: Tầng 4, tòa nhà GP Invest, 170 Đê La Thành, Đống Đa
                    Văn phòng HCM: Tầng 5, Tòa Nhà HDTC, Số 36 Bùi Thị Xuân, Q.1
                Hotline
                        Hà Nội:
                        (04) 7109 9999
                        Tp. HCM:
                        (08) 7309 9899
                        ENGLISH SUPPORT:
                        (+84)4 7309 9899
