url:http://mytour.vn/c70/khach-san-co-bua-sang-mien-phi-tai-bac-lieu.html
Tittle :Khách sạn Bạc Liêu có bữa sáng miễn phí giá tốt nhất - Mytour.vn
content :Đặt phòng trực tuyến, hoặc gọi
                                                            Hà Nội: (04) 7109 9999
                                                                                        - (04) 7309 9899
                                                            Hồ Chí Minh: (08) 7309 9899
                                                                                        - (08) 7109 9998
                        T2 - CN: 08:00 - 23:00
                    Toggle navigation
                                Bạn không có thông báo nào
                    |
                    ||
                                                            Tài khoản
                        Đăng nhập
                                Đăng kýKhách sạn yêu thích
                            Khách sạn
                            Tour
                            Cẩm nang du lịch
                            Thông tin
                                                Về Mytour
                                                Tin khuyến mãi
                                                Ưu đãi
                                                Hướng dẫn
                                                Liên hệ
                            Tốt nhất 2016
                ×
                Bạn có chắc muốn hủy đơn hàng?
                Lorem ipsum dolor sit amet, consectetur adipisicing elit. Iure corporis repudiandae nobis distinctio
                quae quos, officia modi, ab voluptatem pariatur ducimus mollitia, necessitatibus sed soluta dicta
                repellendus! Praesentium debitis, temporibus?
                    Đồng ý
                    Đóng
                    Khách sạnKhách sạn tại Bạc LiêuKhách sạn có Bữa sáng miễn phí tại Bạc Liêu
                    Áp dụng
                    Đóng
            Tìm Kiếm Khách Sạn
                            Ngày nhận phòng
                            Ngày trả phòng
                    Số đêm
                    Số phòng
                        123456789101112
                    Người lớn
                        123456789101112
                    Tìm khách sạn
                                Bộ lọc tìm kiếm
                                        Theo mức giá
                                                        Dưới 500.000
                                                        500.000 - 1.000.000
                                                        1.000.000 - 1.500.000
                                                        1.500.000 - 2.000.000
                                                        2.000.000 - 2.500.000
                                                        2.500.000 - 3.000.000
                                                        Trên 3.000.000
                                    Hạng Khách Sạn
                                    Loại khách sạn
                                                    Khách sạn
                                                    Resort
                                Tiện nghi
                                                Đưa đón khách sạn sân bay
                                                Bữa sáng miễn phí
                                                Bể bơi ngoài trời
                                                Bãi đỗ xe
                                                Phòng họp
                                                Phòng tập thể thao
                                                Thang máy
                                                Thêm giường phụ
                                                Truyền hình cáp/vệ tinh
                                                Wifi miễn phí
                                                Giặt là
                                                Nhà hàng
                                                Spa
            Quận huyện
                        Thành Phố Bạc Liêu
                        Đông Hải 
                        Giá Rai 
                        Hoà Bình 
                        Hồng Dân 
                        Phước Long 
                        Vĩnh Lợi 
            Khu vực
                        Tịnh xá Ngọc Liên
                        Trung tâm Thương mại
                        Vườn chim Bạc Liêu
                        Chợ Xóm Mới
                        Chùa Xiêm Cáng
                        Khu Du Lịch Sinh Thái Hồ Nam
                        Bến xe Bạc Liêu
                        Phật Bà Nam Hải
                        Chùa Giác Hoa
                        Thị trấn Hòa Bình
                        Chợ Giá Rai
                        Khu hành chính huyện Giá Rai
                        Di tích Lịch sử Nọc Nạng
                        Nhà thờ Ninh Sơn
                        Bến xe Hộ Phòng
                        Chợ Hộ Phòng
                        Chợ Phước Long
                        Thị trấn Phước Long
                        Chợ Gành Hào
                        Chợ Ngan Dừa
                        Thị trấn Ngan Dừa
                        Bến đò Định Thành
             Giá tốt hơn so với đặt phòng trực
            tiếp tại khách sạn
             Đảm bảo 
            giá tốt nhất 
             Đảm bảo 
            hoàn tiền
             Nhân viên chăm sóc, tư vấn nhiều kinh nghiệm
             Hơn 5000 khách sạn tại Việt Nam với
            đánh giá thực
             Nhiều chương trình khuyến mãi và tích lũy điểm
             Thanh toán dễ dàng, đa dạng
                            Khách sạn có Bữa sáng miễn phí tại Bạc Liêu
                                     Xem Bản Đồ
                            Bạc Liêu là một tỉnh với nhiều dân tộc khác nhau sinh sống tạo nên nét văn hóa đặc sắc. Bạc Liêu có các địa danh: khu di tích Ninh Thạnh Lợi, Đồng Ngọc Nạng,… Hãy để Mytour hỗ trợ bạn để có 1 chuyến đi thú vị, tiết kiệm bằng cách đặt phòng khách sạn có bữa sáng miễn phí tại  Bạc Liêu ngay bây giờ với giá từ 394,000 VND.
                                Có 4
                                khách sạn ở
                                đây theo ngày đã chọn
                        Ngày nhận phòng
                        Ngày trả phòng
                Số đêm
                Số phòng
                    123456789101112
                Người lớn
                    123456789101112
                Cập nhật ngày
                             Bộ lọc
                                            Phổ biến nhất
                                     Hạng khách sạn
                                                                                                Hạng sao [5...1]
                                                                                                Hạng sao [1...5]
                                            Đánh giá cao nhất
                                            Khuyến mãi
                                     Giá
                                                                                                Giá tăng dần
                                                                                                Giá giảm dần
                            Sắp xếp:
                            Đánh giá cao nhất
                        Phổ biến nhấtĐánh giá cao nhấtGiá tăng dầnGiá giảm dầnHạng tăng dầnHạng giảm dầnKhuyến mãi
                            Khách Sạn Bạc Liêu
                             4-6 Hoàng Văn Thụ, Thành Phố Bạc Liêu, Bạc Liêu 
                            (Xem bản đồ)
                            Trung tâm Thương mại
                                        “Khách Sạn Bạc Liêu là lựa chọn lý tưởng cho bạn để đi du lịch hay công tác với giá cả hợp lí. Các phòng nghỉ đầy đủ tiện nghi hiện đại. Đội ngũ nhân viên khách sạn phục vụ thân thiện và nhiệt tình.
                                        “
                                                Đảm bảo hoàn tiền
                                                Đảm bảo giá tốt nhất!
                                                            7.4
                                Đánh giá
                                    (44
                                        đánh giá)
                                Xem phòng
                            Khách Sạn Trần Vinh
                             85 - 87 Hai Bà Trưng, Phường 3, Thành Phố Bạc Liêu, Bạc Liêu 
                            (Xem bản đồ)
                            Trung tâm Thương mại
                                        “Khách Sạn Trần Vinh - Bạc Liêu nằm ngay tại trung tâm thành phố, sở hữu hệ thống phòng ốc sang trọng và các trang thiết bị hiện đại. Du khách hãy nhanh tay đặt phòng để có những ngày nghỉ thật ý nghĩa...
                                        “
                                                Đảm bảo hoàn tiền
                                                Đảm bảo giá tốt nhất!
                                                            8.3
                                Tốt
                                    (3
                                        đánh giá)
                                Xem phòng
                            Resort Nhà Mát
                             Khu du lich Nhà Mát, Thành Phố Bạc Liêu, Bạc Liêu 
                            (Xem bản đồ)
                            Phật Bà Nam Hải
                                        “Resort Nhà Mát Bạc Liêu được nhiều du khách biết đến và lựa chọn bởi trang thiết bị tiện nghi, hiện đại, đội ngũ nhân viên nhiệt tình, chuyên nghiệp và các chương trình ưu đãi đặc biệt cho mọi du khác...
                                        “
                                                Đảm bảo hoàn tiền
                                                Đảm bảo giá tốt nhất!
                                                            6.0
                                Đánh giá
                                    (2
                                        đánh giá)
                                Xem phòng
                            Khách Sạn Đạt Ngọc 
                             Khu 1, Võ Thị Sáu, Phường 3, Thành Phố Bạc Liêu, Bạc Liêu 
                            (Xem bản đồ)
                            Trung tâm Thương mại
                                        “Khách Sạn Đạt Ngọc Bạc Liêu có đội ngũ nhân viên được đào tạo chuyên nghiệp và phục vụ tận tình. Đầy đủ tiện nghi, phòng thoáng mát, sạch sẽ. Trang thiết bị hiện đại và được bài trí sang trọng, ấm cún...
                                        “
                                                Đảm bảo hoàn tiền
                                                Đảm bảo giá tốt nhất!
                                                            5.2
                                Đánh giá
                                    (6
                                        đánh giá)
                                Xem phòng
                                Bạc Liêu
                            Đặt phòng khách sạn Bạc Liêu giá tốt nhất tại Mytour.vn, với nhiều khuyến mãi từ website và đơn vị khách sạn tiết kiệm lên đến 70%. Hơn 150.000 đánh giá từ khách hàng đã qua sử dụng khách sạn giúp bạn đưa ra những quyết định tốt nhất cho lựa chọn của mình. Đặc biệt chính sách ĐẢM BẢO HOÀN TIỀN chỉ có tại Mytour.vn, giờ đây bạn có thể hoàn toàn tin tưởng vào dịch vụ đặt phòng trực tuyến.Với hơn 5.000 khách sạn, resort tại 63 tỉnh/ thành phố, Mytour ngày càng được du khách tin dùng để tìm kiếm khách sạn. Mytour sẽ hỗ trợ quý khách đặt khách sạn Bạc Liêu với chi phí hợp lý để có chuyến đi thật thú vị và tiết kiệm. Ngoài việc cung cấp những khách sạn giá tốt nhất, bạn có còn có thể tìm thấy nhiều thông tin du lịch hữu ích và thú vị khác.  “Về phương Nam lắng nghe cung đàn  Thổn thức vọng dưới trăng mơ màng  Rồi theo sông Cửu Long nhớ nhung dâng tràn  Chợt thương con sáo bay xa bầy  Sương khói buồn để lại lòng ai  Con Sáo sang sông, Sáo đã xổ lồng  Bay về Bạc Liêu, con sáo bay theo phương người  Bay về Trà Vinh, con sáo bay qua đời tôi” …  Bạc Liêu là một tỉnh duyên hải đồng bằng sông Cửu Long, nằm trên bán đảo Cà Mau thuộc miền đất cực Nam của nước ta. Bạc Liêu cách Thành phố Hồ Chí Minh 280 km. Vùng đất Bạc Liêu có nhiều di tích ghi dấu những sự kiện từ ngày đầu khai hoang mở đất. Đây còn là vùng đất hội tụ văn hóa của ba dân tộc Kinh - Hoa - Khmer thể hiện qua những công trình văn hóa độc đáo, tạo nên vẻ đẹp riêng Bạc Liêu.  Khi đặt khách sạn tại Bạc Liêu, Mytour với hệ thống đặt phòng có hơn 6 khách sạn được trang bị đầy đủ tiện nghi hiện đại cùng với dịch vụ chăm sóc khách hàng hoàn hảo sẽ mang lại cho bạn những trải nghiệm thú vị và hài lòng cả những du khách khó tính nhất.  Du lịch Bạc Liêu, quý khách sẽ được theo dòng lịch sử ghé thăm nhà công tử Bạc Liêu, tham quan những danh thắng nổi tiếng như Vườn nhãn cổ Bạc Liêu, Vườn chim Bạc Liêu hay là Chùa Xiêm Cán… Nhà công tử Bạc Liêu là ngôi biệt thự được xây dựng từ năm 1917, và là ngôi biệt thự to lớn nhất vùng lúc bấy giờ, ngôi biệt thự được cất theo mô típ Pháp, toàn bộ vật liệu dùng để xây dựng ngôi biệt thự được chở từ Pháp sang. Ngôi biệt thự được xây trong khuôn viên gồm vườn hoa, hàng rào bảo vệ, nhà ở chính, nhà bếp, nhà kho và các công trình phụ, hướng nhà được chọn theo phong thủy quay mặt về hướng nam và kênh xáng Bạc Liêu. Nhà Công tử Bạc Liêu nổi tiếng bởi lịch sử ngôi nhà và người chủ nhân của nó. Hẳn là quý khách ai cũng hơn một lần được nhắc tới giai thoại “công tử Bạc Liêu đốt tiền nấu chè”. Hiện nay nhà Công tử Bạc Liêu tọa lạc tại số 13-15 Điện biên Phủ, phường 3 TX Bạc Liêu. Ngôi biệt thự này thường được gắn với một danh xưng "Công tử Bạc Liêu", danh xưng đó đã ra đời cùng nhiều giai thoại được mọi người truyền tụng đến ngày nay. Công tử Bạc liêu là một nhân vật có thật, là con một địa chủ giàu khét tiếng tại đất Bạc liêu và cùng những giai thoại về Công tử Bạc liêu. Vườn nhãn Bạc Liêu cách thị xã Bạc Liêu 6 km về hướng đông nam, nằm trên đất giồng biển bồi từ thời xa xưa, kéo dài từ phường Nhà Mát đến xã An Trạch Đông dài 7km. Vườn nhãn được hình thành khoảng hai trăm năm trước đây, khi những lưu dân đầu tiên đấn đây khai mở đất họ đã trồng những hạt nhãn mang theo trên những giồng cát ven biển và thu hoạch được những trái nhãn có vị ngon rất đặc trưng. Vườn chim Bạc Liêu mang đậm nét thiên nhiên hoang dã đã cùng hoà quyện nhau vẽ nên bức tranh sinh động với một Bạc Liêu khỏe khoắn, giàu tiềm năng đã in sâu trong kí ức của nhiều người qua bao thế hệ. Chùa Xiêm Cán được xây dựng vào năm 1887, toạ lạc tại ấp biển Đông A, xã Vĩnh Trạch Đông, thị xã Bạc Liêu, cách trung tâm thị xã 12km về hướng Đông Nam, tổng diện tích của chùa là 43.790 m2. Hiện nay chùa vẩn giữ được nét kiến trúc truyền thống của người khmer nam bộ và còn lưu giữ được khá nhiều tượng cổ và các tác phẩm nghệ thuật độc đáo như những tác phẩm điêu khắc (tập trung ở chính điện) diễn tả quá trình tu hành của đức phật Thích ca, các con rồng cabacroca uốn éo mềm mại (ở cửa chính điện), hoặc tượng chim thần krud đính ở các đầu cột hay tượng thần nhân điểu (nữ thần) kayno hai tay nâng đỡ mái chùa,…  Bên cạnh những di tích vật thể thì Bạc Liêu còn độc đáo bởi những giá trị văn hóa phi vật thể như các lễ hội, phong tục, tập quán cổ truyền. Đó là các lễ hội Kỳ yên, lễ hội Phật giáo Thượng Ngươn, Trung Ngươn, Hạ Ngươn; lễ hội Chôl Chnăm Thmây, Oóc-om-bóc, Đôn-ta của người Khmer; lễ Giỗ tổ cổ nhạc, lễ cúng Thanh minh... Bạc Liêu là một trong những cái nôi của đờn ca tài tử Nam bộ. Đây là nơi sinh ra các nhạc sư, nghệ nhân nổi tiếng, nhiều ca sĩ, nghệ sĩ lừng danh…  Văn hóa ẩm thực cũng tạo nên nét đặc trưng cho vùng đất cuối trời Nam này. Ẩm thực Bạc Liêu mang sắc thái dân tộc và yếu tố bản địa vùng miền. Nhiều món ăn tạo nên thương hiệu Bạc Liêu như bún bò cay, bánh xèo, bún nước lèo…  Nếu bạn có kế họach đến nghỉ dưỡng hoặc công tác ở vùng đất sông nước miền tây Bạc Liêu, hãy để Mytour giúp bạn chuẩn bị 1 chuyến đi dễ dàng, thú vị, và tiết kiệm nhất bạn nhé!   
            Địa danh ở gần
                                    Nhà thờ Tắc Sậy
                                     ~ 0km
                                    Chùa Vĩnh Phước An
                                     ~ 2.62km
                                                                Chùa Vĩnh Phước An tọa lạc tại tp. Bạc Liêu. Ngòai ra, du khách còn có cơ hội đến thăm nhiều địa điểm du lịch nổi tiếng như: cửa biển Nhà Mát, Quán âm Phật đài, khu mộ cố Nhạc sĩ Cao Văn Lầu … Hãy để Mytour hỗ trợ bạn có 1 chuyến đi thú vị, tiết kiệm bằng cách đặt phòng khách sạn khu vực chùa Vĩnh Phước An ngay bây giờ với giá chỉ từ 245,000 VND.
                                    Mộ cố Nhạc sĩ Cao Văn Lầu
                                     ~ 3.22km
                                                                Mộ cố Nhạc sĩ Cao Văn Lầu tọa lạc giữa tp. Bạc Liêu. Ngoài ra, du khách có cơ hội đến thăm nhiều địa điểm du lịch nổi tiếng như: cửa biển Nhà Mát, Quán âm Phật đài, chùa Vĩnh Phước An… Hãy để Mytour hỗ trợ bạn để có 1 chuyến đi thú vị, tiết kiệm bằng cách đặt phòng khách sạn khu vực Mộ cố Nhạc sĩ Cao Văn Lầu ngay bây giờ với giá chỉ từ 245,000 VND.
                                    Tịnh Xá Ngọc Liên 
                                     ~ 3.27km
                                                                Tịnh Xá Ngọc Liên tọa lạc tại tp. Bạc Liêu. Ngòai ra, du khách còn có cơ hội đến thăm nhiều địa điểm du lịch nổi tiếng như: cửa biển Nhà Mát, Quán âm Phật đài, khu mộ cố Nhạc sĩ Cao Văn Lầu… Hãy để Mytour hỗ trợ bạn để có 1 chuyến đi thú vị, tiết kiệm bằng cách đặt phòng khách sạn khu vực Tịnh Xá Ngọc Liên ngay bây giờ với giá chỉ từ 245,000 VND.
                                    Vườn nhãn cổ Bạc Liêu 
                                     ~ 3.61km
                                                                Vườn nhãn cổ Bạc Liêu tọa lạc tại Vĩnh Trạch Đông, tp. Bạc Liêu. Ngòai ra, du khách có cơ hội đến thăm nhiều địa điểm nổi tiếng như: cửa biển Nhà Mát, Quán âm Phật đài, khu mộ cố Nhạc sĩ Cao Văn Lầu… Hãy để Mytour hỗ trợ bạn có 1 chuyến đi thú vị, tiết kiệm bằng cách đặt phòng khách sạn khu vực Vườn nhãn cổ ngay bây giờ với giá chỉ từ 245,000 VND.
                                    Chùa Quan Đế - Chùa Ông
                                     ~ 3.85km
                                                                Chùa Quan Đế là địa điểm du lịch nổi tiếng tâm linh nổi tiếng của Bạc Liêu. Đến với Chùa Quan Đế, du khách có cơ hội tham quan các địa điểm du lịch nổi tiếng khác như Vườn cò Tân Long, Nhà Thờ Tắc Sậy...Hãy để Mytour hỗ trợ bạn để có 1 chuyến đi thú vị, tiết kiệm bằng cách đặt phòng khách sạn tại khu vực Chùa Quan Đế ngay bây giờ với giá rẻ nhất.
                                    Phước Đức Cổ Miếu
                                     ~ 4.09km
                                                                Phước Đức Cổ Miếu tọa lạc tại phường 3, tp. Bạc Liêu. Ngòai ra, du khách còn có cơ hội đến thăm nhiều địa điểm nổi tiếng như: cửa biển Nhà Mát, Quán âm Phật đài, khu mộ cố Nhạc sĩ Cao Văn Lầu… Hãy để Mytour hỗ trợ bạn để có 1 chuyến đi thú vị, tiết kiệm bằng cách đặt phòng khách sạn khu vực Phước Đức Cổ Miếu ngay bây giờ với giá chỉ từ 245,000 VND.
                                    Chùa Vĩnh Hòa
                                     ~ 4.24km
                                                                Chùa Vĩnh Hòa tọa lạc tại thành phố Bạc Liêu. Ngòai ra, du khách còn có cơ hội đến thăm nhiều địa điểm du lịch nổi tiếng như: cửa biển Nhà Mát, Quán âm Phật đài, khu mộ cố Nhạc sĩ Cao Văn Lầu … Hãy để Mytour hỗ trợ bạn để có 1 chuyến đi thú vị, tiết kiệm bằng cách đặt phòng khách sạn khu vực chùa Vĩnh Hòa ngay bây giờ với giá chỉ từ 245,000 VND.
                                    Bệnh viện Bạc Liêu
                                     ~ 4.39km
                                                                Bệnh viện Bạc Liêu tọa lạc tại phường 3, tp. Bạc Liêu. Từ đây, du khách có cơ hội đến thăm nhiều địa điểm nổi tiếng như: cửa biển Nhà Mát, Quán âm Phật đài, khu mộ cố Nhạc sĩ Cao Văn Lầu… Hãy để Mytour hỗ trợ bạn để có 1 chuyến đi thú vị, tiết kiệm bằng cách đặt phòng khách sạn khu vực Bệnh viện Bạc Liêu ngay bây giờ với giá chỉ từ 245,000 VND.
                                    Vườn chim Bạc Liêu
                                     ~ 4.39km
                                                                Vườn chim Bạc Liêu tọa lạc tại tp. Bạc Liêu. Ngòai ra, du khách còn có cơ hội đến thăm nhiều địa điểm du lịch nổi tiếng như: cửa biển Nhà Mát, Quán âm Phật đài, khu mộ cố Nhạc sĩ Cao Văn Lầu… Hãy để Mytour hỗ trợ bạn để có 1 chuyến đi thú vị, tiết kiệm bằng cách đặt phòng khách sạn khu vực Vườn chim Bạc Liêu ngay bây giờ với giá chỉ từ 245,000 VND.
                                    Sân chim Bạc Liêu
                                     ~ 4.66km
                                                                Sân chim Bạc Liêu tọa lạc tại tp. Bạc Liêu. Ngòai ra, du khách còn có cơ hội đến thăm nhiều địa điểm du lịch nổi tiếng như: cửa biển Nhà Mát, Quán âm Phật đài, khu mộ cố Nhạc sĩ Cao Văn Lầu… Hãy để Mytour hỗ trợ bạn để có 1 chuyến đi thú vị, tiết kiệm bằng cách đặt phòng khách sạn khu vực Sân chim Bạc Liêu ngay bây giờ với giá chỉ từ 245,000 VND.
                                    Nhà công tử Bạc Liêu
                                     ~ 5.02km
                                                                Nhà công tử Bạc Liêu tọa lạc tại phường 3, tp. Bạc Liêu. Ngòai ra, du khách có cơ hội đến thăm nhiều địa điểm nổi tiếng như: cửa biển Nhà Mát, Quán âm Phật đài, khu mộ cố Nhạc sĩ Cao Văn Lầu … Hãy để Mytour hỗ trợ bạn có 1 chuyến đi thú vị, tiết kiệm bằng cách đặt phòng khách sạn khu vực Nhà công tử Bạc Liêu ngay bây giờ với giá chỉ từ 245,000 VND.
                                    Chùa Xiêm Cán
                                     ~ 5.06km
                                                                Chùa Xiêm Cán tọa lạc tại xã Hiệp Thành, tp. Bạc Liêu. Ngòai ra, du khách có cơ hội đến thăm nhiều địa điểm nổi tiếng như: cửa biển Nhà Mát, Quán âm Phật đài, khu mộ cố Nhạc sĩ Cao Văn Lầu… Hãy để Mytour hỗ trợ bạn có 1 chuyến đi thú vị, tiết kiệm bằng cách đặt phòng khách sạn khu vực chùa Xiêm Cán ngay bây giờ với giá chỉ từ 245,000 VND.
                                    Tịnh Xá Ngọc Lợi   
                                     ~ 5.83km
                                                                Tịnh Xá Ngọc Lợi tọa lạc tại phường 7, tp. Bạc Liêu. Ngòai ra, du khách còn có cơ hội đến thăm nhiều địa điểm nổi tiếng như: cửa biển Nhà Mát, Quán âm Phật đài, khu mộ cố Nhạc sĩ Cao Văn Lầu… Hãy để Mytour hỗ trợ bạn để có 1 chuyến đi thú vị, tiết kiệm bằng cách đặt phòng khách sạn khu vực Tịnh Xá Ngọc Lợi ngay bây giờ với giá chỉ từ 245,000 VND.
                                    Chùa Phước Bửu & Tháp cổ Vĩnh Hưng
                                     ~ 20.88km
                                                                Chùa Phước Bửu & Tháp cổ Vĩnh Hưng tọa lạc tại huyện Vĩnh Lợi, tỉnh Bạc Liêu. Ngòai ra, du khách còn có cơ hội đến thăm Đền thờ Bác Hồ tại xã Châu Thới và nhiều địa điểm nổi tiếng khác. Hãy để Mytour hỗ trợ bạn để có 1 chuyến đi thú vị, tiết kiệm bằng cách đặt phòng khách sạn khu vực Chùa Phước Bửu & Tháp cổ Vĩnh Hưng ngay bây giờ với giá rẻ nhất.
                 Du lịch Bạc Liêu 
                ×
                    Chính sách đảm bảo hoàn tiền của mytour
                    Bạn chưa tin tưởng việc đặt phòng khách sạn trực tuyến? Bạn e ngại rằng phòng khách sạn thực tế không đúng với thông tin trên website? Chúng tôi cam kết đưa đầy đủ và chính xác thông tin khách sạn trên website với chính sách “Đảm bảo Hoàn tiền”
                        Nếu khách hàng đặt khách sạn thành công trên Mytour nhưng khách sạn không có phòng, Mytour sẽ hoàn lại tiền cho khách và tặng kèm phiếu giảm giá có giá trị bằng với số tiền khách hàng đã trả.
                        Trong trường hợp loại phòng thực tế không đúng với loại phòng trên đơn hàng, Mytour sẽ quyết định nâng cấp miễn phí hoặc tặng phiếu giảm giá có giá trị bằng với số tiền khách hàng đã trả.
                        Trường hợp các tiện nghi phòng khách sạn (như bữa sáng, wifi…) không đúng với nội dung trên website, Mytour sẽ tặng phiếu giảm giá có giá trị bằng 10% số tiền khách đã trả (tối đa 500,000 VND)
                        Khách hàng cần gọi điện thoại 04-7309 9899 (Hà Nội), 08-7309 9899 (Hồ Chí Minh) hoặc email tới info@mytour.vn và cung cấp mã đơn hàng trong vòng 24 giờ từ lúc nhận phòng để được trợ giúp giải quyết khiếu nại (Hotline chỉ hỗ trợ trong giờ hành chính).
                        Mytour không chịu trách nhiệm bồi thường thiệt hại gián tiếp, ngẫu nhiên, hay do hậu quả phát sinh. Trong mọi trường hợp, trách nhiệm của Mytour không vượt quá tổng số tiền khách hàng thanh toán đặt phòng.
                ×
                    Đảm bảo giá tốt nhất
                    Nếu Thành viên đã đặt một phòng khách sạn được “Đảm Bảo” tại Mytour.vn và sau đó, cho Mytour.vn  thấy rằng Thành viên có thể đặt một phòng tương tự trong cùng khoảng thời gian ở mức giá tốt hơn có thể xem và đặt được trên một website khác, Mytour.vn sẽ giảm giá bằng hoặc thấp hơn mức giá đó.
                    Giá dùng để so sánh là giá sau khi áp dụng mức giảm giá công bố trên website Mytour.vn.
                    Chính sách “Đảm Bảo Giá Tốt Nhất” của Mytour.vn chỉ áp dụng cho các đặt phòng đã được xác nhận và phải thỏa mãn những điều kiện sau:
                Cùng khách sạnCùng thời gian nghỉ lạiCùng loại Phòng/GiườngCùng các yêu cầu mua Trước, yêu cầu trả trước và đặt cọc (nếu có)Cùng chính sách Hủy và Sửa Đổi
                    Phòng đó phải còn trống để được xác nhận ngay tại thời điểm các đại lý của Mytour.vn  kiểm tra phòng trống
                        Chính sách “Đảm Bảo Giá Tốt Nhất” không áp dụng cho các mức giá không công bố, như: chương trình khách hàng thân thiện.
                        Bất kỳ tổ chức nào với các mức giá dành cho nhóm cá nhân cụ thể và không nhằm mục đích áp dụng ra bên ngoài.
                        Thành viên có thể gửi khiếu nại theo địa chỉ : info@mytour.vn
                                Nêu mã đặt phòng Mytour.vn trong dòng tiêu đề thư
                                Gửi URL của website nơi Thành viên tìm thấy mức giá tốt hơn
                                Cung cấp ảnh chụp màn hình của website đối thủ cạnh tranh trong đó nêu rõ Phòng Trống, Loại Phòng, và các mức giá cho những ngày nghỉ lại theo yêu cầu của Thành viên.
                VUI LÒNG LƯU Ý: Thành viên không cần thực hiện đặt phòng trên website của đối thủ cạnh tranh, chỉ cần cho Mytour.vn thấy sự so sánh.
                ×
                Đăng Nhập
                                 Đăng nhập bằng tài khoản Facebook
                                 Đăng nhập bằng tài khoản Google
                            Hoặc đăng nhập bằng
                        Email*
                        Mật khẩu*
                        Quên mật khẩu?
                            Chưa có tài khoản/tạo tài khoản
                Đăng nhập
                         Nhớ đăng nhập
                ×
                Bản đồ
                                            Bạc Liêu
                    Tìm đường
                        Từ: 
                        Đến: 
                            Khách sạnĐịa danh Hiển thị các khách sạn ở gần Hiển thị các khu du lịch ở gần
                ×
                Yêu Cầu Lấy Giá
                                    Ngày nhận phòng
                                    Ngày trả phòng
                        Tên khách hàng
                        Email
                        Điện thoại
                        Nhân viên chăm sóc khách hàng sẽ gọi điện cho quý khách trong thời gian sớm nhất.
                        Quý khách có thể gọi điện đến cho Mytour để được tư vấn ngay:
                        Hà Nội: (04) 7109 9999, Hồ Chí Minh: (08) 7309 9899, Support
                            English: (+84)4-7309-9899.
                    Hoàn thành
                ×
                Gửi Thông Tin
                        Tên khách hàng
                        Email
                        Điện thoại
                            Quý khách sẽ thấy giá giảm ngay trên trang sau khi gửi thông tin
                    Hoàn thành
                ×
                Nhận Giá Tốt
                                    Ngày nhận phòng
                                    Ngày trả phòng
                        Tên khách hàng
                        Email
                        Điện thoại
                        Vì giá tốt không được công bố nên hệ thống sẽ gửi giá qua email đến quý khách và nhân viên chăm
                        sóc sẽ gọi điện cho quý khách trong thời gian sớm nhất.
                        Quý khách có thể gọi điện đến cho Mytour để được tư vấn ngay:
                        Hà Nội: (04) 7109 9999, Hồ Chí Minh: (08) 7309 9899, Support
                            English: (+84)4-7309-9899.
                    Hoàn thành
                ×
                ×
                ĐÁNH GIÁ 
                        Tên
                        Tiêu đề
                        Kiểu du lịch?
                                -- Chọn --Cá nhânCặp đôiGia đìnhBạn bèDoanh nghiệp
                        Nội dung
                                Đánh giá chi tiết
                                Chỗ ở
                                5
                                Thức ăn
                                5
                                Phương tiện
                                5
                                Hướng dẫn viên
                                5
                                Lịch trình
                                5
                    Gửi đánh giá
                    Hủy Bỏ
                ×
                Gửi lại email kích hoạt
                ×
                Thông tin chi tiết giá theo phòng
                    Chọn khoảng thời gian hiển thị giá phòng
                    Hiển thị giá
                ×
                Khóa phòng theo khoảng thời gian
                            Chọn khoảng thời gian check-in cần khóa/mở phòng
                            Khóa phòng
                            Mở phòng
                ×
                THUẾ VÀ PHÍ DỊCH VỤ
                17% thuế và phí dịch vụ bao gồm:
                    - 10% thuế và 5% phí dịch vụ hoàn trả lại cho khách sạn.
                    - 2% phí giao dịch tại Mytour.
                ×
                Bạn có hài lòng về website của Mytour?
                    Thông điệp nhắn nhủ:
                Mytour luôn mong muốn cải thiện dịch vụ để bạn có trải nghiệm tốt hơn!
                            Ảnh đính kèm
                        Đóng
                        Gửi
                ×
                    Những đóng góp của bạn đã được ghi nhận. Mytour cám ơn bạn !
                Quay lại website
            Khách sạn theo các tỉnh thành
                        An Giang
                        Bà Rịa - Vũng Tàu
                        Bắc Giang
                        Bắc Kạn
                        Bạc Liêu
                        Bắc Ninh
                        Bến Tre
                        Bình Định
                        Bình Dương
                        Bình Phước
                        Bình Thuận
                        Cà Mau
                        Cần Thơ
                        Cao Bằng
                        Đà Lạt
                        Đà Nẵng
                        Đắk Nông
                        Đắk Lắk
                        Điện Biên
                        Đồng Nai
                        Đồng Tháp
                        Gia Lai
                        Hà Giang
                        Hạ Long
                        Hà Nam
                        Hà Nội
                        Hà Tĩnh
                        Hải Dương
                        Hải Phòng
                        Hậu Giang
                        Hồ Chí Minh
                        Hoà Bình
                        Hội An
                        Hưng Yên
                        Khánh Hòa
                        Kiên Giang
                        Kon Tum
                        Lai Châu
                        Lâm Đồng
                        Lạng Sơn
                        Lào Cai
                        Long An
                        Nam Định
                        Nghệ An
                        Nha Trang
                        Ninh Bình
                        Ninh Thuận
                        Phan Thiết
                        Phú Quốc
                        Phú Thọ
                        Phú Yên
                        Quảng Bình
                        Quảng Nam
                        Quảng Ngãi
                        Quảng Ninh
                        Quảng Trị
                        Sa Pa
                        Sóc Trăng
                        Sơn La
                        Tây Ninh
                        Thái Bình
                        Thái Nguyên
                        Thanh Hoá
                        Thành Phố Huế
                        Thừa Thiên Huế
                        Tiền Giang
                        Trà Vinh
                        Tuyên Quang
                        Vĩnh Long
                        Vĩnh Phúc
                        Vũng Tàu
                        Yên Bái
                Du lịch Bạc Liêu
                                Du lịch Thành Phố Bạc Liêu
                                Du lịch Vĩnh Lợi 
                            Giới thiệu Mytour
                            Đối tác khách sạn
                            Đăng nhập HMS
                            Tích lũy Vpoint
                            Điều khoản sử dụng
                            Quy chế hoạt động
                            Tuyển dụng
                            Liên hệ
                            Đăng ký nhận email
                                Đăng ký email để nhận khuyến mãi lên đến 70%
                                    Đăng
                                    ký
                    Công ty TNHH Mytour Việt Nam
                    Số ĐKKD: 0105983269 cấp ngày 30/08/2012
                    Văn phòng Hà Nội: Tầng 4, tòa nhà GP Invest, 170 Đê La Thành, Đống Đa
                    Văn phòng HCM: Tầng 5, Tòa Nhà HDTC, Số 36 Bùi Thị Xuân, Q.1
                Hotline
                        Hà Nội:
                        (04) 7109 9999
                        Tp. HCM:
                        (08) 7309 9899
                        ENGLISH SUPPORT:
                        (+84)4 7309 9899
