url:http://mytour.vn/650-khach-san-dau-khi-petro.html
Tittle :Khách Sạn Dầu Khí Petro  - Bà Rịa - Vũng Tàu giá tốt nhất - Mytour.vn
content :Đặt phòng trực tuyến, hoặc gọi
                                                            Hà Nội: (04) 7109 9999
                                                                                        - (04) 7309 9899
                                                            Hồ Chí Minh: (08) 7309 9899
                                                                                        - (08) 7109 9998
                        T2 - CN: 08:00 - 23:00
                    Toggle navigation
                                Bạn không có thông báo nào
                    |
                    ||
                                                            Tài khoản
                        Đăng nhập
                                Đăng kýKhách sạn yêu thích
                            Khách sạn
                            Tour
                            Cẩm nang du lịch
                            Thông tin
                                                Về Mytour
                                                Tin khuyến mãi
                                                Ưu đãi
                                                Hướng dẫn
                                                Liên hệ
                            Tốt nhất 2016
                ×
                Bạn có chắc muốn hủy đơn hàng?
                Lorem ipsum dolor sit amet, consectetur adipisicing elit. Iure corporis repudiandae nobis distinctio
                quae quos, officia modi, ab voluptatem pariatur ducimus mollitia, necessitatibus sed soluta dicta
                repellendus! Praesentium debitis, temporibus?
                    Đồng ý
                    Đóng
                    Khách sạnBà Rịa - Vũng TàuVũng TàuKhách sạn gần Bạch DinhKhách Sạn Dầu Khí Petro 
                    Đóng
            Tìm Kiếm Khách Sạn
                            Ngày nhận phòng
                            Ngày trả phòng
                    Số đêm
                    Số phòng
                        123456789101112
                    Người lớn
                        123456789101112
                    Tìm khách sạn
                Giá tốt hơn so với đặt phòng trực tiếp tại khách sạn
                Đảm bảo 
                giá tốt nhất
                Đảm bảo 
                hoàn tiền
                Nhân viên chăm sóc, tư vấn nhiều kinh nghiệm
                Hơn 5000 khách sạn tại Việt Nam với đánh giá thực
                Nhiều chương trình khuyến mãi và tích lũy điểm
                Thanh toán dễ dàng, đa dạng
                        Khách Sạn Dầu Khí Petro 
                            (Cung cấp bởi khách sạn)
                                    Tất cả thông tin về tiêu chuẩn khách sạn trên website mytour.vn
                                    là do khách sạn tự cung cấp, chỉ mang tính chất tham khảo và không nhất thiết trùng
                                    hợp với hạng
                                    sao được cấp bởi sở Văn Hoá, Thể thao và du lịch.
                             9-11 Hoàng Diệu, Vũng Tàu, Bà Rịa - Vũng Tàu 
                                Đặt phòng ngay giữ giá tốt
                                Đã thích
                                        7.8
                                            (94
                                            đánh giá)
                                Giới thiệu về Khách Sạn Dầu Khí Petro  
                                    Khách Sạn Dầu Khí Petro nằm gần biển Bãi Trước và rất gần với các khu trung tâm thương mại thành phố. Cách bến tàu cánh ngầm khoảng 2 km và thành phố Hồ Chí Minh (sân bay Tân Sơn Nhất) khoảng 120 km. 
Với sự kết hợp hoàn hảo giữa phong cảnh thiên nhiên và kiến trúc độc đáo, Khách sạn Khách Sạn Dầu Khí Petro là khu nghỉ dưỡng tuyệt vời giúp quý khách cảm nhận được sự sang trọng và yên bình mỗi khi dừng chân, khách sạn nằm gần biển Bãi Trước và rất gần với các khu trung tâm thương mại thành phố, đây là nơi lý tưởng để tổ chức các cuộc hội nghị, hội thảo và yến tiệc. Tất cả mọi yêu cầu về trang thiết bị của quý khách đều được đáp ứng đầy đủ, chu đáo.
Khách Sạn Dầu Khí Petro có 86 phòng ngủ đạt tiêu chuẩn 04 sao, bao gồm 05 phòng căn hộ, 04 phòng Petro Suite, 52 phòng Deluxe hướng biển và 25 phòng Deluxe hướng thành phố. Tất cả các phòng đều được thiết kế rộng rãi và trang bị các tiện nghi hiện đại, cao cấp, luôn tạo sự thoải mái cho quý khách. Mytour sẽ tư vấn đặt phòng phù hợp với nhu cầu của quý khách.
Các phòng ngủ và căn hộ có tầm nhìn toàn cảnh biển Bãi Trước và thành phố Vũng Tàu. Tivi với nhiều kênh giải trí và thời sự trong nước, quốc tế, kênh phim ảnh miễn phí 24/24 giờ. Điện thoại gọi quốc tế trực tuyến. Hệ thống truy cập Internet Wi-Fi miễn phí toàn khách sạn, Hệ thống máy điều hòa tự động. Hệ thống nước nóng/ lạnh trung tâm. Hệ thống khóa điện tử. Hệ thống báo cháy và chữa cháy tự động. Két sắt an toàn. Nôi em bé (theo yêu cầu). Minibar. Dụng cụ pha trà, cà phê. Hệ thống nghe nhạc 04 kênh trong phòng. Hệ thống điều khiển thiết bị sử dụng công nghệ cảm ứng tiện dụng
Các tiện ích cao cấp: Bảo vệ trực 24/24, Phục vụ tại phòng 24/24, Dịch vụ giặt ủi cao cấp, Dịch vụ xe cao cấp đưa đón và internet Wi-Fi trên xe, Dịch vụ khuân vác 24/24, Dịch vụ miễn phí, Ăn sáng Buffet, Miễn phí nước uống khi nhận phòng, Trà, Cà phê. 02 chai nước suối mỗi ngày, Trái cây tươi hàng ngày, Hoa tươi đặt phòng, Gọi điện thoại nội tỉnh, Sử dụng hồ bơi, phòng tập thể dục
Đến với Khách Sạn Dầu Khí Petro Tàu quý khách sẽ cảm nhận được sự ấm áp, đồng thời sẽ hài lòng với những tiện nghi và những dịch vụ tuyệt vời nhất tại thành phố Vũng Tàu.
Từ Khách Sạn Dầu Khí Petro bạn có thể dễ dàng tiếp cận với cuộc sống náo nhiệt của người dân Vũng Tàu thân thiện hay tới tham quan các thắng cảnh nổi tiếng của Vũng Tàu như tượng đài Chúa Kitô, di tích Hải đăng, di tích trạm Radar, di tích Bạch Dinh, cáp treo Vũng tàu… chỉ với vài phút đi taxi. Bạn có thể tự thiết kế riêng cho mình một lịch trình tham quan, nghỉ dưỡng hoặc đặt tour du lịch khám phá các địa danh nổi tiếng tại quầy khách sạn để có được chuyến đi đáng nhớ nhất. 
Đến với Mytour.vn, quý khách sẽ có cơ hội đặt phòng giá rẻ nhất cùng với nhiều chương trình khuyến mại hấp dẫn chỉ dành riêng cho khách hàng của Mytour.
Còn chần chừ gì nữa, hãy nhanh tay đặt phòng Khách Sạn Dầu Khí Petro trên Mytour và tận hưởng kì nghỉ thú vị của quý khách ngay từ bây giờ nhé!
                                        Xem thêm 
                                Chọn ngày để xem giá và phòng trống
                                    Đảm bảo giá tốt nhất
                                                                            Giá ưu đãi chỉ dành cho khách nội địa.
                                                Ngày nhận phòng
                                                Ngày trả phòng
                                        Số đêm
                                        Số phòng
                                            123456789101112
                                        Người lớn
                                            123456789101112
                                        Cập nhật giá
                                Lưu ý: Vui lòng ẩn "Cập nhật giá" để cập nhật phòng
                                Chọn phòng Khách Sạn Dầu Khí Petro 
                                                Loại Phòng
                                                Giá 1 đêm
                                                Số phòng
                                                Đặt phòng
                                                                    Apartment
                                                                        Điều kiện hủy phòng
                                                                        Thêm giường
                                                                        0
                                                                         Vui lòng chọn số lượng phòng trước! 
                                                        Trẻ em cao dưới 1m2, ở cùng với ba mẹ, được miễn phí
Trẻ em cao từ 1m2 đến 1m5, ở chung với ba mẹ sẽ tính phụ phí 175,000 VNĐ/trẻ em
Trẻ em cao trên 1m5 sẽ tính phụ phí 420,000 VNĐ/giường phụ/trẻ em
Giá không áp dụng cho lễ tết
                                                        phòng
                                                                                                                                                                            01234
                                                            Đặt ngay
                                                            Xác nhận ngay
                                                                    Deluxe Double City View
                                                                        Điều kiện hủy phòng
                                                                        Thêm giường
                                                                        0
                                                                         Vui lòng chọn số lượng phòng trước! 
                                                        Trẻ em cao dưới 1m2, ở cùng với ba mẹ, được miễn phí
Trẻ em cao từ 1m2 đến 1m5, ở chung với ba mẹ sẽ tính phụ phí 175,000 VNĐ/trẻ em
Trẻ em cao trên 1m5 sẽ tính phụ phí 420,000 VNĐ/giường phụ/trẻ em
Giá không áp dụng cho lễ tết
                                                        phòng
                                                                                                                                                                            012345
                                                            Đặt ngay
                                                            Xác nhận ngay
                                                                    Deluxe Sea View Double
                                                                        Điều kiện hủy phòng
                                                                        Thêm giường
                                                                        0
                                                                         Vui lòng chọn số lượng phòng trước! 
                                                        Trẻ em cao dưới 1m2, ở cùng với ba mẹ, được miễn phí
Trẻ em cao từ 1m2 đến 1m5, ở chung với ba mẹ sẽ tính phụ phí 175,000 VNĐ/trẻ em
Trẻ em cao trên 1m5 sẽ tính phụ phí 420,000 VNĐ/giường phụ/trẻ em
Giá không áp dụng cho lễ tết
                                                        phòng
                                                                                                                                                                            012345
                                                            Đặt ngay
                                                            Xác nhận ngay
                                                                    Petro Suite
                                                                        Điều kiện hủy phòng
                                                                        Thêm giường
                                                                        0
                                                                         Vui lòng chọn số lượng phòng trước! 
                                                        Trẻ em cao dưới 1m2, ở cùng với ba mẹ, được miễn phí
Trẻ em cao từ 1m2 đến 1m5, ở chung với ba mẹ sẽ tính phụ phí 175,000 VNĐ/trẻ em
Trẻ em cao trên 1m5 sẽ tính phụ phí 420,000 VNĐ/giường phụ/trẻ em
Giá không áp dụng cho lễ tết
                                                        phòng
                                                                                                                                                                            012345
                                                            Đặt ngay
                                                            Xác nhận ngay
                                    Tiện nghi Khách Sạn Dầu Khí Petro  
                                                Bữa sáng miễn phí
                                                Bể bơi ngoài trời
                                                Bãi đỗ xe
                                                Internet
                                                Phòng tập thể thao
                                                Thang máy
                                                Thêm giường phụ
                                                Truyền hình cáp/vệ tinh
                                                Wifi miễn phí
                                                Giặt là
                                                Nhà hàng
                                                Quán cafe
                                                Gia đình
                                                Massage
                                Ghi chú: Ăn sáng miễn phí (nếu có) có thể thay đổi theo phòng và ngày
                                    Chính sách Khách Sạn Dầu Khí Petro  
                                        Giờ nhận
                                        phòng: 14:00
                                        Giờ trả
                                        phòng: 12:00
            Đánh giá Khách Sạn Dầu Khí Petro 
                Viết đánh giá
                        Tất cả ( 94 )
                        Công tác ( 2 )
                        Cặp đôi ( 17 )
                        Gia đình ( 16 )
                        Bạn bè ( 11 )
                        Cá nhân ( 48 )
                        Đánh giá
                        7.8
                            Tất cả
                    Chi tiết điểm  (từ
                        94
                        nhận xét)
                            Vị trí
                                7.8
                                    % Complete
                            7.8
                            Phục vụ
                                7.8
                                    % Complete
                            7.8
                            Tiện nghi
                                7.7
                                    % Complete
                            7.7
                            Giá cả
                                7.8
                                    % Complete
                            7.8
                            Vệ sinh
                                7.9
                                    % Complete
                            7.9
                                    “Khách sạn Dầu Khí Petro có dịch vụ ok, các tiện ích và dịch vụ cơ bản ở đây đều đạt tiêu chuẩn và tương xứng với giá cả. Phòng ốc tôi ở thì được vệ sinh sạch sẽ, gọn gàng, dịch vụ phòng tương xứng với giá cả. Nhân viên ở đây cũng lịch sự, thân thiện, tôi đánh giá dịch vụ khách sạn được 9 điểm. Dịch vụ không có gì phàn nàn.
                                    “
                                Nguyễn Hải Phượng
                                05/09/2016
                        Đánh giá
                        6.9
                            Công tác
                    Chi tiết điểm  (từ
                        2
                        nhận xét)
                            Vị trí
                                7.5
                                    % Complete
                            7.5
                            Phục vụ
                                7
                                    % Complete
                            7
                            Tiện nghi
                                7
                                    % Complete
                            7
                            Giá cả
                                6.5
                                    % Complete
                            6.5
                            Vệ sinh
                                6.5
                                    % Complete
                            6.5
                                    “Phòng lớn nhưng thiết kế cũ kỹ. Đón taxi luôn khó khăn tại Việt Nam. Và dường như họ chạy nhanh hơn ở Vũng Tàu thì phải.
                                    “
                                Cheeboon L.
                                09/05/2013
                        Đánh giá
                        7.4
                            Cặp đôi
                    Chi tiết điểm  (từ
                        17
                        nhận xét)
                            Vị trí
                                7.5
                                    % Complete
                            7.5
                            Phục vụ
                                7.4
                                    % Complete
                            7.4
                            Tiện nghi
                                7.4
                                    % Complete
                            7.4
                            Giá cả
                                7.2
                                    % Complete
                            7.2
                            Vệ sinh
                                7.4
                                    % Complete
                            7.4
                                    “Khach San lam ve sinh sach, buffet ngon, phia sau la san dua cho. Chi co ho noi hoi sau 1m58, ko thich hop cho nguoi tap boi. 
Hoan toan hai long
                                    “
                                Duy
                                02/10/2016
                        Đánh giá
                        7.2
                            Gia đình
                    Chi tiết điểm  (từ
                        16
                        nhận xét)
                            Vị trí
                                7.1
                                    % Complete
                            7.1
                            Phục vụ
                                7.3
                                    % Complete
                            7.3
                            Tiện nghi
                                7.1
                                    % Complete
                            7.1
                            Giá cả
                                7.1
                                    % Complete
                            7.1
                            Vệ sinh
                                7.4
                                    % Complete
                            7.4
                                    “Phòng rộng rãi, sạch sẽ, tiện nghi, phục vụ tốt.
Duy chỉ có điều giường nhỏ so với phòng; hồ bơi nhỏ và chỉ có 1 độ sâu 1m58 và không có bể nhỏ cho trẻ em; buffet sáng hết khá sớm mà không được tiếp đồ ăn.
                                    “
                                Misu
                                25/07/2016
                        Đánh giá
                        7.7
                            Bạn bè
                    Chi tiết điểm  (từ
                        11
                        nhận xét)
                            Vị trí
                                7
                                    % Complete
                            7
                            Phục vụ
                                7.8
                                    % Complete
                            7.8
                            Tiện nghi
                                7.4
                                    % Complete
                            7.4
                            Giá cả
                                7.6
                                    % Complete
                            7.6
                            Vệ sinh
                                8.2
                                    % Complete
                            8.2
                                    “Mình rất hài lòng trong quá trình lưu trú tại KS. KS lầu 10 có view nhìn ra biển rất đẹp. Nhân viên hỗ trợ khách cũng rất tốt. Trong quá trình ở xảy ra sự cố với máy lạnh, ngay lập tức được KS hỗ trợ chuyển phòng, mình rất hài lòng với thái độ chuyên nghiệp đó.
                                    “
                                Loan Ngo
                                26/10/2015
                        Tốt
                        8.2
                            Cá nhân
                    Chi tiết điểm  (từ
                        48
                        nhận xét)
                            Vị trí
                                8.3
                                    % Complete
                            8.3
                            Phục vụ
                                8.2
                                    % Complete
                            8.2
                            Tiện nghi
                                8.1
                                    % Complete
                            8.1
                            Giá cả
                                8.3
                                    % Complete
                            8.3
                            Vệ sinh
                                8.2
                                    % Complete
                            8.2
                                    “Dịch vụ ở khách sạn Dầu Khí Petro khá tốt, tôi hài lòng khi nghỉ tại đây, dịch vụ nhìn chung là đạt tiêu chuẩn, vệ sinh phòng ốc sạch sẽ, gọn gàng, tiện nghi có đầy đủ, nhưng phòng có mùi ẩm mốc, mùi lâu ngày không có người ở. Nhân viên thì lịch sự, vui vẻ, theo cá nhân tôi đánh giá thì giá cả như vậy là hơi cao so với mặt bằng chung, giá chưa tương xứng với dịch vụ.
                                    “
                                Nguyễn Thị Kim Nhung
                                07/09/2016
                                Từ ngày mới đến cũ
                                Từ ngày cũ đến mới
                                Điểm từ thấp đến cao
                                Điểm từ cao đến thấp
                                Phạm Anh Tuấn
                                17-11-2016
                                            Đánh giá
                                            7
                                        "Khá ổn "
                                                Vị trí
                                                    7 .0
                                                Phục vụ
                                                7 .0
                                                Tiện nghi
                                                7 .0
                                                Giá cả
                                                7 .0
                                                Vệ sinh
                                                7 .0
                                                “Tôi có đặt phòng ở khách sạn Dầu Khí Petro và nhận thấy khách sạn này có các dịch vụ cũng khá ổn, nhân viên làm việc cũng được, phòng ở được giữ vệ sinh tốt, trang thiết bị khách sạn cung cấp cũng khá là đầy đủ.” 
                                Trần Thị Bích Hà
                                11-11-2016
                                            Rất tốt
                                            9
                                        "Nội thất tốt "
                                                Vị trí
                                                    9 .0
                                                Phục vụ
                                                9 .0
                                                Tiện nghi
                                                9 .0
                                                Giá cả
                                                9 .0
                                                Vệ sinh
                                                9 .0
                                                “Thái độ đón tiếp cũng như cung cách phục vụ của nhân viên tốt, mọi người đều thân thiện và không kém phần lịch sự với du khách. Đồng thời, phòng nghỉ cũng được nữa, sạch sẽ, trang thiết bị nội thất tốt.” 
                                Hồ Thị Bạch
                                07-11-2016
                                            Rất tốt
                                            10
                                        "Hài lòng "
                                                Vị trí
                                                    10 .0
                                                Phục vụ
                                                10 .0
                                                Tiện nghi
                                                10 .0
                                                Giá cả
                                                10 .0
                                                Vệ sinh
                                                10 .0
                                                “Đội ngũ nhân viên phục vụ khách hàng lịch sự, cộng với dịch vụ phòng nghỉ tốt, trang bị đầy đủ những tiện nghi thiết thực, đủ làm tôi cảm thấy hài lòng trong thời gian trú ngụ lạiKhách Sạn Dầu Khí Petro.” 
                                Phạm Hữu Đạt
                                04-11-2016
                                            Rất tốt
                                            10
                                        "Thoải mái "
                                                Vị trí
                                                    10 .0
                                                Phục vụ
                                                10 .0
                                                Tiện nghi
                                                10 .0
                                                Giá cả
                                                10 .0
                                                Vệ sinh
                                                10 .0
                                                “Dịch vụ phòng nghỉ đạt tiêu chuẩn, sạch sẽ, tiện nghi đầy đủ. Cộng với sự niềm nở và không kém phần thân thiện của nhân viên đủ làm tôi cảm thấy thoải mái và hài lòng khi ở lại Khách Sạn Dầu Khí Petro.” 
                                Nguyen thi thu sang
                                03-11-2016
                                            Rất tốt
                                            9
                                        "Thoải mái "
                                                Vị trí
                                                    9 .0
                                                Phục vụ
                                                9 .0
                                                Tiện nghi
                                                9 .0
                                                Giá cả
                                                9 .0
                                                Vệ sinh
                                                9 .0
                                                “Do tôi ở Khách Sạn Dầu Khí Petro thấy thoải mái, không gian thoáng mát mà cũng sạch sẽ nữa, nên tôi hay lựa chọn khách sạn này để nghỉ ngơi trong những lần đi Vũng Tàu. Bữa sáng cũng hợp khẩu vị với tôi.” 
                    Xem tất cả đánh giá ( 94 )
                                Đặt phòng ngay giữ giá tốt
            Khách hàng đã xem khách sạn này thường tham khảo thêm
                Được đề xuất cho bạn
            Khách sạn 4 sao có cùng tiện nghi
            Có thể bạn muốn xem
                    Khách sạn 4 sao tại Bà Rịa - Vũng Tàu
                        Khách sạn có nhà hàng tại Bà Rịa - Vũng Tàu
                        Khách sạn có giặt là tại Bà Rịa - Vũng Tàu
                        Khách sạn có wifi miễn phí tại Bà Rịa - Vũng Tàu
            Địa danh ở gần
                                    Sân vận động Lam Sơn
                                     ~ 0.14km
                                                                Sân vận động Lam Sơn ở thành phố Vũng Tàu, du khách thường đến đây vào cuối tuần để xem “môn điền kinh đua chó” có một không hai ở Việt Nam, đây là điểm khác biệt với các sân vận động khác. Hãy để Mytour hỗ trợ bạn để có 1 chuyến đi thú vị, tiết kiệm bằng cách đặt phòng khách sạn tại khu vực Sân vận động Lam Sơn ngay bây giờ với giá chỉ từ 171.000đ
                                    Đền Hùng ở Bến Đình
                                     ~ 0.55km
                                                                Đền Hùng là một địa điểm du lịch tâm linh nổi tiếng Vũng Tàu. Đến với Đền Hùng , du khách có cơ hội tham quan các địa điểm nổi tiếng như Núi Tao Phùng, Hải Đăng Vũng Tàu, Côn Đảo, Bãi Thùy Vân… Hãy để Mytour hỗ trợ bạn để có 1 chuyến đi thú vị, tiết kiệm bằng cách đặt phòng khách sạn tại khu vực Đền Hùng ngay bây giờ với giá rẻ nhất.
                                    Bạch Dinh
                                     ~ 0.56km
                                    Cảng Cầu Đá 
                                     ~ 0.59km
                                                                Cầu Đá là một trong những di tích du lịch thu hút số lượng lớn du khách mỗi năm của Vũng Tàu.. Đến với Cầu Đá, du khách có cơ hội tham quan các địa điểm  như núi Tao Phùng, Côn Đảo, Bạch Dinh, Hải Đăng ..Hãy để Mytour hỗ trợ bạn để có 1 chuyến đi thú vị, tiết kiệm bằng cách đặt phòng khách sạn tại khu vực Cầu Đá ngay bây giờ với giá rẻ nhất.
                                    Nhà Thờ Vũng Tàu
                                     ~ 0.64km
                                                                Nhà Thờ Vũng Tàu  là một trong những địa điểm du lịch tâm linh của Vũng Tàu.. Đến với Nhà Thờ Vũng Tàu , du khách có cơ hội tham quan các địa điểm  như núi Tao Phùng, Côn Đảo, Bạch Dinh, Hải Đăng ..Hãy để Mytour hỗ trợ bạn để có 1 chuyến đi thú vị, tiết kiệm bằng cách đặt phòng khách sạn tại khu vực Nhà Thờ Vũng Tàu  ngay bây giờ với giá rẻ nhất.
                                    Bãi Tầm Dương (Bãi Trước)
                                     ~ 0.74km
                                                                Là mặt tiền của Vũng Tàu, nằm về hướng tây-nam, còn gọi là bãi Tầm Dương. Bãi Trước như một nửa vành trăng tựa lưng vào đất liền, hai đầu là hai ngọn núi Tương Kỳ và Tao Phùng. Hãy để Mytour hỗ trợ bạn để có 1 chuyến đi thú vị, tiết kiệm bằng cách đặt phòng khách sạn tại khu vực Bãi Tầm Dương (Bãi Trước) ngay bây giờ với giá chỉ từ 171.000đ
                                    Lăng Cá Ông ở Đình Thần Thắng Tam
                                     ~ 0.74km
                                                                Đình thần Thắng Tam ở trên khu đất rộng ở đường Hoàng Hoa Thám, thành phố Vũng Tàu, là quần thể kiến trúc, di tích gồm ba công trình: đình Thắng Tam, miếu Bà và lăng cá Ông. Hãy để Mytour hỗ trợ bạn để có 1 chuyến đi thú vị, tiết kiệm bằng cách đặt phòng khách sạn tại khu vực Lăng Cá Ông ở Đình Thần Thắng Tam ngay bây giờ với giá chỉ từ 171.000đ
                                    Bến tàu Cánh ngầm
                                     ~ 1.34km
                                    Miếu Bà Ngũ Hành
                                     ~ 1.57km
                                    Đình thần Thắng Tam
                                     ~ 1.58km
                                    Lăng Cá Ông
                                     ~ 1.62km
                                    Đài liệt sĩ Vũng Tàu 
                                     ~ 2.1km
                                                                Đài liệt sĩ Vũng Tàu ở ngay Bãi Sau, gồm một Đài liệt sĩ nằm giữa vòng xoay và một đền thờ nằm trên đỉnh đồi bên cạnh. Đây là địa điểm vui chơi và hóng mát mỗi chiều của dân địa phương. Hãy để Mytour hỗ trợ bạn để có 1 chuyến đi thú vị, tiết kiệm bằng cách đặt phòng khách sạn tại khu vực Đài liệt sĩ Vũng Tàu ngay bây giờ với giá chỉ từ 309.000đ
                                    Trường THPT Trần Nguyên Hãn
                                     ~ 2.22km
                                                                Trường THPT Trần Nguyên Hãn thành lập ở thành phố Vũng Tàu. Ngày nay, trường là cơ sở Giáo dục quốc lập làm nhiệm vụ giáo dục phổ thông trung học cơ sở và trung học phổ thông. Hãy để Mytour hỗ trợ bạn để có 1 chuyến đi thú vị, tiết kiệm bằng cách đặt phòng khách sạn tại khu vực Trường THPT Trần Nguyên Hãn ngay bây giờ với giá chỉ từ 171.000đ
                                    Bãi Dứa
                                     ~ 2.42km
                                    Thích Ca Phật Đài
                                     ~ 2.58km
                                    Khu du lịch Biển Đông 
                                     ~ 2.64km
                                                                Khu du lịch Biển Đông với chiều dài 750m bờ biển, nằm ngay trung tâm Bãi Sau (bãi tắm Thùy Vân) thành phố biển Vũng Tàu - một trong những bãi biển được xem là đẹp nhất Việt Nam. Hãy để Mytour hỗ trợ bạn để có 1 chuyến đi thú vị, tiết kiệm bằng cách đặt phòng khách sạn tại khu vực Khu du lịch Biển Đông ngay bây giờ với giá chỉ từ 171.000đ
                                    Bãi Dâu
                                     ~ 2.66km
                                    Bãi sau
                                     ~ 2.72km
                                    Tượng Chúa KiTo 
                                     ~ 2.78km
                                                                Tượng chúa kitô cao 32m ở Nghinh Phong – Vọng Nguyệt, Bà Rịa - Vũng Tàu. Nhờ bàn tay con người cải tạo mạn cực nam Núi Nhỏ và xây dựng nơi đây một công trình kiến trúc điêu khắc đồ sộ. Hãy để Mytour hỗ trợ bạn để có 1 chuyến đi thú vị, tiết kiệm bằng cách đặt phòng khách sạn tại khu vực Tượng Chúa Kitô ngay bây giờ với giá rẻ nhất.
                                    Tượng Quan Thế Âm Bồ Tát
                                     ~ 2.82km
                ×
                    Chính sách đảm bảo hoàn tiền của mytour
                    Bạn chưa tin tưởng việc đặt phòng khách sạn trực tuyến? Bạn e ngại rằng phòng khách sạn thực tế không đúng với thông tin trên website? Chúng tôi cam kết đưa đầy đủ và chính xác thông tin khách sạn trên website với chính sách “Đảm bảo Hoàn tiền”
                        Nếu khách hàng đặt khách sạn thành công trên Mytour nhưng khách sạn không có phòng, Mytour sẽ hoàn lại tiền cho khách và tặng kèm phiếu giảm giá có giá trị bằng với số tiền khách hàng đã trả.
                        Trong trường hợp loại phòng thực tế không đúng với loại phòng trên đơn hàng, Mytour sẽ quyết định nâng cấp miễn phí hoặc tặng phiếu giảm giá có giá trị bằng với số tiền khách hàng đã trả.
                        Trường hợp các tiện nghi phòng khách sạn (như bữa sáng, wifi…) không đúng với nội dung trên website, Mytour sẽ tặng phiếu giảm giá có giá trị bằng 10% số tiền khách đã trả (tối đa 500,000 VND)
                        Khách hàng cần gọi điện thoại 04-7309 9899 (Hà Nội), 08-7309 9899 (Hồ Chí Minh) hoặc email tới info@mytour.vn và cung cấp mã đơn hàng trong vòng 24 giờ từ lúc nhận phòng để được trợ giúp giải quyết khiếu nại (Hotline chỉ hỗ trợ trong giờ hành chính).
                        Mytour không chịu trách nhiệm bồi thường thiệt hại gián tiếp, ngẫu nhiên, hay do hậu quả phát sinh. Trong mọi trường hợp, trách nhiệm của Mytour không vượt quá tổng số tiền khách hàng thanh toán đặt phòng.
                ×
                    Đảm bảo giá tốt nhất
                    Nếu Thành viên đã đặt một phòng khách sạn được “Đảm Bảo” tại Mytour.vn và sau đó, cho Mytour.vn  thấy rằng Thành viên có thể đặt một phòng tương tự trong cùng khoảng thời gian ở mức giá tốt hơn có thể xem và đặt được trên một website khác, Mytour.vn sẽ giảm giá bằng hoặc thấp hơn mức giá đó.
                    Giá dùng để so sánh là giá sau khi áp dụng mức giảm giá công bố trên website Mytour.vn.
                    Chính sách “Đảm Bảo Giá Tốt Nhất” của Mytour.vn chỉ áp dụng cho các đặt phòng đã được xác nhận và phải thỏa mãn những điều kiện sau:
                Cùng khách sạnCùng thời gian nghỉ lạiCùng loại Phòng/GiườngCùng các yêu cầu mua Trước, yêu cầu trả trước và đặt cọc (nếu có)Cùng chính sách Hủy và Sửa Đổi
                    Phòng đó phải còn trống để được xác nhận ngay tại thời điểm các đại lý của Mytour.vn  kiểm tra phòng trống
                        Chính sách “Đảm Bảo Giá Tốt Nhất” không áp dụng cho các mức giá không công bố, như: chương trình khách hàng thân thiện.
                        Bất kỳ tổ chức nào với các mức giá dành cho nhóm cá nhân cụ thể và không nhằm mục đích áp dụng ra bên ngoài.
                        Thành viên có thể gửi khiếu nại theo địa chỉ : info@mytour.vn
                                Nêu mã đặt phòng Mytour.vn trong dòng tiêu đề thư
                                Gửi URL của website nơi Thành viên tìm thấy mức giá tốt hơn
                                Cung cấp ảnh chụp màn hình của website đối thủ cạnh tranh trong đó nêu rõ Phòng Trống, Loại Phòng, và các mức giá cho những ngày nghỉ lại theo yêu cầu của Thành viên.
                VUI LÒNG LƯU Ý: Thành viên không cần thực hiện đặt phòng trên website của đối thủ cạnh tranh, chỉ cần cho Mytour.vn thấy sự so sánh.
                ×
                Đăng Nhập
                                 Đăng nhập bằng tài khoản Facebook
                                 Đăng nhập bằng tài khoản Google
                            Hoặc đăng nhập bằng
                        Email*
                        Mật khẩu*
                        Quên mật khẩu?
                            Chưa có tài khoản/tạo tài khoản
                Đăng nhập
                         Nhớ đăng nhập
                ×
                Bản đồ
                                            Khách Sạn Dầu Khí Petro 
                    Tìm đường
                        Từ: 
                        Đến: 
                            Khách sạnĐịa danh Hiển thị các khách sạn ở gần Hiển thị các khu du lịch ở gần
                ×
                Yêu Cầu Lấy Giá
                                    Ngày nhận phòng
                                    Ngày trả phòng
                        Tên khách hàng
                        Email
                        Điện thoại
                        Nhân viên chăm sóc khách hàng sẽ gọi điện cho quý khách trong thời gian sớm nhất.
                        Quý khách có thể gọi điện đến cho Mytour để được tư vấn ngay:
                        Hà Nội: (04) 7109 9999, Hồ Chí Minh: (08) 7309 9899, Support
                            English: (+84)4-7309-9899.
                    Hoàn thành
                ×
                Gửi Thông Tin
                        Tên khách hàng
                        Email
                        Điện thoại
                            Quý khách sẽ thấy giá giảm ngay trên trang sau khi gửi thông tin
                    Hoàn thành
                ×
                Nhận Giá Tốt
                                    Ngày nhận phòng
                                    Ngày trả phòng
                        Tên khách hàng
                        Email
                        Điện thoại
                        Vì giá tốt không được công bố nên hệ thống sẽ gửi giá qua email đến quý khách và nhân viên chăm
                        sóc sẽ gọi điện cho quý khách trong thời gian sớm nhất.
                        Quý khách có thể gọi điện đến cho Mytour để được tư vấn ngay:
                        Hà Nội: (04) 7109 9999, Hồ Chí Minh: (08) 7309 9899, Support
                            English: (+84)4-7309-9899.
                    Hoàn thành
                ×
                ×
                ĐÁNH GIÁ 
                        Tên
                        Tiêu đề
                        Kiểu du lịch?
                                -- Chọn --Cá nhânCặp đôiGia đìnhBạn bèDoanh nghiệp
                        Nội dung
                                Đánh giá chi tiết
                                Chỗ ở
                                5
                                Thức ăn
                                5
                                Phương tiện
                                5
                                Hướng dẫn viên
                                5
                                Lịch trình
                                5
                    Gửi đánh giá
                    Hủy Bỏ
                ×
                Gửi lại email kích hoạt
                ×
                Thông tin chi tiết giá theo phòng
                    Chọn khoảng thời gian hiển thị giá phòng
                    Hiển thị giá
                ×
                Khóa phòng theo khoảng thời gian
                            Chọn khoảng thời gian check-in cần khóa/mở phòng
                            Khóa phòng
                            Mở phòng
                ×
                THUẾ VÀ PHÍ DỊCH VỤ
                17% thuế và phí dịch vụ bao gồm:
                    - 10% thuế và 5% phí dịch vụ hoàn trả lại cho khách sạn.
                    - 2% phí giao dịch tại Mytour.
                ×
                Bạn có hài lòng về website của Mytour?
                    Thông điệp nhắn nhủ:
                Mytour luôn mong muốn cải thiện dịch vụ để bạn có trải nghiệm tốt hơn!
                            Ảnh đính kèm
                        Đóng
                        Gửi
                ×
                    Những đóng góp của bạn đã được ghi nhận. Mytour cám ơn bạn !
                Quay lại website
                            Giới thiệu Mytour
                            Đối tác khách sạn
                            Đăng nhập HMS
                            Tích lũy Vpoint
                            Điều khoản sử dụng
                            Quy chế hoạt động
                            Tuyển dụng
                            Liên hệ
                            Đăng ký nhận email
                                Đăng ký email để nhận khuyến mãi lên đến 70%
                                    Đăng
                                    ký
                    Công ty TNHH Mytour Việt Nam
                    Số ĐKKD: 0105983269 cấp ngày 30/08/2012
                    Văn phòng Hà Nội: Tầng 4, tòa nhà GP Invest, 170 Đê La Thành, Đống Đa
                    Văn phòng HCM: Tầng 5, Tòa Nhà HDTC, Số 36 Bùi Thị Xuân, Q.1
                Hotline
                        Hà Nội:
                        (04) 7109 9999
                        Tp. HCM:
                        (08) 7309 9899
                        ENGLISH SUPPORT:
                        (+84)4 7309 9899
