url:http://mytour.vn/a2098/khach-san-khu-vuc-den-ba-chua-kho.html
Tittle :Khách sạn gần Đền Bà Chúa Kho - Bắc Ninh giá tốt nhất - Mytour.vn
content :Đặt phòng trực tuyến, hoặc gọi
                                                            Hà Nội: (04) 7109 9999
                                                                                        - (04) 7309 9899
                                                            Hồ Chí Minh: (08) 7309 9899
                                                                                        - (08) 7109 9998
                        T2 - CN: 08:00 - 23:00
                    Toggle navigation
                                Bạn không có thông báo nào
                    |
                    ||
                                                            Tài khoản
                        Đăng nhập
                                Đăng kýKhách sạn yêu thích
                            Khách sạn
                            Tour
                            Cẩm nang du lịch
                            Thông tin
                                                Về Mytour
                                                Tin khuyến mãi
                                                Ưu đãi
                                                Hướng dẫn
                                                Liên hệ
                            Tốt nhất 2016
                ×
                Bạn có chắc muốn hủy đơn hàng?
                Lorem ipsum dolor sit amet, consectetur adipisicing elit. Iure corporis repudiandae nobis distinctio
                quae quos, officia modi, ab voluptatem pariatur ducimus mollitia, necessitatibus sed soluta dicta
                repellendus! Praesentium debitis, temporibus?
                    Đồng ý
                    Đóng
                    Khách sạnBắc NinhThành Phố Bắc Ninh Khách sạn gần Đền Bà Chúa Kho
                    Áp dụng
                    Đóng
            Tìm Kiếm Khách Sạn
                            Ngày nhận phòng
                            Ngày trả phòng
                    Số đêm
                    Số phòng
                        123456789101112
                    Người lớn
                        123456789101112
                    Tìm khách sạn
                                Bộ lọc tìm kiếm
                                        Theo mức giá
                                                        Dưới 500.000
                                                        500.000 - 1.000.000
                                                        1.000.000 - 1.500.000
                                                        1.500.000 - 2.000.000
                                                        2.000.000 - 2.500.000
                                                        2.500.000 - 3.000.000
                                                        Trên 3.000.000
                                    Hạng Khách Sạn
                                    Loại khách sạn
                                                    Khách sạn
                                                    Resort
                                Tiện nghi
                                                Đưa đón khách sạn sân bay
                                                Bữa sáng miễn phí
                                                Bể bơi ngoài trời
                                                Bãi đỗ xe
                                                Phòng họp
                                                Phòng tập thể thao
                                                Thang máy
                                                Thêm giường phụ
                                                Truyền hình cáp/vệ tinh
                                                Wifi miễn phí
                                                Giặt là
                                                Nhà hàng
                                                Spa
            Quận huyện
                        Thành Phố Bắc Ninh 
             Giá tốt hơn so với đặt phòng trực
            tiếp tại khách sạn
             Đảm bảo 
            giá tốt nhất 
             Đảm bảo 
            hoàn tiền
             Nhân viên chăm sóc, tư vấn nhiều kinh nghiệm
             Hơn 5000 khách sạn tại Việt Nam với
            đánh giá thực
             Nhiều chương trình khuyến mãi và tích lũy điểm
             Thanh toán dễ dàng, đa dạng
                            Khách sạn gần Đền Bà Chúa Kho
                                     Xem Bản Đồ
                            Đền Bà Chúa Kho là khu di tích lịch sử vô giá nằm trong quần thể di tích Cô Mễ. Nơi đây dân gian truyền gọi là “Ngân hàng địa phủ”, quanh năm khách thập phương về đây lễ bái cầu tài, cầu lộc rất đông. Hãy để mytour hỗ trợ bạn để có 1 chuyến đi thú vị, tiết kiệm bằng cách đặt phòng khách sạn Đền Bà Chúa Kho ngay bây giờ với giá tốt nhất.
                                Có 6
                                khách sạn ở
                                đây theo ngày đã chọn
                        Ngày nhận phòng
                        Ngày trả phòng
                Số đêm
                Số phòng
                    123456789101112
                Người lớn
                    123456789101112
                Cập nhật ngày
                             Bộ lọc
                                            Phổ biến nhất
                                     Hạng khách sạn
                                                                                                Hạng sao [5...1]
                                                                                                Hạng sao [1...5]
                                            Đánh giá cao nhất
                                            Khuyến mãi
                                     Giá
                                                                                                Giá tăng dần
                                                                                                Giá giảm dần
                            Sắp xếp:
                            Đánh giá cao nhất
                        Phổ biến nhấtĐánh giá cao nhấtGiá tăng dầnGiá giảm dầnHạng tăng dầnHạng giảm dầnKhuyến mãi
                            Phú Sơn Resort ( đóng cửa sửa chữa đến tháng 12)
                             Phúc Sơn, Phường Vũ Ninh, Thành Phố Bắc Ninh , Bắc Ninh 
                            (Xem bản đồ)
                                                ~ 1.53km
                            Chợ Trung Tâm Suối Hoa
                                        “Phú Sơn Resort Bắc Ninh có phong cách phục vụ chu đáo, nhiệt tình chắc chắn sẽ làm quý khách hài lòng và mang đến cảm giác thoải mái. Trang thiết bị hiện đại và được bài trí sang trọng, ấm cúng.
                                        “
                                                Đảm bảo hoàn tiền
                                                Đảm bảo giá tốt nhất!
                                                            8.9
                                Tốt
                                    (2
                                        đánh giá)
                                Xem phòng
                            Khách Sạn Phoenix International 3
                             19 Phúc Hưng, Phường Ninh Xá, Thành Phố Bắc Ninh , Bắc Ninh 
                            (Xem bản đồ)
                                                ~ 4.42km
                            Ga Bắc Ninh
                                        “Khách Sạn Phoenix International 3 Bắc Ninh tọa lại ở trung tâm thành phố. Từ khách sạn, bạn có thể tới thăm làng tranh Đông Hồ, chùa Bút Tháp, chùa Dâu, thành cổ Luy Lâu hay Đền Đô, đền Bà Chúa Kho, H...
                                        “
                                                Đảm bảo hoàn tiền
                                                Đảm bảo giá tốt nhất!
                                Xem phòng
                            Khách Sạn Victory
                             Số 19, Lý Đạo Thành, Phường Ninh Xá, Thành Phố Bắc Ninh , Bắc Ninh 
                            (Xem bản đồ)
                                                ~ 4.29km
                            Bắc Ninh
                                                Đảm bảo hoàn tiền
                                                Đảm bảo giá tốt nhất!
                                Xem phòng
                            Khách Sạn Bông Sen Bắc Ninh
                             352 Ngô Gia Tự, Thành Phố Bắc Ninh , Bắc Ninh 
                            (Xem bản đồ)
                                                ~ 3.16km
                            Chợ Trung Tâm Suối Hoa
                                                                    Khách sạn đang chờ duyệt giá.
                                Xem phòng
                            Khách sạn Ga Thị Cầu
                             Khu 6, phường Thị Cầu, Thành Phố Bắc Ninh , Bắc Ninh 
                            (Xem bản đồ)
                                                ~ 4.27km
                            Ga Bắc Ninh
                                                                    Khách sạn đang chờ duyệt giá.
                                Xem phòng
                            Khách Sạn MD 
                             14B Phố Vũ, Thành Phố Bắc Ninh , Bắc Ninh 
                            (Xem bản đồ)
                                                ~ 3.65km
                            Thành cổ Bắc Ninh
                                                                    Khách sạn đang chờ duyệt giá.
                                Xem phòng
                                Đền Bà Chúa Kho
                            Với hơn 5.000 khách sạn, resort tại 63 tỉnh/ thành phố, Mytour ngày càng được du khách tin dùng để tìm kiếm khách sạn. Mytour sẽ hỗ trợ quý khách đặt khách sạn tại thành phố Bắc Ninh với chi phí hợp lý để có chuyến đi thật thú vị và tiết kiệm. Ngoài việc cung cấp những khách sạn giá tốt nhất, bạn còn có thể tìm thấy nhiều thông tin du lịch hữu ích và thú vị khác.  Đặt phòng khách sạn Đền Bà Chúa Kho giá tốt nhất tại Mytour.vn, với nhiều khuyến mãi từ website và đơn vị khách sạn tiết kiệm lên đến 70%. Hơn 150.000 đánh giá từ khách hàng đã qua sử dụng khách sạn giúp bạn đưa ra những quyết định tốt nhất cho lựa chọn của mình. Đặc biệt chính sách ĐẢM BẢO HOÀN TIỀN chỉ có tại Mytour.vn, giờ đây bạn có thể hoàn toàn tin tưởng vào dịch vụ đặt phòng trực tuyến.  Đền Bà Chúa Kho thuộc làng Cổ Mễ, phường Vũ Ninh, thành phố Bắc Ninh, tỉnh Bắc Ninh. Đây không chỉ là khu di tích lịch sử vô giá nằm trong quần thể di tích của khu Cô Mễ mà còn là nơi hàng năm nhân dân khắp cả nước hành hương mang tính tín ngưỡng.  Ðền nhìn về hướng nam. Cổng tam quan là công trình mở đầu cho cụm kiến trúc này, các công trình kiến trúc chính của đền gồm sân đền, hai dải vũ, toà tiền tế, công đệ nhị và hậu cung, tất cả tạo thành một thể thống nhất, uy nghi. Đây là nơi tưởng niệm một người phụ nữ Việt Nam đã khéo tổ chức sản xuất, tích trữ lương thực, trông nom kho tàng quốc gia trong thời kỳ trước và sau chiến thắng Như Nguyệt. Bà ra đi trong cuộc kháng chiến chống quân Tống vào ngày 12 tháng giêng năm Đinh Tỵ (1077). Nhà vua thương tiếc phong cho Bà là Phúc Thần. Người dân nhớ thương Bà lập nên đền thờ tại kho lương thực cũ của triều đình ở Núi Kho và gọi Bà với một niềm tôn kính là: Bà Chúa Kho.  Chỉ cần đặt tour du lịch tỉnh Bắc Ninh, bạn sẽ có cơ hội sống trong một không gian lịch sử đầy tính chất truyền kì, cũng như thưởng thức các đặc sản ẩm đầy hương vị xưa cổ.  Đền Bà Chúa Kho được dân gian truyền gọi là “Ngân hàng địa phủ”. Nhiều người bảo đền linh thiêng lắm, cầu xin ắt được như ý. Quanh năm khách thập phương từ mọi miền đất nước về đây lễ bái rất đông, đặc biệt vào ngày hội đền để cầu tài, cầu lộc và vay tiền Bà cho cả năm làm ăn. Khi về nơi này, không chỉ được tham gia một sự kiện tâm linh quy mô lớn, mà còn được trải nghiệm phong tục tập quán địa phương một cách đầy đủ nhất.  Đừng ngần ngại mà hãy thưởng cho mình những khoảnh khắc để đời bằng cách nhanh tay đặt tour du lịch tỉnh Bắc Ninh, và cũng đừng quên đặt phòng khách sạn Bắc Ninh qua hệ thống trực tuyến của Mytour để được hưởng những ưu đãi không thể chối từ bạn nhé. 
                ×
                    Chính sách đảm bảo hoàn tiền của mytour
                    Bạn chưa tin tưởng việc đặt phòng khách sạn trực tuyến? Bạn e ngại rằng phòng khách sạn thực tế không đúng với thông tin trên website? Chúng tôi cam kết đưa đầy đủ và chính xác thông tin khách sạn trên website với chính sách “Đảm bảo Hoàn tiền”
                        Nếu khách hàng đặt khách sạn thành công trên Mytour nhưng khách sạn không có phòng, Mytour sẽ hoàn lại tiền cho khách và tặng kèm phiếu giảm giá có giá trị bằng với số tiền khách hàng đã trả.
                        Trong trường hợp loại phòng thực tế không đúng với loại phòng trên đơn hàng, Mytour sẽ quyết định nâng cấp miễn phí hoặc tặng phiếu giảm giá có giá trị bằng với số tiền khách hàng đã trả.
                        Trường hợp các tiện nghi phòng khách sạn (như bữa sáng, wifi…) không đúng với nội dung trên website, Mytour sẽ tặng phiếu giảm giá có giá trị bằng 10% số tiền khách đã trả (tối đa 500,000 VND)
                        Khách hàng cần gọi điện thoại 04-7309 9899 (Hà Nội), 08-7309 9899 (Hồ Chí Minh) hoặc email tới info@mytour.vn và cung cấp mã đơn hàng trong vòng 24 giờ từ lúc nhận phòng để được trợ giúp giải quyết khiếu nại (Hotline chỉ hỗ trợ trong giờ hành chính).
                        Mytour không chịu trách nhiệm bồi thường thiệt hại gián tiếp, ngẫu nhiên, hay do hậu quả phát sinh. Trong mọi trường hợp, trách nhiệm của Mytour không vượt quá tổng số tiền khách hàng thanh toán đặt phòng.
                ×
                    Đảm bảo giá tốt nhất
                    Nếu Thành viên đã đặt một phòng khách sạn được “Đảm Bảo” tại Mytour.vn và sau đó, cho Mytour.vn  thấy rằng Thành viên có thể đặt một phòng tương tự trong cùng khoảng thời gian ở mức giá tốt hơn có thể xem và đặt được trên một website khác, Mytour.vn sẽ giảm giá bằng hoặc thấp hơn mức giá đó.
                    Giá dùng để so sánh là giá sau khi áp dụng mức giảm giá công bố trên website Mytour.vn.
                    Chính sách “Đảm Bảo Giá Tốt Nhất” của Mytour.vn chỉ áp dụng cho các đặt phòng đã được xác nhận và phải thỏa mãn những điều kiện sau:
                Cùng khách sạnCùng thời gian nghỉ lạiCùng loại Phòng/GiườngCùng các yêu cầu mua Trước, yêu cầu trả trước và đặt cọc (nếu có)Cùng chính sách Hủy và Sửa Đổi
                    Phòng đó phải còn trống để được xác nhận ngay tại thời điểm các đại lý của Mytour.vn  kiểm tra phòng trống
                        Chính sách “Đảm Bảo Giá Tốt Nhất” không áp dụng cho các mức giá không công bố, như: chương trình khách hàng thân thiện.
                        Bất kỳ tổ chức nào với các mức giá dành cho nhóm cá nhân cụ thể và không nhằm mục đích áp dụng ra bên ngoài.
                        Thành viên có thể gửi khiếu nại theo địa chỉ : info@mytour.vn
                                Nêu mã đặt phòng Mytour.vn trong dòng tiêu đề thư
                                Gửi URL của website nơi Thành viên tìm thấy mức giá tốt hơn
                                Cung cấp ảnh chụp màn hình của website đối thủ cạnh tranh trong đó nêu rõ Phòng Trống, Loại Phòng, và các mức giá cho những ngày nghỉ lại theo yêu cầu của Thành viên.
                VUI LÒNG LƯU Ý: Thành viên không cần thực hiện đặt phòng trên website của đối thủ cạnh tranh, chỉ cần cho Mytour.vn thấy sự so sánh.
                ×
                Đăng Nhập
                                 Đăng nhập bằng tài khoản Facebook
                                 Đăng nhập bằng tài khoản Google
                            Hoặc đăng nhập bằng
                        Email*
                        Mật khẩu*
                        Quên mật khẩu?
                            Chưa có tài khoản/tạo tài khoản
                Đăng nhập
                         Nhớ đăng nhập
                ×
                Bản đồ
                                            Đền Bà Chúa Kho
                    Tìm đường
                        Từ: 
                        Đến: 
                            Khách sạnĐịa danh Hiển thị các khách sạn ở gần Hiển thị các khu du lịch ở gần
                ×
                Yêu Cầu Lấy Giá
                                    Ngày nhận phòng
                                    Ngày trả phòng
                        Tên khách hàng
                        Email
                        Điện thoại
                        Nhân viên chăm sóc khách hàng sẽ gọi điện cho quý khách trong thời gian sớm nhất.
                        Quý khách có thể gọi điện đến cho Mytour để được tư vấn ngay:
                        Hà Nội: (04) 7109 9999, Hồ Chí Minh: (08) 7309 9899, Support
                            English: (+84)4-7309-9899.
                    Hoàn thành
                ×
                Gửi Thông Tin
                        Tên khách hàng
                        Email
                        Điện thoại
                            Quý khách sẽ thấy giá giảm ngay trên trang sau khi gửi thông tin
                    Hoàn thành
                ×
                Nhận Giá Tốt
                                    Ngày nhận phòng
                                    Ngày trả phòng
                        Tên khách hàng
                        Email
                        Điện thoại
                        Vì giá tốt không được công bố nên hệ thống sẽ gửi giá qua email đến quý khách và nhân viên chăm
                        sóc sẽ gọi điện cho quý khách trong thời gian sớm nhất.
                        Quý khách có thể gọi điện đến cho Mytour để được tư vấn ngay:
                        Hà Nội: (04) 7109 9999, Hồ Chí Minh: (08) 7309 9899, Support
                            English: (+84)4-7309-9899.
                    Hoàn thành
                ×
                ×
                ĐÁNH GIÁ 
                        Tên
                        Tiêu đề
                        Kiểu du lịch?
                                -- Chọn --Cá nhânCặp đôiGia đìnhBạn bèDoanh nghiệp
                        Nội dung
                                Đánh giá chi tiết
                                Chỗ ở
                                5
                                Thức ăn
                                5
                                Phương tiện
                                5
                                Hướng dẫn viên
                                5
                                Lịch trình
                                5
                    Gửi đánh giá
                    Hủy Bỏ
                ×
                Gửi lại email kích hoạt
                ×
                Thông tin chi tiết giá theo phòng
                    Chọn khoảng thời gian hiển thị giá phòng
                    Hiển thị giá
                ×
                Khóa phòng theo khoảng thời gian
                            Chọn khoảng thời gian check-in cần khóa/mở phòng
                            Khóa phòng
                            Mở phòng
                ×
                THUẾ VÀ PHÍ DỊCH VỤ
                17% thuế và phí dịch vụ bao gồm:
                    - 10% thuế và 5% phí dịch vụ hoàn trả lại cho khách sạn.
                    - 2% phí giao dịch tại Mytour.
                ×
                Bạn có hài lòng về website của Mytour?
                    Thông điệp nhắn nhủ:
                Mytour luôn mong muốn cải thiện dịch vụ để bạn có trải nghiệm tốt hơn!
                            Ảnh đính kèm
                        Đóng
                        Gửi
                ×
                    Những đóng góp của bạn đã được ghi nhận. Mytour cám ơn bạn !
                Quay lại website
                Du lịch Đền Bà Chúa Kho
                                Du lịch Bồi hồi tiếng hát quan họ Bắc Ninh
                                Du lịch Mộc mỹ nghệ Phù Khê
                                Du lịch Đến Bắc Ninh thăm chùa Phật Tích - Ngôi Quốc tự thời Lý
                                Du lịch Đền Đô – Ngôi đền của các bậc đế vương nhà Lý
                                Du lịch Độc đáo trang phục Quan họ
                                Du lịch Về xứ Kinh Bắc thăm kiệt tác kiến trúc chùa cổ Bút Tháp
                                Du lịch Tơ tằm Vọng Nguyệt - tiếng vọng từ một làng nghề huyền thoại
                                Du lịch Tính phồn thực trong lễ hội cầu mưa vùng Bắc Bộ
                                Du lịch Bánh khúc làng Diềm - đặc sản vùng quê Kinh Bắc
                                Du lịch Ghé thăm làng tranh Đông Hồ
                            Giới thiệu Mytour
                            Đối tác khách sạn
                            Đăng nhập HMS
                            Tích lũy Vpoint
                            Điều khoản sử dụng
                            Quy chế hoạt động
                            Tuyển dụng
                            Liên hệ
                            Đăng ký nhận email
                                Đăng ký email để nhận khuyến mãi lên đến 70%
                                    Đăng
                                    ký
                    Công ty TNHH Mytour Việt Nam
                    Số ĐKKD: 0105983269 cấp ngày 30/08/2012
                    Văn phòng Hà Nội: Tầng 4, tòa nhà GP Invest, 170 Đê La Thành, Đống Đa
                    Văn phòng HCM: Tầng 5, Tòa Nhà HDTC, Số 36 Bùi Thị Xuân, Q.1
                Hotline
                        Hà Nội:
                        (04) 7109 9999
                        Tp. HCM:
                        (08) 7309 9899
                        ENGLISH SUPPORT:
                        (+84)4 7309 9899
