url:http://mytour.vn/c38/khach-san-4-sao-tai-lam-dong.html
Tittle :Khách sạn 4 sao tại Lâm Đồng giá tốt nhất - Mytour.vn
content :Đặt phòng trực tuyến, hoặc gọi
                                                            Hà Nội: (04) 7109 9999
                                                                                        - (04) 7309 9899
                                                            Hồ Chí Minh: (08) 7309 9899
                                                                                        - (08) 7109 9998
                        T2 - CN: 08:00 - 23:00
                    Toggle navigation
                                Bạn không có thông báo nào
                    |
                    ||
                                                            Tài khoản
                        Đăng nhập
                                Đăng kýKhách sạn yêu thích
                            Khách sạn
                            Tour
                            Cẩm nang du lịch
                            Thông tin
                                                Về Mytour
                                                Tin khuyến mãi
                                                Ưu đãi
                                                Hướng dẫn
                                                Liên hệ
                            Tốt nhất 2016
                ×
                Bạn có chắc muốn hủy đơn hàng?
                Lorem ipsum dolor sit amet, consectetur adipisicing elit. Iure corporis repudiandae nobis distinctio
                quae quos, officia modi, ab voluptatem pariatur ducimus mollitia, necessitatibus sed soluta dicta
                repellendus! Praesentium debitis, temporibus?
                    Đồng ý
                    Đóng
                    Khách sạnKhách sạn tại Lâm ĐồngKhách sạn 4 sao tại Lâm Đồng
                    Áp dụng
                    Đóng
            Tìm Kiếm Khách Sạn
                            Ngày nhận phòng
                            Ngày trả phòng
                    Số đêm
                    Số phòng
                        123456789101112
                    Người lớn
                        123456789101112
                    Tìm khách sạn
                                Bộ lọc tìm kiếm
                                        Theo mức giá
                                                        Dưới 500.000
                                                        500.000 - 1.000.000
                                                        1.000.000 - 1.500.000
                                                        1.500.000 - 2.000.000
                                                        2.000.000 - 2.500.000
                                                        2.500.000 - 3.000.000
                                                        Trên 3.000.000
                                    Hạng Khách Sạn
                                    Loại khách sạn
                                                    Khách sạn
                                                    Resort
                                Tiện nghi
                                                Đưa đón khách sạn sân bay
                                                Bữa sáng miễn phí
                                                Bể bơi ngoài trời
                                                Bãi đỗ xe
                                                Phòng họp
                                                Phòng tập thể thao
                                                Thang máy
                                                Thêm giường phụ
                                                Truyền hình cáp/vệ tinh
                                                Wifi miễn phí
                                                Giặt là
                                                Nhà hàng
                                                Spa
            Quận huyện
                        Đà Lạt
                        Bảo Lộc 
                        Di Linh 
                        Đạ Huoai 
                        Bảo Lâm
                        Đạ Tẻh 
                        Lạc Dương 
                        Lâm Hà 
                        Cát Tiên 
                        Đam Rông 
                        Đơn Dương 
                        Đức Trọng 
            Khu vực
                        Trung Tâm Thành Phố Đà Lạt
                        Hồ Tuyền Lâm
                        Ven Hồ
                        Ga Xe Lửa Cũ
                        Thác Cam Ly
                        Thung Lũng Tình Yêu / Đồi Mộng Mơ
                        Thung lũng Vàng
                        Núi Langbiang
                        Khu du lịch Trúc Lâm Viên
                        Thị trấn Nghĩa Liên
                        Hồ Lộc Thanh
                        Giáo hạt Bảo Lộc
                        Chợ Lộc Châu
                        Thị Trấn Ma đa gui
             Giá tốt hơn so với đặt phòng trực
            tiếp tại khách sạn
             Đảm bảo 
            giá tốt nhất 
             Đảm bảo 
            hoàn tiền
             Nhân viên chăm sóc, tư vấn nhiều kinh nghiệm
             Hơn 5000 khách sạn tại Việt Nam với
            đánh giá thực
             Nhiều chương trình khuyến mãi và tích lũy điểm
             Thanh toán dễ dàng, đa dạng
                            Khách sạn 4 sao tại Lâm Đồng
                                     Xem Bản Đồ
                            Lâm Đồng nằm trên cao nguyên Lâm Viên – Di Linh, có khí hậu trong lành, mát mẻ. Đến với Lâm Đồng bạn có thể tham quan tại các thắng cảnh: Madagui, thác Tình Yêu, thác Pren, Thiền viện Trúc Lâm, núi Lang Bian… Hãy để Mytour hỗ trợ bạn để có 1 chuyến đi thú vị, tiết kiệm bằng cách đặt phòng khách sạn 4 sao Lâm Đồng ngay bây giờ với giá từ 606,000 VND.
                                Có 19
                                khách sạn ở
                                đây theo ngày đã chọn
                        Ngày nhận phòng
                        Ngày trả phòng
                Số đêm
                Số phòng
                    123456789101112
                Người lớn
                    123456789101112
                Cập nhật ngày
                             Bộ lọc
                                            Phổ biến nhất
                                     Hạng khách sạn
                                                                                                Hạng sao [5...1]
                                                                                                Hạng sao [1...5]
                                            Đánh giá cao nhất
                                            Khuyến mãi
                                     Giá
                                                                                                Giá tăng dần
                                                                                                Giá giảm dần
                            Sắp xếp:
                            Đánh giá cao nhất
                        Phổ biến nhấtĐánh giá cao nhấtGiá tăng dầnGiá giảm dầnHạng tăng dầnHạng giảm dầnKhuyến mãi
                            Khách sạn Kings
                             10 Bùi Thị Xuân, Phường 2, Tp. Đà Lạt, Đà Lạt, Lâm Đồng 
                            (Xem bản đồ)
                            Trung Tâm Thành Phố Đà Lạt
                                                Đảm bảo hoàn tiền
                                                Đảm bảo giá tốt nhất!
                                Xem phòng
                            Khách Sạn Sài Gòn Đà Lạt 
                             180 Đường 3/2, Đà Lạt, Lâm Đồng 
                            (Xem bản đồ)
                            Trung Tâm Thành Phố Đà Lạt
                                                Đảm bảo hoàn tiền
                                                Đảm bảo giá tốt nhất!
                                Xem phòng
                            Terracotta Hotel Resort & Spa Đà Lạt
                             Khu Vực Hồ Tuyền Lâm, Phường 3, Đà Lạt, Lâm Đồng 
                            (Xem bản đồ)
                            Hồ Tuyền Lâm
                                        “Terracotta Hotel Resort & Spa Đà Lạt phòng ốc thoáng mát và sạch sẽ, nhân viên thân thiện, nhiệt tình, khách sạn gần trung tâm thành phố nên rất thuận tiện
                                        “
                                                Đảm bảo hoàn tiền
                                                Đảm bảo giá tốt nhất!
                                                            8.6
                                Tốt
                                    (110
                                        đánh giá)
                                Xem phòng
                            Sacom Resort
                             KDL Hồ Tuyền Lâm, Phường 3, Đà Lạt, Lâm Đồng 
                            (Xem bản đồ)
                            Hồ Tuyền Lâm
                                        “Với vị trí thuận để bạn đễ dàng đi lại cho việc tham quan địa điểm tham quan nổi tiếng nổi tiếng và thưởng thức những món đặc sản của nơi đây. Sacom Resort Lâm Đồng quả thật là một điểm đến đáng tin c...
                                        “
                                                Đảm bảo hoàn tiền
                                                Đảm bảo giá tốt nhất!
                                                            7.2
                                Đánh giá
                                    (14
                                        đánh giá)
                                Xem phòng
                            Khách Sạn TTC Hotel Premium ( Golf 3 cũ )
                             4 Nguyễn Thị Minh Khai, Đà Lạt, Lâm Đồng 
                            (Xem bản đồ)
                            Trung Tâm Thành Phố Đà Lạt
                                        “Khách Sạn Golf 3 Đà Lạt có không gian phòng nghỉ ấm cúng, nội thất hiện đại và sang trọng. Đội ngũ nhân viên thân thiện và nhiệt tình. Khách sạn nằm ở trung tâm nên thuận tiện đi lại và tham quan.
                                        “
                                                Đảm bảo hoàn tiền
                                                Đảm bảo giá tốt nhất!
                                                            7.6
                                Đánh giá
                                    (114
                                        đánh giá)
                                Xem phòng
                            Monet Garden Villa (Hoàng Anh - Đất Xanh cũ)
                             3 Nguyễn Du , Phường 9, Đà Lạt, Lâm Đồng 
                            (Xem bản đồ)
                            Ven Hồ
                                        “Hoàng Anh - Đất Xanh Đà Lạt Resort có vị trí thuận lợi, thiết kế trang nhã, ấm cúng, hứa hẹn mang đến cho du khách chuyến nghỉ dưỡng thoải mái và khó quên. Đây chắc chắn là một điểm đến không thể bỏ q...
                                        “
                                                Đảm bảo hoàn tiền
                                                Đảm bảo giá tốt nhất!
                                                            8.1
                                Tốt
                                    (229
                                        đánh giá)
                                Xem phòng
                            Khách Sạn La Sapinette Đà Lạt
                             1 Phan Chu Trinh, Phường 9, Đà Lạt, Lâm Đồng 
                            (Xem bản đồ)
                            Ga Xe Lửa Cũ
                                        “Khách Sạn La Sapinette Đà Lạt là lựa chọn lý tưởng cho bạn để đi du lịch hay công tác với giá cả hợp lí. Các phòng nghỉ đầy đủ tiện nghi hiện đại. Đội ngũ nhân viên khách sạn phục vụ thân thiện và nhi...
                                        “
                                                Đảm bảo hoàn tiền
                                                Đảm bảo giá tốt nhất!
                                                            7.9
                                Đánh giá
                                    (142
                                        đánh giá)
                                Xem phòng
                            Khách Sạn Ngọc Lan Đà Lạt
                             42 Nguyễn Chí Thanh, Đà Lạt, Lâm Đồng 
                            (Xem bản đồ)
                            Trung Tâm Thành Phố Đà Lạt
                                        “Khách Sạn Ngọc Lan Đà Lạt có không gian phòng nghỉ ấm cúng, nội thất hiện đại và sang trọng. Đội ngũ nhân viên thân thiện và nhiệt tình. Khách sạn nằm ở trung tâm nên thuận tiện đi lại và tham quan.
                                        “
                                                Đảm bảo hoàn tiền
                                                Đảm bảo giá tốt nhất!
                                                            8.3
                                Tốt
                                    (225
                                        đánh giá)
                                Xem phòng
                            Khách Sạn Saphir Đà Lạt
                             9 Phan Như Thạch , Phường 1, Đà Lạt, Lâm Đồng 
                            (Xem bản đồ)
                            Trung Tâm Thành Phố Đà Lạt
                                        Khách sạn bán chạy nhất trên Mytour 2015
                                        “Khách Sạn Saphir Đà Lạt tọa lạc tại trung tâm thành phố, nơi nghỉ ngơi chất lượng nổi tiếng phục vụ cho cả khách nghỉ dưỡng và các doanh nhân. Khách sạn được thiết kế tiện nghi, hiện đại mang phong cá...
                                        “
                                                Đảm bảo hoàn tiền
                                                Đảm bảo giá tốt nhất!
                                                            7.6
                                Đánh giá
                                    (267
                                        đánh giá)
                                Xem phòng
                            Khách Sạn Mường Thanh Đà Lạt
                             42 Phan Bội Châu ,tp Đà Lạt, Đà Lạt, Lâm Đồng 
                            (Xem bản đồ)
                            Trung Tâm Thành Phố Đà Lạt
                                        “Khách Sạn Mường Thanh Đà Lạt có không gian phòng nghỉ ấm cúng, nội thất hiện đại và sang trọng. Đội ngũ nhân viên thân thiện và nhiệt tình. Khách sạn nằm ở trung tâm nên thuận tiện đi lại và tham quan...
                                        “
                                                Đảm bảo hoàn tiền
                                                Đảm bảo giá tốt nhất!
                                                            7.9
                                Đánh giá
                                    (205
                                        đánh giá)
                                Xem phòng
                            Khách Sạn Vietsovpetro
                             7 Hùng Vương, Đà Lạt, Lâm Đồng 
                            (Xem bản đồ)
                            Trung Tâm Thành Phố Đà Lạt
                                        “Khách Sạn Vietsovpetro Đà Lạt mang lại dịch vụ hoàn hảo, làm hài lòng cả những vị khách khó tính nhất với những tiện nghi sang trọng tuyệt vời. Trang thiết bị hiện đại và được bài trí sang trọng, ấm c...
                                        “
                                                Đảm bảo hoàn tiền
                                                Đảm bảo giá tốt nhất!
                                                            7.6
                                Đánh giá
                                    (75
                                        đánh giá)
                                Xem phòng
                            Khách Sạn River Prince Đà Lạt 
                             135 - 145 Phan Đình Phùng, Đà Lạt, Lâm Đồng 
                            (Xem bản đồ)
                            Trung Tâm Thành Phố Đà Lạt
                                        “Khách Sạn River Prince Đà Lạt có đội ngũ nhân viên được đào tạo chuyên nghiệp và phục vụ tận tình. Đầy đủ tiện nghi, phòng thoáng mát, sạch sẽ. Trang thiết bị hiện đại và được bài trí sang trọng, ấm c...
                                        “
                                                Đảm bảo hoàn tiền
                                                Đảm bảo giá tốt nhất!
                                                            7.6
                                Đánh giá
                                    (154
                                        đánh giá)
                                Xem phòng
                            Khách Sạn Sammy Đà Lạt
                             1 Lê Hồng Phong, Đà Lạt, Lâm Đồng 
                            (Xem bản đồ)
                            Trung Tâm Thành Phố Đà Lạt
                                        “Khách Sạn Sammy Đà Lạt có không gian phòng nghỉ ấm cúng, nội thất hiện đại và sang trọng. Tiện nghi quán bar sôi động và karaoke hiện đại. Khách sạn nằm ở trung tâm nên thuận tiện đi lại và tham quan....
                                        “
                                                Đảm bảo hoàn tiền
                                                Đảm bảo giá tốt nhất!
                                                            7.8
                                Đánh giá
                                    (145
                                        đánh giá)
                                Xem phòng
                            Khách Sạn Đà Lạt Du Parc
                             7 Trần Phú, Đà Lạt, Lâm Đồng 
                            (Xem bản đồ)
                            Trung Tâm Thành Phố Đà Lạt
                                        “Khách Sạn Đà Lạt Du Parc tọa lạc ngay tại trung tâm thành phố, chỉ mất khoảng 7 phút tản bộ là quý khách có thể đến chợ Đà Lạt nổi tiếng. Đội ngũ nhân viên khách sạn phục vụ thân thiện và nhiệt tình....
                                        “
                                                Đảm bảo hoàn tiền
                                                Đảm bảo giá tốt nhất!
                                                            7.6
                                Đánh giá
                                    (92
                                        đánh giá)
                                Xem phòng
                            Sacom Tuyền Lâm Golf Club Resort
                             Phân khu số 7, số 8 Khu Du Lịch Hồ Tuyền Lâm, TP. Đà Lạt 
                            (Xem bản đồ)
                            Hồ Tuyền Lâm
                                        “Sacom Tuyền Lâm Golf Club Resort Đà Lạt có tiện nghi như quán Bar, phòng hội họp, dịch vụ Spa & Massage, đảm bảo quý khách có thời gian thư giãn tuyệt vời nhất. 
                                        “
                                                Đảm bảo hoàn tiền
                                                Đảm bảo giá tốt nhất!
                                                            6.0
                                Đánh giá
                                    (3
                                        đánh giá)
                                Xem phòng
                            Khách sạn Terrasse Des Roses Đà Lạt
                             35 Cao Bá Quát, Đà Lạt, Lâm Đồng 
                            (Xem bản đồ)
                            Hồ Tuyền Lâm
                                                                    Khách sạn đang chờ duyệt giá.
                                            (65
                                            Reviews)
                                Xem phòng
                            Nguyen Sa Villas
                             9 bis- lữ gia- p9- TP Đà Lạt 
                            (Xem bản đồ)
                                                                    Khách sạn đang chờ duyệt giá.
                                Xem phòng
                            Vesta Haus
                             26B Yersin 
                            (Xem bản đồ)
                                                                    Khách sạn đang chờ duyệt giá.
                                Xem phòng
                            3G/3
                             3G/3-trần hưng đạo- tp Đà lạt 
                            (Xem bản đồ)
                                                                    Khách sạn đang chờ duyệt giá.
                                Xem phòng
                                Lâm Đồng
                            Đặt phòng khách sạn Lâm Đồng giá tốt nhất tại Mytour.vn, với nhiều khuyến mãi từ website và đơn vị khách sạn tiết kiệm lên đến 70%. Hơn 150.000 đánh giá từ khách hàng đã qua sử dụng khách sạn giúp bạn đưa ra những quyết định tốt nhất cho lựa chọn của mình. Đặc biệt chính sách ĐẢM BẢO HOÀN TIỀN chỉ có tại Mytour.vn, giờ đây bạn có thể hoàn toàn tin tưởng vào dịch vụ đặt phòng trực tuyến.  Ngoài ra, chúng tôi cũng trân trọng giới thiệu đến bạn những khách sạn Lâm Đồng tốt nhất 2016 trong các hạng mục Best Seller và Top Review trên website Mytour.vn. Đây là những khách sạn đạt tiêu chuẩn rất cao và làm hài lòng cả những vị khách khó tính nhất.  Với hơn 5.000 khách sạn, resort tại 63 tỉnh/ thành phố, Mytour ngày càng được du khách tin dùng để tìm kiếm khách sạn. Mytour sẽ hỗ trợ quý khách đặt khách sạn Lâm Đồng với chi phí hợp lý để có chuyến đi thật thú vị và tiết kiệm. Ngoài việc cung cấp những khách sạn giá tốt nhất, bạn có còn có thể tìm thấy nhiều thông tin du lịch hữu ích và thú vị khác.  Lâm Đồng được mệnh danh là Paris thu nhỏ của Việt Nam hay thành phố Ngàn Hoa. Đà Lạt trực thuộc tỉnh Lâm Đồng, nằm trên cao nguyên Lâm Viên, thuộc vùng núi Tây Nguyên. Đà Lạt mộng mơ với vẻ đẹp của muôn hoa khoe sắc, với những điệu nhảy hân hoan quanh bếp lửa bập bùng, với những ché rượu cần nồng ấm và thơm ngon, hay với những “thiên tình sử” ngàn năm vẫn còn tồn tại,.. sẽ là nơi dừng chân lý tưởng cửa bạn, mang đến cho bạn nhiều trải nhiệm thú vị với những cảm xúc bất tận.  Với 205 khách sạn tại Lâm Đồng, khi đặt phòng qua hệ thống đặt phòng trực tuyến của Mytour.vn, bạn sẽ được tận hưởng những ưu đãi tốt nhất, dịch vụ hoàn hảo nhất, giá cả hợp lý và có nhiều sự lựa chọn để phù hợp với nhu cầu của quý khách, chiều lòng được những yêu cầu khắt khe của những du khách dù là khó tính nhất.  Khi chọn Lâm Đồng là điểm đến cho chuyến du lịch hay công tác của bạn, với dịch vụ đặt Tour du lịch Đà Lạt của Mytour, bạn có thể tham quan Vườn dâu tây, khám phá Cao nguyên Lang Biang huyền bí – nóc nhà của thành phố Đà Lạt - đã đi vào nhiều tác phẩm văn học hay đắm chìm trong không gian lãng mạn của Thung lũng Tình Yêu hay đến thăm Thiền Viện Trúc Lâm cổ kính và trang nghiêm là thiền viện lớn nhất của tỉnh Lâm Đồng. Hàng năm, Đà Lạt đón tới hơn 2,1 triệu lượt khách đặt tour du lịch tới đây tham quan cả trong và ngoài nước.  Khi ghé thăm Đà Lạt, du khách sẽ khó lòng từ chối được sự hấp dẫn, lôi cuốn của nét ẩm thực phố núi tự hào giới thiệu là phong cách ẩm thực dung hòa khẩu vị cả 3 miền Bắc – Trung - Nam này. Các món ăn đặc trưng ở nơi đây bao gồm món chả bắp, bánh căn, mứt hồng dẻo, mứt mận Đà Lạt, nem nướng bà Hùng, bánh tráng nướng hành trứng, chè hé, … mà mỗi khi thưởng thức bạn sẽ không thể quên được dư vị đặc biệt, lạ lùng ấy.  Nếu bạn có kế họach đến nghỉ dưỡng hoặc công tác ở thành phố mộng mơ Đà Lạt, hãy để Mytour giúp bạn chuẩn bị 1 chuyến đi dễ dàng, thú vị, và tiết kiệm nhất nhé.  Đến với Mytour.vn, bạn sẽ có cơ hội đặt phòng khách sạn giá rẻ tại Đà Lạt cùng nhiều chương trình khuyến mại hấp dẫn chỉ dành riêng cho khách hàng Mytour nữa đấy!
            Địa danh ở gần
                                    Cao Nguyên Bảo Lộc
                                     ~ 0km
                                    Núi Phượng Hoàng
                                     ~ 0km
                                    Thung lũng vàng 
                                     ~ 0km
                                    Hồ Tuyền Lâm
                                     ~ 0km
                                    Đồi Mộng Mơ - Đà Lạt
                                     ~ 0km
                                    Thác Gougah
                                     ~ 0km
                                    Thác Prenn
                                     ~ 0km
                                    Khu du lịch Madagui
                                     ~ 0km
                                    Núi LangBiang
                                     ~ 0km
                                    Thác Liên Khương
                                     ~ 0km
                                    Tịnh Xá Ngọc Thiền
                                     ~ 0km
                                    Thác Liliang
                                     ~ 0km
                                    Chùa Linh Quang Đà Lạt
                                     ~ 0km
                                    Chùa Linh Thắng Di Linh
                                     ~ 0km
                                    Cao nguyên Lâm Viên
                                     ~ 0km
                                    Xã Lát
                                     ~ 0km
                                    Thung Lũng Tình Yêu
                                     ~ 0km
                                    Hồ Than Thở
                                     ~ 0km
                                    Không gian thanh tịnh ở Thiền Viện Trúc Lâm Đà Lạt
                                     ~ 0km
                                    Thác Hang Cọp
                                     ~ 0km
                                    Chùa Thiền viện Vạn Hạnh
                                     ~ 0km
                                    Rừng Sinh Thái Madagui
                                     ~ 0km
                                    Chùa Thiên Vương Cổ Sát
                                     ~ 0km
                                    Thiền Viện Trúc Lâm
                                     ~ 0km
                                    Bắc Vườn quốc gia Cát Tiên
                                     ~ 0km
                                    Tây Hồ chứa Thuỷ điện Đồng Nai 3
                                     ~ 0km
                                    Hồ Cống Sình
                                     ~ 0km
                                    Chợ Bun Go
                                     ~ 0km
                                    Tây bắc Vườn quốc gia Cát Tiên
                                     ~ 0km
                                    Khu du lịch Madagui
                                     ~ 0km
                 Du lịch Lâm Đồng 
                  Những đặc sản mua về làm quà không thể bỏ qua khi đến Đà Lạt   Cẩm nang các địa điểm nghỉ ngơi dành cho khách du lịch Đà Lạt   Mỗi mùa mỗi vẻ: Bạn chọn du lịch Đà Lạt trong thời khắc nào?   Say lòng nét đẹp văn hóa ở Đà Lạt - Paris thu nhỏ tại phương Đông   Làm sao đế đến Đà Lạt - thành phố ngàn hoa?   Những điều cần biết khi du lịch Đà Lạt   Chơi gì ở Đà Lạt - nàng thơ của Tây Nguyên   Những món ngon nhất định không thể bỏ qua khi đến Đà Lạt   Cẩm nang du lịch Đà Lạt từ A đến Z  
                ×
                    Chính sách đảm bảo hoàn tiền của mytour
                    Bạn chưa tin tưởng việc đặt phòng khách sạn trực tuyến? Bạn e ngại rằng phòng khách sạn thực tế không đúng với thông tin trên website? Chúng tôi cam kết đưa đầy đủ và chính xác thông tin khách sạn trên website với chính sách “Đảm bảo Hoàn tiền”
                        Nếu khách hàng đặt khách sạn thành công trên Mytour nhưng khách sạn không có phòng, Mytour sẽ hoàn lại tiền cho khách và tặng kèm phiếu giảm giá có giá trị bằng với số tiền khách hàng đã trả.
                        Trong trường hợp loại phòng thực tế không đúng với loại phòng trên đơn hàng, Mytour sẽ quyết định nâng cấp miễn phí hoặc tặng phiếu giảm giá có giá trị bằng với số tiền khách hàng đã trả.
                        Trường hợp các tiện nghi phòng khách sạn (như bữa sáng, wifi…) không đúng với nội dung trên website, Mytour sẽ tặng phiếu giảm giá có giá trị bằng 10% số tiền khách đã trả (tối đa 500,000 VND)
                        Khách hàng cần gọi điện thoại 04-7309 9899 (Hà Nội), 08-7309 9899 (Hồ Chí Minh) hoặc email tới info@mytour.vn và cung cấp mã đơn hàng trong vòng 24 giờ từ lúc nhận phòng để được trợ giúp giải quyết khiếu nại (Hotline chỉ hỗ trợ trong giờ hành chính).
                        Mytour không chịu trách nhiệm bồi thường thiệt hại gián tiếp, ngẫu nhiên, hay do hậu quả phát sinh. Trong mọi trường hợp, trách nhiệm của Mytour không vượt quá tổng số tiền khách hàng thanh toán đặt phòng.
                ×
                    Đảm bảo giá tốt nhất
                    Nếu Thành viên đã đặt một phòng khách sạn được “Đảm Bảo” tại Mytour.vn và sau đó, cho Mytour.vn  thấy rằng Thành viên có thể đặt một phòng tương tự trong cùng khoảng thời gian ở mức giá tốt hơn có thể xem và đặt được trên một website khác, Mytour.vn sẽ giảm giá bằng hoặc thấp hơn mức giá đó.
                    Giá dùng để so sánh là giá sau khi áp dụng mức giảm giá công bố trên website Mytour.vn.
                    Chính sách “Đảm Bảo Giá Tốt Nhất” của Mytour.vn chỉ áp dụng cho các đặt phòng đã được xác nhận và phải thỏa mãn những điều kiện sau:
                Cùng khách sạnCùng thời gian nghỉ lạiCùng loại Phòng/GiườngCùng các yêu cầu mua Trước, yêu cầu trả trước và đặt cọc (nếu có)Cùng chính sách Hủy và Sửa Đổi
                    Phòng đó phải còn trống để được xác nhận ngay tại thời điểm các đại lý của Mytour.vn  kiểm tra phòng trống
                        Chính sách “Đảm Bảo Giá Tốt Nhất” không áp dụng cho các mức giá không công bố, như: chương trình khách hàng thân thiện.
                        Bất kỳ tổ chức nào với các mức giá dành cho nhóm cá nhân cụ thể và không nhằm mục đích áp dụng ra bên ngoài.
                        Thành viên có thể gửi khiếu nại theo địa chỉ : info@mytour.vn
                                Nêu mã đặt phòng Mytour.vn trong dòng tiêu đề thư
                                Gửi URL của website nơi Thành viên tìm thấy mức giá tốt hơn
                                Cung cấp ảnh chụp màn hình của website đối thủ cạnh tranh trong đó nêu rõ Phòng Trống, Loại Phòng, và các mức giá cho những ngày nghỉ lại theo yêu cầu của Thành viên.
                VUI LÒNG LƯU Ý: Thành viên không cần thực hiện đặt phòng trên website của đối thủ cạnh tranh, chỉ cần cho Mytour.vn thấy sự so sánh.
                ×
                Đăng Nhập
                                 Đăng nhập bằng tài khoản Facebook
                                 Đăng nhập bằng tài khoản Google
                            Hoặc đăng nhập bằng
                        Email*
                        Mật khẩu*
                        Quên mật khẩu?
                            Chưa có tài khoản/tạo tài khoản
                Đăng nhập
                         Nhớ đăng nhập
                ×
                Bản đồ
                                            Lâm Đồng
                    Tìm đường
                        Từ: 
                        Đến: 
                            Khách sạnĐịa danh Hiển thị các khách sạn ở gần Hiển thị các khu du lịch ở gần
                ×
                Yêu Cầu Lấy Giá
                                    Ngày nhận phòng
                                    Ngày trả phòng
                        Tên khách hàng
                        Email
                        Điện thoại
                        Nhân viên chăm sóc khách hàng sẽ gọi điện cho quý khách trong thời gian sớm nhất.
                        Quý khách có thể gọi điện đến cho Mytour để được tư vấn ngay:
                        Hà Nội: (04) 7109 9999, Hồ Chí Minh: (08) 7309 9899, Support
                            English: (+84)4-7309-9899.
                    Hoàn thành
                ×
                Gửi Thông Tin
                        Tên khách hàng
                        Email
                        Điện thoại
                            Quý khách sẽ thấy giá giảm ngay trên trang sau khi gửi thông tin
                    Hoàn thành
                ×
                Nhận Giá Tốt
                                    Ngày nhận phòng
                                    Ngày trả phòng
                        Tên khách hàng
                        Email
                        Điện thoại
                        Vì giá tốt không được công bố nên hệ thống sẽ gửi giá qua email đến quý khách và nhân viên chăm
                        sóc sẽ gọi điện cho quý khách trong thời gian sớm nhất.
                        Quý khách có thể gọi điện đến cho Mytour để được tư vấn ngay:
                        Hà Nội: (04) 7109 9999, Hồ Chí Minh: (08) 7309 9899, Support
                            English: (+84)4-7309-9899.
                    Hoàn thành
                ×
                ×
                ĐÁNH GIÁ 
                        Tên
                        Tiêu đề
                        Kiểu du lịch?
                                -- Chọn --Cá nhânCặp đôiGia đìnhBạn bèDoanh nghiệp
                        Nội dung
                                Đánh giá chi tiết
                                Chỗ ở
                                5
                                Thức ăn
                                5
                                Phương tiện
                                5
                                Hướng dẫn viên
                                5
                                Lịch trình
                                5
                    Gửi đánh giá
                    Hủy Bỏ
                ×
                Gửi lại email kích hoạt
                ×
                Thông tin chi tiết giá theo phòng
                    Chọn khoảng thời gian hiển thị giá phòng
                    Hiển thị giá
                ×
                Khóa phòng theo khoảng thời gian
                            Chọn khoảng thời gian check-in cần khóa/mở phòng
                            Khóa phòng
                            Mở phòng
                ×
                THUẾ VÀ PHÍ DỊCH VỤ
                17% thuế và phí dịch vụ bao gồm:
                    - 10% thuế và 5% phí dịch vụ hoàn trả lại cho khách sạn.
                    - 2% phí giao dịch tại Mytour.
                ×
                Bạn có hài lòng về website của Mytour?
                    Thông điệp nhắn nhủ:
                Mytour luôn mong muốn cải thiện dịch vụ để bạn có trải nghiệm tốt hơn!
                            Ảnh đính kèm
                        Đóng
                        Gửi
                ×
                    Những đóng góp của bạn đã được ghi nhận. Mytour cám ơn bạn !
                Quay lại website
            Khách sạn theo các tỉnh thành
                        An Giang
                        Bà Rịa - Vũng Tàu
                        Bắc Giang
                        Bắc Kạn
                        Bạc Liêu
                        Bắc Ninh
                        Bến Tre
                        Bình Định
                        Bình Dương
                        Bình Phước
                        Bình Thuận
                        Cà Mau
                        Cần Thơ
                        Cao Bằng
                        Đà Lạt
                        Đà Nẵng
                        Đắk Nông
                        Đắk Lắk
                        Điện Biên
                        Đồng Nai
                        Đồng Tháp
                        Gia Lai
                        Hà Giang
                        Hạ Long
                        Hà Nam
                        Hà Nội
                        Hà Tĩnh
                        Hải Dương
                        Hải Phòng
                        Hậu Giang
                        Hồ Chí Minh
                        Hoà Bình
                        Hội An
                        Hưng Yên
                        Khánh Hòa
                        Kiên Giang
                        Kon Tum
                        Lai Châu
                        Lâm Đồng
                        Lạng Sơn
                        Lào Cai
                        Long An
                        Nam Định
                        Nghệ An
                        Nha Trang
                        Ninh Bình
                        Ninh Thuận
                        Phan Thiết
                        Phú Quốc
                        Phú Thọ
                        Phú Yên
                        Quảng Bình
                        Quảng Nam
                        Quảng Ngãi
                        Quảng Ninh
                        Quảng Trị
                        Sa Pa
                        Sóc Trăng
                        Sơn La
                        Tây Ninh
                        Thái Bình
                        Thái Nguyên
                        Thanh Hoá
                        Thành Phố Huế
                        Thừa Thiên Huế
                        Tiền Giang
                        Trà Vinh
                        Tuyên Quang
                        Vĩnh Long
                        Vĩnh Phúc
                        Vũng Tàu
                        Yên Bái
                Du lịch Lâm Đồng
                                Du lịch Đà Lạt
                                Du lịch Bảo Lộc 
                                Du lịch Lạc Dương 
                                Du lịch Đức Trọng 
                                Du lịch Đơn Dương 
                                Du lịch Di Linh 
                                Du lịch Lâm Hà 
                                Du lịch Bảo Lâm
                                Du lịch Đạ Tẻh 
                                Du lịch Đạ Huoai 
                            Giới thiệu Mytour
                            Đối tác khách sạn
                            Đăng nhập HMS
                            Tích lũy Vpoint
                            Điều khoản sử dụng
                            Quy chế hoạt động
                            Tuyển dụng
                            Liên hệ
                            Đăng ký nhận email
                                Đăng ký email để nhận khuyến mãi lên đến 70%
                                    Đăng
                                    ký
                    Công ty TNHH Mytour Việt Nam
                    Số ĐKKD: 0105983269 cấp ngày 30/08/2012
                    Văn phòng Hà Nội: Tầng 4, tòa nhà GP Invest, 170 Đê La Thành, Đống Đa
                    Văn phòng HCM: Tầng 5, Tòa Nhà HDTC, Số 36 Bùi Thị Xuân, Q.1
                Hotline
                        Hà Nội:
                        (04) 7109 9999
                        Tp. HCM:
                        (08) 7309 9899
                        ENGLISH SUPPORT:
                        (+84)4 7309 9899
