url:https://travel.com.vn/
Tittle :Mạng bán tour trực tuyến số 1 tại Việt Nam | Du lịch Vietravel
content :Du lịchVietravel - Nhà tổ chức du lịch chuyên nghiệp. Website travel.com.vn tự hào là mạng bán tour du lịch trực tuyến đầu tiên tại Việt Nam.
              Tư vấn miễn phí từ 8h-18h: 1800 59 99 33    info@vietravel.com Thành viên  
                Hồ Chí MinhDu lịch trong nước:
                            Du lịch nước ngoài:
                            Dịch vụ khách hàng: 0938.301.399
                            0938.301.388
                            0938.301.234  
                              
                               Hà NộiDu lịch trong nước:
                            Du lịch nước ngoài:
                            Dịch vụ khách hàng: 0989.370.033
                            0983.160.022
                            0938.301.234  
                              
                               Đà NẵngDu lịch trong nước:
                            Du lịch nước ngoài:
                            Dịch vụ khách hàng: 0905.173.331
                            0932.472.310
                            0938.301.234  
                              
                               Cần ThơDu lịch trong nước:
                            Du lịch nước ngoài:
                            Dịch vụ khách hàng: 0939.05.95.96
                            0939.05.95.96
                            0938.301.234  
                              
                               Hải PhòngDu lịch trong nước:
                            Du lịch nước ngoài:
                            Dịch vụ khách hàng: 0936.900.095
                            0936.900.095
                            0938.301.234  
                              
                               Nha TrangDu lịch trong nước:
                            Du lịch nước ngoài:
                            Dịch vụ khách hàng: 0918.308.097
                            0988.608.286
                            0938.301.234  
                              
                               
                             Đăng ký
                             Đăng nhập
                     Tìm kiếm Tìm kiếm với Google
MENU
                Du lịch trong nước
                Du lịch nước ngoài
            Du lịch tự chọnKhách sạnVận chuyển
                Vé máy bayThuê xe
            Dịch vụ khách hàngKhuyến mại
                Khoảnh khắc thu 2016
            Liên hệ
--Nơi khởi hành-- Hồ Chí MinhHà NộiĐà NẵngCần ThơHải PhòngBình DươngNha TrangHuếQuy NhơnĐồng NaiLong XuyênQuảng NgãiVũng TàuQuảng NinhBuôn Ma ThuộtVinhCà MauRạch GiáĐà LạtÚc                
--Loại tour--Tour trong nướcTour nước ngoài                
--Nơi đến--An GiangBạc LiêuBan Mê ThuộtBảo LộcBắc KạnBắc NinhBến TreBình ĐịnhBình ThuậnCà MauCam RanhCao BằngCần ThơCôn ĐảoĐà LạtĐà NẵngĐiện BiênĐông BắcĐồng NaiĐồng ThápHà GiangHạ LongHà NộiHà TâyHà TiênHà TĩnhHải PhòngHồ Chí MinhHuếKiên GiangKon TumLạng SơnLào CaiLong AnNam ĐịnhNinh BìnhNinh ThuậnNghệ AnNha TrangPleikuPhan ThiếtPhú QuốcPhú ThọPhú YênQuảng BìnhQuảng NamQuảng NinhQuảng NgãiQuảng TrịQui NhơnSóc TrăngSơn LaTây BắcTây NinhTây NguyênTiền GiangThái BìnhThái NguyênThanh HóaTrà VinhVinhVĩnh LongVĩnh PhúcVũng TàuYên Bái                
--Giá--Dưới 1 Triệu  1- 2  Triệu  2-4 Triệu  4-6 Triệu  6-10 TriệuTrên 10 Triệu                
--Giảm giá--CóKhông                
Còn chỗHết chỗ--Tất cả--                
                Tìm kiếm
                    Quý khách vui lòng nhập số booking vào ô trống bên dưới và nhấn nút "Tra cứu"
             Tìm tour
             Tra cứu booking
--Nơi khởi hành-- Hồ Chí MinhHà NộiĐà NẵngCần ThơHải PhòngBình DươngNha TrangHuếQuy NhơnĐồng NaiLong XuyênQuảng NgãiVũng TàuQuảng NinhBuôn Ma ThuộtVinhCà MauRạch GiáĐà LạtÚc                    
--Loại tour--Tour trong nướcTour nước ngoài                    
--Nơi đến--An GiangBạc LiêuBan Mê ThuộtBảo LộcBắc KạnBắc NinhBến TreBình ĐịnhBình ThuậnCà MauCam RanhCao BằngCần ThơCôn ĐảoĐà LạtĐà NẵngĐiện BiênĐông BắcĐồng NaiĐồng ThápHà GiangHạ LongHà NộiHà TâyHà TiênHà TĩnhHải PhòngHồ Chí MinhHuếKiên GiangKon TumLạng SơnLào CaiLong AnNam ĐịnhNinh BìnhNinh ThuậnNghệ AnNha TrangPleikuPhan ThiếtPhú QuốcPhú ThọPhú YênQuảng BìnhQuảng NamQuảng NinhQuảng NgãiQuảng TrịQui NhơnSóc TrăngSơn LaTây BắcTây NinhTây NguyênTiền GiangThái BìnhThái NguyênThanh HóaTrà VinhVinhVĩnh LongVĩnh PhúcVũng TàuYên Bái                    
--Giá--Dưới 1 Triệu  1- 2  Triệu  2-4 Triệu  4-6 Triệu  6-10 TriệuTrên 10 Triệu                    
--Giảm giá--CóKhông                    
Còn chỗHết chỗ--Tất cả--                    
                    Tìm kiếm
                        Quý khách vui lòng nhập số booking vào ô trống bên dưới và nhấn nút "Tra cứu"
             
            Tour giảm giá sốc
             
            Tri ân khách hàng
             
            Tour Giáng Sinh
             
            Hội khai Xuân
             
            Tour Vinpearl-Villas
             
            Tour charter 2017
            tours
            lượt khách / năm
            văn phòng
            đối tác
        Du lịch giờ chót
                                    Malaysia - Singapore (Siêu Tiết Kiệm)
                                  6 ngày
                                  22/11/2016
12.490.000₫
                                11.490.000₫
        Tour giảm giá sốc
        Tour không hoàn, không hủy, không chuyển đổi hành trình
                    Giảm 300.000₫
                Hà Nội - Yên Tử - Hạ Long - Hang Sửng Số ...
                  4 ngày
                    6.690.000₫
                  01/12/2016
                6.390.000₫
                Xem chi tiết
                    Giảm 300.000₫
                Hà Nội - Bái Đính - Tràng An - Hạ Long - ...
                  4 ngày
                    6.590.000₫
                  03/12/2016
                6.290.000₫
                Xem chi tiết
                    Giảm 400.000₫
                Hà Nội - Du Thuyền Hạ Long Cao Cấp Pelic ...
                  4 ngày
                    8.590.000₫
                  26/11/2016
                8.190.000₫
                Xem chi tiết
                    Giảm 400.000₫
                Hà Nội - Vinpearl Hạ Long Resort 5* - Bá ...
                  4 ngày
                    8.390.000₫
                  03/12/2016
                7.990.000₫
                Xem chi tiết
                    Giảm 400.000₫
                Hà Nội - Lào Cai - Sapa - Chợ Phiên Bắc  ...
                  5 ngày
                    7.790.000₫
                  02/12/2016
                7.390.000₫
                Xem chi tiết
                    Giảm 300.000₫
                Siem Riep-Phnom Penh - Khách sạn 4*
                  4 ngày
                    4.490.000₫
                  24/01/2017
                4.190.000₫
                Xem chi tiết
                    Giảm 300.000₫
                Siem Riep-Phnom Penh - Khách sạn 3* ( Si ...
                  4 ngày
                    4.090.000₫
                  24/01/2017
                3.790.000₫
                Xem chi tiết
                    Giảm 300.000₫
                Siem Riep-Phnom Penh - Khách sạn 4* tại  ...
                  4 ngày
                    5.790.000₫
                  29/01/2017
                5.490.000₫
                Xem chi tiết
                    Giảm 300.000₫
                Sihanouk Ville-Bokor-Phnom Penh - Khách  ...
                  4 ngày
                    5.590.000₫
                  26/01/2017
                5.290.000₫
                Xem chi tiết
                    Giảm 300.000₫
                Phnom Penh-Bokor-Sihanouk Ville -Khách s ...
                  4 ngày
                    5.590.000₫
                  01/02/2017
                5.290.000₫
                Xem chi tiết
        Tour giá tốt
                    Giảm 1.600.000₫
                Huế - La Vang - Động Phong Nha - Bà Nà - ...
                  5 ngày
                    10.590.000₫
                  28/01/2017
                8.990.000₫
                Xem chi tiết
                    Giảm 1.000.000₫
                Đà Nẵng - Bà Nà - Sơn Trà - Hội An - Lăn ...
                  3 ngày
                    4.590.000₫
                  30/11/2016
                3.590.000₫
                Xem chi tiết
                    Giảm 800.000₫
                Ninh Chữ - KDL Cổ Thạch - Viếng Dinh Thầ ...
                  3 ngày
                    2.590.000₫
                  06/01/2017
                1.790.000₫
                Xem chi tiết
                    Giảm 800.000₫
                Ban Mê Thuột - Thác Daynur - Cưỡi Voi Bả ...
                  4 ngày
                    3.590.000₫
                  05/01/2017
                2.790.000₫
                Xem chi tiết
                    Giảm 1.000.000₫
                Phú Quốc  - Resort 4 sao quốc tế - Bãi S ...
                  3 ngày
                    8.290.000₫
                  26/01/2017
                7.290.000₫
                Xem chi tiết
                Hà Nội - Yên Tử - Hạ Long - Hang Sửng Số ...
                  4 ngày
                  01/12/2016
                6.690.000₫
                Xem chi tiết
                Hà Nội - Bái Đính - Tràng An - Hạ Long - ...
                  4 ngày
                  26/11/2016
                6.590.000₫
                Xem chi tiết
                Hà Nội - Du Thuyền Hạ Long Cao Cấp Pelic ...
                  4 ngày
                  26/11/2016
                8.590.000₫
                Xem chi tiết
                Hà Nội: Miền Giáo Đường- Côn Sơn Kiếp Bạ ...
                  5 ngày
                  21/12/2016
                7.790.000₫
                Xem chi tiết
                Hà Nội - Vinpearl Hạ Long Resort 5* - Bá ...
                  4 ngày
                  03/12/2016
                7.990.000₫
                Xem chi tiết
                    Giảm 1.200.000₫
                Bangkok-Pattaya - Khách sạn 3* Tặng vé x ...
                  5 ngày
                    13.190.000₫
                  28/01/2017
                11.990.000₫
                Xem chi tiết
                    Giảm 1.200.000₫
                Bangkok-Pattaya - Khách sạn 3* Tặng vé x ...
                  6 ngày
                    14.990.000₫
                  28/01/2017
                13.790.000₫
                Xem chi tiết
                    Giảm 2.000.000₫
                Penang - Cao nguyên Cameron - Kuala Lump ...
                  4 ngày
                    14.990.000₫
                  29/01/2017
                12.990.000₫
                Xem chi tiết
                    Giảm 1.000.000₫
                Singapore (Một ngày tự do)Tham quan vườn ...
                  4 ngày
                    15.490.000₫
                  28/01/2017
                14.490.000₫
                Xem chi tiết
                    Giảm 1.000.000₫
                Singapore (Tham quan đầy đủ) - Mùng 01 T ...
                  4 ngày
                    15.990.000₫
                  28/01/2017
                14.990.000₫
                Xem chi tiết
                    Giảm 1.500.000₫
                Singapore - Malaysia - Mùng 01 Tết - "Áp ...
                  6 ngày
                    21.990.000₫
                  28/01/2017
                20.490.000₫
                Xem chi tiết
                    Giảm 1.500.000₫
                Singapore - Malaysia- Mùng 01 Tết - "Áp  ...
                  6 ngày
                    18.990.000₫
                  28/01/2017
                17.490.000₫
                Xem chi tiết
                    Giảm 1.500.000₫
                Malaysia - Singapore - Mùng 01 Tết - "Áp ...
                  6 ngày
                    18.990.000₫
                  28/01/2017
                17.490.000₫
                Xem chi tiết
                    Giảm 1.500.000₫
                Yangon - Kyaikhtiyo - Golden Rock - Bago ...
                  4 ngày
                    15.990.000₫
                  28/01/2017
                14.490.000₫
                Xem chi tiết
                    Giảm 2.000.000₫
                Bali - Jakarta (khách sạn 4*) - Mùng 03  ...
                  5 ngày
                    25.990.000₫
                  30/01/2017
                23.990.000₫
                Xem chi tiết
        Xem thêm 42 tours 
        Điểm đến yêu thích
                    Đà Nẵng
                    46 tours
                        Xem chi tiết
                    Trung Quốc
                    22 tours
                        Xem chi tiết
                    Singapore
                    23 tours
                        Xem chi tiết
                    Hàn Quốc
                    31 tours
                        Xem chi tiết
                    Pháp
                    13 tours
                        Xem chi tiết
        Vì sao chọn travel.com.vn
                    MẠNG BÁN TOUR SỐ 1 VIỆT NAM
                    Ứng dụng công nghệ mới nhất
                    THANH TOÁN AN TOÀN VÀ LINH HOẠT
                    Liên kết với các tổ chức tài chính
                    LUÔN CÓ MỨC GIÁ TỐT NHẤT
                    Bảo đảm giá tốt
                    SẢN PHẨM ĐA DẠNG, CHẤT LƯỢNG
                    Đạt chất lượng tốt nhất
                    ĐẶT TOUR DỄ DÀNG VÀ NHANH CHÓNG
                    Đặt tour chỉ với 3 bước
                    HỖ TRỢ 24/7
                    Hotline và hỗ trợ trực tuyến
                        10/08/2016 1:03:23 CH
                            Thư cám ơn của Khách Bế Nhật Dục trong tour du lịch Châu Âu tháng 7-2016
                        12/04/2016 2:22:35 CH
                            Thư cám ơn của khách hàng Huỳnh Hải Minh tour du thuyền  Mariner of the sea ngày 3/4/2016
                        12/04/2016 9:15:27 SA
                            Thư cám ơn của khách hàng Trần Quang Chiến đại diện công ty DEHEUS Tour Thái Lan ngày 5/4/2016 
        Đăng ký Email để nhận thông tin khuyến mãi mới nhất
                Du lịch trong nướcDu lịch Hà NộiDu lịch Tây NguyênDu lịch Thái NguyênDu lịch Đà NẵngDu lịch Phú QuốcDu lịch Hạ LongDu lịch HuếDu lịch Nha TrangDu lịch Lào CaiDu lịch Quảng NamDu lịch Đà LạtDu lịch Hải PhòngDu lịch Bắc NinhDu lịch Phú ThọDu lịch Ninh BìnhDu lịch Hà TâyDu lịch Lạng SơnDu lịch Quảng TrịDu lịch Quảng BìnhDu lịch Bảo LộcDu lịch Ban Mê ThuộtDu lịch Kon TumDu lịch PleikuDu lịch Phan ThiếtDu lịch Đồng NaiDu lịch Vũng TàuDu lịch Tiền GiangDu lịch Hà TiênDu lịch Cần ThơDu lịch Vĩnh LongDu lịch Sóc TrăngDu lịch Bình ĐịnhDu lịch An GiangDu lịch Hà TĩnhDu lịch Yên Bái
                Du lịch nước ngoàiDu lịch MaltaDu lịch CroatiaDu lịch BosniaDu lịch SerbiaDu lịch CampuchiaDu lịch PanamaDu lịch MexicoDu lịch OmanDu lịch BhutanDu lịch HawaiiDu lịch SloveniaDu lịch Madagascar Du lịch Nhật BảnDu lịch Hoa KỳDu lịch Thái LanDu lịch Hàn QuốcDu lịch PhápDu lịch SingaporeDu lịch Hồng Kông & MacauDu lịch ÚcDu lịch Trung QuốcDu lịch MalaysiaDu lịch Ai CậpDu lịch Nam PhiDu lịch Triều TiênDu lịch Ấn ĐộDu lịch Trung ĐôngDu lịch BruneiDu lịch NgaDu lịch UzbekistanDu lịch Đài LoanDu lịch IndonesiaDu lịch ISRAELDu lịch LàoDu lịch Canada
                         Tìm kiếm Google
        Trang chủTin tứcVideoTạp chí du lịchCẩm nang du lịchKinh nghiệm du lịchSitemapKhuyến mạiLiên hệ
            Bản quyền của Vietravel ® 2016. Bảo lưu mọi quyền. Ghi rõ nguồn "www.travel.com.vn" ® khi sử dụng lại thông tin từ website này
            Trụ sở chính: 190 Pasteur, Phường 6, Quận 3, Tp. Hồ Chí Minh. Điện thoại: (84-8) 3822 8898. Fax: (84-8) 3829 9142. Email : info@vietravel.com  
            Số GPKD: 0300465937 do Sở Kế Hoạch và Đầu Tư Thành Phố Hồ Chí Minh cấp ngày 27/09/2010 
            Giấy phép số: 239/GP-TTĐT do Cục Quản Lý Phát Thanh, Truyền Hình và Thông Tin Điện Tử cấp ngày 31/12/2008
            Vietravel toolbar | Chính sách riêng tư | Thỏa thuận sử dụng
        VietravelThuê xeVé máy bayKhách sạnXuất khẩu lao động
        Du lịchIncomming tourFree & easyTrường dạy nghề
