url:https://travel.com.vn/tin-tuc-du-lich-p3.aspx
Tittle :Tin tức du lịch
content :  Tư vấn miễn phí từ 8h-18h: 1800 59 99 33    info@vietravel.com Thành viên  
                Hồ Chí MinhDu lịch trong nước:
                            Du lịch nước ngoài:
                            Dịch vụ khách hàng: 0938.301.399
                            0938.301.388
                            0938.301.234  
                              
                               Hà NộiDu lịch trong nước:
                            Du lịch nước ngoài:
                            Dịch vụ khách hàng: 0989.370.033
                            0983.160.022
                            0938.301.234  
                              
                               Đà NẵngDu lịch trong nước:
                            Du lịch nước ngoài:
                            Dịch vụ khách hàng: 0905.173.331
                            0932.472.310
                            0938.301.234  
                              
                               Cần ThơDu lịch trong nước:
                            Du lịch nước ngoài:
                            Dịch vụ khách hàng: 0939.05.95.96
                            0939.05.95.96
                            0938.301.234  
                              
                               Hải PhòngDu lịch trong nước:
                            Du lịch nước ngoài:
                            Dịch vụ khách hàng: 0936.900.095
                            0936.900.095
                            0938.301.234  
                              
                               Nha TrangDu lịch trong nước:
                            Du lịch nước ngoài:
                            Dịch vụ khách hàng: 0918.308.097
                            0988.608.286
                            0938.301.234  
                              
                               
                             Đăng ký
                             Đăng nhập
                     Tìm kiếm Tìm kiếm với Google
MENU
                Du lịch trong nước
                Du lịch nước ngoài
            Du lịch tự chọnKhách sạnVận chuyển
                Vé máy bayThuê xe
            Dịch vụ khách hàngKhuyến mại
                Khoảnh khắc thu 2016
            Liên hệ
--Nơi khởi hành-- Hồ Chí MinhHà NộiĐà NẵngCần ThơHải PhòngBình DươngNha TrangHuếQuy NhơnĐồng NaiLong XuyênQuảng NgãiVũng TàuQuảng NinhBuôn Ma ThuộtVinhCà MauRạch GiáĐà LạtÚc                
--Loại tour--Tour trong nướcTour nước ngoài                
--Nơi đến--An GiangBạc LiêuBan Mê ThuộtBảo LộcBắc KạnBắc NinhBến TreBình ĐịnhBình ThuậnCà MauCam RanhCao BằngCần ThơCôn ĐảoĐà LạtĐà NẵngĐiện BiênĐông BắcĐồng NaiĐồng ThápHà GiangHạ LongHà NộiHà TâyHà TiênHà TĩnhHải PhòngHồ Chí MinhHuếKiên GiangKon TumLạng SơnLào CaiLong AnNam ĐịnhNinh BìnhNinh ThuậnNghệ AnNha TrangPleikuPhan ThiếtPhú QuốcPhú ThọPhú YênQuảng BìnhQuảng NamQuảng NinhQuảng NgãiQuảng TrịQui NhơnSóc TrăngSơn LaTây BắcTây NinhTây NguyênTiền GiangThái BìnhThái NguyênThanh HóaTrà VinhVinhVĩnh LongVĩnh PhúcVũng TàuYên Bái                
--Giá--Dưới 1 Triệu  1- 2  Triệu  2-4 Triệu  4-6 Triệu  6-10 TriệuTrên 10 Triệu                
--Giảm giá--CóKhông                
Còn chỗHết chỗ--Tất cả--                
                Tìm kiếm
                    Quý khách vui lòng nhập số booking vào ô trống bên dưới và nhấn nút "Tra cứu"
             Tìm tour
             Tra cứu booking
--Nơi khởi hành-- Hồ Chí MinhHà NộiĐà NẵngCần ThơHải PhòngBình DươngNha TrangHuếQuy NhơnĐồng NaiLong XuyênQuảng NgãiVũng TàuQuảng NinhBuôn Ma ThuộtVinhCà MauRạch GiáĐà LạtÚc                    
--Loại tour--Tour trong nướcTour nước ngoài                    
--Nơi đến--An GiangBạc LiêuBan Mê ThuộtBảo LộcBắc KạnBắc NinhBến TreBình ĐịnhBình ThuậnCà MauCam RanhCao BằngCần ThơCôn ĐảoĐà LạtĐà NẵngĐiện BiênĐông BắcĐồng NaiĐồng ThápHà GiangHạ LongHà NộiHà TâyHà TiênHà TĩnhHải PhòngHồ Chí MinhHuếKiên GiangKon TumLạng SơnLào CaiLong AnNam ĐịnhNinh BìnhNinh ThuậnNghệ AnNha TrangPleikuPhan ThiếtPhú QuốcPhú ThọPhú YênQuảng BìnhQuảng NamQuảng NinhQuảng NgãiQuảng TrịQui NhơnSóc TrăngSơn LaTây BắcTây NinhTây NguyênTiền GiangThái BìnhThái NguyênThanh HóaTrà VinhVinhVĩnh LongVĩnh PhúcVũng TàuYên Bái                    
--Giá--Dưới 1 Triệu  1- 2  Triệu  2-4 Triệu  4-6 Triệu  6-10 TriệuTrên 10 Triệu                    
--Giảm giá--CóKhông                    
Còn chỗHết chỗ--Tất cả--                    
                    Tìm kiếm
                        Quý khách vui lòng nhập số booking vào ô trống bên dưới và nhấn nút "Tra cứu"
             
            Tour giảm giá sốc
             
            Tri ân khách hàng
             
            Tour Giáng Sinh
             
            Hội khai Xuân
             
            Tour Vinpearl-Villas
             
            Tour charter 2017
            Du lịch » Tin tức du lịch
            Tin Tức Du Lịch
        Tweet
                        Đẹp ngỡ ngàng mùa hoa tam giác mạch
                        03/10/2016
                        Mùa vàng trên nương cao vừa qua, núi rừng Đông Bắc đã thay màu áo mới bằng những loài hoa đẹp đến ngỡ ngàng. Màu hồng phớt dịu dàng của tam giác mạch bao phủ khắp không gian khiến cho bất cứ ai cũng nao lòng chẳng muốn dời chân.
                        Vietravel lần thứ 5 nhận giải thưởng TTG Travel Awards
                        30/09/2016
                        Tối ngày 29/9/2016, tại khách sạn Centara Grand (Bangkok, Thái Lan), Công ty Du lịch Vietravel lần thứ 5 nhận giải thưởng TTG Travel Awards. Vietravel là thương hiệu lữ hành duy nhất của Việt Nam được vinh danh.
                        Đón Giáng Sinh Đông Nam Á trên du thuyền 5 sao
                        29/09/2016
                        Đón Giáng sinh đẳng cấp trên du thuyền 5 sao đang là xu hướng du lịch “hot” nhất hiện nay. Bạn sẽ có một kỳ nghỉ ấn tượng trên chuyến hải trình 5 sao Mariner of the Seas khám phá 3 quốc gia Singapore - Malaysia - Thái Lan, để hòa mình vào không khí tràn ngập sắc màu Giáng sinh trong mọi hoạt động trên du thuyền và tại một số trung tâm thương mại, giải trí sầm uất trên đất liền.
                        Thuê bao chuyến bay, đến ngay Fukushima “giá sốc”
                        29/09/2016
                        Mùa thu này, Vietravel giới thiệu chương trình ưu đãi cực sốc - thuê bao nguyên chuyến (charter flight) của Vietnam Airlines với cung đường “Fukushima - Mito - Tokyo - Núi phú sĩ  - Nikko - Fukushima” (5 ngày), giá rút đáy thị trường, chỉ còn 29,99 triệu đồng. Hãy một lần đến Fukushima của Nhật Bản, bạn sẽ không khỏi xuýt xoa trước vẻ đẹp diễm lệ của thiên nhiên, nét thâm trầm của các đền đài cổ kính và lễ hội văn hóa đặc sắc... dưới đây.
                        “Săn ảnh” mùa vàng - đi ngay kẻo lỡ
                        27/09/2016
                        Theo kinh nghiệm của dân phượt, từ cuối tháng 9 đến giữa tháng 10 toàn vùng Đông Tây Bắc bước vào chính thu, thời tiết mát mẻ, dễ chịu. Đây cũng là thời điểm săn ảnh lý tưởng nhất vì độ ẩm thấp, trời trong, nắng nhẹ nên bức ảnh có chiều sâu và sắc nét hơn. Hãy tham khảo những điểm đến “hot” nhất mùa thu này và chuẩn bị hành trang đi ngay kẻo lỡ.
                        Khám phá mùa đông thú vị tại xứ Hàn
                        27/09/2016
                        Hướng đến chào mừng sự kiện Thế vận hội mùa đông 2018 tại Pyeongchang, Vietravel đồng hành cùng Tổng cục Du lịch Hàn Quốc xây dựng và phát triển bộ sản phẩm du lịch mùa đông (2016 – 2017) đặc sắc với các dịch vụ được chắc lọc, chất lượng cao, hứa hẹn sẽ mang đến du khách Việt những trải nghiệm mới lạ với các môn thể thao trên tuyết vô cùng thú vị.
                        Mùa thu phương Bắc, có thật là “thiên đường”?
                        22/09/2016
                        Đừng nghe lời “mật ngọt” của dân du lịch khi ca ngợi nơi ấy là một trong những điểm đến phải đi ít nhất một lần trong đời. Điều sáng suốt bạn cần làm là tìm hiểu những lời cảnh báo dưới đây rồi quyết định có nên mất thời gian và ngân sách cho chuyến đi mộng mơ này hay không.
                        Vietravel hân hạnh cung cấp dịch vụ vận chuyển cho Đại hội Thể thao Bãi biển Châu Á lần V - Năm 2016
                        20/09/2016
                        Từ 24/9 - 3/10, Đại hội Thể thao Bãi biển châu Á lần V - năm 2016 (Asia Beach Games - ABG 5) sẽ diễn ra tại thành phố Đà Nẵng. Sự kiện thể thao tầm cỡ châu lục này không chỉ là dịp phát triển các môn thể thao bãi biển mà còn là cơ hội vàng để quảng bá hình ảnh du lịch Đà Nẵng. Vietravel là công ty du lịch duy nhất đảm nhận dịch vụ vận chuyển của Đại hội.
                        Ưu đãi đặc biệt cho khách mua tour trên chuyến bay ANA
                        14/09/2016
                        Tour khởi hành từ Hà Nội, tháng 10 – 11 – 12/2016
                        Iran bước ra từ cổ tích “Nghìn lẻ một đêm”
                        13/09/2016
                        Iran nằm ở khu vực Tây Á là xứ sở “nghìn lẻ một đêm”, một điểm chặng quan trọng trên con đường tơ lụa huyền thoại nối liền châu Á với châu Âu sở hữu nhiều di sản vô giá, vô số kho báu khảo cổ, và các công trình kiến trúc trên cả tuyệt vời… Thế nhưng, hãy khám phá Tehran, Shiraz, Isfahan - những thành phố mang đậm dấu ấn di tích, bạn sẽ cảm nhận sự độc đáo giữa nét cổ xưa pha lẫn nét trẻ trung, hiện đại.
        12345678910>>
                Du lịch trong nướcDu lịch Hà NộiDu lịch Tây NguyênDu lịch Thái NguyênDu lịch Đà NẵngDu lịch Phú QuốcDu lịch Hạ LongDu lịch HuếDu lịch Nha TrangDu lịch Lào CaiDu lịch Quảng NamDu lịch Đà LạtDu lịch Hải PhòngDu lịch Bắc NinhDu lịch Phú ThọDu lịch Ninh BìnhDu lịch Hà TâyDu lịch Lạng SơnDu lịch Quảng TrịDu lịch Quảng BìnhDu lịch Bảo LộcDu lịch Ban Mê ThuộtDu lịch Kon TumDu lịch PleikuDu lịch Phan ThiếtDu lịch Đồng NaiDu lịch Vũng TàuDu lịch Tiền GiangDu lịch Hà TiênDu lịch Cần ThơDu lịch Vĩnh LongDu lịch Sóc TrăngDu lịch Bình ĐịnhDu lịch An GiangDu lịch Hà TĩnhDu lịch Yên Bái
                Du lịch nước ngoàiDu lịch MaltaDu lịch CroatiaDu lịch BosniaDu lịch SerbiaDu lịch CampuchiaDu lịch PanamaDu lịch MexicoDu lịch OmanDu lịch BhutanDu lịch HawaiiDu lịch SloveniaDu lịch Madagascar Du lịch Nhật BảnDu lịch Hoa KỳDu lịch Thái LanDu lịch Hàn QuốcDu lịch PhápDu lịch SingaporeDu lịch Hồng Kông & MacauDu lịch ÚcDu lịch Trung QuốcDu lịch MalaysiaDu lịch Ai CậpDu lịch Nam PhiDu lịch Triều TiênDu lịch Ấn ĐộDu lịch Trung ĐôngDu lịch BruneiDu lịch NgaDu lịch UzbekistanDu lịch Đài LoanDu lịch IndonesiaDu lịch ISRAELDu lịch LàoDu lịch Canada
                         Tìm kiếm Google
        Trang chủTin tứcVideoTạp chí du lịchCẩm nang du lịchKinh nghiệm du lịchSitemapKhuyến mạiLiên hệ
            Bản quyền của Vietravel ® 2016. Bảo lưu mọi quyền. Ghi rõ nguồn "www.travel.com.vn" ® khi sử dụng lại thông tin từ website này
            Trụ sở chính: 190 Pasteur, Phường 6, Quận 3, Tp. Hồ Chí Minh. Điện thoại: (84-8) 3822 8898. Fax: (84-8) 3829 9142. Email : info@vietravel.com  
            Số GPKD: 0300465937 do Sở Kế Hoạch và Đầu Tư Thành Phố Hồ Chí Minh cấp ngày 27/09/2010 
            Giấy phép số: 239/GP-TTĐT do Cục Quản Lý Phát Thanh, Truyền Hình và Thông Tin Điện Tử cấp ngày 31/12/2008
            Vietravel toolbar | Chính sách riêng tư | Thỏa thuận sử dụng
        VietravelThuê xeVé máy bayKhách sạnXuất khẩu lao động
        Du lịchIncomming tourFree & easyTrường dạy nghề
         Tour đã xem
                    Sihanouk Ville-Bokor-Phnom Penh - K ...
                    Singapore - Malaysia - Mùng 01 Tết  ...
                    Malaysia - Singapore - Mùng 01 Tết  ...
                    Siem Riep-Phnom Penh - Khách sạn 4* ...
                    Hà Nội - Vinpearl Hạ Long Resort 5* ...
                    Hà Nội: Miền Giáo Đường- Côn Sơn Ki ...
                    Ban Mê Thuột - Thác Daynur - Cưỡi V ...
                    Hà Nội - Bái Đính - Tràng An - Hạ L ...
                    Hà Nội - Vinpearl Hạ Long Resort 5* ...
                    Hà Nội - Lào Cai - Sapa - Chợ Phiên ...
                    Hà Nội - Yên Tử - Hạ Long - Hang Sử ...
                    Siem Riep-Phnom Penh - Khách sạn 4*
                    Bangkok-Pattaya - Khách sạn 3* Tặng ...
                    Singapore (Một ngày tự do)Tham quan ...
                    Huế - La Vang - Động Phong Nha - Bà ...
                    Malaysia - Singapore (Siêu Tiết Kiệ ...
                    Phnom Penh-Bokor-Sihanouk Ville -Kh ...
                    Bangkok-Pattaya - Khách sạn 3* Tặng ...
                    Siem Riep-Phnom Penh - Khách sạn 3* ...
                    Phú Quốc  - Resort 4 sao quốc tế -  ...
                    Hà Nội - Du Thuyền Hạ Long Cao Cấp  ...
                    Ninh Chữ - KDL Cổ Thạch - Viếng Din ...
                    Singapore - Malaysia- Mùng 01 Tết - ...
                    Bali - Jakarta (khách sạn 4*) - Mùn ...
                    Yangon - Kyaikhtiyo - Golden Rock - ...
                    Singapore (Tham quan đầy đủ) - Mùng ...
                    Penang - Cao nguyên Cameron - Kuala ...
                    Hà Nội - Bái Đính - Tràng An - Hạ L ...
                    Đà Nẵng - Bà Nà - Sơn Trà - Hội An  ...
