url:https://travel.com.vn/tin-tuc-du-lich.aspx
Tittle :Tin tức du lịch
content :  Tư vấn miễn phí từ 8h-18h: 1800 59 99 33    info@vietravel.com Thành viên  
                Hồ Chí MinhDu lịch trong nước:
                            Du lịch nước ngoài:
                            Dịch vụ khách hàng: 0938.301.399
                            0938.301.388
                            0938.301.234  
                              
                               Hà NộiDu lịch trong nước:
                            Du lịch nước ngoài:
                            Dịch vụ khách hàng: 0989.370.033
                            0983.160.022
                            0938.301.234  
                              
                               Đà NẵngDu lịch trong nước:
                            Du lịch nước ngoài:
                            Dịch vụ khách hàng: 0905.173.331
                            0932.472.310
                            0938.301.234  
                              
                               Cần ThơDu lịch trong nước:
                            Du lịch nước ngoài:
                            Dịch vụ khách hàng: 0939.05.95.96
                            0939.05.95.96
                            0938.301.234  
                              
                               Hải PhòngDu lịch trong nước:
                            Du lịch nước ngoài:
                            Dịch vụ khách hàng: 0936.900.095
                            0936.900.095
                            0938.301.234  
                              
                               Nha TrangDu lịch trong nước:
                            Du lịch nước ngoài:
                            Dịch vụ khách hàng: 0918.308.097
                            0988.608.286
                            0938.301.234  
                              
                               
                             Đăng ký
                             Đăng nhập
                     Tìm kiếm Tìm kiếm với Google
MENU
                Du lịch trong nước
                Du lịch nước ngoài
            Du lịch tự chọnKhách sạnVận chuyển
                Vé máy bayThuê xe
            Dịch vụ khách hàngKhuyến mại
                Khoảnh khắc thu 2016
            Liên hệ
--Nơi khởi hành-- Hồ Chí MinhHà NộiĐà NẵngCần ThơHải PhòngBình DươngNha TrangHuếQuy NhơnĐồng NaiLong XuyênQuảng NgãiVũng TàuQuảng NinhBuôn Ma ThuộtVinhCà MauRạch GiáĐà LạtÚc                
--Loại tour--Tour trong nướcTour nước ngoài                
--Nơi đến--An GiangBạc LiêuBan Mê ThuộtBảo LộcBắc KạnBắc NinhBến TreBình ĐịnhBình ThuậnCà MauCam RanhCao BằngCần ThơCôn ĐảoĐà LạtĐà NẵngĐiện BiênĐông BắcĐồng NaiĐồng ThápHà GiangHạ LongHà NộiHà TâyHà TiênHà TĩnhHải PhòngHồ Chí MinhHuếKiên GiangKon TumLạng SơnLào CaiLong AnNam ĐịnhNinh BìnhNinh ThuậnNghệ AnNha TrangPleikuPhan ThiếtPhú QuốcPhú ThọPhú YênQuảng BìnhQuảng NamQuảng NinhQuảng NgãiQuảng TrịQui NhơnSóc TrăngSơn LaTây BắcTây NinhTây NguyênTiền GiangThái BìnhThái NguyênThanh HóaTrà VinhVinhVĩnh LongVĩnh PhúcVũng TàuYên Bái                
--Giá--Dưới 1 Triệu  1- 2  Triệu  2-4 Triệu  4-6 Triệu  6-10 TriệuTrên 10 Triệu                
--Giảm giá--CóKhông                
Còn chỗHết chỗ--Tất cả--                
                Tìm kiếm
                    Quý khách vui lòng nhập số booking vào ô trống bên dưới và nhấn nút "Tra cứu"
             Tìm tour
             Tra cứu booking
--Nơi khởi hành-- Hồ Chí MinhHà NộiĐà NẵngCần ThơHải PhòngBình DươngNha TrangHuếQuy NhơnĐồng NaiLong XuyênQuảng NgãiVũng TàuQuảng NinhBuôn Ma ThuộtVinhCà MauRạch GiáĐà LạtÚc                    
--Loại tour--Tour trong nướcTour nước ngoài                    
--Nơi đến--An GiangBạc LiêuBan Mê ThuộtBảo LộcBắc KạnBắc NinhBến TreBình ĐịnhBình ThuậnCà MauCam RanhCao BằngCần ThơCôn ĐảoĐà LạtĐà NẵngĐiện BiênĐông BắcĐồng NaiĐồng ThápHà GiangHạ LongHà NộiHà TâyHà TiênHà TĩnhHải PhòngHồ Chí MinhHuếKiên GiangKon TumLạng SơnLào CaiLong AnNam ĐịnhNinh BìnhNinh ThuậnNghệ AnNha TrangPleikuPhan ThiếtPhú QuốcPhú ThọPhú YênQuảng BìnhQuảng NamQuảng NinhQuảng NgãiQuảng TrịQui NhơnSóc TrăngSơn LaTây BắcTây NinhTây NguyênTiền GiangThái BìnhThái NguyênThanh HóaTrà VinhVinhVĩnh LongVĩnh PhúcVũng TàuYên Bái                    
--Giá--Dưới 1 Triệu  1- 2  Triệu  2-4 Triệu  4-6 Triệu  6-10 TriệuTrên 10 Triệu                    
--Giảm giá--CóKhông                    
Còn chỗHết chỗ--Tất cả--                    
                    Tìm kiếm
                        Quý khách vui lòng nhập số booking vào ô trống bên dưới và nhấn nút "Tra cứu"
             
            Tour giảm giá sốc
             
            Tri ân khách hàng
             
            Tour Giáng Sinh
             
            Hội khai Xuân
             
            Tour Vinpearl-Villas
             
            Tour charter 2017
            Du lịch » Tin tức du lịch
            Tin Tức Du Lịch
        Tweet
                        Khuyến mại Xuân 2017 “Du xuân khơi vận may - Cả năm đầy hạnh phúc”
                        19/11/2016
                        Tết là mùa của sum vầy, hạnh phúc và là khoảng thời gian mọi người thảnh thơi lên kế hoạch cho những chuyến du xuân đầy ý nghĩa. Đã trở thành thông lệ chào đón năm mới, Vietravel tung ra chương trình khuyến mại Xuân 2017 độc đáo và mới lạ tạo dấu ấn đặc biệt trên thị trường du lịch Việt Nam. Với thông điệp “Du xuân khơi vận may – Cả năm đầy hạnh phúc” chương trình khuyến mại diễn ra từ ngày 21/11/2016 đến 18/02/2017 mang ý nghĩa mỗi chuyến đi cùng Vietravel sẽ một hành trình hạnh phúc, tài lộc dồi dào và nhiều niềm vui đến với mọi nhà.
                        Mua tour giá “sốc” tại  Ngày Hội Khai Xuân 2017
                        16/11/2016
                        Nhân dịp kỷ niệm 21 năm thành lập (20/12/1995 - 20/12/2016) đồng thời gởi lời tri ân chân thành đến tất cả khách hàng đã và đang đồng hành cùng Vietravel, công ty dành riêng ngày 19/11/2016 để mở màn cho mùa du lịch Xuân 2017 với hàng trăm tour giá “cực sốc”.
                        Ngày Hội tư vấn Du lịch Vietravel Quảng Ninh: Tour nội địa đặc sắc
                        11/11/2016
                        Trong hai ngày 11 và 12/11/2016, tại Văn phòng Công ty Du lịch Vietravel - Chi nhánh Quảng Ninh triển khai sự kiện “Ngày hội tư vấn du lịch”, chào đón du khách và người dân địa phương đến tham quan, tư vấn du lịch với chương trình ưu đãi cực hấp dẫn - giảm giá tour đến 40% dành cho Quý khách hàng đặt tour trực tiếp, cùng nhiều quà tặng hấp dẫn.
                        Phú Quốc - chưa xa đã muốn quay lại
                        10/11/2016
                        Tôi đến Phú Quốc vào một ngày mùa thu để lánh xa cái nắng chói chang của Sài Gòn. Hơn cả mọi lời ngợi ca, sau khi quay về, tôi đã có ý định chuyển đến đây sống vì ngoài khí hậu mát mẻ, hải sản ngon, con người nơi đây rất hiền lành, đáng mến.
                        Đón xuân trên du thuyền 5 sao - Đẳng cấp mới, trải nghiệm mới
                        09/11/2016
                        Các chuyên gia du lịch thế giới cho rằng, xu hướng này bắt đầu bùng nổ vào năm 2016 và tiếp tục tăng trưởng ấn tượng trong những năm kế tiếp. Trong đó, du thuyền vòng quanh Trung Đông – một trong những tuyến hấp dẫn nhất thế giới chính là lựa chọn hoàn hảo cho dịp Tết năm nay. Hãy cùng tìm hiểu xem điều gì đã tạo nên sức “hút” mạnh mẽ này?
                        Ngày Hội tư vấn Du lịch Vietravel tại Hải Phòng khuyến mại giảm tới 40% từ 11-13/11/2016
                        08/11/2016
                        Hơn 3.000 suất tour du lịch trọn gói trong và ngoài nước siêu khuyến mại giảm tới 40% được mở bán trực tiếp tại Văn phòng Vietravel chi nhánh Hải Phòng (Số 04 Trần Hưng Đạo, Hồng Bàng, Hải Phòng) trong 3 ngày duy nhất 11-13/11/2016.
                        Lạc giữa “thiên đường” táo Okukuji
                        07/11/2016
                        Sẽ thật thiếu sót nếu bạn thưởng ngoạn mùa thu xứ Phù Tang mà không ghé trang trại Okukuji, nơi nức tiếng táo ngon và sản lượng lớn nhất tỉnh Ibaraki. Lạc giữa “thiên đường” táo trĩu quả, tận tay hái trái tươi ngon và thưởng thức ngay hương vị ngọt ngào pha lẫn vị chua đặc trưng của vùng thung lũng dốc đồi nằm ở thị trấn Daigo, phía Bắc tỉnh Ibaraki.
                        Du xuân bốn phương cùng đường bay thẳng, bạn đã sẵn sàng?
                        02/11/2016
                        Chỉ một chặng bay duy nhất, không phải quá cảnh lại được hưởng mức giá tốt nhất… là hai trong nhiều lý do hấp dẫn khiến tour du lịch bằng máy bay thuê bao luôn đắt hàng. Chính vì thế, nếu bạn còn do dự lựa chọn chuyến du xuân bốn phương ấn tượng, hãy tìm hiểu ngay loại hình du lịch đang gây “sốt” này.
                        Bồng bềnh thảo nguyên trắng Mộc Châu
                        01/11/2016
                        Cuối thu đầu đông, giữa cái se sắt của gió cao nguyên là không gian sáng bừng hoa cải trắng. Từng cánh đồng bao la, ngút ngàn như mây trắng bồng bềnh trôi đến vô tận làm xao xuyến bao người.
                        Giáng sinh tràn ngập nắng ở Nam bán cầu
                        31/10/2016
                        Không giống như nhiều quốc gia ở phía Bắc bán cầu chào đón lễ Giáng sinh tưng bừng trong cái lạnh giá của mùa đông, ngược lại các quốc gia nằm phía Nam bán cầu như Úc, New Zealand, Nam Phi lại đón giáng sinh an lành trong thời tiết mùa hè rực nắng. Đón Giáng sinh ở Nam bán cầu bạn sẽ đươc tiếp thêm nguồn năng lượng từ những hoạt động thể thao lành mạnh ngoài trời, những lễ hội truyền thống đặc sắc, thưởng thức các loại trái cây bổ dưỡng… là những thú vui tao nhã mà bất cứ du khách nào cũng muốn một lần trải nghiệm.
        12345678910>>
                Du lịch trong nướcDu lịch Hà NộiDu lịch Tây NguyênDu lịch Thái NguyênDu lịch Đà NẵngDu lịch Phú QuốcDu lịch Hạ LongDu lịch HuếDu lịch Nha TrangDu lịch Lào CaiDu lịch Quảng NamDu lịch Đà LạtDu lịch Hải PhòngDu lịch Bắc NinhDu lịch Phú ThọDu lịch Ninh BìnhDu lịch Hà TâyDu lịch Lạng SơnDu lịch Quảng TrịDu lịch Quảng BìnhDu lịch Bảo LộcDu lịch Ban Mê ThuộtDu lịch Kon TumDu lịch PleikuDu lịch Phan ThiếtDu lịch Đồng NaiDu lịch Vũng TàuDu lịch Tiền GiangDu lịch Hà TiênDu lịch Cần ThơDu lịch Vĩnh LongDu lịch Sóc TrăngDu lịch Bình ĐịnhDu lịch An GiangDu lịch Hà TĩnhDu lịch Yên Bái
                Du lịch nước ngoàiDu lịch MaltaDu lịch CroatiaDu lịch BosniaDu lịch SerbiaDu lịch CampuchiaDu lịch PanamaDu lịch MexicoDu lịch OmanDu lịch BhutanDu lịch HawaiiDu lịch SloveniaDu lịch Madagascar Du lịch Nhật BảnDu lịch Hoa KỳDu lịch Thái LanDu lịch Hàn QuốcDu lịch PhápDu lịch SingaporeDu lịch Hồng Kông & MacauDu lịch ÚcDu lịch Trung QuốcDu lịch MalaysiaDu lịch Ai CậpDu lịch Nam PhiDu lịch Triều TiênDu lịch Ấn ĐộDu lịch Trung ĐôngDu lịch BruneiDu lịch NgaDu lịch UzbekistanDu lịch Đài LoanDu lịch IndonesiaDu lịch ISRAELDu lịch LàoDu lịch Canada
                         Tìm kiếm Google
        Trang chủTin tứcVideoTạp chí du lịchCẩm nang du lịchKinh nghiệm du lịchSitemapKhuyến mạiLiên hệ
            Bản quyền của Vietravel ® 2016. Bảo lưu mọi quyền. Ghi rõ nguồn "www.travel.com.vn" ® khi sử dụng lại thông tin từ website này
            Trụ sở chính: 190 Pasteur, Phường 6, Quận 3, Tp. Hồ Chí Minh. Điện thoại: (84-8) 3822 8898. Fax: (84-8) 3829 9142. Email : info@vietravel.com  
            Số GPKD: 0300465937 do Sở Kế Hoạch và Đầu Tư Thành Phố Hồ Chí Minh cấp ngày 27/09/2010 
            Giấy phép số: 239/GP-TTĐT do Cục Quản Lý Phát Thanh, Truyền Hình và Thông Tin Điện Tử cấp ngày 31/12/2008
            Vietravel toolbar | Chính sách riêng tư | Thỏa thuận sử dụng
        VietravelThuê xeVé máy bayKhách sạnXuất khẩu lao động
        Du lịchIncomming tourFree & easyTrường dạy nghề
