url:https://travel.com.vn/du-lich-ha-noi.aspx
Tittle :Du lịch Hà Nội | du lich ha noi
content :  Tư vấn miễn phí từ 8h-18h: 1800 59 99 33    info@vietravel.com Thành viên  
                Hồ Chí MinhDu lịch trong nước:
                            Du lịch nước ngoài:
                            Dịch vụ khách hàng: 0938.301.399
                            0938.301.388
                            0938.301.234  
                              
                               Hà NộiDu lịch trong nước:
                            Du lịch nước ngoài:
                            Dịch vụ khách hàng: 0989.370.033
                            0983.160.022
                            0938.301.234  
                              
                               Đà NẵngDu lịch trong nước:
                            Du lịch nước ngoài:
                            Dịch vụ khách hàng: 0905.173.331
                            0932.472.310
                            0938.301.234  
                              
                               Cần ThơDu lịch trong nước:
                            Du lịch nước ngoài:
                            Dịch vụ khách hàng: 0939.05.95.96
                            0939.05.95.96
                            0938.301.234  
                              
                               Hải PhòngDu lịch trong nước:
                            Du lịch nước ngoài:
                            Dịch vụ khách hàng: 0936.900.095
                            0936.900.095
                            0938.301.234  
                              
                               Nha TrangDu lịch trong nước:
                            Du lịch nước ngoài:
                            Dịch vụ khách hàng: 0918.308.097
                            0988.608.286
                            0938.301.234  
                              
                               
                             Đăng ký
                             Đăng nhập
                     Tìm kiếm Tìm kiếm với Google
MENU
                Du lịch trong nước
                Du lịch nước ngoài
            Du lịch tự chọnKhách sạnVận chuyển
                Vé máy bayThuê xe
            Dịch vụ khách hàngKhuyến mại
                Khoảnh khắc thu 2016
            Liên hệ
--Nơi khởi hành-- Hồ Chí MinhHà NộiĐà NẵngCần ThơHải PhòngBình DươngNha TrangHuếQuy NhơnĐồng NaiLong XuyênQuảng NgãiVũng TàuQuảng NinhBuôn Ma ThuộtVinhCà MauRạch GiáĐà LạtÚc                
--Loại tour--Tour trong nướcTour nước ngoài                
--Nơi đến--An GiangBạc LiêuBan Mê ThuộtBảo LộcBắc KạnBắc NinhBến TreBình ĐịnhBình ThuậnCà MauCam RanhCao BằngCần ThơCôn ĐảoĐà LạtĐà NẵngĐiện BiênĐông BắcĐồng NaiĐồng ThápHà GiangHạ LongHà NộiHà TâyHà TiênHà TĩnhHải PhòngHồ Chí MinhHuếKiên GiangKon TumLạng SơnLào CaiLong AnNam ĐịnhNinh BìnhNinh ThuậnNghệ AnNha TrangPleikuPhan ThiếtPhú QuốcPhú ThọPhú YênQuảng BìnhQuảng NamQuảng NinhQuảng NgãiQuảng TrịQui NhơnSóc TrăngSơn LaTây BắcTây NinhTây NguyênTiền GiangThái BìnhThái NguyênThanh HóaTrà VinhVinhVĩnh LongVĩnh PhúcVũng TàuYên Bái                
--Giá--Dưới 1 Triệu  1- 2  Triệu  2-4 Triệu  4-6 Triệu  6-10 TriệuTrên 10 Triệu                
--Giảm giá--CóKhông                
Còn chỗHết chỗ--Tất cả--                
                Tìm kiếm
                    Quý khách vui lòng nhập số booking vào ô trống bên dưới và nhấn nút "Tra cứu"
             Tìm tour
             Tra cứu booking
--Nơi khởi hành-- Hồ Chí MinhHà NộiĐà NẵngCần ThơHải PhòngBình DươngNha TrangHuếQuy NhơnĐồng NaiLong XuyênQuảng NgãiVũng TàuQuảng NinhBuôn Ma ThuộtVinhCà MauRạch GiáĐà LạtÚc                    
--Loại tour--Tour trong nướcTour nước ngoài                    
--Nơi đến--An GiangBạc LiêuBan Mê ThuộtBảo LộcBắc KạnBắc NinhBến TreBình ĐịnhBình ThuậnCà MauCam RanhCao BằngCần ThơCôn ĐảoĐà LạtĐà NẵngĐiện BiênĐông BắcĐồng NaiĐồng ThápHà GiangHạ LongHà NộiHà TâyHà TiênHà TĩnhHải PhòngHồ Chí MinhHuếKiên GiangKon TumLạng SơnLào CaiLong AnNam ĐịnhNinh BìnhNinh ThuậnNghệ AnNha TrangPleikuPhan ThiếtPhú QuốcPhú ThọPhú YênQuảng BìnhQuảng NamQuảng NinhQuảng NgãiQuảng TrịQui NhơnSóc TrăngSơn LaTây BắcTây NinhTây NguyênTiền GiangThái BìnhThái NguyênThanh HóaTrà VinhVinhVĩnh LongVĩnh PhúcVũng TàuYên Bái                    
--Giá--Dưới 1 Triệu  1- 2  Triệu  2-4 Triệu  4-6 Triệu  6-10 TriệuTrên 10 Triệu                    
--Giảm giá--CóKhông                    
Còn chỗHết chỗ--Tất cả--                    
                    Tìm kiếm
                        Quý khách vui lòng nhập số booking vào ô trống bên dưới và nhấn nút "Tra cứu"
             
            Tour giảm giá sốc
             
            Tri ân khách hàng
             
            Tour Giáng Sinh
             
            Hội khai Xuân
             
            Tour Vinpearl-Villas
             
            Tour charter 2017
            Du lịch » Du lịch trong nước » Tour Miền Bắc » Du lịch Hà Nội
            Du lịch Hà Nội
                Hà Nội là thủ đô ngàn năm văn hiến, còn lưu dấu nhiều di tích Hồ Gươm, Cầu Thê Húc, Chùa Quán Sứ, Hồ Tây, 36 phố phường. Hà Nội có bốn mùa, luôn mang đến nhiều hoài niệm khó phai, mỗi mùa một vẻ, xuân lễ hội, hạ tươi thắm, thu quyến rũ và đông ấn tượng. Món ngon có Phở, Chả cá Lã Vọng, bánh tôm Hồ Tây.
                                4,64/5 trong 510 Đánh giá
        Tweet
        Danh sách tour du lịch Hà Nội
                Hà Nội - Lào Cai - Sapa - Chinh phục nóc ...
                  6 ngày
                  22/11/2016
                8.990.000₫
                Xem chi tiết
                Hành Trình Khám Phá Miền Trung : Nha Tra ...
                  8 ngày
                  23/11/2016
                13.990.000₫
                Xem chi tiết
                Hành Trình Khám Phá Trung Bắc: Nha Trang ...
                  10 ngày
                  23/11/2016
                19.990.000₫
                Xem chi tiết
                Hà Nội - Hà Giang - Lũng Cú - Đồng Văn - ...
                  5 ngày
                  23/11/2016
                7.590.000₫
                Xem chi tiết
                Hành Trình Khám Phá Bắc Trung: Hà Nội -  ...
                  11 ngày
                  24/11/2016
                20.590.000₫
                Xem chi tiết
                Hà Nội - Lào Cai - Sapa - Nóc Nhà Đông D ...
                  4 ngày
                  24/11/2016
                6.590.000₫
                Xem chi tiết
                Hà Nội - Tây Bắc Mùa Hoa Cải Trắng :Đền  ...
                  6 ngày
                  25/11/2016
                8.790.000₫
                Xem chi tiết
                Hành Trình Khám Phá Bắc Trung: Hà Nội -  ...
                  9 ngày
                  26/11/2016
                18.990.000₫
                Xem chi tiết
                Hành Trình Khám Phá Bắc Trung: Hà Nội -  ...
                  9 ngày
                  26/11/2016
                16.990.000₫
                Xem chi tiết
                Hà Nội - Bái Đính - Tràng An - Hạ Long - ...
                  4 ngày
                  26/11/2016
                6.590.000₫
                Xem chi tiết
                Hà Nội - Du Thuyền Hạ Long Cao Cấp Pelic ...
                  4 ngày
                  26/11/2016
                8.590.000₫
                Xem chi tiết
                Hà Nội - Du Thuyền Hạ Long Cao Cấp Pelic ...
                  4 ngày
                  26/11/2016
                9.090.000₫
                Xem chi tiết
                Hà Nội - Bái Đính - Tràng An - Hạ Long - ...
                  4 ngày
                  26/11/2016
                7.090.000₫
                Xem chi tiết
                Hà Nội - Lào Cai - Sapa - Chinh phục nóc ...
                  6 ngày
                  27/11/2016
                8.190.000₫
                Xem chi tiết
                Hà Nội - Lào Cai - Sapa - Chinh phục nóc ...
                  5 ngày
                  28/11/2016
                7.590.000₫
                Xem chi tiết
        Xem thêm  34 tours 
            Điểm đến tại Hà Nội
                Tại Hà Nội Bạn có thể thăm quan các điểm đến sau
                Hà Nội, Chùa Hương, Đền Đức Thánh cả, 
                    Để hiểu hơn về Hà Nội Mời bạn tham khảo Kinh nghiệm du lịch Hà Nội
                Bài viết về Hà Nội
                                Vietravel đạt doanh thu 14,32 tỷ đồng tại Hội chợ VITM
                                Món ngon Hà Nội
                                Ẩm thực mùa thu Hà Nội
                                Về Tam Cốc săn ảnh mùa vàng
                                Những hàng cây Hà Nội
                                Vietravel giảm giá 52% tour nội địa tại hội chợ VITM
                                Vietravel tham dự hội chợ VITM 2015
                                Hàn Quốc: Lên núi đầu Rồng, móc khóa tình yêu
                                Lắng đọng Cố đô Hàn Quốc Gyeongju
                                Độc đáo chợ hải sản Busan, Hàn Quốc
                Du lịch trong nướcDu lịch Hà NộiDu lịch Tây NguyênDu lịch Thái NguyênDu lịch Đà NẵngDu lịch Phú QuốcDu lịch Hạ LongDu lịch HuếDu lịch Nha TrangDu lịch Lào CaiDu lịch Quảng NamDu lịch Đà LạtDu lịch Hải PhòngDu lịch Bắc NinhDu lịch Phú ThọDu lịch Ninh BìnhDu lịch Hà TâyDu lịch Lạng SơnDu lịch Quảng TrịDu lịch Quảng BìnhDu lịch Bảo LộcDu lịch Ban Mê ThuộtDu lịch Kon TumDu lịch PleikuDu lịch Phan ThiếtDu lịch Đồng NaiDu lịch Vũng TàuDu lịch Tiền GiangDu lịch Hà TiênDu lịch Cần ThơDu lịch Vĩnh LongDu lịch Sóc TrăngDu lịch Bình ĐịnhDu lịch An GiangDu lịch Hà TĩnhDu lịch Yên Bái
                Du lịch nước ngoàiDu lịch MaltaDu lịch CroatiaDu lịch BosniaDu lịch SerbiaDu lịch CampuchiaDu lịch PanamaDu lịch MexicoDu lịch OmanDu lịch BhutanDu lịch HawaiiDu lịch SloveniaDu lịch Madagascar Du lịch Nhật BảnDu lịch Hoa KỳDu lịch Thái LanDu lịch Hàn QuốcDu lịch PhápDu lịch SingaporeDu lịch Hồng Kông & MacauDu lịch ÚcDu lịch Trung QuốcDu lịch MalaysiaDu lịch Ai CậpDu lịch Nam PhiDu lịch Triều TiênDu lịch Ấn ĐộDu lịch Trung ĐôngDu lịch BruneiDu lịch NgaDu lịch UzbekistanDu lịch Đài LoanDu lịch IndonesiaDu lịch ISRAELDu lịch LàoDu lịch Canada
                         Tìm kiếm Google
        Trang chủTin tứcVideoTạp chí du lịchCẩm nang du lịchKinh nghiệm du lịchSitemapKhuyến mạiLiên hệ
            Bản quyền của Vietravel ® 2016. Bảo lưu mọi quyền. Ghi rõ nguồn "www.travel.com.vn" ® khi sử dụng lại thông tin từ website này
            Trụ sở chính: 190 Pasteur, Phường 6, Quận 3, Tp. Hồ Chí Minh. Điện thoại: (84-8) 3822 8898. Fax: (84-8) 3829 9142. Email : info@vietravel.com  
            Số GPKD: 0300465937 do Sở Kế Hoạch và Đầu Tư Thành Phố Hồ Chí Minh cấp ngày 27/09/2010 
            Giấy phép số: 239/GP-TTĐT do Cục Quản Lý Phát Thanh, Truyền Hình và Thông Tin Điện Tử cấp ngày 31/12/2008
            Vietravel toolbar | Chính sách riêng tư | Thỏa thuận sử dụng
        VietravelThuê xeVé máy bayKhách sạnXuất khẩu lao động
        Du lịchIncomming tourFree & easyTrường dạy nghề
         Tour đã xem
                    Sihanouk Ville-Bokor-Phnom Penh - K ...
                    Singapore - Malaysia - Mùng 01 Tết  ...
                    Malaysia - Singapore - Mùng 01 Tết  ...
                    Siem Riep-Phnom Penh - Khách sạn 4* ...
                    Hà Nội - Vinpearl Hạ Long Resort 5* ...
                    Hà Nội: Miền Giáo Đường- Côn Sơn Ki ...
                    Ban Mê Thuột - Thác Daynur - Cưỡi V ...
                    Hà Nội - Bái Đính - Tràng An - Hạ L ...
                    Hà Nội - Vinpearl Hạ Long Resort 5* ...
                    Hà Nội - Lào Cai - Sapa - Chợ Phiên ...
                    Hà Nội - Yên Tử - Hạ Long - Hang Sử ...
                    Siem Riep-Phnom Penh - Khách sạn 4*
                    Bangkok-Pattaya - Khách sạn 3* Tặng ...
                    Singapore (Một ngày tự do)Tham quan ...
                    Huế - La Vang - Động Phong Nha - Bà ...
                    Malaysia - Singapore (Siêu Tiết Kiệ ...
                    Phnom Penh-Bokor-Sihanouk Ville -Kh ...
                    Bangkok-Pattaya - Khách sạn 3* Tặng ...
                    Siem Riep-Phnom Penh - Khách sạn 3* ...
                    Phú Quốc  - Resort 4 sao quốc tế -  ...
                    Hà Nội - Du Thuyền Hạ Long Cao Cấp  ...
                    Ninh Chữ - KDL Cổ Thạch - Viếng Din ...
                    Singapore - Malaysia- Mùng 01 Tết - ...
                    Bali - Jakarta (khách sạn 4*) - Mùn ...
                    Yangon - Kyaikhtiyo - Golden Rock - ...
                    Singapore (Tham quan đầy đủ) - Mùng ...
