url:https://travel.com.vn/tourNDSGN404-002-280117VJ/hue-la-vang-dong-phong-nha-ba-na-hoi-an-da-nang-tet-am-lich-2017-mung-1-tet-ap-dung-19-11.aspx
Tittle :Huế - La Vang - Động Phong Nha - Bà Nà - Hội An - Đà Nẵng (Tết Âm lịch 2017. Mùng 1 Tết. Áp dụng 19/11). Mã tour NDSGN404-002-280117VJ
content :  Tư vấn miễn phí từ 8h-18h: 1800 59 99 33    info@vietravel.com Thành viên  
                Hồ Chí MinhDu lịch trong nước:
                            Du lịch nước ngoài:
                            Dịch vụ khách hàng: 0938.301.399
                            0938.301.388
                            0938.301.234  
                              
                               Hà NộiDu lịch trong nước:
                            Du lịch nước ngoài:
                            Dịch vụ khách hàng: 0989.370.033
                            0983.160.022
                            0938.301.234  
                              
                               Đà NẵngDu lịch trong nước:
                            Du lịch nước ngoài:
                            Dịch vụ khách hàng: 0905.173.331
                            0932.472.310
                            0938.301.234  
                              
                               Cần ThơDu lịch trong nước:
                            Du lịch nước ngoài:
                            Dịch vụ khách hàng: 0939.05.95.96
                            0939.05.95.96
                            0938.301.234  
                              
                               Hải PhòngDu lịch trong nước:
                            Du lịch nước ngoài:
                            Dịch vụ khách hàng: 0936.900.095
                            0936.900.095
                            0938.301.234  
                              
                               Nha TrangDu lịch trong nước:
                            Du lịch nước ngoài:
                            Dịch vụ khách hàng: 0918.308.097
                            0988.608.286
                            0938.301.234  
                              
                               
                             Đăng ký
                             Đăng nhập
                     Tìm kiếm Tìm kiếm với Google
MENU
                Du lịch trong nước
                Du lịch nước ngoài
            Du lịch tự chọnKhách sạnVận chuyển
                Vé máy bayThuê xe
            Dịch vụ khách hàngKhuyến mại
                Khoảnh khắc thu 2016
            Liên hệ
--Nơi khởi hành-- Hồ Chí MinhHà NộiĐà NẵngCần ThơHải PhòngBình DươngNha TrangHuếQuy NhơnĐồng NaiLong XuyênQuảng NgãiVũng TàuQuảng NinhBuôn Ma ThuộtVinhCà MauRạch GiáĐà LạtÚc                
--Loại tour--Tour trong nướcTour nước ngoài                
--Nơi đến--An GiangBạc LiêuBan Mê ThuộtBảo LộcBắc KạnBắc NinhBến TreBình ĐịnhBình ThuậnCà MauCam RanhCao BằngCần ThơCôn ĐảoĐà LạtĐà NẵngĐiện BiênĐông BắcĐồng NaiĐồng ThápHà GiangHạ LongHà NộiHà TâyHà TiênHà TĩnhHải PhòngHồ Chí MinhHuếKiên GiangKon TumLạng SơnLào CaiLong AnNam ĐịnhNinh BìnhNinh ThuậnNghệ AnNha TrangPleikuPhan ThiếtPhú QuốcPhú ThọPhú YênQuảng BìnhQuảng NamQuảng NinhQuảng NgãiQuảng TrịQui NhơnSóc TrăngSơn LaTây BắcTây NinhTây NguyênTiền GiangThái BìnhThái NguyênThanh HóaTrà VinhVinhVĩnh LongVĩnh PhúcVũng TàuYên Bái                
--Giá--Dưới 1 Triệu  1- 2  Triệu  2-4 Triệu  4-6 Triệu  6-10 TriệuTrên 10 Triệu                
--Giảm giá--CóKhông                
Còn chỗHết chỗ--Tất cả--                
                Tìm kiếm
                    Quý khách vui lòng nhập số booking vào ô trống bên dưới và nhấn nút "Tra cứu"
             Tìm tour
             Tra cứu booking
--Nơi khởi hành-- Hồ Chí MinhHà NộiĐà NẵngCần ThơHải PhòngBình DươngNha TrangHuếQuy NhơnĐồng NaiLong XuyênQuảng NgãiVũng TàuQuảng NinhBuôn Ma ThuộtVinhCà MauRạch GiáĐà LạtÚc                    
--Loại tour--Tour trong nướcTour nước ngoài                    
--Nơi đến--An GiangBạc LiêuBan Mê ThuộtBảo LộcBắc KạnBắc NinhBến TreBình ĐịnhBình ThuậnCà MauCam RanhCao BằngCần ThơCôn ĐảoĐà LạtĐà NẵngĐiện BiênĐông BắcĐồng NaiĐồng ThápHà GiangHạ LongHà NộiHà TâyHà TiênHà TĩnhHải PhòngHồ Chí MinhHuếKiên GiangKon TumLạng SơnLào CaiLong AnNam ĐịnhNinh BìnhNinh ThuậnNghệ AnNha TrangPleikuPhan ThiếtPhú QuốcPhú ThọPhú YênQuảng BìnhQuảng NamQuảng NinhQuảng NgãiQuảng TrịQui NhơnSóc TrăngSơn LaTây BắcTây NinhTây NguyênTiền GiangThái BìnhThái NguyênThanh HóaTrà VinhVinhVĩnh LongVĩnh PhúcVũng TàuYên Bái                    
--Giá--Dưới 1 Triệu  1- 2  Triệu  2-4 Triệu  4-6 Triệu  6-10 TriệuTrên 10 Triệu                    
--Giảm giá--CóKhông                    
Còn chỗHết chỗ--Tất cả--                    
                    Tìm kiếm
                        Quý khách vui lòng nhập số booking vào ô trống bên dưới và nhấn nút "Tra cứu"
             
            Tour giảm giá sốc
             
            Tri ân khách hàng
             
            Tour Giáng Sinh
             
            Hội khai Xuân
             
            Tour Vinpearl-Villas
             
            Tour charter 2017
            Du lịch » Du lịch trong nước » Tour Miền Trung » Du lịch Quảng Nam » Huế - La Vang - Động Phong Nha - Bà Nà - Hội An - Đà Nẵng (Tết Âm lịch 2017. Mùng 1 Tết. Áp dụng 19/11)
            Chương trình tour
                Huế - La Vang - Động Phong Nha - Bà Nà - Hội An - Đà Nẵng (Tết Âm lịch 2017. Mùng 1 Tết. Áp dụng 19/11)
                Vietravel
                                        4,7/5 trong 358 Đánh giá
                    Mã tour:               NDSGN404-002-280117VJ
                    Thời gian:             5 ngày
                        Khởi hành:           28/01/2017  Ngày khác
                    Nơi khởi hành:      Hồ Chí Minh
                        Số chỗ còn nhận:   9
                        10.590.000₫
                    8.990.000₫
                                ĐẶT NGAY
                Dịch vụ đi kèm
                        Bảo hiểm
                        Bữa ăn theo chương trình
                        Hướng dẫn viên
                        Vé tham quan
                        Xe đưa đón
                Chương trình tourChi tiết tourLưu ýLiên hệNgày khác
                                            Ngày 1 : TP.HCM - HUẾ (Ăn 1 bữa: chiều)
			Quý khách tập trung tại sân bay Tân Sơn Nhất, Ga đi Trong nước, Quầy Vietravel tại cột số 10. Hướng dẫn viên Vietravel hỗ trợ làm thủ tục cho Quý khách đáp chuyến bay đi Huế. Tại sân bay Phú Bài - Huế xe và hướng dẫn viên Vietravel đón Quý khách đi ăn chiều. Tối Quý khách tự do dạo phố khám phá Cố Đô về đêm hoặc ngồi thuyền rồng xuôi dòng sông Hương thưởng thức ca hò Huế, thả hoa đăng cầu phúc lộc, bình an năm mới….(chi phí tự túc). Nghỉ đêm tại Huế
                                            Ngày 2 : HUẾ - LA VANG - ĐỘNG PHONG NHA                                     Số bữa ăn: 3 bữa (sáng, trưa,chiều)
			Ăn sáng buffet tại khách sạn, Quý khách khởi hành sớm đi Đồng Hới (Quảng Bình), trên đường đi dừng tham quan Thánh Địa La Vang - một thánh địa quan trọng của người Công giáo Việt Nam thuộc tỉnh Quảng Trị và viếng Nghĩa Trang Liệt Sĩ Trường Sơn (Trong trường hợp Quý khách không Viếng, vui lòng chờ đoàn khoảng 15 phút). Đến Quảng Bình đoàn ăn trưa, Sau đó đi tham quan Động Phong Nha - Được xem là “chốn thần tiên” bởi động dấu mình trong núi đá vôi, được che chở bởi cánh rừng nhiệt đới, hệ thống hang động lộng lẫy với con sông ngầm được xác định dài nhất thế giới; đoàn tham quan: Hang Bi Ký, Hang Tóc Tiên, Hang Cung Đình… Sau đó đoàn khởi hành về lại Huế hơi trễ khoảng 20:00. Ăn chiều tại Quảng trị. Nghỉ đêm tại Huế.
                                            Ngày 3 : HUẾ - LĂNG CÔ - ĐÀ NẴNG                 Số bữa ăn: 3 bữa (sáng, trưa, chiều)
			Ăn sáng buffet tại khách sạn. Xe đưa Quý khách tham quan tham quan Đại Nội - Hoàng cung xưa của 13 vị vua triều Nguyễn, tham quan Ngọ Môn, Điện Thái Hòa, Tử Cấm Thành, Thế Miếu, Hiển Lâm Các, Cửu Đỉnh,… Sau đó đoàn tiếp tục tham quan Chùa Thiên Mụ - Ngôi chùa được xem là biểu tượng xứ  Huế và là nơi lưu giữ nhiều cổ vật quý giá không chỉ về mặt lịch sử mà còn cả về nghệ thuật. Trả phòng. Ăn trưa. Chiều xe đưa Quý khách đi tham quan Lăng Tự Đức - Nơi có phong cảnh sơn thủy hữu tình và được cho là một trong những lăng tẩm có kiến trúc đẹp nhất của các vua chúa nhà Nguyễn. Quý khách di chuyển về Đà Nẵng, trên đường đi đoàn dừng tham quan chụp ảnh lưu niệm tại Vịnh Lăng Cô – một trong những vịnh biển đẹp nhất thế giới trước khi xuyên hầm Hải Vân vào Đà Nẵng. Ăn chiều. Buổi tối, Quý khách tự do nghỉ ngơi tại khách sạn hoặc thưởng ngoạn cảnh đẹp của Đà Nẵng về đêm, ngắm nhìn những cây cầu biểu tượng cho sự phát triển không ngừng của thành phố Đà Nẵng như: Cầu Rồng, Cầu Quay Sông Hàn, cầu Trần Thị Lý, Trung Tâm Thương Mại, Khu phố ẩm thực, Café - Bar – Disco…. Nghỉ đêm tại Đà Nẵng 
                                            Ngày 4 : ĐÀ NẴNG - BÀ NÀ - HỘI AN                                          Số bữa ăn: 2 bữa (sáng, chiều, Ăn trưa tự túc) 
			Ăn sáng buffet tại khách sạn. Quý khách tự do tham quan Đà Nẵng, nghỉ ngơi tại khách sạn hoặc xe đưa Quý khách đi tham quan Khu du lịch Bà Nà - Suối Mơ, đến nơi Quý khách đi tuyến cáp treo một dây dài nhất thế giới lên Đỉnh núi Bà Nà (chi phí cáp treo tự túc), tận hưởng không khí se lạnh của “Đà Lạt tại miền Trung”, đoàn tự do đi bộ hoặc di chuyển bằng tàu hỏa leo núi (chi phí tự túc) tham quan: Chùa Linh Ứng, Hầm Rượu Debay, vườn hoa Le Jardin D’Amour… Tiếp đến, Quý khách đến Khu Tâm linh mới của Bà Nà viếng Đền Lĩnh Chúa Linh Từ - Đền nằm trên đĩnh Núi Chúa, nơi thờ Bà Mẫu Thượng Ngàn,… tham quan Lầu chuông, Tháp Linh Phong Tự. Sau đó đến khu vui chơi Fantasy Park: với các trò chơi phiêu lưu mới lạ, trải nghiệm cảm giác mạnh như: Vòng Quay Tình Yêu, Phi Công Skiver, Đường Đua Lửa, Ngôi Nhà Ma,…Ăn trưa tại Bà Nà tự túc. Tự do tham quan đến giờ xuống Cáp. Về lại khách sạn. Chiều xe đưa Quý khách tham quan Phố Cổ Hội An: Chùa Cầu, Nhà Cổ Phùng Hưng, Hội Quán Phước Kiến, Cơ sở Thủ Công Mỹ Nghệ…Quý khách dạo phố đèn lồng nhiều màu sắc và mua những món quà lưu niệm của địa phương, thử tài trong các trò chơi dân gian như đập niêu, hát bài chòi, nhận phòng khách sạn tự do nghỉ ngơi. Ăn chiều. Tối Quý khách tự do nghỉ ngơi tham quan. Nghỉ đêm tại Đà Nẵng 
                                            Ngày 5 : ĐÀ NẴNG – SƠN TRÀ  - TP.HCM                                                       Số bữa ăn: 2 bữa (sáng, trưa) 
			Ăn sáng buffet tại khách sạn. Xe đưa Quý khách đi tham quan danh thắng cảnh Ngũ Hành Sơn: Chùa Linh Ứng, Động Tàng Chơn, Động Hoa Nghiêm, Chùa Non Nước,… Trả phòng. Ăn trưa. Chiều xe đưa đoàn dạo một vòng bán đảo Sơn Trà, viếng Chùa Linh Ứng - Nơi đây có tượng Phật Quan Thế Âm cao nhất Việt Nam (67m). Đứng nơi đây, Quý khách sẽ được chiêm ngưỡng toàn cảnh thành phố, núi rừng và biển đảo Sơn Trà một cách hoàn hảo nhất. Xe đưa Quý khách ra sân bay Đà Nẵng đón chuyến bay trở về Tp.HCM. Chia tay Quý khách và kết thúc chương trình du lịch tại sân bay Tân Sơn Nhất. 
                                    Thông tin chuyến bay
                                Ngày đi : 28/01/2017 15:35Đến 28/01/2017 16:55Chuyến bay : VJ314Ngày về : 01/02/2017 20:50Đến01/02/2017 22:05Chuyến bay : VJ645Thông tin khách sạnĐang cập nhậtThông tin hướng dẫn viênĐang cập nhậtGiá tour & Phụ thu phòng đơnViệt NamViệt kiềuNước ngoàiGiá người lớn (Từ 12 tuổi trở lên)8.990.000₫8.990.000₫8.990.000₫Giá trẻ em (Từ 11 tuổi đến dưới 12 tuổi)8.990.000₫8.990.000₫8.990.000₫Giá trẻ nhỏ (Từ 5 tuổi đến dưới 11 tuổi)6.995.000₫6.995.000₫6.995.000₫Em bé (Dưới 5 tuổi)5.000.000₫5.000.000₫5.000.000₫Phụ thu phòng đơn1.600.000₫1.600.000₫1.600.000₫
					Thông tin cần lưu ý:
					Giá tour bao gồm:
					- Xe tham quan (15, 25, 35, 45 chỗ tùy theo số lượng khách) theo chương trình
					- Vé máy bay khứ hồi.
					- Khách sạn theo tiêu chuẩn 2 khách/phòng hoặc 3 khách/phòng 
					Liệt kê hệ thống khách sạn:
					 Huế 4 sao : Romance, Mondial, Midtown,Green, Cherish…
					 Đà Nẵng 3 sao: Seventeen, White Snow, Fansipan, Kay,…
					- Ăn theo chương trình 
					- Vé tham quan theo chương trình  
					- Hướng dẫn viên tiếng Việt nối tuyến
					- Bảo hiểm du lịch với mức bồi thường cao nhất 60.000.000đ/vụ
					- Nón Vietravel + Nước suối + Khăn lạnh 
					- Thuế VAT 
					 
					Giá tour không bao gồm: 
					- Chi phí cá nhân: 01 bữa trưa tại Bà Nà, giặt ủi, chi phí hủy đổi hành trình, hành lý quá cước, phụ thu phòng đơn,…
					- Chi phí tham quan ngoài chương trình: Ca hò Huế, Vé cáp treo khứ hồi Bà Nà & khu vui chơi Fantasy Park khoảng 600.000đ/khách, vé vào các điểm tham quan trong KDL Bà Nà: Bảo tàng sáp khoảng 100.000, tàu hỏa leo núi khoảng 70.000… 
					 
					Giá vé trẻ em: 
					- Trẻ em dưới 5 tuổi: không thu phí dịch vụ, bố mẹ tự lo cho bé và thanh toán các chi phí phát sinh (đối với các dịch vụ tính phí theo chiều cao…). Hai người lớn chỉ được kèm 1 trẻ em dưới 5 tuổi, trẻ em thứ 2 sẽ đóng phí theo qui định dành cho độ tuổi từ 5 đến dưới 11 tuổi và phụ thu giường đơn.
					- Trẻ em từ 5 - dưới 11 tuổi: phải mua 50%  giá dịch vụ bao gồm phương tiện xe vận chuyển, ăn uống theo chương trình, vé tham quan đối với các điểm tính phí theo độ tuổi/chiều cao (lưu ý bé ngủ chung với cha mẹ). Hai người lớn chỉ được kèm 1 trẻ em từ 5 - dưới 11 tuổi, em thứ hai trở lên phải mua 1 suất giường đơn. 
					- Trẻ em 11 tuổi trở lên: phải mua vé tour trọn gói như người lớn bao gồm phương tiện vận chuyển, khách sạn, ăn uống theo chương trình, vé tham quan theo qui định các điểm tham quan.
					- Vé máy bay phải mua theo quy định của từng hãng hàng không.
					 
					Điều kiện thanh toán:
					- Khi đăng ký đặt cọc 50% số tiền tour
					- Số tiền còn lại thanh toán hết trước ngày khởi hành 20-25 ngày 
					 
					Các điều kiện khi đăng ký tour: 
					- Khi đăng ký tour Quý khách vui lòng mang theo CMND/Passport bản chính hoặc cung cấp tên chính xác đầy đủ, đúng từng ký tự trên CMND/ Passport (Hộ chiếu)/Giấy khai sinh (trẻ em dưới 14 tuổi) theo thứ tự: Họ/tên lót/tên. Quý khách khi đăng ký cung cấp tên theo giấy tờ tùy thân nào, khi đi tour phải mang theo giấy tờ tùy thân đó theo qui định hãng hàng không 
					- Qui định giấy tờ tùy thân khi đi tour: Đối với Khách Quốc tịch Việt Nam: Khi đi tour Trẻ em từ 14 tuổi trở lên và người lớn cần đem theo CMND/Passport (Hộ chiếu) bản chính còn hạn sử dụng, hình ảnh rõ (CMND có thời hạn sử dụng không quá 15 năm, tính từ ngày cấp)/ Giấy khai sinh bản chính (trẻ em dưới 14 tuổi), trẻ em trên 14 tuổi bắt buộc phải có CMND hoặc Passport làm thủ tục lên máy bay. Đối với khách Nước ngoài/Việt Kiều: Khi đi tour phải mang theo đầy đủ Passport (Hộ Chiếu) bản chính còn hạn sử dụng hoặc thẻ xanh kèm theo Visa và giấy tái xuất nhập Việt Nam, làm thủ tục lên máy bay theo qui định hàng không.  
					- Trong trường hợp Quý khách cung cấp tên sai, đến trễ giờ bay, vui lòng chịu phí đổi vé hoặc mua lại vé mới theo quy định của Hãng Hàng Không (nếu chuyến bay còn chỗ). 
					- Trong trường hợp Quý khách bay hãng hàng không Vietjet và Jetstar, vé không hoàn, không dời, đổi, huỷ, sai tên mất 100% theo qui định hãng hàng không. Giá vé máy bay trẻ em bằng 100% người lớn. 
					- Trong trường hợp Quý khách bay hãng hàng không Vietnam Airlines. Vé máy bay khuyến mãi không hoàn, không đổi, hủy, sai tên mất 100%. Vé Vietnam Airlines  không bay chặng đi, tự động hủy chặng về. Giá vé máy bay trẻ em bằng 75% vé người lớn. 
					- Do các chuyến bay phụ thuộc vào các hãng Hàng Không (Vietnam Airlines, Vietjet, Jetstar,..) nên trong một số trường hợp giá vé, chuyến bay, giờ bay có thể thay đổi mà không được báo trước. Tùy vào tình hình thực tế, Chương trình và điểm tham quan có thể linh động thay đổi thứ tự các điểm phù hợp điều kiện giờ bay và thời tiết thực tế. Vietravel sẽ không chịu trách nhiệm bảo đảm các điểm tham quan trong trường hợp:
					+ Xảy ra thiên tai: bão lụt, hạn hán, động đất…
					+ Sự cố về an ninh: khủng bố, biểu tình
					+ Sự cố về hàng không: trục trặc kỹ thuật, an ninh, dời, hủy, hoãn chuyến bay.
					Nếu những trường hợp trên xảy ra, Vietravel sẽ xem xét để hoàn trả chi phí không tham quan cho khách trong điều kiện có thể (sau khi đã trừ lại các dịch vụ đã thực hiện….và không chịu trách nhiệm bồi thường thêm bất kỳ chi phí nào khác).
					- Sau khi Quý khách đã làm thủ tục Hàng Không và nhận thẻ lên máy bay, đề nghị Quý khách giữ cẩn thận và lưu ý lên máy bay đúng giờ. Vietravel không chịu trách nhiệm trong trường hợp khách làm mất thẻ lên máy bay và không lên máy bay đúng theo giờ quy định của Hàng Không.
					- Giờ nhận phòng & trả phòng theo qui định khách sạn,  nhận sau 14:00 giờ và trả trước 12:00 giờ.
					- Phòng khách sạn/resort có thể xảy ra trường hợp phòng không gần nhau, không cùng tầng, loại phòng một giường đôi hoặc hai giường đơn không theo yêu cầu, tùy tình hình thực tế từng khách sạn/Resort. 
					- Đối với các tour sử dụng dịch vụ khách sạn/Resort tiêu chuẩn 5 sao: Khách quốc tịch Việt Nam ở chung phòng khách nước ngoài, yêu cầu phải có hôn thú 
					- Trường hợp quý khách tham gia tour 01 khách, bắt buộc đóng thêm tiền phụ thu phòng đơn để ở riêng 01 phòng. Trường hợp trong đoàn cũng có khách đi 01 mình, cùng giới tính và có nhu cầu muốn ghép cùng phòng với quý khách thì Vietravel sẽ hoàn lại tiền phụ thu phòng đơn cho quý khách.
					- Trường hợp quý khách đi nhóm 03 khách, Vietravel sẽ cung cấp 01 phòng dành cho 03 khách là 01 giường lớn 1m6 và 01 giường phụ di động từ 0.8 - 1,2m (extrabed) hoặc 01 nệm đơn tùy từng khách sạn/Resort. Trong trường  quý khách có nhu cầu ở riêng, vui lòng đóng thêm tiền phụ thu phòng đơn theo qui định 
					- Thông tin hành lý khi đi tour : Xách tay dưới 7kg/1khách - Kích thước không quá: 56cm x 36cm x 23 cm, chất lỏng với thể tích không quá 100ml. Ký gửi: 20kg/1khách - Kích thước không quá: 119cm x 119cm x 81cm. Các vật phẩm không được chấp nhận dưới dạng hành lý ký gởi hoặc vận chuyển trong hành lý theo qui định hàng không
					- Thông tin tập trung : Tại sân bay Tân Sơn Nhất, Ga đi trong nước, trước 2 tiếng 30 phút 
					- Quý khách dưới 18 tuổi khi đi tour phải có Bố Mẹ hoặc người thân trên 18 tuổi đi cùng. Trường hợp đi một mình phải được Bố Mẹ ủy quyền (có xác nhận của chính quyền địa phương) cho Vietravel 
					- Vì lý do sức khỏe, sự an toàn cũng như để đảm bảo Quý khách tham gia tour có những trải nghiệm tuyệt vời nhất, Quý khách cần phải có đủ sức khỏe tham gia tour của chúng tôi. Khách nữ từ 55 tuổi trở lên và khách nam từ 60 trở lên: nên có người thân dưới 55 tuổi (đầy đủ sức khỏe) đi cùng. Riêng khách từ 70 tuổi trở lên: Bắt buộc phải có người thân dưới 55 tuổi (đầy đủ sức khỏe) đi cùng và nộp kèm giấy khám sức khỏe, có xác nhận đủ sức khỏe để đi du lịch của bác sĩ + Giấy cam kết sức khỏe theo mẫu qui định của công ty. Vì lý do an toàn Quý khách hạn chế và không nhận khách từ 80 tuổi trở lên. Khách từ 80 tuổi không có chế độ bảo hiểm.
					- Khách nữ từ 55 tuổi trở lên và khách nam từ 60 trở lên: nên có người thân dưới 55 tuổi (đầy đủ sức khỏe) đi cùng. Riêng khách từ 70 tuổi trở lên: Bắt buộc phải có người thân dưới 55 tuổi (đầy đủ sức khỏe) đi cùng và nộp kèm giấy khám sức khỏe, có xác nhận đủ sức khỏe để đi du lịch của bác sĩ + Giấy cam kết sức khỏe theo mẫu qui định của công ty. Vì lý do an toàn Quý khách hạn chế và không nhận khách từ 80 tuổi trở lên. Khách từ 80 tuổi không có chế độ bảo hiểm.
					- Quý khách đang mang thai vui lòng báo cho nhân viên bán tour ngay tại thời điểm đăng ký. Lưu ý phải có ý kiến của bác sĩ trước khi đi tour. Cam kết tự chịu trách nhiệm về sức khỏe của mình và thai nhi trong suốt thời gian tham gia chương trình du lịch. Khi đi tour phải mang theo sổ khám thai và giấy tờ tùy thân 
					- Quý khách có nhu cầu cần xuất hóa đơn vui lòng cung cấp thông tin xuất hóa đơn cho nhân viên bán tour  khi ngay khi đăng ký, không nhận xuất hóa đơn sau khi tour đã kết thúc. 
					- Quý khách vui lòng tham khảo kỹ các Điều Kiện Bán Vé trước khi đăng ký chuyến du lịch. Trong trường hợp không trực tiếp đăng ký, nhờ người thân đăng ký hộ vui lòng cập nhật thông tin từ người đăng ký. 
					 
					Lưu ý khi chuyển/huỷ tour:
					- Sau khi đóng tiền, nếu Quý khách muốn chuyển/huỷ tour xin vui lòng mang Vé Du Lịch đến văn phòng đăng ký tour để làm thủ tục chuyển/huỷ tour và chịu mất phí theo quy định của Vietravel. Không giải quyết các trường hợp liên hệ chuyển/huỷ tour qua điện thoại.
					 
					Các điều kiện huỷ tour: (đối với ngày thường )
					- Được chuyển sang các tuyến du lịch khác trước ngày khởi  hành 20 ngày : Không mất chi phí.
					- Nếu hủy hoặc chuyển sang các chuyến du lịch khác ngay sau khi đăng ký đến 19 ngày trước ngày khởi hành: Chi phí hủy tour: 50% tiền cọc tour.
					- Nếu hủy hoặc chuyển sang các chuyến du lịch khác từ 12-14 ngày trước ngày khởi hành: Chi phí hủy tour: 100% tiền cọc tour.
					- Nếu hủy chuyến du lịch trong vòng từ 08-11 ngày trước ngày khởi hành: Chi phí hủy tour: 50% trên giá tour du lịch.
					- Nếu hủy chuyến du lịch trong vòng từ 05-07 ngày trước ngày khởi hành: Chi phí hủy tour: 70% trên giá tour du lịch.
					- Nếu hủy chuyến du lịch trong vòng từ 02-04 ngày trước ngày khởi hành: Chi phí hủy tour: 90% trên giá vé du lịch.
					- Nếu hủy chuyến du lịch trong vòng 1 ngày trước ngày khởi hành : Chi phí hủy tour: 100% trên giá vé du lịch.
					 
					    Các điều kiện huỷ tour: (đối với ngày lễ, Tết. Áp dụng cho các tour có thời gian diễn ra rơi vào một trong các ngày Lễ,Tết theo qui định ) 
					- Được chuyển sang các tuyến du lịch khác trước ngày khởi  hành 30 ngày : Không mất chi phí.
					- Nếu hủy hoặc chuyển sang các chuyến du lịch khác ngay sau khi đăng ký đến 29 ngày trước ngày khởi hành: Chi phí hủy tour: 50% tiền cọc tour.
					- Nếu hủy hoặc chuyển sang các chuyến du lịch khác từ 20-24 ngày trước ngày khởi hành: Chi phí hủy tour: 100% tiền cọc tour.
					- Nếu hủy chuyến du lịch trong vòng từ 17-19 ngày trước ngày khởi hành: Chi phí hủy tour: 50% trên giá tour du lịch.
					- Nếu hủy chuyến du lịch trong vòng từ 08-16 ngày trước ngày khởi hành: Chi phí hủy tour: 70% trên giá tour du lịch.
					- Nếu hủy chuyến du lịch trong vòng từ 02-07 ngày trước ngày khởi hành: Chi phí hủy tour:  90% trên giá vé du lịch.
					- Nếu hủy chuyến du lịch trong vòng 1 ngày trước ngày khởi hành : Chi phí hủy tour: 100% trên giá vé du lịch.
					 
					Đây điều kiện chung, không áp dụng cho các dòng tour không hủy, không đổi, các tour đăng ký onlines, giảm giá. Thời gian hủy chuyến du lịch được tính cho ngày làm việc, không tính thứ 7, Chủ Nhật và các ngày Lễ, Tết. 
					 
						Mọi chi tiết vui lòng liên hệ:  
						KHỐI KHÁCH LẺ - DU LỊCH TRONG NƯỚC
						190 PASTEUR, PHƯỜNG 6, QUẬN 3, TP.HCM
						Điện thoại: (84-08) 3822 8898 (Xin số: 231, 233,173,237) - Ms Kiều Oanh
						Tư vấn miễn phí: 1800599933/Hotline: 0938 301 399
						Email: nguyenthikieuoanh@vietravel.com 
						 
						VIETRAVEL KÍNH CHÚC QUÝ KHÁCH MỘT CHUYẾN DU LỊCH VUI VẺ
					 
                        Miền NamMiền BắcMiền Trung
			Mọi chi tiết xin vui lòng liên hệ:
							VĂN PHÒNG CHÍNH 
							Trụ sở 1: 190 Pasteur, Quận 3, Tp. Hồ Chí Minh
							Điện thoại: (84-8) 3822 8898 - Fax: (84-8) 3829 9142
							Trụ sở 2: 35 Trần Quốc Toản, Quận 3, Tp. Hồ Chí Minh
							Điện thoại: (84-8) 3820 6777 - Fax: (84-8) 3820 7666
							Email: info@vietravel.com
							Website: www.travel.com.vn
							Khu Vực Thành Phố Hồ Chí Minh
							VĂN PHÒNG ĐĂNG KÝ DU LỊCH PHÚ NHUẬN
							Địa chỉ: 32A Phan Đăng Lưu, P.6, Quận Bình Thạnh, Tp. HCM 
							Điện thoại: (84-8) 355 12345 - Fax: (84-8)355 15311 
							E-mail: vtv.phunhuan@vietravel.com
						VĂN PHÒNG ĐĂNG KÝ DU LỊCH QUẬN GÒ VẤP
						Địa chỉ: 103 Quang Trung, P10, Gò Vấp, Tp. HCM 
						Điện thoại: (84-8) 3989 9334
						Fax: (84-8) 3989 9332
						TRUNG TÂM DU LỊCH LÁ XANH
						Địa chỉ: Tầng Lửng Ga đi Quốc nội - Sân bay Quốc tế Tân Sơn Nhất
						Điện thoại: (84.8) 39 487 053 - (84.8) 39 487 054 
						Fax : (84.8) 39.487.442 
						E-mail : vtv.laxanh@vietravel.com
						VĂN PHÒNG ĐĂNG KÝ DU LỊCH PHÚ MỸ HƯNG
						Địa chỉ: 1481 Nguyễn Văn Linh (Mỹ Toàn 1), Phường Tân Phong, Q.7, Tp. HCM 
						Điện thoại: (84-8) 541 22 777 
						Fax: (84-8) 54 166 678
						E-mail: phumyhung@vietravel.com
						VĂN PHÒNG ĐĂNG KÝ DU LỊCH THỦ ĐỨC
						Địa chỉ: 142 Võ Văn Ngân, P. Bình Thọ, Q. Thủ Đức, Tp. HCM
						Điện thoại: (84-8) 37 225 469 - Fax : (84-8) 37 22 5292
						E-mail : vtv.thuduc@vietravel.com
						VĂN PHÒNG ĐĂNG KÝ DU LỊCH CỘNG HÒA
						Địa chỉ: 492 Cộng Hòa Phường 13 Quận Tân Bình, Tp. HCM 
						Điện thoại: (84-8) 38102 409 - 38102 415 - 38102 431 
						Fax : (84-8) 38102 419
						E-mail : vtv.conghoa@vietravel.com
						VĂN PHÒNG ĐĂNG KÝ DU LỊCH QUẬN 11
						Địa chỉ: 1475 Đường 3/2, Phường 16, Quận 11, Tp. HCM 
						Điện thoại: (84-8) 3969 9439 - Fax: (84-8) 3969 9480 
						E-mail : vtv.caygo@vietravel.com
						VĂN PHÒNG ĐĂNG KÝ DU LỊCH CHỢ LỚN
						Địa chỉ: 30 Châu Văn Liêm, Quận 5, Tp. HCM
						Điện thoại: (84-8) 3853 7237 - Fax: (84-8) 3950 9515
						E-mail: vtv.cholon@vietravel.com
						VĂN PHÒNG ĐĂNG KÝ DU LỊCH ÂU CƠ
						Địa chỉ: 286 Âu Cơ, Phường 9, Tân Bình, Tp. HCM 
						Điện thoại: (84-8) 3975 5011 - Fax: (84-8) 3975 5015
						E-mail: vtv.auco@vietravel.com
						VĂN PHÒNG ĐĂNG KÝ DU LỊCH QUẬN 10
						Địa chỉ: 505 Lê Hồng Phong, P.2, Q.10, Tp. HCM 
						Điện thoại: (84-8) 38 35 64 60 - Fax: (08) 38 35 64 61
						E-mail: vtv.quan10@vietravel.com
						VĂN PHÒNG ĐĂNG KÝ DU LỊCH TÂN ĐỊNH
						Địa chỉ: 35 Trần Quốc Toản, P.8, Q. 3, Tp. HCM 
						Điện thoại: (84-8) 38 20 6777 - Fax : (84-8) 38 20 8727 
						E-mail : vtv.tandinh@vietravel.com
						VĂN PHÒNG ĐĂNG KÝ DU LỊCH QUẬN 4
						Địa chỉ: 143A Khánh Hội, P.3, Q.4, Tp. HCM 
						Điện thoại: (84-8) 39 453 355 , 39 453 085 , 39 453 089 - Fax : (84-8) 39 450 380
						E-mail : vtv.khanhhoi@vietravel.com
							Khu Vực Miền Đông & Tây Nam Bộ
						CHI NHÁNH ĐỒNG NAI
						Địa chỉ: 59 Đường 30/4, Thanh Bình, TP.Biên Hòa, Đồng Nai
						Điện thoại: (84-613) 948 930 - Fax: (84-613) 948 936
						E-mail: vtv.bienhoa@vietravel.com
						CHI NHÁNH CÀ MAU
						Địa chỉ: 90 Trần Hưng Đạo, Phường 5, TP. Cà Mau, Tỉnh Cà Mau
						Điện thoại: (84-780) 3558 899 - Fax : (84-780) 3552 298
						E-mail : vtv.camau@vietravel.com
						CHI NHÁNH BÌNH DƯƠNG
						Địa chỉ: 317 Đại lộ Bình Dương, P.Chánh Nghĩa, TP. Thủ Dầu Một, tỉnh Bình Dương
						Điện thoại: (84-650) 3882 888 - Fax: (84-650) 3882 889 
						E-mail: vtv.binhduong@vietravel.com
						CHI NHÁNH VŨNG TÀU
						Địa chỉ: 150 Trương Công Định, Phường 3, Tp Vũng Tàu
						Điện thoại: (84-64) 383 8138 - Fax: (84-64) 383 8248
						E-mail: vtv.vungtau@vietravel.com
						VĂN PHÒNG ĐĂNG KÝ DU LỊCH BÀ RỊA
						Địa chỉ: 33 Lê Quý Đôn, Phường Phước Trung, Tp Bà Rịa
						Điện thoại: (84-64) 37 38 338 / 37 38 337 / 37 38 339
						Fax : (84-64) 37 38 248
						E-mail : vtv.baria@vietravel.com
						CHI NHÁNH CẦN THƠ
						Địa chỉ: 5 Trần Văn Khéo, Cái Khế, Ninh Kiều ,Cần Thơ
						Điện thoại: (84-710) 3763 085
						Fax: (84-71) 3763 086
						E-mail: vtv.cantho@vietravel.com
						CHI NHÁNH PHÚ QUỐC
						Địa chỉ: 53 Đường 30-4, TT Dương Đông, Phú Quốc, Kiên Giang
						Điện thoại: (84-77) 3996 544 - Fax: (84-77) 3996 543 
						E-mail: vtv.phuquoc@vietravel.com
						QUẦY KHAI THÁC DỊCH VỤ SÂN BAY PHÚ QUỐC
						Điện thoại: (077) 3703 003
						CHI NHÁNH LONG XUYÊN
						Địa chỉ: 23A Đường Lý Thái Tổ, P. Mỹ Long, TP. Long Xuyên
						Điện thoại: (84-76) 39 23 567
						Fax : (84-76) 39 23 123
						E-mail : vtv.longxuyen@vietravel.com
						VĂN PHÒNG ĐĂNG KÝ DU LỊCH CHÂU ĐỐC
						Địa chỉ: 69 Đường Chi Lăng, Khóm 5, Phường Châu Phú A, Tp. Châu Đốc, An Giang
						Điện thoại: (84-763)569.588
						Fax: (84-763)569.566
						CHI NHÁNH RẠCH GIÁ
						Địa chỉ: 150 Nguyễn Trung Trực, P.Vĩnh Bảo, TP.Rạch Giá, Kiên Giang
						Điện thoại: (84-77) 3 577 999
						Fax: (84-77) 3 577 888
						E-mail: vtv.rachgia@vietravel.com
						 
			 
			Mọi chi tiết xin vui lòng liên hệ:
							Khu Vực Miền Bắc
						CHI NHÁNH HÀ NỘI
						Địa chỉ: 03 Hai Bà Trưng, Quận Hoàn Kiếm, Hà Nội
						Điện thoại: (84-4) 3933 1978 - Fax: (84-4) 3933 1979
						E-mail: vtv.hanoi@vietravel.com
						VĂN PHÒNG GIAO DỊCH SỐ 01 - HÀ NỘI
						Địa chỉ: 20 Trần Thái Tông - Dịch Vọng Hậu, Cầu Giấy, Hà Nội
						Điện thoại: (84-4) 6269 2858 - Fax: (84-4) 6269 2852
						E-mail: vietravelhanoi.vp1@vietravel.com
						VĂN PHÒNG GIAO DỊCH SỐ 02 - HÀ NỘI
						Địa chỉ: 299 Phố Quang Trung, Phường Quang Trung, Q. Hà Đông, Hà Nội
						Điện thoại: (84-4) 3398 5555 - Fax: (84-4) 3311 9520
						E-mail: vietravelhanoi.vp2@vietravel.com
						VĂN PHÒNG GIAO DỊCH SỐ 03 - HÀ NỘI
						Địa chỉ: 262 Phố Xã Đàn, P. Phương Liên, Q. Đống Đa, Hà Nội
						Điện thoại: (84-4) 3765 3333 - Fax: (84-4) 3572 1003
						E-mail: vietravelhanoi.vp3@vietravel.com
						VĂN PHÒNG GIAO DỊCH SỐ 04 - HÀ NỘI
						Địa chỉ: 445 Nguyễn Văn Cừ, Phường Gia Thụy, Quận Long Biên, TP. Hà Nội
						Điện thoại: (84-4) 3873 5555 - Fax: (84-4) 3873 2089
						E-mail: vietravelhanoi.vp4@vietravel.com
						VĂN PHÒNG GIAO DỊCH SỐ 05 - HÀ NỘI
						Địa chỉ: 02 Trần Thánh Tông, Quận Hai Bà Trưng, TP. Hà Nội
						Điện thoại: (84-4) 397 11156 - Fax: (84-4) 397 10442
						E-mail: vietravelhanoi.vp5@vietravel.com
						CHI NHÁNH QUẢNG NINH
						Số 18 đường 25/4, Phường Bạch Đằng, TP. Hạ Long, Quảng Ninh
						Điện thoại: (84-33) 626 2266
						Email: vtv.quangninh@vietravel.com
						CHI NHÁNH HẢI PHÒNG
						Địa chỉ: 04 trần Hưng Đạo, P.Hoàng Văn Thụ, Q.Hồng Bàng, Hải Phòng
						Điện thoại: (84-31) 3842 888 – (84-31) 3686 662 - Fax: (84-31) 3842 828
						E-mail: vtv.haiphong@vietravel.com
						CHI NHÁNH VINH
						51 Nguyễn Sỹ Sách, TP. Vinh, Tỉnh Nghệ An
						Điện thoại: (84-38) 355 2299 - Fax: (84-38) 356 6108
						E-mail : vtv.vinh@vietravel.com
						 
			 
			Mọi chi tiết xin vui lòng liên hệ:
							Khu Vực Miền Trung
						CHI NHÁNH NHA TRANG
						Địa chỉ: 100 Quang Trung, P. Lộc Thọ, Tp. Nha Trang, Khánh Hòa
						Điện thoại: (84.58) 35 26 577 
						Fax : (84.58) 35 26 576
						E-mail : vtv.nhatrang@vietravel.com
						CHI NHÁNH HUẾ
						Địa chỉ: 17 Lê Quý Đôn, TP. Huế.
						Điện thoại: (84-54) 38 31 432 - Fax: (84-54) 38 31 431 
						E-mail: vtv.hue@vietravel.com
						CHI NHÁNH ĐÀ NẴNG
						Địa chỉ: 58 Pasteur, Hải Châu, Đà Nẵng
						Điện thoại: (84-511) 3863 544 - Fax: (84-511) 3863 571
						E-mail: vtv.danang@vietravel.com
						VĂN PHÒNG ĐĂNG KÝ DU LỊCH LIÊN CHIỂU
						Địa chỉ : 71 Nguyễn Lương Bằng, P. Hòa Khánh Bắc, Q. Liên Chiểu, TP. Đà Nẵng
						Điện thoại: (84-511) 3740 142 - Fax:(84-511) 3740 143
						E-mail: vtv.lienchieu@vietravel.com
						CHI NHÁNH QUI NHƠN
						Địa chỉ: 515 Trần Hưng Đạo, Quy Nhơn, Bình Định
						Điện thoại: (84-56) 382 9979 - Fax: (84-56) 381 7679
						E-mail: vtv.quinhon@vietravel.com
						CHI NHÁNH QUẢNG NGÃI
						Địa chỉ: 516 Quang Trung, P.Nguyễn Nghiêm, TP.Quảng Ngãi
						Điện thoại: (84-55) 3719 123 - 3719 234
						Fax : (84-55) 3719 345
						E-mail : vtv.quangngai@vietravel.com
						CHI NHÁNH BUÔN MA THUỘT
						Địa chỉ: 70 Phan Chu Trinh, phường Thắng Lợi, TP. Buôn Mê Thuột
						Điện thoại: (84-500) 3753 999
						Email: vtv.buonmethuot@vietravel.com
						CHI NHÁNH ĐÀ LẠT
						Địa chỉ: 01 Lề Hồng Phong, Phường 4, TP. Đà Lạt
						Điện thoại: (84.63) 3818 586
						Fax:(84.63) 3818 485
						Email: vtv.dalat@vietravel.com
			 
                         Ngày hiện tại
                         Ngày đã chọn
                         Ngày khác
                    Xem tất cả chương trình Tour du lịch tháng 1 và Tour du lịch 5 ngày
                    Du lịch theo chủ đề : 
                    Tweet
                                Đặt ngay                        
        Ý kiến khách hàng (0)
            Các tour tương tự
            Theo giáNgày khởi hànhSố ngày đi tour
                    Hà Nội - Tây Bắc Mùa Hoa Cải Trắng :Đền Hùng - Nghĩa Lộ - Tú Lệ - ...
                    Thời gian: 6 ngày 
                    Giá: 8.790.000₫
                    Khởi hành: 25/11/2016  Ngày khác
                            Số chỗ còn nhận: 4
                                Đặt ngay
                    Hà Nội - Du Thuyền Hạ Long Cao Cấp Pelican Cruise - Bái Đính - Tr ...
                    Thời gian: 4 ngày 
                    Giá: 8.590.000₫
                    Khởi hành: 26/11/2016  Ngày khác
                            Số chỗ còn nhận: 9
                                Đặt ngay
                    Hà Nội - Du Thuyền Hạ Long Cao Cấp Pelican Cruise - Bái Đính - Tr ...
                    Thời gian: 4 ngày 
                    Giá: 9.090.000₫
                    Khởi hành: 26/11/2016  Ngày khác
                            Số chỗ còn nhận: 4
                                Đặt ngay
                    Hà Nội - Đông Bắc: Hà Giang - Lũng Cú - Đồng Văn - Mã Pí Lèng - M ...
                    Thời gian: 6 ngày 
                    Giá: 8.990.000₫
                    Khởi hành: 02/12/2016  Ngày khác
                            Số chỗ còn nhận: 4
                                Đặt ngay
                    Hà Nội - Sapa - Chinh phục nóc nhà Đông Dương Fansipan - Lào Cai  ...
                    Thời gian: 5 ngày 
                    Giá: 13.490.000₫
                    Khởi hành: 28/01/2017  Ngày khác
                            Số chỗ còn nhận: 9
                                Đặt ngay
                    Hà Nội - Lào Cai - Sapa - Fansipan - Hà Nội (Mùng 1)
                    Thời gian: 4 ngày 
                    Giá: 11.990.000₫
                    Khởi hành: 28/01/2017  Ngày khác
                            Số chỗ còn nhận: 9
                                Đặt ngay
                    Hà Nội - Yên Tử - Hạ Long - Động Thiên Cung - Bái Đính - Tràng An ...
                    Thời gian: 4 ngày 
                    Giá: 11.990.000₫
                    Khởi hành: 28/01/2017  Ngày khác
                            Số chỗ còn nhận: 9
                                Đặt ngay
                    Hà Nội - Sapa - Chinh phục nóc nhà Đông Dương Fansipan - Hà Nội - ...
                    Thời gian: 6 ngày 
                    Giá: 14.590.000₫
                    Khởi hành: 28/01/2017  Ngày khác
                            Số chỗ còn nhận: 9
                                Đặt ngay
                    Hà Nội - Lào Cai - Sapa - Chinh phục nóc nhà Đông Dương Fansipan  ...
                    Thời gian: 5 ngày 
                    Giá: 7.590.000₫
                    Khởi hành: 28/11/2016  Ngày khác
                            Số chỗ còn nhận: 9
                                Đặt ngay
                    Hà Nội - Lào Cai - Sapa - Chinh phục nóc nhà Đông Dương Fansipan  ...
                    Thời gian: 5 ngày 
                    Giá: 7.290.000₫
                    Khởi hành: 30/11/2016  Ngày khác
                            Số chỗ còn nhận: 9
                                Đặt ngay
                    Hà Nội - Lào Cai - Sapa - Chợ Phiên Bắc Hà - Yên Tử - Hạ Long - C ...
                    Thời gian: 5 ngày 
                    Giá: 7.790.000₫
                    Khởi hành: 02/12/2016  Ngày khác
                            Số chỗ còn nhận: 9
                                Đặt ngay
                    Hà Nội: Miền Giáo Đường- Côn Sơn Kiếp Bạc - Chùa Ba Vàng - Hạ Lon ...
                    Thời gian: 5 ngày 
                    Giá: 7.790.000₫
                    Khởi hành: 21/12/2016  Ngày khác
                            Số chỗ còn nhận: 9
                                Đặt ngay
            Bài viết liên quan
                Không có dữ liệu
            Gửi email cho bạn bè
            Email 
                    Email người nhận *
                    Nội dung *
                        Gửi email
            Tóm tắt chương trình tour
Ngày 1 : TP.HCM - HUẾ (Ăn 1 bữa: chiều)
Ngày 2 : HUẾ - LA VANG - ĐỘNG PHONG NHA                                     Số bữa ăn: 3 bữa (sáng, trưa,chiều)
Ngày 3 : HUẾ - LĂNG CÔ - ĐÀ NẴNG                 Số bữa ăn: 3 bữa (sáng, trưa, chiều)
Ngày 4 : ĐÀ NẴNG - BÀ NÀ - HỘI AN                                          Số bữa ăn: 2 bữa (sáng, chiều, Ăn trưa tự túc) 
Ngày 5 : ĐÀ NẴNG – SƠN TRÀ  - TP.HCM                                                       Số bữa ăn: 2 bữa (sáng, trưa) 
                ĐẶT NGAY
        Du lịch giá tốt
                    Đào Viên - Đài Trung - Cao Hùng - Đài Nam - Đài Bắc (Khách sạn 4*) (Giảm gi ...
                    13.990.000₫
                    Giá đã giảm 3.000.000₫
                        Khởi hành
                        10/12/2016
                    Tokyo - Odaiba - Núi Phú Sĩ - Kyoto - Kobe - Osaka (Thưởng thức trái cây) " ...
                    42.990.000₫
                    Giá đã giảm 1.000.000₫
                        Khởi hành
                        17/12/2016
                    Seoul - Jeju - Seoul - Everland - Nami "Áp dụng 19/11"
                    26.990.000₫
                    Giá đã giảm 1.000.000₫
                        Khởi hành
                        23/12/2016
                    Hà Lan - Đức - Luxembourg - Bỉ - Pháp (Đón Giáng Sinh và Năm mới 2017 tại c ...
                    57.990.000₫
                    Giá đã giảm 2.000.000₫
                        Khởi hành
                        24/12/2016
                    Osaka-Kobe-Kyoto-Núi Phú Sĩ-Hồ Yamanaka-Tokyo-Khu trượt tuyết Grinpa-Odaiba ...
                    44.990.000₫
                    Giá đã giảm 1.000.000₫
                        Khởi hành
                        27/12/2016
                    Ý: Milano - Venice - Florence - Pisa - Rome (Đón Năm mới 2017 tại châu Âu.  ...
                    42.990.000₫
                    Giá đã giảm 4.000.000₫
                        Khởi hành
                        30/12/2016
                Du lịch trong nướcDu lịch Hà NộiDu lịch Tây NguyênDu lịch Thái NguyênDu lịch Đà NẵngDu lịch Phú QuốcDu lịch Hạ LongDu lịch HuếDu lịch Nha TrangDu lịch Lào CaiDu lịch Quảng NamDu lịch Đà LạtDu lịch Hải PhòngDu lịch Bắc NinhDu lịch Phú ThọDu lịch Ninh BìnhDu lịch Hà TâyDu lịch Lạng SơnDu lịch Quảng TrịDu lịch Quảng BìnhDu lịch Bảo LộcDu lịch Ban Mê ThuộtDu lịch Kon TumDu lịch PleikuDu lịch Phan ThiếtDu lịch Đồng NaiDu lịch Vũng TàuDu lịch Tiền GiangDu lịch Hà TiênDu lịch Cần ThơDu lịch Vĩnh LongDu lịch Sóc TrăngDu lịch Bình ĐịnhDu lịch An GiangDu lịch Hà TĩnhDu lịch Yên Bái
                Du lịch nước ngoàiDu lịch MaltaDu lịch CroatiaDu lịch BosniaDu lịch SerbiaDu lịch CampuchiaDu lịch PanamaDu lịch MexicoDu lịch OmanDu lịch BhutanDu lịch HawaiiDu lịch SloveniaDu lịch Madagascar Du lịch Nhật BảnDu lịch Hoa KỳDu lịch Thái LanDu lịch Hàn QuốcDu lịch PhápDu lịch SingaporeDu lịch Hồng Kông & MacauDu lịch ÚcDu lịch Trung QuốcDu lịch MalaysiaDu lịch Ai CậpDu lịch Nam PhiDu lịch Triều TiênDu lịch Ấn ĐộDu lịch Trung ĐôngDu lịch BruneiDu lịch NgaDu lịch UzbekistanDu lịch Đài LoanDu lịch IndonesiaDu lịch ISRAELDu lịch LàoDu lịch Canada
                         Tìm kiếm Google
        Trang chủTin tứcVideoTạp chí du lịchCẩm nang du lịchKinh nghiệm du lịchSitemapKhuyến mạiLiên hệ
            Bản quyền của Vietravel ® 2016. Bảo lưu mọi quyền. Ghi rõ nguồn "www.travel.com.vn" ® khi sử dụng lại thông tin từ website này
            Trụ sở chính: 190 Pasteur, Phường 6, Quận 3, Tp. Hồ Chí Minh. Điện thoại: (84-8) 3822 8898. Fax: (84-8) 3829 9142. Email : info@vietravel.com  
            Số GPKD: 0300465937 do Sở Kế Hoạch và Đầu Tư Thành Phố Hồ Chí Minh cấp ngày 27/09/2010 
            Giấy phép số: 239/GP-TTĐT do Cục Quản Lý Phát Thanh, Truyền Hình và Thông Tin Điện Tử cấp ngày 31/12/2008
            Vietravel toolbar | Chính sách riêng tư | Thỏa thuận sử dụng
        VietravelThuê xeVé máy bayKhách sạnXuất khẩu lao động
        Du lịchIncomming tourFree & easyTrường dạy nghề
         Tour đã xem
                    Sihanouk Ville-Bokor-Phnom Penh - K ...
                    Singapore - Malaysia - Mùng 01 Tết  ...
                    Malaysia - Singapore - Mùng 01 Tết  ...
                    Siem Riep-Phnom Penh - Khách sạn 4* ...
                    Hà Nội - Vinpearl Hạ Long Resort 5* ...
                    Hà Nội: Miền Giáo Đường- Côn Sơn Ki ...
                    Ban Mê Thuột - Thác Daynur - Cưỡi V ...
                    Hà Nội - Bái Đính - Tràng An - Hạ L ...
                    Hà Nội - Vinpearl Hạ Long Resort 5* ...
                    Hà Nội - Lào Cai - Sapa - Chợ Phiên ...
                    Hà Nội - Yên Tử - Hạ Long - Hang Sử ...
                    Siem Riep-Phnom Penh - Khách sạn 4*
                    Bangkok-Pattaya - Khách sạn 3* Tặng ...
                    Singapore (Một ngày tự do)Tham quan ...
                    Huế - La Vang - Động Phong Nha - Bà ...
