url:https://www.ivivu.com/khach-san-hoi-an?s=30
Tittle :Khách sạn Hội An 3 sao
content :1900 1870từ 7h30-21h hàng ngày
                        Khách sạn
                        Tours
                        Ưu đãi đặc biệt
                        Cẩm nang du lịch
                    Giới thiệuHỏi đápHỗ trợ
                    >
                ×
                Thông tin đăng nhập
                        Tên đăng nhập:
                        Mật khẩu:
                Đăng nhập
                        Tìm nhanh khách sạn
                        Ngày nhận phòng
                        Số đêm
                                12345678910111213141516171819202122232425262728293030+
                        Ngày trả phòng
                         
                        Trang chủ
                        Việt Nam
                        Hội An
                        3 sao 
                Khách sạn Hội An 3 sao 
                Hội An
                 XEM BẢN ĐỒ
                Cập nhật giá
                Sắp xếp theo: 
                                    iVIVU đề xuất
                                    Đề xuất
                                    Giá phòng
                                     Giá
                                    Hạng sao
                                         Sao
                        iVIVU đề xuấtGiá phòng - Tăng dần ▲Giá phòng - Giảm dần ▼Hạng sao - Tăng dần ▲Hạng sao - Giảm dần ▼
                    Khách sạn Đèn Lồng Hội An
                 288 Nguyễn Duy Hiệu, Phố cổ Hội An, Việt Nam
                    8.2
                    Rất tốt
                                    31 nhận xét
                Bản đồ
                    Trung tâm phố cổCách biển Cửa Đại 3kmHồ bơiDịch vụ SpaBãi đậu xe
                        Liên hệ
                        1900 1870
                         giá rẻ bất ngờ
                Chi tiết
                    KimAn Hoi An Hotel & Spa
                 461- 463 Hai Bà Trưng, TP.Hội An, Việt Nam
                    8.8
                    Rất tốt
                                    18 nhận xét
                Bản đồ
                    Hồ bơi trong nhàXe đạp miễn phíGần phố cổDịch vụ tourDịch vụ Spa
                    768.817 VND
                Chi tiết
                    Khách sạn Bạch Đằng Hội An
                 01 đường Nguyễn Tất Thành, Phường Cẩm Phổ , thành phố Hội An., Việt Nam
                    7.8
                    Rất tốt
                                    17 nhận xét
                Bản đồ
                    Hồ bơiBữa sáng miễn phíCó nôi cho trẻ sơ sinhDịch vụ tiệc cướiDịch vụ đưa đón sân bay
                    867.300 VND
                Chi tiết
                    Khách sạn Vạn Lợi
                 54 Nguyễn Tri Phương, TP.Hội An, Việt Nam
                    9.0
                    Tuyệt vời
                                    25 nhận xét
                Bản đồ
                    Hồ bơiLớp học nấu ănQuầy hàng lưu niệmCách Làng rau Trà Quế 2kmDịch vụ hội nghị
                    590.000 VND
                Chi tiết
                    Khách sạn Maison Vy Hội An
                 544 Cửa Đại, thành phố Hội An, Quảng Nam, Việt Nam
                                Bản đồ
                    Khách sạn mớiKiến trúc độc đáoHồ bơi ngoài trời
                    1.905.000 VND
                Chi tiết
                    Khách Sạn  Vĩnh Hưng Library Hội An
                 Số 96, đường Bà Triệu, Thành phố Hội An ,  Tỉnh Quảng Nam, Việt Nam
                                Bản đồ
                    hồ bơithư việnthang máyphòng Family 3 khách
                    790.556 VND
                Chi tiết
                    Lemongrass Homestay Hội An
                 Số 163, đường Nguyễn Trãi  phường Cẩm Châu, thành phố Hội An, tỉnh Quảng Nam, Việt Nam
                                Bản đồ
                    Sân vườnPhòng Family 3 kháchHồ bơi ngoài trời
                    527.038 VND
                Chi tiết
                    Green Field Villas Hội An
                 250/7 Nguyễn Duy Hiệu, Trung tâm thành phố, Việt Nam
                    8.1
                    Rất tốt
                                    28 nhận xét
                Bản đồ
                    Hồ bơi ngoài trờiDịch vụ SpaDịch vụ đưa đón sân bayBữa sáng miễn phí
                    861.340 VND
                Chi tiết
                    Khách sạn Sea and Sand Hội An
                 15 Cua Dai Street, Hoi An City, Quang Nam, Việt Nam
                                Bản đồ
                    Dịch vụ visaDịch vụ trông trẻĂn sáng miễn phíBãi biển riêngDịch vụ tour
                    671.256 VND
                Chi tiết
                    Khu nghỉ dưỡng Phố Hội Riverside
                 Xuyen Trung, Việt Nam
                                Bản đồ
                    Dịch vụ cướiĂn sáng miễn phíDịch vụ trông trẻHồ bơiDịch vụ spa
                    904.557 VND
                Chi tiết
                    TNT Villa Hội An
                 100 Trần Hưng Đạo, Hội An, Quảng Nam, Việt Nam
                                Bản đồ
                    Khu vực trung tâmHồ bơi ngoài trờiDịch vụ thu đổi ngoại tệPhòng gia đìnhCho thuê xe
                        Liên hệ
                        1900 1870
                         giá rẻ bất ngờ
                Chi tiết
    11 khách sạn Hội An
                        Cần đặt phòng? 
                        Gọi ngay
                        Diễm Nguyễn
                            19001870
                        Cần đặt phòng? 
                        Gọi ngay
                        Vân Nguyễn
                            19001870
                 BỘ LỌC TÌM KIẾM
    Tìm khách sạn Hội An
          Xếp hạng khách sạn Hội An
            Tất cả
      Mức giá khách sạn Hội An
        Tất cảDưới 500.000500.000 đến 1.000.0001.000.000 đến 2.000.0002.000.000 đến 5.000.000Trên 5.000.000
        Địa điểm khách sạn Hội An
                        Tất cả
                        Gần Bãi biển Cửa Đại
                        Gần Cầu Nhật Bản
                        Gần Phố cổ Hội An
                        Ở Bờ sông Hội An
                        Phố cổ
                        Xem thêm
                        Thu gọn
    Tiện ích khách sạn Hội An
            Tất cả
                            Phòng gia đình
                            Bãi đậu xe ô tô tại khách sạn
                            Thang máy
                            Hồ bơi
                            Phòng tập thể (dorm)
                            Kid Club
            Kinh nghiệm du lịch Hội An
                        Cuộc sống thường nhật của cư dân, các lễ hội văn hoá cùng với cảnh quan thiên nhiên thơ mộng, các món ăn đặc sản… làm cho Hội An ngày càng hấp dẫn du khách thập phương.
Bạn sẽ tiếc biết bao nhiêu nếu bỏ qua những điều tuyệt diệu còn ẩn giấu của phố cổ nổi bật nhất con đường di sản miền Trung này. Cùng Thổ địa iVIVU.com khám phá tận những ngóc ngách của thành phố nhỏ xinh đẹp này nhé!
                            Xem thêm
                                Đặt phòng theo đoàn?
                                iVIVU đảm bảo sẽ tìm kiếm deal tốt nhất cho bạn!
                        Đặt ngay 
                    ×
                    ĐẶT PHÒNG ĐOÀN
                        Khi đặt phòng theo đoàn với iVIVU.com, bạn sẽ có được khách sạn phù hợp nhất với giá tốt nhất mà không phải tốn thời gian tìm kiếm.
                                 Yêu cầu
                                         Điện thoại 
                                             Email
                                        *
                                 Vui lòng nhập địa điểm.
                                 Chưa nhập địa chỉ email hoặc địa chỉ email chưa đúng
                                 Vui lòng nhập số điện thoại.
                        • iVIVU.com cam kết đảm bảo an toàn thông tin của quý khách hàng. 
                        • Quý khách hàng có thể yêu cầu ngưng dịch vụ tìm kiếm deal tốt nhất bất cứ lúc nào.
                        Đặt phòng đoàn
                         Khách sạn Hội An theo hạng sao
                            Khách sạn 1 sao tại Hội An
                            Khách sạn 2 sao tại Hội An
                            Khách sạn 3 sao tại Hội An
                            Khách sạn 4 sao tại Hội An
                            Khách sạn 5 sao tại Hội An
                             Khách sạn Hội An tại các địa điểm phổ biến
                                Gần Bãi biển Cửa Đại
                                Gần Cầu Nhật Bản
                                Gần Phố cổ Hội An
                                Ở Bờ sông Hội An
                                Phố cổ
                         Khách sạn tại các địa điểm du lịch nổi tiếng khác
                            Khách sạn Đak Nông
                            Khách sạn Ninh Thuận
                            Khách sạn Kon Tum
                            Khách sạn Quảng Trị
                            Khách sạn Tỉnh Quảng Bình
                            Khách sạn Gia Lai
                            Khách sạn Điện Biên
                            Khách sạn Vĩnh Phúc
                            Khách sạn Hà Tĩnh
                            Khách sạn Đồng Nai
                            Khách sạn Bình Dương
                            Khách sạn Bình Định
                            Khách sạn Hải Dương
                            Khách sạn Tiền Giang
                            Khách sạn Phú Yên
                            Khách sạn Tỉnh Kiên Giang
                            Khách sạn Đaklak
                            Khách sạn Cát Bà
                            Khách sạn Châu Đốc
                            Khách sạn Cần Thơ
                            Khách sạn Phú Quốc
                            Khách sạn Đà Nẵng
                            Khách sạn Phan Thiết
                            Khách sạn Nha Trang
                            Khách sạn Hà Nội
                            Khách sạn Huế
                            Khách sạn Hồ Chí Minh
                            Khách sạn Phan Rang
                            Khách sạn Long Hải
                            Khách sạn Mũi Né
                            Khách sạn Vịnh Hạ Long
                            Khách sạn Tam Hải
                            Khách sạn Hồ Tràm
                            Khách sạn Vũng Tàu
                            Khách sạn Hải Phòng
                            Khách sạn Ninh Bình
                            Khách sạn Sapa
                            Khách sạn Côn Đảo
                            Khách sạn Nghệ An
                            Khách sạn Quảng Bình
                            Khách sạn Quy Nhơn
                            Khách sạn Thanh Hóa
                            Khách sạn Tuy Hòa
                            Khách sạn Đà Lạt
                            Khách sạn Lagi
                            Khách sạn Quảng Ngãi
                            Khách sạn Lăng Cô
                            Khách sạn Trảng Bom
                            Khách sạn Pleiku
                            Khách sạn Buôn Mê Thuột
                            Khách sạn Hà Giang
                            Khách sạn Cái Bè
                            Khách sạn Lào Cai
                    ×
                    Cập nhật giá khách sạn
                                                Ngày nhận
                                            Số đêm
                                                    12345678910111213141516171819202122232425262728293030+
                                                Ngày trả
                                            Số phòng
                                            Người lớn
                        Cập nhật lại giá khách sạn
                        Về iVIVU.comChúng tôiiVIVU BlogPMS - Miễn phí
                        Thông Tin Cần BiếtĐiều kiện & Điều khoảnQuy chế hoạt độngCâu hỏi thường gặp
                        Đối Tác & Liên kết
                                    Vietnam
                                    Airlines
                            VNExpressTiki.vn - Mua sắm online
                        Được chứng nhận
                                iVIVU.com là một thành viên của Thiên Minh Groups
                                Bạn cần trợ giúp? Hãy gọi ngay
                                        CSKH: 1900 1870
                                        Khác:   (08) 3930 8290
                                         Từ 7h30 - 21h hằng ngày
                                    iVIVU.com © 2016 - 
                                        Hệ thống đặt phòng khách sạn trực tuyến hàng
                                        đầu Việt Nam
                                        DKKD: 0312788481, Ngày cấp: 21/05/2014, Sở kế hoạch đầu tư thành phố Hồ Chí Minh
                                        HCM: Lầu 7, Tòa nhà Anh Đăng, 215 Nam Kỳ Khởi Nghĩa, Phường 7, Quận 3, Tp. Hồ Chí Minh
                                        (Xem bản đồ)
                                        HN: Lầu 9, 70-72 Bà Triệu, Quận Hoàn Kiếm, Hà Nội
                                        (Xem bản đồ)
                                        Like để cập nhật cẩm nang du lịch
                                            tc@ivivu.com
    Xin Quý khách đợi trong giây lát
        Vui lòng để lại thông tin yêu cầu đặt phòng khách sạn của Quý khách.
                Giá chỉ mang tính chất tham khảo và không áp dụng vào các ngày lễ tết. Chúng tôi sẽ liên hệ lại trong 24h.
            Họ & Tên: 
            Số điện thoại: 
            Email: 
            Vùng/thành phố yêu cầu:
            Tên khách sạn:
                Ngày nhận phòng:
                Ngày trả phòng:
            Yêu cầu khác:
        Gửi yêu cầu
           ×
                Bản đồ
