url:https://www.ivivu.com/khach-san-maldives-maldives/khu-nghi-duong-club-med-kani
Tittle :Khu nghỉ dưỡng Club Med Kani
content :1900 1870từ 7h30-21h hàng ngày
                        Khách sạn
                        Tours
                        Ưu đãi đặc biệt
                        Cẩm nang du lịch
                    Giới thiệuHỏi đápHỗ trợ
                    >
                ×
                Thông tin đăng nhập
                        Tên đăng nhập:
                        Mật khẩu:
                Đăng nhập
                        Tìm nhanh khách sạn
                        Ngày nhận phòng
                        Số đêm
                                12345678910111213141516171819202122232425262728293030+
                        Ngày trả phòng
                         
                        Trang chủ
                        Maldives
                        Maldives
                    Khu nghỉ dưỡng Club Med Kani
            Khu nghỉ dưỡng Club Med Kani
                        Giá chỉ từ
                            15.536.613 VND
                Đặt phòng này
                North Male Atoll, Kani Island, Maldives, Maldives
                //cdn1.ivivu.com/iVivu/2016/09/29/10/khu-nghi-duong-club-med-kani.png
            Giá phòng tại Khu nghỉ dưỡng Club Med Kani
                            Ngày nhận phòng: 20-11-2016 - 21-11-2016
                            |1 đêm
                            |0 phòng
                            |0 người lớn
                            |0 trẻ em
                                    Thay đổi tìm kiếm
                        Rất tiếc chúng tôi không còn phòng trong thời gian này. Bạn vui lòng chọn thời gian khác.
                                            Ngày nhận phòng
                                            Ngày trả phòng
                                            Số đêm
                                        Số phòng
                                        Người lớn
                                        Trẻ em
                                        Cập nhật
    Đang lấy thông tin giá
    Giá phòng đã bao gồm: 10% thuế GTGT, 5% phí dịch vụ
    Loại phòngTối đaGiá phòng/đêmSố phòngĐặt phòng
        Tiện ích của Khu nghỉ dưỡng Club Med Kani
    Dịch vụ đưa đón sân bay
    Truyền hình vệ tinh / cáp
    Bãi biển riêng
    Bồn tắm
    Phục vụ phòng
    Dịch vụ giặt ủi
    Hồ bơi ngoài trời
    Máy sấy tóc
    Bar/Club/Pub
    Quầy lễ tân 24h
    Hoạt động thể thao dưới nước
    Nhà hàng, Khu ăn uống
    Dịch vụ thu đổi ngoại tệ
    Điện thoại
    Két sắt an toàn
    Connecting Rooms
    Spa/Beauty Salon/Massage
                Xem tất cả
        Thông tin Khu nghỉ dưỡng Club Med Kani
        Khu nghỉ dưỡng Club Med Kani tọa lạc tại hoàn đảo riêng mang tên chính khu nghỉ dưỡng Kani thơ mộng ở Maldives, cách 20 km về phía bắc của Sân bay quốc tế Malé tại Maldives - được mô tả như là "viên ngọc xanh ở giữa Ấn Độ Dương". 
Khu nghỉ dưỡng Club Med Kani là lựa chọn lý tưởng cho quý khách khi tìm kiếm một nơi nghỉ dưỡng trọn gói với các tiện nghi cao cấp và dịch vụ độc quyền, chuyên nghiệp. Đây là một điểm đến lý tưởng để thư giãn, tham gia các hoạt động thể thao trên biển và tận hưởng những phút giây nghỉ nơi vô cùng lãng mạn và hạnh phúc.
        Chính sách của Khu nghỉ dưỡng Club Med Kani
            Thời gian nhận phòng
            14:00
            Thời gian trả phòng 
            12:00
                        Chương trình khuyến mãi
                        Gói khuyến mãi bao gồm:
1. Ba bữa ăn (Ăn sáng, ăn trưa và ăn tối)
2. Miễn phí rượu vang, bia và đồ uống trong suốt bữa trưa và bữa tối
3. Quầy bar không giới hạn và ăn nhẹ tại thời điểm được chọn
4. Tất cả các hoạt động thể thao 
5. Các hoạt động giải trí ban đêm đặc sắc
Lưu ý: Đặt tối thiểu 2 đêm. Đặt tối thiểu 3 đêm trong giai đoạn cao điểm hoặc Lễ Tết.
Chính sách phụ thu trẻ em: Phòng Club Room (CR) và Beach Deluxe (BD)
- Miễn phí đối với trẻ 0-3 tuổi
- Trẻ từ 4-11 tuổi phụ thu như sau:
+ 8/10/2016-31/10/2916: 2.790.000vnđ/trẻ/đêm(CR), 4.455.000vnđ/trẻ/đêm(BD)
+ 1/11/2016-2/12/2016: 2.565.000vnđ/trẻ/đêm(CR), 4.117.500vnđ/trẻ/đêm(BD)
+ 3/12/2016-23/12/2016: 2.947.500vnđ/trẻ/đêm(CR), 4.702.500vnđ/trẻ/đêm(BD)
+ 24/12/2016-1/1/2017: 4.815.000vnđ/trẻ/đêm(CR), 7.717.500vnđ/trẻ/đêm(BD)
+ 2/1/2017-6/1/2017: 4.185.000vnđ/trẻ/đêm(CR), 6.682.500vnđ/trẻ/đêm(BD)
+ 7/1/2017-26/1/2017: 3.217.500vnđ/trẻ/đêm(CR), 5.130.000vnđ/trẻ/đêm(BD)
+ 27/1/2017-4/2/2017: 4.275.000vnđ/trẻ/đêm(CR), 6.817.500vnđ/trẻ/đêm(BD)
+ 5/2/2017-24/2/2017: 3.375.000vnđ/trẻ/đêm(CR), 5.400.000vnđ/trẻ/đêm(BD)
+25/2/2017-7/4/2017: 3.217.500vnđ/trẻ/đêm(CR), 5.130.000vnđ/trẻ/đêm(BD)
+ 8/4/2017-30/4/2017: 3.127.500vnđ/trẻ/đêm(CR), 5.017.500vnđ/trẻ/đêm(BD)
                        Hướng dẫn nhận phòng
                        - Quý khách vui lòng xuất trình Hộ chiếu và Voucher khi nhận phòng do iVIVU.com cung cấp(Khách sạn có thể sẽ yêu cầu Quý khách số thẻ tín dụng hoặc tiền đặt cọc cho các dịch vụ phát sinh trong thời gian lưu trú của Quý khách)
Lưu ý dành cho khách hàng:- Nhận phòng sớm hoặc trả phòng trễ phụ thuộc vào tình trạng phòng thực tế của Khách sạn. - Mọi chi phí phát sinh không được xác nhận trong đặt phòng này, Quý khách vui lòng thanh toán trực tiếp tại Khách sạn. - Nếu Quý khách có nhu cầu xuất hóa đơn vui lòng cung cấp thông tin và địa chỉ xuất hóa đơn ngay khi thanh toán đơn phòng. Chúng tôi sẽ không thể xuất hóa đơn nếu Quý khách gửi thông tin chậm hơn thời gian trên.
                        Lưu ý
                       - Giá phòng chưa bao gồm phí môi trường 135.000vnđ/người/đêm.
- Trẻ dưới 14 tuổi không được ở Lagoon Suites.
- Phụ phí cho Connecting Room: 496.125vnđ/đêm (từ nay đến 31/10/2016) hoặc 519.750vnđ/đêm (từ 1/11/2016 đến 30/04/2017).
- Đưa đón sân bay:
+ Từ nay đến 31/10/2016: Phụ thu 4.005.000vnđ/ người/ 2 chiều.
+ Từ 1/11/2016 đến 30/04/2017: Phụ thu 3.960.000vnđ/ người/ 2 chiều.
    Liên hệ Hotline1900 1870hoặc
        gửi yêu cầu
                                    Mở rộng bản đồ
            Khách sạn tương tự
                                        Palm Beach Resort & Spa Maldives
                                        Bandos Island Resort & Spa Maldives
                                        Centara Ras Fushi Resort & Spa Maldives
                        Về iVIVU.comChúng tôiiVIVU BlogPMS - Miễn phí
                        Thông Tin Cần BiếtĐiều kiện & Điều khoảnQuy chế hoạt độngCâu hỏi thường gặp
                        Đối Tác & Liên kết
                                    Vietnam
                                    Airlines
                            VNExpressTiki.vn - Mua sắm online
                        Được chứng nhận
                                iVIVU.com là một thành viên của Thiên Minh Groups
                                Bạn cần trợ giúp? Hãy gọi ngay
                                        CSKH: 1900 1870
                                        Khác:   (08) 3930 8290
                                         Từ 7h30 - 21h hằng ngày
                                    iVIVU.com © 2016 - 
                                        Hệ thống đặt phòng khách sạn trực tuyến hàng
                                        đầu Việt Nam
                                        DKKD: 0312788481, Ngày cấp: 21/05/2014, Sở kế hoạch đầu tư thành phố Hồ Chí Minh
                                        HCM: Lầu 7, Tòa nhà Anh Đăng, 215 Nam Kỳ Khởi Nghĩa, Phường 7, Quận 3, Tp. Hồ Chí Minh
                                        (Xem bản đồ)
                                        HN: Lầu 9, 70-72 Bà Triệu, Quận Hoàn Kiếm, Hà Nội
                                        (Xem bản đồ)
                                        Like để cập nhật cẩm nang du lịch
                                            tc@ivivu.com
    Xin Quý khách đợi trong giây lát
        Vui lòng để lại thông tin yêu cầu đặt phòng khách sạn của Quý khách.
                Giá chỉ mang tính chất tham khảo và không áp dụng vào các ngày lễ tết. Chúng tôi sẽ liên hệ lại trong 24h.
            Họ & Tên: 
            Số điện thoại: 
            Email: 
            Vùng/thành phố yêu cầu:
            Tên khách sạn:
                Ngày nhận phòng:
                Ngày trả phòng:
            Yêu cầu khác:
        Gửi yêu cầu
           ×
                Bản đồ
                MaldivesKhu nghỉ dưỡng Club Med Kani
