url:https://www.ivivu.com/khach-san-vung-tau/khach-san-imperial-vung-tau
Tittle :Khách sạn Imperial Vũng Tàu
content :1900 1870từ 7h30-21h hàng ngày
                        Khách sạn
                        Tours
                        Ưu đãi đặc biệt
                        Cẩm nang du lịch
                    Giới thiệuHỏi đápHỗ trợ
                    >
                ×
                Thông tin đăng nhập
                        Tên đăng nhập:
                        Mật khẩu:
                Đăng nhập
                        Tìm nhanh khách sạn
                        Ngày nhận phòng
                        Số đêm
                                12345678910111213141516171819202122232425262728293030+
                        Ngày trả phòng
                         
                        Trang chủ
                        Việt Nam
                        Vũng Tàu
                    Khách sạn Imperial Vũng Tàu
            Khách sạn Imperial Vũng Tàu
                        Giá chỉ từ
                            2.288.066 VND
                Đặt phòng này
                159 đường Thùy Vân, phường Thắng Tam, Tp. Vũng Tàu, Bà Rịa - Vũng Tàu, Việt Nam
                //cdn1.ivivu.com/iVivu/2016/05/27/14/khach-san-imperial-vung-tau.jpg
                        Trọn gói 3N2Đ
                                                Trọn gói 3N2Đ Dành Cho 2 Khách  + Đưa đón + 03 bữa ăn trưa - 02 bữa ăn sáng và tối
                                    Trọn gói 3N2Đ + Đưa đón + 03 bữa ăn trưa - 02 bữa ăn sáng và tối tại Khách sạn Imperial Vũng Tàu.
- 02 đêm nghỉ tại phòng Deluxe sang trọng dành cho 02 người lớn.
- Xe đưa đón HCM <=> Khách sạn Imperial Vũng Tàu.
(Tập trung tại số 1 Lê Duẩn, Q1 - Cổng Thảo Cầm Viên - Khởi hành đi: 10.00AM - Khởi hành về: 14.00PM - Quý khách vui lòng đến trước 30 phút)
- 02 bữa ăn sáng, 03 bữa ăn trưa và 02 bữa ăn tối tốt cho sức khỏe hằng ngày.
- Hướng dẫn tập Yoga/dưỡng sinh.
- Phiếu massage chân (45') dành cho 2 khách.
- Tham quan Vũng Tàu (Sơn Quan Tự, Bạch Dinh).
- Thưởng thức trà chiều, chơi cờ.
- Tặng áo thun lưu niệm.
- Chuyên gia tư vấn sức khỏe.
*Áp dụng từ Chủ nhật - Thứ sáu. Thứ bảy phụ thu 660.000/phòng/đêm.
*Trọn gói 2N1Đ và 4N3Đ (Vui lòng liên hệ để được báo giá)
Hạn đến: 30.12.2016
                                     Promotion Còn 12 ngày
                                     3.630.000 VND / người
                                                     Gửi yêu cầu
                                                                    ×
                                                                    Yêu cầu đặt package
                                                                            Ngày đặt phòng
                                                                                                            Ngày nhận phòng
                                                                                                            Ngày trả phòng
                                                                            Thông tin khách hàng
                                                                                                    Họ tên:
                                                                                                    Số di động:
                                                                                                    Email:
                                                                        Gửi yêu cầu
                                                    hoặc
                                                       Gọi 1900 1870
                                                Đang gửi thông tin ...
            Giá phòng tại Khách sạn Imperial Vũng Tàu
                            Ngày nhận phòng: 20-11-2016 - 21-11-2016
                            |1 đêm
                            |0 phòng
                            |0 người lớn
                            |0 trẻ em
                                    Thay đổi tìm kiếm
                        Rất tiếc chúng tôi không còn phòng trong thời gian này. Bạn vui lòng chọn thời gian khác.
                                            Ngày nhận phòng
                                            Ngày trả phòng
                                            Số đêm
                                        Số phòng
                                        Người lớn
                                        Trẻ em
                                        Cập nhật
    Đang lấy thông tin giá
    Giá phòng đã bao gồm: 10% thuế GTGT, 5% phí dịch vụ
    Loại phòngTối đaGiá phòng/đêmSố phòngĐặt phòng
        Tiện ích của Khách sạn Imperial Vũng Tàu
    Dịch vụ đưa đón sân bay
    Business Center
    Nhà hàng, Khu ăn uống
    Bãi biển riêng
    Thang máy
    Sân tennis
    Hồ bơi ngoài trời
    Dịch vụ giặt ủi
    Phòng tập thể dục
    Quầy lễ tân 24h
    Dịch vụ dọn phòng
    Bàn Bi-a
    Hồ bơi
    Spa/Beauty Salon/Massage
    Dịch vụ trông trẻ
    Wifi / Internet
    Phòng họp/Dịch vụ hội nghị
                Xem tất cả
        Thông tin Khách sạn Imperial Vũng Tàu
        Khách sạn Imperial Vũng Tàu là khách sạn 5 sao duy nhất ở khu vực Bãi Sau - một trong những bãi biển đẹp nhất ở Vũng Tàu với chiều dài trên 10km bờ biển. Từ khách sạn, du khách có thể đi bộ rất an toàn đến bãi biển qua cây cầu bộ hành dành riêng cho khách của khách sạn. Khách sạn cách Sân bay Quốc tế Tân Sơn Nhất 125km và cách Bến tàu ngầm Vũng Tàu chỉ 10 phút đi xe.
Kiến trúc của khách sạn mang đậm nét phương Tây cổ điển theo kiểu những tòa lâu đài nguy nga thời nữ hoàng Victoria. Khách sạn có tất cả 144 phòng nghỉ với diện tích rộng rãi từ 20m2 đến 50m2 được trang trí bao bọc bằng giấy dán tường viền gỗ rất trang nhã, điểm thêm những bức tranh nổi tiếng thời nữ hòang Victoria.
        Chính sách của Khách sạn Imperial Vũng Tàu
            Thời gian nhận phòng
            14:00
            Thời gian trả phòng 
            12:00
                        Di chuyển
                        Từ Thành phố Hồ Chí Minh đến Vũng Tàu, quý khách có thể sử dụng các phương tiện như
- Tàu cánh Ngầm từ Bến Cảng Nhà Rồng đến Bến Tàu Cánh Ngầm Vũng Tàu: vì một số lý do ảnh hưởng đến sức khỏe, nên hạn chế sử dụng phương tiện này khi di chuyển đến Vũng Tàu
- Xe khách: Đây là phương tiện di chuyển phổ biến nhất và được nhiều người chọn lựa nhất không chỉ ở Sài Gòn mà còn các tỉnh lân cận khác như Đồng Nai, Bình Dương, Bình Thuận…
- Xe ô tô, xe máy cá nhân: thuận tiện cho những du khách phượt và muốn di chuyển tham quan nhiều tại Vũng Tàu
                        Hướng dẫn nhận phòng
                        - Quý khách vui lòng xuất trình Hộ chiếu/CMND và Phiếu nhận phòng của iVIVU.com khi nhận phòng tại khách sạn.  (Khách sạn có thể sẽ yêu cầu Quý khách số thẻ tín dụng hoặc tiền đặt cọc cho các dịch vụ phát sinh trong thời gian lưu trú của Quý khách)  Lưu ý dành cho khách hàng :  - Nhận phòng sớm hoặc trả phòng trễ phụ thuộc vào tình trạng phòng thực tế của Khách sạn.  - Mọi chi phí phát sinh không được xác nhận trong đặt phòng này, Quý khách vui lòng thanh toán trực tiếp tại Khách sạn.  - Nếu Quý khách có nhu cầu xuất hóa đơn vui lòng cung cấp thông tin và địa chỉ xuất hóa đơn ngay khi thanh toán đơn phòng. Chúng tôi sẽ không thể xuất hóa đơn nếu Quý khách gửi thông tin chậm hơn thời gian trên.
                        Chính sách phụ thu (***)
                        - Trẻ em dưới 6 tuổi khi sử dụng chung giường với cha mẹ: Miễn phí ăn sáng.
- Trẻ em từ 6-11 tuổi sử dụng chung giường với cha mẹ và phụ thu ăn sáng 165.000 VNĐ/trẻ em/đêm.
- Trẻ em từ 12 tuổi trở lên phải kê thêm giường phụ.
- Tối đa 02 trẻ em sử dụng cùng giường với bố mẹ.
Extra Bed:
- Ngày thường (CN-T6): 836.000 VNĐ/giường/đêm.
- Ngày cuối tuần (Thứ 7) và các ngày lễ: 1.100.000 VNĐ/giường/đêm.
                        Quy định Lễ, Tết 2017
                       Giá phòng giai đoạn 31/12/2016 - hết ngày 01/01/2017 và 29/01/2017 - hết ngày 02/02/2017 đã bao gồm: thuế VAT, phí dịch vụ, ăn sáng và BBQ bắt buộc 1 đêm dành cho 2 khách/phòng.
Phụ thu bữa tối bắt buộc BBQ buffet: 
+ Người thứ 3 hoặc trẻ từ 12 tuổi trở lên: Phụ thu BBQ 750.000VNĐ/người.
+ Trẻ em từ 6 đến 11 tuổi: Phụ thu BBQ 350.000VNĐ/trẻ em.
+ Trẻ dưới 6 tuổi: Miễn phí.
                Đánh giá khách hàng về khách sạn Khách sạn Imperial Vũng Tàu
                        8.7 /10
                        Rất tốt 
                            70 đánh giá
                            Đánh giá gần đây
                                             Trần Thiên Trang
                                                9.5
                                                                                            Tuyệt vời 
                                                 29-08-2016
                                                Khách sạn có chất lượng dịch vụ tốt, vị trí thuân tiện cho việc di chuyển của tôi, phòng ốc cũng sạch sẽ và đầy đủ tiện nghi cho tôi, tôi rất hài lòng, còn về phí iVIVU, tôi thấy chất lượng dịch vụ khá tốt, nhân viên hỗ trợ nhiệt tình và nhanh chóng, tối sẽ tiếp tục đặt phòng qua iVIVU
                                            Pham Quynh Vi
                                                10.0
                                                                                            Tuyệt vời 
                                                 26-08-2016
                                                Hoàn toàn hài lòng! Tôi rất ưng ý khách sạn lẫn dịch vụ iVIVU, tôi hy vọng những lần sau sẽ vẫn có cơ hội được các bạn hỗ trợ.
                                            Christina Lam
                                                8.0
                                                                                            Rất tốt 
                                                 26-08-2016
                                                Mọi thứ ở khách sạn đều tốt, từ trang thiết bị đến chất lượng phục vụ của các bạn nhân viên ở đây, tôi hài lòng. IVIVU hỗ trợ tôi nhanh chóng, tận tình.
                                             Nguyễn Trí Thanh
                                                9.0
                                                                                            Tuyệt vời 
                                                 25-08-2016
                                                Khách sạn khiến mình hoàn toàn hài lòng, bãi biển sạch sẽ món ăn ngon. Phòng ốc và dịch vụ rất tốt, mình rất hài lòng với chuyến đi vừa rồi. Nhờ nhân viên iVIVU tư vấn nhiệt tình mình đã chọn được khách sạn ưng ý.
                                            Nguyễn Thị Thanh Thủy 
                                                7.0
                                                                                            Rất tốt 
                                                 21-08-2016
                                                Dịch vụ và phòng ốc đều tốt , tuy nhiên buffet ăn sáng chế biến không ngon,không phù hợp với tiêu chuẩn 5* . Dịch vụ iVIVU.com chất lượng. 
                         65 nhận xét
    Liên hệ Hotline1900 1870hoặc
        gửi yêu cầu
                                    Mở rộng bản đồ
                    Danh lam & Thắng cảnh
                            Bãi Sau - 0.1 km 
                            Linh Sơn Cổ Tự - 1.5 km 
                            Lăng Cá Ông - 1.5 km 
                            Tượng Chúa Kitô Vua (Tượng Chúa dang tay) - 2.4 km 
                            Sân vận động Lam Sơn - 2.5 km 
                            Sân gôn Vũng Tàu - 2.6 km 
                            Dinh Cô - 15.8 km 
                            Bãi biển Long Hải - 15.9 km 
                Khu vực
                Sân bay chính gần Khách sạn Imperial nhất là:Sân bay Vũng Tàu (VTG) - 2,9 km / 1,8 miThành phố Hồ Chí Minh (SGN-Sân bay quốc tế Tân Sơn Nhất) - 70,5 km / 43,8 miSân bay thuận lợi nhất để đến Khách sạn Imperial là Thành phố Hồ Chí Minh (SGN-Sân bay quốc tế Tân Sơn Nhất). Khoảng cách được tính theo đường thẳng từ địa điểm của khách sạn đến điểm tham quan hoặc sân bay và có thể không phản ánh đường đi thực tế.  Khoảng cách được hiển thị đến 0,1 km và dặm gần nhất. 
            Khách sạn tương tự
                                        Khu nghỉ dưỡng Six Senses Côn Đảo Vũng Tàu
                                        9.0
                                        Tuyệt vời
                                                                            27 nhận xét
                                        Khách sạn Pullman Vũng Tàu
                                        9.0
                                        Tuyệt vời
                                                                            5 nhận xét
                                        Khu nghỉ dưỡng The Grand Hồ Tràm Strip Vũng Tàu
                                        9.2
                                        Tuyệt vời
                                                                            61 nhận xét
                        Về iVIVU.comChúng tôiiVIVU BlogPMS - Miễn phí
                        Thông Tin Cần BiếtĐiều kiện & Điều khoảnQuy chế hoạt độngCâu hỏi thường gặp
                        Đối Tác & Liên kết
                                    Vietnam
                                    Airlines
                            VNExpressTiki.vn - Mua sắm online
                        Được chứng nhận
                                iVIVU.com là một thành viên của Thiên Minh Groups
                                Bạn cần trợ giúp? Hãy gọi ngay
                                        CSKH: 1900 1870
                                        Khác:   (08) 3930 8290
                                         Từ 7h30 - 21h hằng ngày
                                    iVIVU.com © 2016 - 
                                        Hệ thống đặt phòng khách sạn trực tuyến hàng
                                        đầu Việt Nam
                                        DKKD: 0312788481, Ngày cấp: 21/05/2014, Sở kế hoạch đầu tư thành phố Hồ Chí Minh
                                        HCM: Lầu 7, Tòa nhà Anh Đăng, 215 Nam Kỳ Khởi Nghĩa, Phường 7, Quận 3, Tp. Hồ Chí Minh
                                        (Xem bản đồ)
                                        HN: Lầu 9, 70-72 Bà Triệu, Quận Hoàn Kiếm, Hà Nội
                                        (Xem bản đồ)
                                        Like để cập nhật cẩm nang du lịch
                                            tc@ivivu.com
    Xin Quý khách đợi trong giây lát
        Vui lòng để lại thông tin yêu cầu đặt phòng khách sạn của Quý khách.
                Giá chỉ mang tính chất tham khảo và không áp dụng vào các ngày lễ tết. Chúng tôi sẽ liên hệ lại trong 24h.
            Họ & Tên: 
            Số điện thoại: 
            Email: 
            Vùng/thành phố yêu cầu:
            Tên khách sạn:
                Ngày nhận phòng:
                Ngày trả phòng:
            Yêu cầu khác:
        Gửi yêu cầu
           ×
                Bản đồ
                Vũng TàuKhách sạn Imperial Vũng Tàu
