url:https://www.ivivu.com/khach-san-sapa?p=3
Tittle :Khách sạn Sapa  giá rẻ từ 275.825 VND
content :1900 1870từ 7h30-21h hàng ngày
                        Khách sạn
                        Tours
                        Ưu đãi đặc biệt
                        Cẩm nang du lịch
                    Giới thiệuHỏi đápHỗ trợ
                    >
                ×
                Thông tin đăng nhập
                        Tên đăng nhập:
                        Mật khẩu:
                Đăng nhập
                        Tìm nhanh khách sạn
                        Ngày nhận phòng
                        Số đêm
                                12345678910111213141516171819202122232425262728293030+
                        Ngày trả phòng
                         
                        Trang chủ
                        Việt Nam
                        Sapa
                Khách sạn Sapa 
                Sapa
                 XEM BẢN ĐỒ
                Cập nhật giá
                Sắp xếp theo: 
                                    iVIVU đề xuất
                                    Đề xuất
                                    Giá phòng
                                     Giá
                                    Hạng sao
                                         Sao
                        iVIVU đề xuấtGiá phòng - Tăng dần ▲Giá phòng - Giảm dần ▼Hạng sao - Tăng dần ▲Hạng sao - Giảm dần ▼
                    Khách sạn Điều Dưỡng tập đoàn Than Khoáng sản Việt Nam
                 29 Hoàng Liên, Sapa, Lào Cai, Việt Nam
                                Bản đồ
                    Cách Nhà Thờ Đá 8 phút đi bộ
                        Liên hệ
                        1900 1870
                         giá rẻ bất ngờ
                Chi tiết
                    Khách sạn Riverside Sapa
                 18 Ngũ Chỉ Sơn, Sapa, Lào Cai, Việt Nam
                                Bản đồ
                    Gần Nhà Thờ ĐáBãi đậu xe miễn phí
                    584.100 VND
                Chi tiết
                    Khách sạn Sapa Hills
                 35 Mường Hoa, Sapa, Lào Cai, Việt Nam
                                Bản đồ
                    Cách Nhà Thờ Đá 8 phút đi bộ
                    702.100 VND
                Chi tiết
                    Khách sạn H'mong Sapa
                 10 Thác Bạc, Sapa, Lào Cai, Việt Nam
                    8.1
                    Rất tốt
                                    7 nhận xét
                Bản đồ
                    Cách Nhà Thờ Đá 9 phút đi bộBãi đậu xe miễn phí
                    899.514 VND
                Chi tiết
                    Khách sạn Mường Thanh Sapa
                 44 Ngũ Chỉ Sơn, Sa Pa, Lào Cai, Việt Nam
                    7.4
                    Rất tốt
                                    14 nhận xét
                Bản đồ
                    Cách Nhà Thờ Đá Sapa 7 phút đi bộDịch vụ spa & massage
                    1.709.424 VND
                Chi tiết
                    Khách sạn Stunning View 2 Sapa
                 28 Mường Hoa, Sapa, Lào Cai, Việt Nam
                                Bản đồ
                    Cách Nhà Thờ Đá Sapa 7 phút đi bộBãi đậu xe miễn phí
                    398.250 VND
                Chi tiết
                    Khách sạn Sapa Container
                 5 Sở Than, Sapa, Lào Cai, Việt Nam
                                Bản đồ
                    Cách Nhà Thờ Đá Sapa 9 phút đi bộBãi đậu xe miễn phí
                    472.000 VND
                Chi tiết
                    Khách sạn Golden Plaza Sapa
                 137 Thạch Sơn, Sapa, Lào Cai, Việt Nam
                                Bản đồ
                    Cách Chợ Sapa 5 phút đi bộBãi đậu xe miễn phí
                    519.200 VND
                Chi tiết
                    Khách sạn Mây Hồ Sapa
                 05 Kim Đồng, Sapa, Lào Cai, Việt Nam
                                Bản đồ
                    Cách Nhà Thờ Đá Sapa 10 phút đi bộBãi đậu xe miễn phí
                    713.900 VND
                Chi tiết
                    Khách sạn Sunflower Sapa
                 31 Cầu Mây, Sapa, Lào Cai , Việt Nam
                                Bản đồ
                    Cách Nhà Thờ Đá Sapa 3 phút đi bộCho thuê xe đạp
                        Liên hệ
                        1900 1870
                         giá rẻ bất ngờ
                Chi tiết
                    Khách sạn Thu Hằng Sapa
                 03, Thủ Dầu Một, SaPa, Lào Cai, Việt Nam
                                Bản đồ
                    Cách Nhà Thờ Đá 5 phút đi bộMát-xa cổ truyền
                        Liên hệ
                        1900 1870
                         giá rẻ bất ngờ
                Chi tiết
    123
    41 khách sạn Sapa
                        Cần đặt phòng? 
                        Gọi ngay
                        Thanh Nguyễn
                            19001870
                        Cần đặt phòng? 
                        Gọi ngay
                        Trúc Nguyễn
                            19001870
                 BỘ LỌC TÌM KIẾM
    Tìm khách sạn Sapa
          Xếp hạng khách sạn Sapa
            Tất cả
      Mức giá khách sạn Sapa
        Tất cảDưới 500.000500.000 đến 1.000.0001.000.000 đến 2.000.0002.000.000 đến 5.000.000Trên 5.000.000
        Địa điểm khách sạn Sapa
                        Tất cả
                        Gần Chợ Sapa
                        Gần Nhà Thờ Đá
                        Xem thêm
                        Thu gọn
    Tiện ích khách sạn Sapa
            Tất cả
                            Phòng gia đình
                            Bãi đậu xe ô tô tại khách sạn
                            Thang máy
                            Hồ bơi
                            Phòng tập thể (dorm)
                            Kid Club
            Kinh nghiệm du lịch Sapa
                        Sapa là một huyện vùng cao của tỉnh Lào Cai, một vùng đất khiêm nhường, lặng lẽ nhưng ẩn chứa bao điều kỳ diệu của cảnh sắc thiên nhiên.
Du lịch Sapa bạn sẽ có cơ hội chinh phục đỉnh Fansipan – nóc nhà Đông Nam Á cao 3.143m, khám phá những bản làng ẩn hiện trong sương.
Khung cảnh núi rừng với trăm hoa đua nở, “mây ôm ấp núi, núi ôm mây” chắc chắn sẽ làm nức lòng những ai một lần đặt chân đến nơi này...
                            Xem thêm
                                Đặt phòng theo đoàn?
                                iVIVU đảm bảo sẽ tìm kiếm deal tốt nhất cho bạn!
                        Đặt ngay 
                    ×
                    ĐẶT PHÒNG ĐOÀN
                        Khi đặt phòng theo đoàn với iVIVU.com, bạn sẽ có được khách sạn phù hợp nhất với giá tốt nhất mà không phải tốn thời gian tìm kiếm.
                                 Yêu cầu
                                         Điện thoại 
                                             Email
                                        *
                                 Vui lòng nhập địa điểm.
                                 Chưa nhập địa chỉ email hoặc địa chỉ email chưa đúng
                                 Vui lòng nhập số điện thoại.
                        • iVIVU.com cam kết đảm bảo an toàn thông tin của quý khách hàng. 
                        • Quý khách hàng có thể yêu cầu ngưng dịch vụ tìm kiếm deal tốt nhất bất cứ lúc nào.
                        Đặt phòng đoàn
                         Khách sạn Sapa theo hạng sao
                            Khách sạn 1 sao tại Sapa
                            Khách sạn 2 sao tại Sapa
                            Khách sạn 3 sao tại Sapa
                            Khách sạn 4 sao tại Sapa
                            Khách sạn 5 sao tại Sapa
                         Khách sạn tại các địa điểm du lịch nổi tiếng khác
                            Khách sạn Đak Nông
                            Khách sạn Ninh Thuận
                            Khách sạn Kon Tum
                            Khách sạn Quảng Trị
                            Khách sạn Tỉnh Quảng Bình
                            Khách sạn Gia Lai
                            Khách sạn Điện Biên
                            Khách sạn Vĩnh Phúc
                            Khách sạn Hà Tĩnh
                            Khách sạn Đồng Nai
                            Khách sạn Bình Dương
                            Khách sạn Bình Định
                            Khách sạn Hải Dương
                            Khách sạn Tiền Giang
                            Khách sạn Phú Yên
                            Khách sạn Tỉnh Kiên Giang
                            Khách sạn Đaklak
                            Khách sạn Cát Bà
                            Khách sạn Châu Đốc
                            Khách sạn Cần Thơ
                            Khách sạn Phú Quốc
                            Khách sạn Đà Nẵng
                            Khách sạn Phan Thiết
                            Khách sạn Nha Trang
                            Khách sạn Hà Nội
                            Khách sạn Huế
                            Khách sạn Hồ Chí Minh
                            Khách sạn Phan Rang
                            Khách sạn Long Hải
                            Khách sạn Mũi Né
                            Khách sạn Hội An
                            Khách sạn Vịnh Hạ Long
                            Khách sạn Tam Hải
                            Khách sạn Hồ Tràm
                            Khách sạn Vũng Tàu
                            Khách sạn Hải Phòng
                            Khách sạn Ninh Bình
                            Khách sạn Côn Đảo
                            Khách sạn Nghệ An
                            Khách sạn Quảng Bình
                            Khách sạn Quy Nhơn
                            Khách sạn Thanh Hóa
                            Khách sạn Tuy Hòa
                            Khách sạn Đà Lạt
                            Khách sạn Lagi
                            Khách sạn Quảng Ngãi
                            Khách sạn Lăng Cô
                            Khách sạn Trảng Bom
                            Khách sạn Pleiku
                            Khách sạn Buôn Mê Thuột
                            Khách sạn Hà Giang
                            Khách sạn Cái Bè
                            Khách sạn Lào Cai
                    ×
                    Cập nhật giá khách sạn
                                                Ngày nhận
                                            Số đêm
                                                    12345678910111213141516171819202122232425262728293030+
                                                Ngày trả
                                            Số phòng
                                            Người lớn
                        Cập nhật lại giá khách sạn
                        Về iVIVU.comChúng tôiiVIVU BlogPMS - Miễn phí
                        Thông Tin Cần BiếtĐiều kiện & Điều khoảnQuy chế hoạt độngCâu hỏi thường gặp
                        Đối Tác & Liên kết
                                    Vietnam
                                    Airlines
                            VNExpressTiki.vn - Mua sắm online
                        Được chứng nhận
                                iVIVU.com là một thành viên của Thiên Minh Groups
                                Bạn cần trợ giúp? Hãy gọi ngay
                                        CSKH: 1900 1870
                                        Khác:   (08) 3930 8290
                                         Từ 7h30 - 21h hằng ngày
                                    iVIVU.com © 2016 - 
                                        Hệ thống đặt phòng khách sạn trực tuyến hàng
                                        đầu Việt Nam
                                        DKKD: 0312788481, Ngày cấp: 21/05/2014, Sở kế hoạch đầu tư thành phố Hồ Chí Minh
                                        HCM: Lầu 7, Tòa nhà Anh Đăng, 215 Nam Kỳ Khởi Nghĩa, Phường 7, Quận 3, Tp. Hồ Chí Minh
                                        (Xem bản đồ)
                                        HN: Lầu 9, 70-72 Bà Triệu, Quận Hoàn Kiếm, Hà Nội
                                        (Xem bản đồ)
                                        Like để cập nhật cẩm nang du lịch
                                            tc@ivivu.com
    Xin Quý khách đợi trong giây lát
        Vui lòng để lại thông tin yêu cầu đặt phòng khách sạn của Quý khách.
                Giá chỉ mang tính chất tham khảo và không áp dụng vào các ngày lễ tết. Chúng tôi sẽ liên hệ lại trong 24h.
            Họ & Tên: 
            Số điện thoại: 
            Email: 
            Vùng/thành phố yêu cầu:
            Tên khách sạn:
                Ngày nhận phòng:
                Ngày trả phòng:
            Yêu cầu khác:
        Gửi yêu cầu
           ×
                Bản đồ
