url:https://www.ivivu.com/khach-san-ho-chi-minh?sb=rating
Tittle :Khách sạn Hồ Chí Minh  giá rẻ từ 310.680 VND
content :1900 1870từ 7h30-21h hàng ngày
                        Khách sạn
                        Tours
                        Ưu đãi đặc biệt
                        Cẩm nang du lịch
                    Giới thiệuHỏi đápHỗ trợ
                    >
                ×
                Thông tin đăng nhập
                        Tên đăng nhập:
                        Mật khẩu:
                Đăng nhập
                        Tìm nhanh khách sạn
                        Ngày nhận phòng
                        Số đêm
                                12345678910111213141516171819202122232425262728293030+
                        Ngày trả phòng
                         
                        Trang chủ
                        Việt Nam
                        Hồ Chí Minh
                Khách sạn Hồ Chí Minh 
                Hồ Chí Minh
                 XEM BẢN ĐỒ
                Cập nhật giá
                Sắp xếp theo: 
                                    iVIVU đề xuất
                                    Đề xuất
                                    Giá phòng
                                     Giá
                                    Hạng sao
                                         Sao
                        iVIVU đề xuấtGiá phòng - Tăng dần ▲Giá phòng - Giảm dần ▼Hạng sao - Tăng dần ▲Hạng sao - Giảm dần ▼
                    Còn 4 ngày - ƯU ĐÃI ĐẶC BIỆT
                            Giá Chỉ Có Tại iVIVU
                            Khách sạn The Reverie Sài Gòn
                         23-36 Nguyễn Huệ, Quận 1, Tp. Hồ Chí Minh, Việt Nam
                                                Bản đồ
                            Cao cấp và sang trọngDịch vụ đưa đón sân bayTrung tâm thành phố
                                Liên hệ
                                    1900 1870
                             giá rẻ bất ngờ
                        Chi tiết
                    Khách sạn New World Sài Gòn
                 76 Đường Lê Lai, Phường Bến Nghé, Quận 1, Tp, Hồ Chí Minh, Việt Nam
                    8.3
                    Rất tốt
                                    12 nhận xét
                Bản đồ
                    Trung tâm thành phốCách chợ Bến Thành 6 phút đi bộHồ bơi ngoài trờiCasino
                        Liên hệ
                        1900 1870
                         giá rẻ bất ngờ
                Chi tiết
                    Khách sạn Nikko Sài Gòn
                 235 Đường Nguyễn Văn Cừ, Phường Nguyễn Cư Trinh, Quận 1, Tp. Hồ Chí Minh, Việt Nam
                    8.8
                    Rất tốt
                                    8 nhận xét
                Bản đồ
                    Hồ bơi ngoài trờiPhòng khiêu vũPhòng tràDịch vụ SpaCạnh trung tâm thương mại Nowzone
                        Liên hệ
                        1900 1870
                         giá rẻ bất ngờ
                Chi tiết
                    Khách sạn Grand Sài Gòn
                 8 Đồng Khởi, Phường Bến Nghé, Quận 1, Tp.Hồ Chí Minh, Việt Nam
                    8.2
                    Rất tốt
                                    22 nhận xét
                Bản đồ
                    Khu vực trung tâmKiến trúc PhápCà phê sân thượngHồ bơi ngoài trờiView sông Sài Gòn
                        Liên hệ
                        1900 1870
                         giá rẻ bất ngờ
                Chi tiết
                    Khách sạn Tân Sơn Nhất Sài Gòn
                 202 Hoàng Văn Thụ, Phường 9,Quận Phú Nhuận, Hồ Chí Minh, Việt Nam
                    8.4
                    Rất tốt
                                    20 nhận xét
                Bản đồ
                    Cách sân bay 6 phút lái xeHồ bơi ngoài trờiBãi đậu xe ô tôDịch vụ spa
                    1.491.167 VND
                Chi tiết
                    Khách sạn Le Meridien Sài Gòn
                 3C Đường Tôn Đức Thắng, Phường Bến Nghé, Quận 1, Tp. Hồ Chí Minh, Việt Nam
                                Bản đồ
                    trung tâm thành phốhồ bơi trong nhàview sông Sài Gòn
                        Liên hệ
                        1900 1870
                         giá rẻ bất ngờ
                Chi tiết
                    Khách sạn TajmaSago Castle Sài Gòn
                 06 Phan Văn Chương, Quận 7, Thành phố Hồ Chí Minh, Việt Nam
                    9.4
                    Tuyệt vời
                                    22 nhận xét
                Bản đồ
                    Phong cách của Đền MaharajaTrung tâm quận 7Phòng chiếu phim riêngHồ bơi ngoài trời
                        Liên hệ
                        1900 1870
                         giá rẻ bất ngờ
                Chi tiết
                    Sheraton Saigon Hotel & Towers
                 88 Đồng Khởi, Quận 1, Tp. Hồ Chí Minh, Việt Nam
                                Bản đồ
                    Cách Nhà hát Thành phố 2 phút đi bộ
                        Liên hệ
                        1900 1870
                         giá rẻ bất ngờ
                Chi tiết
                    Khách sạn Eastin Grand Sài Gòn
                 253 Đường Nguyễn Văn Trỗi, Phường 10, Quận Phú Nhuận, Tp. Hồ Chí Minh, Việt Nam
                    8.7
                    Rất tốt
                                    12 nhận xét
                Bản đồ
                    Cách sân bay 10 phút lái xeHồ bơi ngoài trờiThiết kế hiện đạiBãi đậu xe ô tô
                        Liên hệ
                        1900 1870
                         giá rẻ bất ngờ
                Chi tiết
                    Khách Sạn Sherwood Residence Sài Gòn
                 127 Pasteur, Quận 3, Tp. Hồ Chí Minh, Việt Nam
                                Bản đồ
                    hồ bơi ngoài trờikhu vui chơi dành cho trẻ emdịch vụ xe bus miễn  phí đến trung tâm
                    2.555.197 VND
                Chi tiết
                    InterContinental Asiana Saigon Residences
                  39 Lê Duẩn, Quận 1, TP. Hồ Chí Minh, Việt Nam, Việt Nam
                                Bản đồ
                    Quận 1Khu thương mại Kumho Asiana PlazaTrung tâm thành phố
                    6.021.637 VND
                Chi tiết
                    Khách sạn Pullman Saigon Centre
                  148 Trần Hưng Đạo, Quận 1, TP. Hồ Chí Minh, Việt Nam, Việt Nam
                    8.9
                    Rất tốt
                                    15 nhận xét
                Bản đồ
                    Quận 1 - Chợ Bến ThànhCó phòng gia đình
                    3.627.540 VND
                Chi tiết
                    Khách sạn Equatorial Hồ Chí Minh
                 242 Trần Bình Trọng, Quận 5, Hồ Chí Minh, Việt Nam
                    8.3
                    Rất tốt
                                    7 nhận xét
                Bản đồ
                    Quận 5 - Chinatown
                    2.693.144 VND
                Chi tiết
                    Khách sạn Sài Gòn Domaine Luxury Residences
                 1057 Bình Quới, Phường 28, Quận Bình Thạnh, Hồ Chí Minh, Việt Nam
                                Bản đồ
                    bể bơi ngoài trờixe đạp leo núitrượt nướcphòng tập thể dụctắm hơilớp khiêu vũbãi đậu xe hơicho phép vật nuôi
                        Liên hệ
                        1900 1870
                         giá rẻ bất ngờ
                Chi tiết
                    Khách Sạn Renaissance Riverside Saigon
                 8-15, Tôn Đức Thắng, Quận 1, Thành phố Hồ Chí Minh, Việt Nam
                                Bản đồ
                    Trung tâm thành phốView hướng sôngCách chợ Bến Thành 8 phút lái xe
                        Liên hệ
                        1900 1870
                         giá rẻ bất ngờ
                Chi tiết
    123...11
    151 khách sạn Hồ Chí Minh
                        Cần đặt phòng? 
                        Gọi ngay
                        Thanh Nguyễn
                            19001870
                        Cần đặt phòng? 
                        Gọi ngay
                        Trúc Nguyễn
                            19001870
                        Cần đặt phòng? 
                        Gọi ngay
                        Thúy Trần
                            19001870
                 BỘ LỌC TÌM KIẾM
    Tìm khách sạn Hồ Chí Minh
          Xếp hạng khách sạn Hồ Chí Minh
            Tất cả
      Mức giá khách sạn Hồ Chí Minh
        Tất cảDưới 500.000500.000 đến 1.000.0001.000.000 đến 2.000.0002.000.000 đến 5.000.000Trên 5.000.000
        Địa điểm khách sạn Hồ Chí Minh
                        Tất cả
                        Ngoại thành
                        Quận 07
                        Quận 1
                        Quận 1 - Chợ Bến Thành
                        Quận 1 - Khu Tây ba lô
                        Quận 1 - Nhà hát Thành Phố
                        Quận 10
                        Quận 3
                        Quận 5 - Chinatown
                        Quận 7
                        Quận 7 - SECC
                        Sân bay Tân Sơn Nhất
                        Thành phố Hồ Chí Minh
                        Trung tâm thành phố
                        Xem thêm
                        Thu gọn
    Tiện ích khách sạn Hồ Chí Minh
            Tất cả
                            Phòng gia đình
                            Bãi đậu xe ô tô tại khách sạn
                            Thang máy
                            Hồ bơi
                            Phòng tập thể (dorm)
                            Kid Club
            Kinh nghiệm du lịch Hồ Chí Minh
                        Bạn có biết, ngoài những tòa nhà cao tầng nằm san sát nhau, những khu vui chơi giải trí, trung tâm mua sắm sầm uất, Sài Gòn cũng không thiếu những biệt thự cổ kính, những ngôi chợ truyền thống tồn tại đã hàng trăm năm?
Sài Gòn rộng lớn chắc chắn không thiếu những “đặc sản” du lịch như cơm sườn bì chả, vui chơi phố Tây Phạm Ngũ Lão, mua sắm ở chợ Bến Thành hay về với bình yên biển Cần Giờ…
                            Xem thêm
                                Đặt phòng theo đoàn?
                                iVIVU đảm bảo sẽ tìm kiếm deal tốt nhất cho bạn!
                        Đặt ngay 
                    ×
                    ĐẶT PHÒNG ĐOÀN
                        Khi đặt phòng theo đoàn với iVIVU.com, bạn sẽ có được khách sạn phù hợp nhất với giá tốt nhất mà không phải tốn thời gian tìm kiếm.
                                 Yêu cầu
                                         Điện thoại 
                                             Email
                                        *
                                 Vui lòng nhập địa điểm.
                                 Chưa nhập địa chỉ email hoặc địa chỉ email chưa đúng
                                 Vui lòng nhập số điện thoại.
                        • iVIVU.com cam kết đảm bảo an toàn thông tin của quý khách hàng. 
                        • Quý khách hàng có thể yêu cầu ngưng dịch vụ tìm kiếm deal tốt nhất bất cứ lúc nào.
                        Đặt phòng đoàn
                         Khách sạn Hồ Chí Minh theo hạng sao
                            Khách sạn 1 sao tại Hồ Chí Minh
                            Khách sạn 2 sao tại Hồ Chí Minh
                            Khách sạn 3 sao tại Hồ Chí Minh
                            Khách sạn 4 sao tại Hồ Chí Minh
                            Khách sạn 5 sao tại Hồ Chí Minh
                             Khách sạn Hồ Chí Minh tại các địa điểm phổ biến
                                Ngoại thành
                                Quận 07
                                Quận 1
                                Quận 1 - Chợ Bến Thành
                                Quận 1 - Khu Tây ba lô
                                Quận 1 - Nhà hát Thành Phố
                                Quận 10
                                Quận 3
                                Quận 5 - Chinatown
                                Quận 7
                                Quận 7 - SECC
                                Sân bay Tân Sơn Nhất
                                Thành phố Hồ Chí Minh
                                Trung tâm thành phố
                         Khách sạn tại các địa điểm du lịch nổi tiếng khác
                            Khách sạn Đak Nông
                            Khách sạn Ninh Thuận
                            Khách sạn Kon Tum
                            Khách sạn Quảng Trị
                            Khách sạn Tỉnh Quảng Bình
                            Khách sạn Gia Lai
                            Khách sạn Điện Biên
                            Khách sạn Vĩnh Phúc
                            Khách sạn Hà Tĩnh
                            Khách sạn Đồng Nai
                            Khách sạn Bình Dương
                            Khách sạn Bình Định
                            Khách sạn Hải Dương
                            Khách sạn Tiền Giang
                            Khách sạn Phú Yên
                            Khách sạn Tỉnh Kiên Giang
                            Khách sạn Đaklak
                            Khách sạn Cát Bà
                            Khách sạn Châu Đốc
                            Khách sạn Cần Thơ
                            Khách sạn Phú Quốc
                            Khách sạn Đà Nẵng
                            Khách sạn Phan Thiết
                            Khách sạn Nha Trang
                            Khách sạn Hà Nội
                            Khách sạn Huế
                            Khách sạn Phan Rang
                            Khách sạn Long Hải
                            Khách sạn Mũi Né
                            Khách sạn Hội An
                            Khách sạn Vịnh Hạ Long
                            Khách sạn Tam Hải
                            Khách sạn Hồ Tràm
                            Khách sạn Vũng Tàu
                            Khách sạn Hải Phòng
                            Khách sạn Ninh Bình
                            Khách sạn Sapa
                            Khách sạn Côn Đảo
                            Khách sạn Nghệ An
                            Khách sạn Quảng Bình
                            Khách sạn Quy Nhơn
                            Khách sạn Thanh Hóa
                            Khách sạn Tuy Hòa
                            Khách sạn Đà Lạt
                            Khách sạn Lagi
                            Khách sạn Quảng Ngãi
                            Khách sạn Lăng Cô
                            Khách sạn Trảng Bom
                            Khách sạn Pleiku
                            Khách sạn Buôn Mê Thuột
                            Khách sạn Hà Giang
                            Khách sạn Cái Bè
                            Khách sạn Lào Cai
                    ×
                    Cập nhật giá khách sạn
                                                Ngày nhận
                                            Số đêm
                                                    12345678910111213141516171819202122232425262728293030+
                                                Ngày trả
                                            Số phòng
                                            Người lớn
                        Cập nhật lại giá khách sạn
                        Về iVIVU.comChúng tôiiVIVU BlogPMS - Miễn phí
                        Thông Tin Cần BiếtĐiều kiện & Điều khoảnQuy chế hoạt độngCâu hỏi thường gặp
                        Đối Tác & Liên kết
                                    Vietnam
                                    Airlines
                            VNExpressTiki.vn - Mua sắm online
                        Được chứng nhận
                                iVIVU.com là một thành viên của Thiên Minh Groups
                                Bạn cần trợ giúp? Hãy gọi ngay
                                        CSKH: 1900 1870
                                        Khác:   (08) 3930 8290
                                         Từ 7h30 - 21h hằng ngày
                                    iVIVU.com © 2016 - 
                                        Hệ thống đặt phòng khách sạn trực tuyến hàng
                                        đầu Việt Nam
                                        DKKD: 0312788481, Ngày cấp: 21/05/2014, Sở kế hoạch đầu tư thành phố Hồ Chí Minh
                                        HCM: Lầu 7, Tòa nhà Anh Đăng, 215 Nam Kỳ Khởi Nghĩa, Phường 7, Quận 3, Tp. Hồ Chí Minh
                                        (Xem bản đồ)
                                        HN: Lầu 9, 70-72 Bà Triệu, Quận Hoàn Kiếm, Hà Nội
                                        (Xem bản đồ)
                                        Like để cập nhật cẩm nang du lịch
                                            tc@ivivu.com
    Xin Quý khách đợi trong giây lát
        Vui lòng để lại thông tin yêu cầu đặt phòng khách sạn của Quý khách.
                Giá chỉ mang tính chất tham khảo và không áp dụng vào các ngày lễ tết. Chúng tôi sẽ liên hệ lại trong 24h.
            Họ & Tên: 
            Số điện thoại: 
            Email: 
            Vùng/thành phố yêu cầu:
            Tên khách sạn:
                Ngày nhận phòng:
                Ngày trả phòng:
            Yêu cầu khác:
        Gửi yêu cầu
           ×
                Bản đồ
