url:https://www.ivivu.com/khach-san-bali-indonesia/royal-pita-maha
Tittle :Khu nghỉ dưỡng The Royal Pita Maha
content :1900 1870từ 7h30-21h hàng ngày
                        Khách sạn
                        Tours
                        Ưu đãi đặc biệt
                        Cẩm nang du lịch
                    Giới thiệuHỏi đápHỗ trợ
                    >
                ×
                Thông tin đăng nhập
                        Tên đăng nhập:
                        Mật khẩu:
                Đăng nhập
                        Tìm nhanh khách sạn
                        Ngày nhận phòng
                        Số đêm
                                12345678910111213141516171819202122232425262728293030+
                        Ngày trả phòng
                         
                        Trang chủ
                        Indonesia
                        Bali
                    Khu nghỉ dưỡng The Royal Pita Maha
            Khu nghỉ dưỡng The Royal Pita Maha
                        Giá chỉ từ
                            7.718.480 VND
                Đặt phòng này
                Desa Kedewatan PO Box 198, Ubud 80571, Bali, Indonesia, Indonesia
                //cdn1.ivivu.com/iVivu/2016/09/21/13/royal-pita-maha.png
            Giá phòng tại Khu nghỉ dưỡng The Royal Pita Maha
                            Ngày nhận phòng: 20-11-2016 - 21-11-2016
                            |1 đêm
                            |0 phòng
                            |0 người lớn
                            |0 trẻ em
                                    Thay đổi tìm kiếm
                        Rất tiếc chúng tôi không còn phòng trong thời gian này. Bạn vui lòng chọn thời gian khác.
                                            Ngày nhận phòng
                                            Ngày trả phòng
                                            Số đêm
                                        Số phòng
                                        Người lớn
                                        Trẻ em
                                        Cập nhật
    Đang lấy thông tin giá
    Giá phòng đã bao gồm: 10% thuế GTGT, 5% phí dịch vụ
    Loại phòngTối đaGiá phòng/đêmSố phòngĐặt phòng
        Tiện ích của Khu nghỉ dưỡng The Royal Pita Maha
    Quầy bar cạnh bể bơi
    Hồ bơi ngoài trời
    Bãi đậu xe ô tô tại khách sạn
    Phòng họp/Dịch vụ hội nghị
    Wifi / Internet
    Dịch vụ trông trẻ
    Spa/Beauty Salon/Massage
    Dịch vụ giữ hành lý
    Máy ATM
    Mini bar
    Quán cà phê
    Phòng gia đình
    Nhà hàng, Khu ăn uống
    Két sắt an toàn
    Sân vườn
    Phòng xông hơi
    Dịch vụ giặt ủi
    Phục vụ phòng
    Dịch vụ cho thuê xe đạp
                Xem tất cả
        Thông tin Khu nghỉ dưỡng The Royal Pita Maha
        The Royal Pita Maha may mắn nằm trải dọc sông Ayung với tầm nhìn cảnh quan nhiệt đới rộng lớn, du khách dễ dàng di chuyển đến các địa điểm tham quan nổi tiếng của thành phố như Lớp học nấu ăn Lobong, Phòng trưng bày Kuluk, Bảo tàng Nghệ thuật Neka và chỉ cách Sân bay Quốc tế Ngurah Rai khoảng 40km.
Được thiết kế theo phong cách truyền thống mang đậm tính nghệ thuật và văn hóa Bali, tất cả biệt thự tại The Royal Pita Maha đều cung cấp các tiện nghi như minibar, tủ lạnh và máy pha cà phê/trà, phòng tắm sang trọng với đầy đủ tiện nghi,...Bên cạnh đó, nơi nghỉ dưỡng này còn có các tiện ích tuyệt vời như hồ bơi ngoài trời, spa, massage, phòng xông hơi,...giúp du khách thư giãn sau một ngày vui chơi giải trí. The Royal Pita Maha là một nơi lý tưởng cho du khách nghỉ chân tìm kiếm sự thoải mái và tiện nghi ở Bali.
        Chính sách của Khu nghỉ dưỡng The Royal Pita Maha
            Thời gian nhận phòng
            14:00
            Thời gian trả phòng 
            12:00
                        Hướng dẫn nhận phòng
                       - Quý khách vui lòng xuất trình Hộ chiếu và Voucher khi nhận phòng do iVIVU.com cung cấp(Khách sạn có thể sẽ yêu cầu Quý khách số thẻ tín dụng hoặc tiền đặt cọc cho các dịch vụ phát sinh trong thời gian lưu trú của Quý khách)
Lưu ý dành cho khách hàng:- Nhận phòng sớm hoặc trả phòng trễ phụ thuộc vào tình trạng phòng thực tế của Khách sạn. - Mọi chi phí phát sinh không được xác nhận trong đặt phòng này, Quý khách vui lòng thanh toán trực tiếp tại Khách sạn. - Nếu Quý khách có nhu cầu xuất hóa đơn vui lòng cung cấp thông tin và địa chỉ xuất hóa đơn ngay khi thanh toán đơn phòng. Chúng tôi sẽ không thể xuất hóa đơn nếu Quý khách gửi thông tin chậm hơn thời gian trên.
    Liên hệ Hotline1900 1870hoặc
        gửi yêu cầu
                                    Mở rộng bản đồ
                    Danh lam & Thắng cảnh
                            Gaya Art Space - 2.6 km 
                            Phòng triển lãm nghệ thuật Alila Ubud - 2.6 km 
                            Vườn thực vật Ubud - 3.3 km 
                            Viện bảo tàng nghệ thuật Neka - 3.4 km 
                            Pura Taman Saraswati - 4 km 
                            Cung điện hoàng gia Ubud - 4.1 km 
                            Chợ Ubud - 4.1 km 
                            Rừng Khỉ Ubud - 5.1 km 
                            Hang Voi - 7.8 km 
                            Đền Gunung Kawi - 9.5 km 
                    Sân bay chính  gần nhất
                    Denpasar, Indonesia (DPS-Ngurah Rai Intl.)
                Khu vực
                Sân bay thuận lợi nhất để đến Royal Pita Maha là Sân bay Denpasar (DPS-Sân bay Quốc tế Ngurah Rai) - 31,3 km / 19,4 mi. Khoảng cách được tính theo đường thẳng từ địa điểm của khách sạn đến điểm tham quan hoặc sân bay và có thể không phản ánh đường đi thực tế.  Khoảng cách được hiển thị đến 0,1 km và dặm gần nhất. 
            Khách sạn tương tự
                                        Luna2 Studios
                                        Gending Kedis Luxury Villas & Spa Estate
                                        Khách sạn Grand Mirage Resort & Thalasso Bali
                        Về iVIVU.comChúng tôiiVIVU BlogPMS - Miễn phí
                        Thông Tin Cần BiếtĐiều kiện & Điều khoảnQuy chế hoạt độngCâu hỏi thường gặp
                        Đối Tác & Liên kết
                                    Vietnam
                                    Airlines
                            VNExpressTiki.vn - Mua sắm online
                        Được chứng nhận
                                iVIVU.com là một thành viên của Thiên Minh Groups
                                Bạn cần trợ giúp? Hãy gọi ngay
                                        CSKH: 1900 1870
                                        Khác:   (08) 3930 8290
                                         Từ 7h30 - 21h hằng ngày
                                    iVIVU.com © 2016 - 
                                        Hệ thống đặt phòng khách sạn trực tuyến hàng
                                        đầu Việt Nam
                                        DKKD: 0312788481, Ngày cấp: 21/05/2014, Sở kế hoạch đầu tư thành phố Hồ Chí Minh
                                        HCM: Lầu 7, Tòa nhà Anh Đăng, 215 Nam Kỳ Khởi Nghĩa, Phường 7, Quận 3, Tp. Hồ Chí Minh
                                        (Xem bản đồ)
                                        HN: Lầu 9, 70-72 Bà Triệu, Quận Hoàn Kiếm, Hà Nội
                                        (Xem bản đồ)
                                        Like để cập nhật cẩm nang du lịch
                                            tc@ivivu.com
    Xin Quý khách đợi trong giây lát
        Vui lòng để lại thông tin yêu cầu đặt phòng khách sạn của Quý khách.
                Giá chỉ mang tính chất tham khảo và không áp dụng vào các ngày lễ tết. Chúng tôi sẽ liên hệ lại trong 24h.
            Họ & Tên: 
            Số điện thoại: 
            Email: 
            Vùng/thành phố yêu cầu:
            Tên khách sạn:
                Ngày nhận phòng:
                Ngày trả phòng:
            Yêu cầu khác:
        Gửi yêu cầu
           ×
                Bản đồ
                BaliKhu nghỉ dưỡng The Royal Pita Maha
