url:https://www.ivivu.com/khach-san-sapa/khach-san-grand-view-sapa
Tittle :Khách sạn Grand View Sapa
content :1900 1870từ 7h30-21h hàng ngày
                        Khách sạn
                        Tours
                        Ưu đãi đặc biệt
                        Cẩm nang du lịch
                    Giới thiệuHỏi đápHỗ trợ
                    >
                ×
                Thông tin đăng nhập
                        Tên đăng nhập:
                        Mật khẩu:
                Đăng nhập
                        Tìm nhanh khách sạn
                        Ngày nhận phòng
                        Số đêm
                                12345678910111213141516171819202122232425262728293030+
                        Ngày trả phòng
                         
                        Trang chủ
                        Việt Nam
                        Sapa
                    Khách sạn Grand View Sapa
            Khách sạn Grand View Sapa
                        Giá chỉ từ
                            371.700 VND
                Đặt phòng này
                058 FanSiPan, Sapa, Lào Cai, Việt Nam, Việt Nam
                //cdn1.ivivu.com/iVivu/2015/09/29/13/khach-san-grand-view-sapa.jpg
            Giá phòng tại Khách sạn Grand View Sapa
                            Ngày nhận phòng: 20-11-2016 - 21-11-2016
                            |1 đêm
                            |0 phòng
                            |0 người lớn
                            |0 trẻ em
                                    Thay đổi tìm kiếm
                        Rất tiếc chúng tôi không còn phòng trong thời gian này. Bạn vui lòng chọn thời gian khác.
                                            Ngày nhận phòng
                                            Ngày trả phòng
                                            Số đêm
                                        Số phòng
                                        Người lớn
                                        Trẻ em
                                        Cập nhật
    Đang lấy thông tin giá
    Giá phòng đã bao gồm: 10% thuế GTGT, 5% phí dịch vụ
    Loại phòngTối đaGiá phòng/đêmSố phòngĐặt phòng
        Tiện ích của Khách sạn Grand View Sapa
    Dịch vụ giặt ủi
    Phục vụ phòng
    Phòng gia đình
    Dịch vụ thu đổi ngoại tệ
    Nhà hàng, Khu ăn uống
    Wifi / Internet
    Cho thuê xe
    Phòng họp/Dịch vụ hội nghị
    Quầy bán tour
    Dịch vụ giữ hành lý
    Bãi đậu xe ô tô tại khách sạn
    Quầy lễ tân 24h
                Xem tất cả
        Thông tin Khách sạn Grand View Sapa
        Với khách du lịch muốn ngắm cảnh và cảm nhận Sapa, Khách sạn Grand View Sapa là sự lựa chọn hoàn hảo. Từ đây, khách có thể dễ dàng tiếp cận được nét đẹp sống động của thành phố ở mọi góc cạnh. Mang dáng vẻ gần gũi và gần với Núi Hàm Rồng, Chợ tình, Chợ Sapa làm cho khách sạn này có một vẻ đẹp quyến rũ đặc biệt.
Hãy tận hưởng hết vô số dịch vụ và tiện nghi không gì sánh được ở khách sạn Sapa này. Sự chọn lọc khắt khe những thiết bị hàng đầu như Miễn phí Wi-fi tất cả các phòng, giữ hành lý, Wi-Fi ở khu vực công cộng, dịch vụ trông xe, bãi đỗ xe để khách có thể tận hưởng thoải mái khi ở khách sạn.
Grand View Sapa Hotel có 34 phòng. Tất cả đồ nội thất đều dễ chịu, êm ái, và thậm chí nhiều phòng còn cung cấp các tiện nghi như truy cập internet không dây, truy cập internet không dây (miễn phí), lò sưởi, dịch vụ báo thức, bàn. Khách sạn mang lại phương tiện giải trí đa dạng, bao gồm thể thao dưới nước (có động cơ). Grand View Sapa Hotel là một nơi lý tưởng cho du khách nghỉ chân tìm kiếm sự thoải mái và tiện nghi ở Sapa.
        Chính sách của Khách sạn Grand View Sapa
            Thời gian nhận phòng
            14:00
            Thời gian trả phòng 
            12:00
                        Di chuyển
                        - Quý khách có thể đi từ Hà Nội lên Lào Cai bằng các phương tiện sau:
1. Xe lửa (8 tiếng): Hầu hết khách du lịch lên Sapa đều đón xe lửa đêm từ Hà Nội, xuất phát vào buổi tối từ Hà Nội và đến Lào Cai vào sáng hôm sau. Ga Lào Cai cách Sapa khoảng 40km. Để đến Sapa, quý khách có thể đi xe buýt với giá 50.000đ, thời gian di chuyển khoảng 1 giờ. Các khách sạn ở Sapa cũng có dịch vụ đón khách tại ga Lào Cai, quý khách có thể đặt trước dịch vụ với khách sạn khi đặt phòng.
2. Đi bằng ô tô khách: Xe giường nằm giá từ 230.000 – 280.000VND/vé/chiều, xuất phát từ bến xe Mỹ Đình, Lương Yên hoặc Gia Lâm (Hà Nội) lên thẳng Sapa sau 8 – 9 tiếng. Các hãng xe: Hải Vân (ĐT: 0203.872.606), Hà Sơn (ĐT: 04 66.62.62.62), Hưng Thành (ĐT: 0989.294.294), VietBus (ĐT: 043-627.27.27). Mỗi hãng có nhiều chuyến đi Sapa, chuyến sớm nhất từ 17h00. Ưu điểm của đi ô tô là đến thẳng thị trấn Sapa chứ không phải dừng lại ở trạm nào cả, xe cũng chạy chuyến đêm tương tự như tàu hỏa. Tuy nhiên đi bằng ô tô có thể gặp trở ngại về mùa mưa. Ngoài ra, đường lên Lào Cai, Sapa khá nhiều đèo dốc gập ghềnh.
3. Thuê xe du lịch: Nếu đi nhóm đông người, các bạn có thể thuê 1 chiếc ô tô khách riêng, xe sẽ đưa các bạn đến khách sạn cũng như các địa điểm tham quan theo yêu cầu. Tại Hà Nội có rất nhiều hãng cung cấp dịch vụ cho thuê xe du lịch như: Thuexe.net (04 66.80.85.87), du lịch Tuấn Linh (04-22168007)… Phí thuê xe có rất nhiều mức, tùy vào kích cỡ xe và thời gian đi. Chẳng hạn một chuyến đi Sapa 3 ngày phí thuê xe 12 – 16 chỗ là 6.300.000VND, đã bao gồm lương lái xe, nhiên liệu và phí cầu đường.
                        Hướng dẫn nhân phòng
                        - Quý khách vui lòng xuất trình Hộ chiếu/CMND và Phiếu nhận phòng của iVIVU.com khi nhận phòng tại khách sạn. (Khách sạn có thể sẽ yêu cầu Quý khách số thẻ tín dụng hoặc tiền đặt cọc cho các dịch vụ phát sinh trong thời gian lưu trú của Quý khách) Lưu ý dành cho khách hàng : - Nhận phòng sớm hoặc trả phòng trễ phụ thuộc vào tình trạng phòng thực tế của Khách sạn. - Mọi chi phí phát sinh không được xác nhận trong đặt phòng này, Quý khách vui lòng thanh toán trực tiếp tại Khách sạn. - Nếu Quý khách có nhu cầu xuất hóa đơn vui lòng cung cấp thông tin và địa chỉ xuất hóa đơn ngay khi thanh toán đơn phòng. Chúng tôi sẽ không thể xuất hóa đơn nếu Quý khách gửi thông tin chậm hơn thời gian trên.
                        Chính sách phụ thu
                       - Giá phòng áp dụng cho trẻ em ( Dưới 5 tuổi ngủ chung bố mẹ và ăn uống tự lo, từ 5 – 8 tuổi miễn phí phòng ngủ chung với bố mẹ nhưng ăn sáng tính ½ suất người lớn ( 15,000 VND/Trẻ em )
- Phụ thu ăn sáng người thứ 3: 30,000vnđ/người
Lưu ý, chi phí trên khách thanh toán tại khách sạn.
Trả phòng muộn: trước 18:00 sẽ tính thêm 50% đơn giá phòng,
Trả phòng muộn: sau 18:00 sẽ tính thêm 100% đơn giá phòng,
                Đánh giá khách hàng về khách sạn Khách sạn Grand View Sapa
                        7.0 /10
                        Rất tốt 
                            2 đánh giá
                            Đánh giá gần đây
                                             Đào Văn Qúy
                                                7.0
                                                                                            Rất tốt 
                                                 09-10-2015
                                                Khách sạn không có wifi, tivi thì hơi cổ. Giá tiền phòng như vậy thì cũng khá hợp lí rồi. Nhân viên iVIVU thì rất nhiệt tình. Về website của iVIVU thì có vẻ như không tiện sử dụng lắm, do anh nhà tôi xem qua bên một web mua voucher gì đó thì phải tôi cũng không rõ nữa.
                                            Phấn
                                                7.0
                                                                                            Rất tốt 
                                                 05-06-2015
                                                Tôi cảm thấy khách sạn ở bên ngoài không được vệ sinh sạch sẽ, nhân viên cũng tạm ổn, hơi lộn xộn,giá cả cũng tương đối. Dịch vụ của IVIVU.COM cũng rất được,nhân viên cung cấp đầy đủ thông tin và nhiệt tình. Nhân viên khách sạn cũng thân thiện nhưng khó phân biệt ai là lễ tân hoặc quản lý, vị trí khách sạn rất tốt, phòng ốc cũng đảm bảo nhưng hơi cũ, không sửa sang bóng điện bị vỡ và hỏng.
    Liên hệ Hotline1900 1870hoặc
        gửi yêu cầu
                                    Mở rộng bản đồ
            Khách sạn tương tự
                                        Khách sạn An Sinh Sapa
                                        Khách sạn Legend Sapa
                                        Khách sạn Asiana Sapa
                                        7.9
                                        Rất tốt
                                                                            7 nhận xét
                        Về iVIVU.comChúng tôiiVIVU BlogPMS - Miễn phí
                        Thông Tin Cần BiếtĐiều kiện & Điều khoảnQuy chế hoạt độngCâu hỏi thường gặp
                        Đối Tác & Liên kết
                                    Vietnam
                                    Airlines
                            VNExpressTiki.vn - Mua sắm online
                        Được chứng nhận
                                iVIVU.com là một thành viên của Thiên Minh Groups
                                Bạn cần trợ giúp? Hãy gọi ngay
                                        CSKH: 1900 1870
                                        Khác:   (08) 3930 8290
                                         Từ 7h30 - 21h hằng ngày
                                    iVIVU.com © 2016 - 
                                        Hệ thống đặt phòng khách sạn trực tuyến hàng
                                        đầu Việt Nam
                                        DKKD: 0312788481, Ngày cấp: 21/05/2014, Sở kế hoạch đầu tư thành phố Hồ Chí Minh
                                        HCM: Lầu 7, Tòa nhà Anh Đăng, 215 Nam Kỳ Khởi Nghĩa, Phường 7, Quận 3, Tp. Hồ Chí Minh
                                        (Xem bản đồ)
                                        HN: Lầu 9, 70-72 Bà Triệu, Quận Hoàn Kiếm, Hà Nội
                                        (Xem bản đồ)
                                        Like để cập nhật cẩm nang du lịch
                                            tc@ivivu.com
    Xin Quý khách đợi trong giây lát
        Vui lòng để lại thông tin yêu cầu đặt phòng khách sạn của Quý khách.
                Giá chỉ mang tính chất tham khảo và không áp dụng vào các ngày lễ tết. Chúng tôi sẽ liên hệ lại trong 24h.
            Họ & Tên: 
            Số điện thoại: 
            Email: 
            Vùng/thành phố yêu cầu:
            Tên khách sạn:
                Ngày nhận phòng:
                Ngày trả phòng:
            Yêu cầu khác:
        Gửi yêu cầu
           ×
                Bản đồ
                SapaKhách sạn Grand View Sapa
