url:https://www.ivivu.com/khach-san-hong-kong?pd=5000000&ps=2000000
Tittle :Khách sạn Hong kong  từ 2.000.000 VND đến 5.000.000 VND
content :1900 1870từ 7h30-21h hàng ngày
                        Khách sạn
                        Tours
                        Ưu đãi đặc biệt
                        Cẩm nang du lịch
                    Giới thiệuHỏi đápHỗ trợ
                    >
                ×
                Thông tin đăng nhập
                        Tên đăng nhập:
                        Mật khẩu:
                Đăng nhập
                        Tìm nhanh khách sạn
                        Ngày nhận phòng
                        Số đêm
                                12345678910111213141516171819202122232425262728293030+
                        Ngày trả phòng
                         
                        Trang chủ
                        Hongkong
                        Hong kong
                          2.000.000 - 5.000.000
                Khách sạn Hong kong  từ 2.000.000 VND đến 5.000.000 VND 
                Hong kong
                 XEM BẢN ĐỒ
                Cập nhật giá
                Sắp xếp theo: 
                                    iVIVU đề xuất
                                    Đề xuất
                                    Giá phòng
                                     Giá
                                    Hạng sao
                                         Sao
                        iVIVU đề xuấtGiá phòng - Tăng dần ▲Giá phòng - Giảm dần ▼Hạng sao - Tăng dần ▲Hạng sao - Giảm dần ▼
                    Royal Plaza Hotel Hong Kong
                 193 Prince Edward Road West, Kowloon, Mongkok, Hongkong
                                Bản đồ
                    Phòng nghỉ sang trọngHồ bơi ngoài trờiKiến trúc tinh tếDịch vụ chuyên nghiệpPhòng xông hơi
                    3.165.560 VND
                Chi tiết
                    B P International Hotel Hong Kong
                 8 Austin Road, Tsim Sha Tsui, Hong Kong, Hongkong
                                Bản đồ
                    Tiện nghi cho người khuyết tậtKhu vực thuận lợi di chuyểnNội thất sang trọngView đẹpHồ bơi ngoài trời
                    2.367.064 VND
                Chi tiết
                    Regal Kowloon Hotel Hong Kong
                 71 Mody Road, Tsim Sha Tsui, Hongkong
                                Bản đồ
                    Tiện nghi cho người khuyết tậtDịch vụ cướiHồ bơi ngoài trờiSalon làm tócKhu vực trung tâm
                    2.725.164 VND
                Chi tiết
                    Harbour Grand Hong Kong Hotel
                 23, Oil Street, North Point, Hongkong
                                Bản đồ
                    Khu vực trung tâmHồ bơi ngoài trời rộng rãiThiết kế sang trọngNội thất hiện đạiView đẹp nhìn ra bến cảng
                    4.318.199 VND
                Chi tiết
                    Regal Riverside Hotel Hong Kong
                 34-36 Tai Chug Kiu Road, Hongkong
                                Bản đồ
                    Hồ bơi ngoài trờiPhòng tập thể dụcPhòng nghỉ sang trọngDịch vụ tổ chức sự kiệnDịch vụ spa
                    2.898.653 VND
                Chi tiết
                    Nathan Hotel Hong Kong
                 378 Nathan Road, Jordan, Hongkong
                                Bản đồ
                    Khu vực trung tâm mua sắmNội thất sang trọngPhòng có bồn tắmHồ bơi ngoài trờiNhà hàng ẩm thực đa dạng
                    2.477.040 VND
                Chi tiết
                    Metropark Mongkok Hotel Hong Kong
                 22 Lai Chi Kok Road, Mongkok, Hong Kong, Hongkong
                                    1 nhận xét
                Bản đồ
                    Khu vực trung tâmTiện nghi đầy đủHồ Bơi ngoài trờiThư việnNhà hàng ngoài trời
                    2.517.570 VND
                Chi tiết
                    Auberge Discovery Bay Hong Kong
                 88 Siena Avenue, Lantau Island, Hong Kong, Hongkong
                                Bản đồ
                    View núi và biển cực đẹpNội thất đẳng cấpHồ bơi ngoài trời sang trọngDịch vụ SpaTiện nghi cho người khuyết tật
                    3.044.463 VND
                Chi tiết
                    The Salisbury – YMCA of Hong Kong
                 41 Salisbury Road, Tsim Sha Tsui, Hong Kong, Hongkong
                                Bản đồ
                    Khu vực trung tâmView đẹpNội thất sang trọngDịch vụ xông hơiHồ bơi ngoài trời
                    4.073.535 VND
                Chi tiết
                    Ibis Hong Kong Central & Sheung Wan Hotel
                  No. 28 Des Voeux Road West, Sheung Wan, Hong Kong, Hongkong
                                Bản đồ
                    View đẹpNội thất tiện nghiTiện nghi cho người khuyết tậtPhòng hội nghịDịch vụ tour
                    2.120.177 VND
                Chi tiết
                    Khách sạn Metropark Causeway Bay Hong Kong
                 148 Tung Lo Wan Road, Causeway Bay, Hong Kong, Hong Kong, Hongkong
                                Bản đồ
                    Vịnh CausewayGần Tin Hau Temple
                    2.962.459 VND
                Chi tiết
                    Hotel LBP
                 4/F Hollywood Centre, Hongkong
                                Bản đồ
                    Điện thoại nội vùng miễn phíCâu lạc bộ sức khỏeThư việnCó nôi cho trẻ sơ sinhTrung tâm hội nghị
                    2.293.418 VND
                Chi tiết
                    Concerto Inn
                 28 Hung Shing Yeh Beach Yung Shue Wan, Hongkong
                                Bản đồ
                    View đẹpCho phép mang vật nuôiPhòng có ban công riêngDịch vụ cướiKhu dã ngoại
                    2.611.976 VND
                Chi tiết
                    Courtyard Hong Kong Sha Tin
                 1 On Ping Street, Hongkong
                                Bản đồ
                    Thiết kế hiện đạiView đẹpHồ bơi ngoài trờiPhòng tắm hơi sauna
                    2.994.541 VND
                Chi tiết
    14 khách sạn Hong kong
                    Cần tư vấn ? 
                    Gọi ngay
                    1900 1870
                 BỘ LỌC TÌM KIẾM
    Tìm khách sạn Hong kong
          Xếp hạng khách sạn Hong kong
            Tất cả
      Mức giá khách sạn Hong kong
        Tất cảDưới 500.000500.000 đến 1.000.0001.000.000 đến 2.000.0002.000.000 đến 5.000.000Trên 5.000.000
        Địa điểm khách sạn Hong kong
                        Tất cả
                        Discovery Bay
                        Gần Bãi biển Hung Shing Yeh
                        Gần Bến phà Hồng Kông - Macau
                        Gần Chợ Chim Yuen Po
                        Gần Chợ Quý bà
                        Gần Chùa Bà Thiên Hậu
                        Gần Citistore
                        Gần Đài thiên văn Hồng Kông
                        Gần Quảng trường Hàng hải
                        Gần Trung tâm Hội nghị và Triển lãm Hồng Kông
                        Gần Trung tâm Mua sắm Đường Nathan
                        Gần Trung tâm Mua sắm Grand Century Place
                        Gần Trung tâm Mua sắm Kingswood Ginza
                        Gần Trung tâm Shun Tak
                        Gần Trung tâm Thương mại New Town
                        Gần Trường Đua Sha Tin
                        Hồng Kông
                        Ở Aberdeen
                        Ở Đảo Lantau
                        Tsim Sha Tsui
                        Vịnh Causeway
                        Xem thêm
                        Thu gọn
    Tiện ích khách sạn Hong kong
            Tất cả
                            Phòng gia đình
                            Bãi đậu xe ô tô tại khách sạn
                            Thang máy
                            Hồ bơi
                            Phòng tập thể (dorm)
                            Kid Club
                                Đặt phòng theo đoàn?
                                iVIVU đảm bảo sẽ tìm kiếm deal tốt nhất cho bạn!
                        Đặt ngay 
                    ×
                    ĐẶT PHÒNG ĐOÀN
                        Khi đặt phòng theo đoàn với iVIVU.com, bạn sẽ có được khách sạn phù hợp nhất với giá tốt nhất mà không phải tốn thời gian tìm kiếm.
                                 Yêu cầu
                                         Điện thoại 
                                             Email
                                        *
                                 Vui lòng nhập địa điểm.
                                 Chưa nhập địa chỉ email hoặc địa chỉ email chưa đúng
                                 Vui lòng nhập số điện thoại.
                        • iVIVU.com cam kết đảm bảo an toàn thông tin của quý khách hàng. 
                        • Quý khách hàng có thể yêu cầu ngưng dịch vụ tìm kiếm deal tốt nhất bất cứ lúc nào.
                        Đặt phòng đoàn
                         Khách sạn Hong kong theo hạng sao
                            Khách sạn 1 sao tại Hong kong
                            Khách sạn 2 sao tại Hong kong
                            Khách sạn 3 sao tại Hong kong
                            Khách sạn 4 sao tại Hong kong
                            Khách sạn 5 sao tại Hong kong
                         Khách sạn tại các địa điểm du lịch nổi tiếng khác
                            Khách sạn Việt Nam
                            Khách sạn United Arab Emirates
                            Khách sạn Afghanistan
                            Khách sạn Armenia
                            Khách sạn Aserbaidshan
                            Khách sạn Bangladesh
                            Khách sạn Bahrain
                            Khách sạn Brunei Darussalam
                            Khách sạn Bhutan
                            Khách sạn China
                            Khách sạn Hongkong
                            Khách sạn Indonesia
                            Khách sạn Israel
                            Khách sạn India
                            Khách sạn Iraq
                            Khách sạn Iran
                            Khách sạn Jordan
                            Khách sạn Japan
                            Khách sạn Kyrgystan
                            Khách sạn Cambodia
                            Khách sạn Korea, Republic of
                            Khách sạn Kuwait
                            Khách sạn Kazakstan
                            Khách sạn Lao People's Democratic Republic
                            Khách sạn Lebanon
                            Khách sạn Sri Lanka
                            Khách sạn Myanmar
                            Khách sạn Mongolia
                            Khách sạn Macau
                            Khách sạn Maldives
                            Khách sạn Malaysia
                            Khách sạn Nepal
                            Khách sạn Oman
                            Khách sạn Philippines
                            Khách sạn Pakistan
                            Khách sạn Qatar
                            Khách sạn Saudi Arabia
                            Khách sạn Singapore
                            Khách sạn Syrian Arab Republic
                            Khách sạn Thailand
                            Khách sạn Tajikistan
                            Khách sạn East Timor
                            Khách sạn Turkmenistan
                            Khách sạn Taiwan, Province of China
                            Khách sạn Uzbekistan
                            Khách sạn Yemen
                            Khách sạn Campuchia
                    ×
                    Cập nhật giá khách sạn
                                                Ngày nhận
                                            Số đêm
                                                    12345678910111213141516171819202122232425262728293030+
                                                Ngày trả
                                            Số phòng
                                            Người lớn
                        Cập nhật lại giá khách sạn
                        Về iVIVU.comChúng tôiiVIVU BlogPMS - Miễn phí
                        Thông Tin Cần BiếtĐiều kiện & Điều khoảnQuy chế hoạt độngCâu hỏi thường gặp
                        Đối Tác & Liên kết
                                    Vietnam
                                    Airlines
                            VNExpressTiki.vn - Mua sắm online
                        Được chứng nhận
                                iVIVU.com là một thành viên của Thiên Minh Groups
                                Bạn cần trợ giúp? Hãy gọi ngay
                                        CSKH: 1900 1870
                                        Khác:   (08) 3930 8290
                                         Từ 7h30 - 21h hằng ngày
                                    iVIVU.com © 2016 - 
                                        Hệ thống đặt phòng khách sạn trực tuyến hàng
                                        đầu Việt Nam
                                        DKKD: 0312788481, Ngày cấp: 21/05/2014, Sở kế hoạch đầu tư thành phố Hồ Chí Minh
                                        HCM: Lầu 7, Tòa nhà Anh Đăng, 215 Nam Kỳ Khởi Nghĩa, Phường 7, Quận 3, Tp. Hồ Chí Minh
                                        (Xem bản đồ)
                                        HN: Lầu 9, 70-72 Bà Triệu, Quận Hoàn Kiếm, Hà Nội
                                        (Xem bản đồ)
                                        Like để cập nhật cẩm nang du lịch
                                            tc@ivivu.com
    Xin Quý khách đợi trong giây lát
        Vui lòng để lại thông tin yêu cầu đặt phòng khách sạn của Quý khách.
                Giá chỉ mang tính chất tham khảo và không áp dụng vào các ngày lễ tết. Chúng tôi sẽ liên hệ lại trong 24h.
            Họ & Tên: 
            Số điện thoại: 
            Email: 
            Vùng/thành phố yêu cầu:
            Tên khách sạn:
                Ngày nhận phòng:
                Ngày trả phòng:
            Yêu cầu khác:
        Gửi yêu cầu
           ×
                Bản đồ
