url:https://www.ivivu.com/khach-san-ho-chi-minh?l=Qu%E1%BA%ADn%201%20-%20Ch%E1%BB%A3%20B%E1%BA%BFn%20Th%C3%A0nh
Tittle :Khách sạn Hồ Chí Minh Quận 1 - Chợ Bến Thành
content :1900 1870từ 7h30-21h hàng ngày
                        Khách sạn
                        Tours
                        Ưu đãi đặc biệt
                        Cẩm nang du lịch
                    Giới thiệuHỏi đápHỗ trợ
                    >
                ×
                Thông tin đăng nhập
                        Tên đăng nhập:
                        Mật khẩu:
                Đăng nhập
                        Tìm nhanh khách sạn
                        Ngày nhận phòng
                        Số đêm
                                12345678910111213141516171819202122232425262728293030+
                        Ngày trả phòng
                         
                        Trang chủ
                        Việt Nam
                        Hồ Chí Minh
                        Quận 1 - Chợ Bến Thành
                Khách sạn Hồ Chí Minh Quận 1 - Chợ Bến Thành 
                Hồ Chí Minh
                 XEM BẢN ĐỒ
                Cập nhật giá
                Sắp xếp theo: 
                                    iVIVU đề xuất
                                    Đề xuất
                                    Giá phòng
                                     Giá
                                    Hạng sao
                                         Sao
                        iVIVU đề xuấtGiá phòng - Tăng dần ▲Giá phòng - Giảm dần ▼Hạng sao - Tăng dần ▲Hạng sao - Giảm dần ▼
                    Còn 4 ngày - ƯU ĐÃI ĐẶC BIỆT
                            Giá Chỉ Có Tại iVIVU
                            Khách sạn The Reverie Sài Gòn
                         23-36 Nguyễn Huệ, Quận 1, Tp. Hồ Chí Minh, Việt Nam
                                                Bản đồ
                            Cao cấp và sang trọngDịch vụ đưa đón sân bayTrung tâm thành phố
                                Liên hệ
                                    1900 1870
                             giá rẻ bất ngờ
                        Chi tiết
                    Nhà nghỉ Phan Anh Sài Gòn
                 373/6 đường Phạm Ngũ Lão, Quận 1, Hồ Chí Minh, Việt Nam
                    8.4
                    Rất tốt
                                    41 nhận xét
                Bản đồ
                    Trung tâm thành phốPhòng tập thểCách chợ Bến Thành 6 phút lái xeKhu Tây balo
                    410.311 VND
                Chi tiết
                    Khách sạn New World Sài Gòn
                 76 Đường Lê Lai, Phường Bến Nghé, Quận 1, Tp, Hồ Chí Minh, Việt Nam
                    8.3
                    Rất tốt
                                    12 nhận xét
                Bản đồ
                    Trung tâm thành phốCách chợ Bến Thành 6 phút đi bộHồ bơi ngoài trờiCasino
                        Liên hệ
                        1900 1870
                         giá rẻ bất ngờ
                Chi tiết
                    Khách Sạn Norfolk Sài Gòn
                 117 Lê Thánh Tôn , Phường Bến Nghé, Quận 1, Hồ Chí Minh, Việt Nam
                                Bản đồ
                    Gần Chợ Bến ThànhGymPhòng xông hơiThang máy
                        Liên hệ
                        1900 1870
                         giá rẻ bất ngờ
                Chi tiết
                    Nhà nghỉ Sài Gòn Backpackers - Phạm Ngũ Lão
                 373 / 20 đường Phạm Ngũ Lão, Phường Phạm Ngũ Lão, Quận 1, Việt Nam
                    7.5
                    Rất tốt
                                    25 nhận xét
                Bản đồ
                    Nhà nghỉ mớiKhu phố TâyPhòng tập thể
                    401.111 VND
                Chi tiết
                    Nhà nghỉ Venus Sài Gòn
                 373/2 Đường Phạm Ngũ Lão, Phường Phạm Ngũ Lão, Quận 1, Tp. Hồ Chí Minh, Việt Nam
                    8.2
                    Rất tốt
                                    59 nhận xét
                Bản đồ
                    Khu phố TâyCho thuê xe
                    320.960 VND
                Chi tiết
                    Nhà nghỉ Budget Hostel Sài Gòn
                 102/4 Cống Quỳnh, Quận 1, Việt Nam
                    7.6
                    Rất tốt
                                    27 nhận xét
                Bản đồ
                    Khu phố TâyCách chợ Bến Thành 6 phút lái xePhòng gia đìnhPhòng tập thể
                    454.713 VND
                Chi tiết
                    Khách sạn Sơn Tùng Sài Gòn
                 123 Đường Đề Thám, Quận 1, TP. Hồ Chí Minh, Việt Nam
                    8.6
                    Rất tốt
                                    37 nhận xét
                Bản đồ
                    Khu phố TâyTrung tâm Sài GònPhòng gia đình
                    310.680 VND
                Chi tiết
                    Khách sạn Asian Ruby Central Sài Gòn
                 277 Đường Lê Thánh Tôn, Phường Bến Thành, Quận 1, Tp. Hồ Chí Minh, Việt Nam
                    8.6
                    Rất tốt
                                    86 nhận xét
                Bản đồ
                    Cách chợ Bến Thành 3 phút đi bộCách khu phố tây 8 phút đi bộPhòng gia đình
                    737.205 VND
                Chi tiết
                    Khách sạn Tuấn Anh 168 Sài Gòn
                 168 Đường Cống Quỳnh, Phường Phạm Ngũ Lão, Quận 1, Tp. Hồ Chí Minh, Việt Nam
                    8.1
                    Rất tốt
                                    58 nhận xét
                Bản đồ
                    Cách khu phố Tây 10 phút đi bộPhòng gia đìnhCho thuê xe máy
                    451.350 VND
                Chi tiết
                    Khách sạn A25 Lê Lai Sài Gòn
                 122 Lê Lai, Quận 1, Thành phố Hồ Chí Minh, Việt Nam
                                Bản đồ
                    Đối diện chợ Bến ThànhCách TTTM Zen Plaza 8 phút đi bộPhòng gia đình
                        Liên hệ
                        1900 1870
                         giá rẻ bất ngờ
                Chi tiết
                    Khách sạn Central Palace Sài Gòn
                 39 – 39A Nguyễn Trung Trực,quận 1, thành phố Hồ Chí Minh , Việt Nam
                                Bản đồ
                        Liên hệ
                        1900 1870
                         giá rẻ bất ngờ
                Chi tiết
                    Khách sạn Golden Central Sài Gòn
                 140 Đường Lý Tự Trọng, Phường Bến Thành, Quận 1, Tp. Hồ Chí Minh, Việt Nam
                    8.0
                    Rất tốt
                                    12 nhận xét
                Bản đồ
                    trung tâm thành phốhồ bơi ngoài trờigần chợ Bến Thành
                    1.589.122 VND
                Chi tiết
                    Khách sạn A25 Mạc Thị Bưởi Sài Gòn
                 35 Mạc Thị Bưởi, Phường Bến Nghé, Quận 1, Thành phố Hồ Chí Minh, Việt Nam
                                Bản đồ
                    Trung tâm Thành phốCách chợ Bến Thành 6 phút lái xePhòng gia đìnhCho thuê xe máy
                        Liên hệ
                        1900 1870
                         giá rẻ bất ngờ
                Chi tiết
                    Khách sạn Bloom Sài Gòn
                 27-29 Trương Định, Phường Bến Thành, Quận 1, TP.HCM, Việt Nam
                    7.5
                    Rất tốt
                                    37 nhận xét
                Bản đồ
                    Trung tâm thành phốCách chợ Bến Thành 3 phút đi bộCho thuê xe máyBãi đậu xe ô tô
                    1.410.695 VND
                Chi tiết
    123...6
    79 khách sạn Hồ Chí Minh
                        Cần đặt phòng? 
                        Gọi ngay
                        Thanh Nguyễn
                            19001870
                        Cần đặt phòng? 
                        Gọi ngay
                        Trúc Nguyễn
                            19001870
                        Cần đặt phòng? 
                        Gọi ngay
                        Thúy Trần
                            19001870
                 BỘ LỌC TÌM KIẾM
    Tìm khách sạn Hồ Chí Minh
          Xếp hạng khách sạn Hồ Chí Minh
            Tất cả
      Mức giá khách sạn Hồ Chí Minh
        Tất cảDưới 500.000500.000 đến 1.000.0001.000.000 đến 2.000.0002.000.000 đến 5.000.000Trên 5.000.000
        Địa điểm khách sạn Hồ Chí Minh
                        Tất cả
                        Ngoại thành
                        Quận 07
                        Quận 1
                        Quận 1 - Chợ Bến Thành
                        Quận 1 - Khu Tây ba lô
                        Quận 1 - Nhà hát Thành Phố
                        Quận 10
                        Quận 3
                        Quận 5 - Chinatown
                        Quận 7
                        Quận 7 - SECC
                        Sân bay Tân Sơn Nhất
                        Thành phố Hồ Chí Minh
                        Trung tâm thành phố
                        Xem thêm
                        Thu gọn
    Tiện ích khách sạn Hồ Chí Minh
            Tất cả
                            Phòng gia đình
                            Bãi đậu xe ô tô tại khách sạn
                            Thang máy
                            Hồ bơi
                            Phòng tập thể (dorm)
                            Kid Club
            Kinh nghiệm du lịch Hồ Chí Minh
                        Bạn có biết, ngoài những tòa nhà cao tầng nằm san sát nhau, những khu vui chơi giải trí, trung tâm mua sắm sầm uất, Sài Gòn cũng không thiếu những biệt thự cổ kính, những ngôi chợ truyền thống tồn tại đã hàng trăm năm?
Sài Gòn rộng lớn chắc chắn không thiếu những “đặc sản” du lịch như cơm sườn bì chả, vui chơi phố Tây Phạm Ngũ Lão, mua sắm ở chợ Bến Thành hay về với bình yên biển Cần Giờ…
                            Xem thêm
                                Đặt phòng theo đoàn?
                                iVIVU đảm bảo sẽ tìm kiếm deal tốt nhất cho bạn!
                        Đặt ngay 
                    ×
                    ĐẶT PHÒNG ĐOÀN
                        Khi đặt phòng theo đoàn với iVIVU.com, bạn sẽ có được khách sạn phù hợp nhất với giá tốt nhất mà không phải tốn thời gian tìm kiếm.
                                 Yêu cầu
                                         Điện thoại 
                                             Email
                                        *
                                 Vui lòng nhập địa điểm.
                                 Chưa nhập địa chỉ email hoặc địa chỉ email chưa đúng
                                 Vui lòng nhập số điện thoại.
                        • iVIVU.com cam kết đảm bảo an toàn thông tin của quý khách hàng. 
                        • Quý khách hàng có thể yêu cầu ngưng dịch vụ tìm kiếm deal tốt nhất bất cứ lúc nào.
                        Đặt phòng đoàn
                         Khách sạn Hồ Chí Minh theo hạng sao
                            Khách sạn 1 sao tại Hồ Chí Minh
                            Khách sạn 2 sao tại Hồ Chí Minh
                            Khách sạn 3 sao tại Hồ Chí Minh
                            Khách sạn 4 sao tại Hồ Chí Minh
                            Khách sạn 5 sao tại Hồ Chí Minh
                             Khách sạn Hồ Chí Minh tại các địa điểm phổ biến
                                Ngoại thành
                                Quận 07
                                Quận 1
                                Quận 1 - Chợ Bến Thành
                                Quận 1 - Khu Tây ba lô
                                Quận 1 - Nhà hát Thành Phố
                                Quận 10
                                Quận 3
                                Quận 5 - Chinatown
                                Quận 7
                                Quận 7 - SECC
                                Sân bay Tân Sơn Nhất
                                Thành phố Hồ Chí Minh
                                Trung tâm thành phố
                         Khách sạn tại các địa điểm du lịch nổi tiếng khác
                            Khách sạn Đak Nông
                            Khách sạn Ninh Thuận
                            Khách sạn Kon Tum
                            Khách sạn Quảng Trị
                            Khách sạn Tỉnh Quảng Bình
                            Khách sạn Gia Lai
                            Khách sạn Điện Biên
                            Khách sạn Vĩnh Phúc
                            Khách sạn Hà Tĩnh
                            Khách sạn Đồng Nai
                            Khách sạn Bình Dương
                            Khách sạn Bình Định
                            Khách sạn Hải Dương
                            Khách sạn Tiền Giang
                            Khách sạn Phú Yên
                            Khách sạn Tỉnh Kiên Giang
                            Khách sạn Đaklak
                            Khách sạn Cát Bà
                            Khách sạn Châu Đốc
                            Khách sạn Cần Thơ
                            Khách sạn Phú Quốc
                            Khách sạn Đà Nẵng
                            Khách sạn Phan Thiết
                            Khách sạn Nha Trang
                            Khách sạn Hà Nội
                            Khách sạn Huế
                            Khách sạn Phan Rang
                            Khách sạn Long Hải
                            Khách sạn Mũi Né
                            Khách sạn Hội An
                            Khách sạn Vịnh Hạ Long
                            Khách sạn Tam Hải
                            Khách sạn Hồ Tràm
                            Khách sạn Vũng Tàu
                            Khách sạn Hải Phòng
                            Khách sạn Ninh Bình
                            Khách sạn Sapa
                            Khách sạn Côn Đảo
                            Khách sạn Nghệ An
                            Khách sạn Quảng Bình
                            Khách sạn Quy Nhơn
                            Khách sạn Thanh Hóa
                            Khách sạn Tuy Hòa
                            Khách sạn Đà Lạt
                            Khách sạn Lagi
                            Khách sạn Quảng Ngãi
                            Khách sạn Lăng Cô
                            Khách sạn Trảng Bom
                            Khách sạn Pleiku
                            Khách sạn Buôn Mê Thuột
                            Khách sạn Hà Giang
                            Khách sạn Cái Bè
                            Khách sạn Lào Cai
                    ×
                    Cập nhật giá khách sạn
                                                Ngày nhận
                                            Số đêm
                                                    12345678910111213141516171819202122232425262728293030+
                                                Ngày trả
                                            Số phòng
                                            Người lớn
                        Cập nhật lại giá khách sạn
                        Về iVIVU.comChúng tôiiVIVU BlogPMS - Miễn phí
                        Thông Tin Cần BiếtĐiều kiện & Điều khoảnQuy chế hoạt độngCâu hỏi thường gặp
                        Đối Tác & Liên kết
                                    Vietnam
                                    Airlines
                            VNExpressTiki.vn - Mua sắm online
                        Được chứng nhận
                                iVIVU.com là một thành viên của Thiên Minh Groups
                                Bạn cần trợ giúp? Hãy gọi ngay
                                        CSKH: 1900 1870
                                        Khác:   (08) 3930 8290
                                         Từ 7h30 - 21h hằng ngày
                                    iVIVU.com © 2016 - 
                                        Hệ thống đặt phòng khách sạn trực tuyến hàng
                                        đầu Việt Nam
                                        DKKD: 0312788481, Ngày cấp: 21/05/2014, Sở kế hoạch đầu tư thành phố Hồ Chí Minh
                                        HCM: Lầu 7, Tòa nhà Anh Đăng, 215 Nam Kỳ Khởi Nghĩa, Phường 7, Quận 3, Tp. Hồ Chí Minh
                                        (Xem bản đồ)
                                        HN: Lầu 9, 70-72 Bà Triệu, Quận Hoàn Kiếm, Hà Nội
                                        (Xem bản đồ)
                                        Like để cập nhật cẩm nang du lịch
                                            tc@ivivu.com
    Xin Quý khách đợi trong giây lát
        Vui lòng để lại thông tin yêu cầu đặt phòng khách sạn của Quý khách.
                Giá chỉ mang tính chất tham khảo và không áp dụng vào các ngày lễ tết. Chúng tôi sẽ liên hệ lại trong 24h.
            Họ & Tên: 
            Số điện thoại: 
            Email: 
            Vùng/thành phố yêu cầu:
            Tên khách sạn:
                Ngày nhận phòng:
                Ngày trả phòng:
            Yêu cầu khác:
        Gửi yêu cầu
           ×
                Bản đồ
