url:https://www.ivivu.com/khach-san-london-united-kingdom?s=40
Tittle :Khách sạn London 4 sao
content :1900 1870từ 7h30-21h hàng ngày
                        Khách sạn
                        Tours
                        Ưu đãi đặc biệt
                        Cẩm nang du lịch
                    Giới thiệuHỏi đápHỗ trợ
                    >
                ×
                Thông tin đăng nhập
                        Tên đăng nhập:
                        Mật khẩu:
                Đăng nhập
                        Tìm nhanh khách sạn
                        Ngày nhận phòng
                        Số đêm
                                12345678910111213141516171819202122232425262728293030+
                        Ngày trả phòng
                         
                        Trang chủ
                        United Kingdom
                        London
                        4 sao 
                Khách sạn London 4 sao 
                London
                 XEM BẢN ĐỒ
                Cập nhật giá
                Sắp xếp theo: 
                                    iVIVU đề xuất
                                    Đề xuất
                                    Giá phòng
                                     Giá
                                    Hạng sao
                                         Sao
                        iVIVU đề xuấtGiá phòng - Tăng dần ▲Giá phòng - Giảm dần ▼Hạng sao - Tăng dần ▲Hạng sao - Giảm dần ▼
                    Best Western Ilford Hotel
                 3-5 Argyle Road, United Kingdom
                                Bản đồ
                    Gần Công viên Valentines
                    1.434.869 VND
                Chi tiết
                    Copthorne Effingham Gatwick
                 West Park Road, United Kingdom
                                Bản đồ
                    Gần sân bay
                    1.464.773 VND
                Chi tiết
                    Cedar Court
                 Ainley Top, United Kingdom
                                Bản đồ
                    Gần Câu lạc bộ golf Huddersfield
                    1.653.338 VND
                Chi tiết
                    Hallmark Croydon
                 680 Purley Way, United Kingdom
                                Bản đồ
                    Gần Khu phức hợp Văn phòng Airport House
                    2.001.798 VND
                Chi tiết
                    Best Western Maitrise Suites
                 50-54 The Broadway West, United Kingdom
                                Bản đồ
                    Ở West Ealing Luân Đôn
                    2.001.798 VND
                Chi tiết
                    Courtyard Gatwick Airport
                 Buckingham Gate, United Kingdom
                                Bản đồ
                    Gần ga tàu
                    2.179.489 VND
                Chi tiết
                    Croydon Park
                 7 Altyre Road, United Kingdom
                                Bản đồ
                    Gần Sân vận động Selhurst Park
                    2.238.801 VND
                Chi tiết
                    Coulsdon Manor Hotel and Golf Club
                 Coulsdon Court Road, United Kingdom
                                Bản đồ
                    Ở Coulsdon
                    2.297.866 VND
                Chi tiết
                    Ramada  London North M1
                 Between Junction 2-4Gateway ServicesLondon NW7 3HU, United Kingdom
                                Bản đồ
                    Ở Bắc Luân Đôn Luân Đôn
                    2.311.707 VND
                Chi tiết
                    Menzies Prince Regent
                 Manor Road, United Kingdom
                                Bản đồ
                    Ở Woodford Bridge Woodford Green
                    2.373.490 VND
                Chi tiết
                    Hilton London Docklands Riverside Hotel
                 265 Rotherhithe Street, United Kingdom
                                Bản đồ
                    Ở Canary Wharf Luân Đôn
                    2.536.847 VND
                Chi tiết
                    Best Western Palm
                 64-76 Hendon WayLondon Borough of BarnetLondon NW2 2NL, United Kingdom
                                Bản đồ
                    Ở Cricklewood Luân Đôn
                    2.590.475 VND
                Chi tiết
                    The Langorf
                 20 Frognal Hampstead, United Kingdom
                                Bản đồ
                    Ở Hampstead Luân Đôn
                    2.655.472 VND
                Chi tiết
                    Radisson Blu Hotel London Stansted Airport
                 Waltham CloseLondon Stansted AirportEssex CM24 1PP, United Kingdom
                                Bản đồ
                    Trên trục giao thông liên kết với sân bay
                    2.669.065 VND
                Chi tiết
                    Holiday Inn Wembley
                 Empire WayWembleyLondon HA9 8DS, United Kingdom
                                Bản đồ
                    Gần Đấu trường Wembley
                    2.771.131 VND
                Chi tiết
    123...14
    201 khách sạn London
                    Cần tư vấn ? 
                    Gọi ngay
                    1900 1870
                 BỘ LỌC TÌM KIẾM
    Tìm khách sạn London
          Xếp hạng khách sạn London
            Tất cả
      Mức giá khách sạn London
        Tất cảDưới 500.000500.000 đến 1.000.0001.000.000 đến 2.000.0002.000.000 đến 5.000.000Trên 5.000.000
        Địa điểm khách sạn London
                        Tất cả
                        Barking
                        Gần Bảo tàng Anh
                        Gần Bảo tàng Lịch sử Tự nhiên Luân Đôn
                        Gần Bảo tàng Sáp Madame Tussaud
                        Gần Beauchamp Place
                        Gần Big Ben
                        Gần Cao đẳng Hoàng gia Luân Đôn
                        Gần Cartwright Gardens
                        Gần Câu lạc bộ golf Huddersfield
                        Gần Câu lạc bộ rugby Mill Hill
                        Gần Cầu Luân Đôn
                        Gần Chislehurst Caves
                        Gần Chợ Borough
                        Gần Chợ Covent Garden
                        Gần Chợ nông thôn ở Thụy Sĩ
                        Gần Chợ Portobello Road
                        Gần Cổng Cẩm thạch
                        Gần Công viên Battersea
                        Gần Công viên Kensington
                        Gần Công viên Osterley
                        Gần Công viên Regent
                        Gần Công viên Richmond
                        Gần Công viên St. James
                        Gần Công viên Stockley
                        Gần Công viên Syon
                        Gần Công viên Valentines
                        Gần Cung điện Buckingham
                        Gần Cung điện Kensington
                        Gần Cutty Sark
                        Gần Đại học King's College Luân Đôn
                        Gần Đại học Luân Đôn
                        Gần Đấu trường O2
                        Gần Đấu trường Wembley
                        Gần ga tàu
                        Gần Hammersmith Apollo
                        Gần Harrods
                        Gần Ilford Cricket Club
                        Gần Kennington Oval
                        Gần Kensington High Street
                        Gần Khu phức hợp Văn phòng Airport House
                        Gần Lâu đài Hoàng gia Albert
                        Gần Lâu đài Richmond
                        Gần London Eye
                        Gần Ngục tối Luân Đôn
                        Gần Nhà ga Greenwich Peninsula của Hãng Hàng không Emirates
                        Gần Nhà hát Apollo Victoria
                        Gần Nhà hát cung điện Victoria
                        Gần Nhà hát Palladium Luân Đôn
                        Gần Nhà thờ St. Paul
                        Gần Nhà thờ Waltham Abbey
                        Gần Phố Baker
                        Gần Phố Oxford
                        Gần Phòng triển lãm William Morris
                        Gần Quảng trường Russell
                        Gần Quảng trường Trafalgar
                        Gần Riverside Studios
                        Gần sân bay
                        Gần Sân Cri-kê Lord
                        Gần Sân vận động Công viên Griffin
                        Gần Sân vận động Emirates
                        Gần Sân vận động Olympic
                        Gần Sân vận động Selhurst Park
                        Gần Sân vận động Stamford Bridge
                        Gần Sân vận động Twickenham
                        Gần Sân vận động Wembley
                        Gần Selfridges
                        Gần Sở thú Luân Đôn
                        Gần Tate Britain
                        Gần Thành phố Westfield Stratford
                        Gần Tháp BT
                        Gần Tháp London
                        Gần Thế giới Thám hiểm Chessington
                        Gần Thư viện Anh
                        Gần Thủy cung Luân Đôn
                        Gần Tottenham Court Road
                        Gần Trung tâm mua sắm Whiteleys
                        Gần Trung tâm Nghệ thuật Barbican
                        Gần Trung tâm Quân sự Northwood
                        Gần Trung tâm Thương mại Centrale
                        Gần Trung tâm Triển lãm Excel
                        Gần Vườn có mái che Kensington
                        Gần Vườn Hatton
                        Gần Xưởng phim Elstree
                        Luân Đôn
                        Ở Acton
                        Ở Bắc Luân Đôn
                        Ở Brent Cross
                        Ở Bromley
                        Ở Camberwell
                        Ở Camden Town
                        Ở Canary Wharf
                        Ở Chingford
                        Ở Chiswick
                        Ở Coulsdon
                        Ở Cricklewood
                        Ở Ealing
                        Ở Golders Green
                        Ở Hampstead
                        Ở Haringey
                        Ở Hendon
                        Ở Kensington
                        Ở Khu Hammersmith và Fulham
                        Ở Kilburn
                        Ở Kings Cross St. Pancras
                        Ở Leyton
                        Ở Maida Vale
                        Ở Nam Luân Đôn
                        Ở Newham
                        Ở Nutfield
                        Ở Paddington
                        Ở Ruislip
                        Ở South Bank
                        Ở Stratford
                        Ở Thành phố Luân Đôn
                        Ở Wandsworth
                        Ở West Ealing
                        Ở Wimbledon
                        Ở Woodford Bridge
                        Redhill
                        Trên trục giao thông liên kết với sân bay
                        Woodford Green
                        Xem thêm
                        Thu gọn
    Tiện ích khách sạn London
            Tất cả
                            Phòng gia đình
                            Bãi đậu xe ô tô tại khách sạn
                            Thang máy
                            Hồ bơi
                            Phòng tập thể (dorm)
                            Kid Club
                                Đặt phòng theo đoàn?
                                iVIVU đảm bảo sẽ tìm kiếm deal tốt nhất cho bạn!
                        Đặt ngay 
                    ×
                    ĐẶT PHÒNG ĐOÀN
                        Khi đặt phòng theo đoàn với iVIVU.com, bạn sẽ có được khách sạn phù hợp nhất với giá tốt nhất mà không phải tốn thời gian tìm kiếm.
                                 Yêu cầu
                                         Điện thoại 
                                             Email
                                        *
                                 Vui lòng nhập địa điểm.
                                 Chưa nhập địa chỉ email hoặc địa chỉ email chưa đúng
                                 Vui lòng nhập số điện thoại.
                        • iVIVU.com cam kết đảm bảo an toàn thông tin của quý khách hàng. 
                        • Quý khách hàng có thể yêu cầu ngưng dịch vụ tìm kiếm deal tốt nhất bất cứ lúc nào.
                        Đặt phòng đoàn
                         Khách sạn London theo hạng sao
                            Khách sạn 1 sao tại London
                            Khách sạn 2 sao tại London
                            Khách sạn 3 sao tại London
                            Khách sạn 4 sao tại London
                            Khách sạn 5 sao tại London
                         Khách sạn tại các địa điểm du lịch nổi tiếng khác
                            Khách sạn Andorra
                            Khách sạn Albania
                            Khách sạn Austria
                            Khách sạn Bosnia and Herzigovina
                            Khách sạn Belgium
                            Khách sạn Bulgaria
                            Khách sạn Belarus
                            Khách sạn Switzerland
                            Khách sạn Cyprus
                            Khách sạn Czech Republic
                            Khách sạn Germany
                            Khách sạn Denmark
                            Khách sạn Estland
                            Khách sạn Spain
                            Khách sạn Finland
                            Khách sạn Faeroe Islands
                            Khách sạn France
                            Khách sạn United Kingdom
                            Khách sạn Georgia
                            Khách sạn Gibralter
                            Khách sạn Greenland
                            Khách sạn Greece
                            Khách sạn Croatia
                            Khách sạn Hungary
                            Khách sạn Eire / Ireland
                            Khách sạn Iceland
                            Khách sạn Italy
                            Khách sạn Liechtenstein
                            Khách sạn Lithuania
                            Khách sạn Luxembourg
                            Khách sạn Latvia
                            Khách sạn Monaco
                            Khách sạn Moldova
                            Khách sạn Montenegro
                            Khách sạn Macedonia (FYROM)
                            Khách sạn Northern Mariana Islands
                            Khách sạn Malta
                            Khách sạn Netherlands
                            Khách sạn Norway
                            Khách sạn Poland
                            Khách sạn Portugal
                            Khách sạn Romania
                            Khách sạn Serbia
                            Khách sạn Russian Federation
                            Khách sạn Sweden
                            Khách sạn Slovenia
                            Khách sạn Slovakia
                            Khách sạn San Marino
                            Khách sạn Turkey
                            Khách sạn Ukraine
                    ×
                    Cập nhật giá khách sạn
                                                Ngày nhận
                                            Số đêm
                                                    12345678910111213141516171819202122232425262728293030+
                                                Ngày trả
                                            Số phòng
                                            Người lớn
                        Cập nhật lại giá khách sạn
                        Về iVIVU.comChúng tôiiVIVU BlogPMS - Miễn phí
                        Thông Tin Cần BiếtĐiều kiện & Điều khoảnQuy chế hoạt độngCâu hỏi thường gặp
                        Đối Tác & Liên kết
                                    Vietnam
                                    Airlines
                            VNExpressTiki.vn - Mua sắm online
                        Được chứng nhận
                                iVIVU.com là một thành viên của Thiên Minh Groups
                                Bạn cần trợ giúp? Hãy gọi ngay
                                        CSKH: 1900 1870
                                        Khác:   (08) 3930 8290
                                         Từ 7h30 - 21h hằng ngày
                                    iVIVU.com © 2016 - 
                                        Hệ thống đặt phòng khách sạn trực tuyến hàng
                                        đầu Việt Nam
                                        DKKD: 0312788481, Ngày cấp: 21/05/2014, Sở kế hoạch đầu tư thành phố Hồ Chí Minh
                                        HCM: Lầu 7, Tòa nhà Anh Đăng, 215 Nam Kỳ Khởi Nghĩa, Phường 7, Quận 3, Tp. Hồ Chí Minh
                                        (Xem bản đồ)
                                        HN: Lầu 9, 70-72 Bà Triệu, Quận Hoàn Kiếm, Hà Nội
                                        (Xem bản đồ)
                                        Like để cập nhật cẩm nang du lịch
                                            tc@ivivu.com
    Xin Quý khách đợi trong giây lát
        Vui lòng để lại thông tin yêu cầu đặt phòng khách sạn của Quý khách.
                Giá chỉ mang tính chất tham khảo và không áp dụng vào các ngày lễ tết. Chúng tôi sẽ liên hệ lại trong 24h.
            Họ & Tên: 
            Số điện thoại: 
            Email: 
            Vùng/thành phố yêu cầu:
            Tên khách sạn:
                Ngày nhận phòng:
                Ngày trả phòng:
            Yêu cầu khác:
        Gửi yêu cầu
           ×
                Bản đồ
