url:https://www.ivivu.com/khach-san-nha-trang?utm_campaign=internal&utm_medium=suggested_regions&utm_source=blog_rightbox
Tittle :Khách sạn Nha Trang  giá rẻ từ 247.800 VND
content :1900 1870từ 7h30-21h hàng ngày
                        Khách sạn
                        Tours
                        Ưu đãi đặc biệt
                        Cẩm nang du lịch
                    Giới thiệuHỏi đápHỗ trợ
                    >
                ×
                Thông tin đăng nhập
                        Tên đăng nhập:
                        Mật khẩu:
                Đăng nhập
                        Tìm nhanh khách sạn
                        Ngày nhận phòng
                        Số đêm
                                12345678910111213141516171819202122232425262728293030+
                        Ngày trả phòng
                         
                        Trang chủ
                        Việt Nam
                        Nha Trang
                Khách sạn Nha Trang 
                Nha Trang
                 XEM BẢN ĐỒ
                Cập nhật giá
                Sắp xếp theo: 
                                    iVIVU đề xuất
                                    Đề xuất
                                    Giá phòng
                                     Giá
                                    Hạng sao
                                         Sao
                        iVIVU đề xuấtGiá phòng - Tăng dần ▲Giá phòng - Giảm dần ▼Hạng sao - Tăng dần ▲Hạng sao - Giảm dần ▼
                    Khách sạn InterContinental Nha Trang
                 32-34 Đường Trần Phú, Lộc Thọ, Tp. Nha Trang, Khánh Hòa, Việt Nam
                                Bản đồ
                    Trung tâm Thành phốCách biển 100mHồ bơi ngoài trời
                        Liên hệ
                        1900 1870
                         giá rẻ bất ngờ
                Chi tiết
                    Còn 11 ngày - ƯU ĐÃI ĐẶC BIỆT
                            Giá tốt chỉ có tại iVIVU
                            Khu nghỉ dưỡng Mia Nha Trang
                         Đường Bãi Dông, Cam Hải Đông, Cam Lâm, TP.Nha Trang, Việt Nam
                            9.7
                            Tuyệt vời
                                                    12 nhận xét
                        Bản đồ
                            Bãi biển riêngCó phòng FamilyKhu villa
                            3.865.050 VND
                        Chi tiết
                    Còn 3 ngày - GIÁ TỐT CHỈ CÓ TẠI IVIVU 
                        từ 2.418.780  VND / khách
                            Giảm 35%
                            Fusion Resort Nha Trang (All Spa Inclusive)
                         Lô D10b, Nguyễn Tất Thành, Cam Lâm, Cam Ranh, Biển Bãi Dài, Nha Trang, Việt Nam
                                                    2 nhận xét
                        Bản đồ
                            Bãi biển riêngHồ bơi ngoài trờiMiễn phí Spa
                                Liên hệ
                                    1900 1870
                             giá rẻ bất ngờ
                        Chi tiết
                    Khách sạn Lavender Nha Trang
                 98C/4 Trần Phú, Lộc Thọ, Nha Trang, Việt Nam
                    9.2
                    Tuyệt vời
                                    7 nhận xét
                Bản đồ
                    Cách biển 5 phút đi bộ
                    660.000 VND
                Chi tiết
                    Khách sạn White Lion Nha Trang
                 34/3 Đường Nguyễn Thiện Thuật, Tp. Nha Trang, Khánh Hòa, Việt Nam
                    9.1
                    Tuyệt vời
                                    61 nhận xét
                Bản đồ
                    Cách biển 10 phút đi bộ
                    413.000 VND
                Chi tiết
                    Khách sạn Pavillon Garden Nha Trang
                 04 Tôn Đản, Phường Lộc Thọ, Nha Trang, Khánh Hòa, Việt Nam
                    9.0
                    Tuyệt vời
                                    13 nhận xét
                Bản đồ
                    Cách biển 3 phút đi bộHồ bơi ngoài trờiDịch vụ spa
                    510.337 VND
                Chi tiết
                    Khách sạn Majestic Star Nha Trang
                 96-B5 Đường Trần Phú, Thành Phố Nha Trang, Việt Nam
                    8.7
                    Rất tốt
                                    31 nhận xét
                Bản đồ
                    Cách biển 4 phút đi bộHồ bơi ngoài trời
                    753.764 VND
                Chi tiết
                    Khách sạn Apus Nha Trang
                 95/9 Đường Hùng Vương, Phường Lộc Thọ, Tp. Nha Trang, Khánh Hòa, Việt Nam
                                    3 nhận xét
                Bản đồ
                    Phòng có bồn tắmHồ bơi ngoài trờiCách biển 6 phút đi bộ
                    649.000 VND
                Chi tiết
                    Khách Sạn Mimosa Nha Trang
                 38 Lê Quý Đôn, Tp. Nha Trang, Khánh Hòa , Việt Nam
                                    2 nhận xét
                Bản đồ
                    thang máyphòng thiết kế sang trọng
                    264.500 VND
                Chi tiết
                    Vinpearl Golf Land Resort & Villa Nha Trang
                 Đảo Hòn Tre, Nha Trang, Việt Nam
                                    2 nhận xét
                Bản đồ
                    Bãi biển riêngKhu vui chơi Vinpearl LandDịch vụ SpaSân golfVillaBao gồm ba bữa ăn
                    2.777.250 VND
                Chi tiết
                    Vinpearl Nha Trang Bay Resort & Villas
                 Đảo Hòn Tre, Nha Trang, Việt Nam
                                    1 nhận xét
                Bản đồ
                    Bãi biển riêngDịch vụ SpaHồ bơi ngoài trờiKhu vui chơi Vinpearl LandKhu villaBao gồm ba bữa ănSân golf
                    2.678.692 VND
                Chi tiết
                    Khách sạn Green Peace Nha Trang
                 102 Nguyễn Thiện Thuật, Nha Trang , Khánh Hòa , Việt Nam, Việt Nam
                                Bản đồ
                    Cách biển 5 phút đi bộ
                    456.660 VND
                Chi tiết
                    Khách sạn Central Nha Trang
                 28 Hùng Vương, Nha Trang, Khánh Hoà, Việt Nam
                                Bản đồ
                    Cách biển 6 phút đi bộ
                    767.000 VND
                Chi tiết
                    Khách Sạn B&B Nha Trang
                 96B1/15 Đường Trần Phú, Phường Lộc Thọ, Tp. Nha Trang, Khánh Hòa., Việt Nam
                                Bản đồ
                    Thang máyThiết kế sang trọngCách biển 5 phút đi bộ
                    944.000 VND
                Chi tiết
                    Khách sạn Stella Maris Nha Trang
                 57 Tuệ Tĩnh, Phường Lộc Thọ, Nha Trang, Khánh Hòa., Việt Nam
                                Bản đồ
                    1.357.000 VND
                Chi tiết
    123...9
    129 khách sạn Nha Trang
                        Cần đặt phòng? 
                        Gọi ngay
                        Diễm Nguyễn
                            19001870
                        Cần đặt phòng? 
                        Gọi ngay
                        Trúc Nguyễn
                            19001870
                        Cần đặt phòng? 
                        Gọi ngay
                        Thúy Trần
                            19001870
                 BỘ LỌC TÌM KIẾM
    Tìm khách sạn Nha Trang
          Xếp hạng khách sạn Nha Trang
            Tất cả
      Mức giá khách sạn Nha Trang
        Tất cảDưới 500.000500.000 đến 1.000.0001.000.000 đến 2.000.0002.000.000 đến 5.000.000Trên 5.000.000
        Địa điểm khách sạn Nha Trang
                        Tất cả
                        Bãi Dài
                        Biển Trần Phú
                        Bình Ba
                        Đảo Hòn Tre
                        Đường Phạm Văn Đồng - Bãi Tiên
                        Đường Trần Phú
                        Hòn Tằm
                        Khu Phố Tây
                        Vịnh Ninh Vân
                        Xem thêm
                        Thu gọn
    Tiện ích khách sạn Nha Trang
            Tất cả
                            Phòng gia đình
                            Bãi đậu xe ô tô tại khách sạn
                            Thang máy
                            Hồ bơi
                            Phòng tập thể (dorm)
                            Kid Club
            Kinh nghiệm du lịch Nha Trang
                        Nếu đã từng một lần đến với Nha Trang, du khách sẽ dễ dàng bị “đánh gục” bởi sự quyến rũ và năng động của thành phố biển xinh đẹp này.
Tắm biển ở bãi Dài, thăm Tháp Bà Ponagar, tắm bùn, chơi các môn thể thao trên nước… là những trải nghiệm bạn nên thử khi tới Nha Trang.
Bên cạnh đó đừng quên thưởng thức tô bún chả cá sứa hay những chiếc bánh xèo mực nóng hổi… bạn sẽ cảm nhận rõ rệt hương vị mặn mòi của phố biển. Hãy cùng Thổ địa iVIVU.com khiến chuyến du lịch của bạn thêm hoàn hảo!
                            Xem thêm
                                Đặt phòng theo đoàn?
                                iVIVU đảm bảo sẽ tìm kiếm deal tốt nhất cho bạn!
                        Đặt ngay 
                    ×
                    ĐẶT PHÒNG ĐOÀN
                        Khi đặt phòng theo đoàn với iVIVU.com, bạn sẽ có được khách sạn phù hợp nhất với giá tốt nhất mà không phải tốn thời gian tìm kiếm.
                                 Yêu cầu
                                         Điện thoại 
                                             Email
                                        *
                                 Vui lòng nhập địa điểm.
                                 Chưa nhập địa chỉ email hoặc địa chỉ email chưa đúng
                                 Vui lòng nhập số điện thoại.
                        • iVIVU.com cam kết đảm bảo an toàn thông tin của quý khách hàng. 
                        • Quý khách hàng có thể yêu cầu ngưng dịch vụ tìm kiếm deal tốt nhất bất cứ lúc nào.
                        Đặt phòng đoàn
                         Khách sạn Nha Trang theo hạng sao
                            Khách sạn 1 sao tại Nha Trang
                            Khách sạn 2 sao tại Nha Trang
                            Khách sạn 3 sao tại Nha Trang
                            Khách sạn 4 sao tại Nha Trang
                            Khách sạn 5 sao tại Nha Trang
                             Khách sạn Nha Trang tại các địa điểm phổ biến
                                Bãi Dài
                                Biển Trần Phú
                                Bình Ba
                                Đảo Hòn Tre
                                Đường Phạm Văn Đồng - Bãi Tiên
                                Đường Trần Phú
                                Hòn Tằm
                                Khu Phố Tây
                                Vịnh Ninh Vân
                         Khách sạn tại các địa điểm du lịch nổi tiếng khác
                            Khách sạn Đak Nông
                            Khách sạn Ninh Thuận
                            Khách sạn Kon Tum
                            Khách sạn Quảng Trị
                            Khách sạn Tỉnh Quảng Bình
                            Khách sạn Gia Lai
                            Khách sạn Điện Biên
                            Khách sạn Vĩnh Phúc
                            Khách sạn Hà Tĩnh
                            Khách sạn Đồng Nai
                            Khách sạn Bình Dương
                            Khách sạn Bình Định
                            Khách sạn Hải Dương
                            Khách sạn Tiền Giang
                            Khách sạn Phú Yên
                            Khách sạn Tỉnh Kiên Giang
                            Khách sạn Đaklak
                            Khách sạn Cát Bà
                            Khách sạn Châu Đốc
                            Khách sạn Cần Thơ
                            Khách sạn Phú Quốc
                            Khách sạn Đà Nẵng
                            Khách sạn Phan Thiết
                            Khách sạn Hà Nội
                            Khách sạn Huế
                            Khách sạn Hồ Chí Minh
                            Khách sạn Phan Rang
                            Khách sạn Long Hải
                            Khách sạn Mũi Né
                            Khách sạn Hội An
                            Khách sạn Vịnh Hạ Long
                            Khách sạn Tam Hải
                            Khách sạn Hồ Tràm
                            Khách sạn Vũng Tàu
                            Khách sạn Hải Phòng
                            Khách sạn Ninh Bình
                            Khách sạn Sapa
                            Khách sạn Côn Đảo
                            Khách sạn Nghệ An
                            Khách sạn Quảng Bình
                            Khách sạn Quy Nhơn
                            Khách sạn Thanh Hóa
                            Khách sạn Tuy Hòa
                            Khách sạn Đà Lạt
                            Khách sạn Lagi
                            Khách sạn Quảng Ngãi
                            Khách sạn Lăng Cô
                            Khách sạn Trảng Bom
                            Khách sạn Pleiku
                            Khách sạn Buôn Mê Thuột
                            Khách sạn Hà Giang
                            Khách sạn Cái Bè
                            Khách sạn Lào Cai
                    ×
                    Cập nhật giá khách sạn
                                                Ngày nhận
                                            Số đêm
                                                    12345678910111213141516171819202122232425262728293030+
                                                Ngày trả
                                            Số phòng
                                            Người lớn
                        Cập nhật lại giá khách sạn
                        Về iVIVU.comChúng tôiiVIVU BlogPMS - Miễn phí
                        Thông Tin Cần BiếtĐiều kiện & Điều khoảnQuy chế hoạt độngCâu hỏi thường gặp
                        Đối Tác & Liên kết
                                    Vietnam
                                    Airlines
                            VNExpressTiki.vn - Mua sắm online
                        Được chứng nhận
                                iVIVU.com là một thành viên của Thiên Minh Groups
                                Bạn cần trợ giúp? Hãy gọi ngay
                                        CSKH: 1900 1870
                                        Khác:   (08) 3930 8290
                                         Từ 7h30 - 21h hằng ngày
                                    iVIVU.com © 2016 - 
                                        Hệ thống đặt phòng khách sạn trực tuyến hàng
                                        đầu Việt Nam
                                        DKKD: 0312788481, Ngày cấp: 21/05/2014, Sở kế hoạch đầu tư thành phố Hồ Chí Minh
                                        HCM: Lầu 7, Tòa nhà Anh Đăng, 215 Nam Kỳ Khởi Nghĩa, Phường 7, Quận 3, Tp. Hồ Chí Minh
                                        (Xem bản đồ)
                                        HN: Lầu 9, 70-72 Bà Triệu, Quận Hoàn Kiếm, Hà Nội
                                        (Xem bản đồ)
                                        Like để cập nhật cẩm nang du lịch
                                            tc@ivivu.com
    Xin Quý khách đợi trong giây lát
        Vui lòng để lại thông tin yêu cầu đặt phòng khách sạn của Quý khách.
                Giá chỉ mang tính chất tham khảo và không áp dụng vào các ngày lễ tết. Chúng tôi sẽ liên hệ lại trong 24h.
            Họ & Tên: 
            Số điện thoại: 
            Email: 
            Vùng/thành phố yêu cầu:
            Tên khách sạn:
                Ngày nhận phòng:
                Ngày trả phòng:
            Yêu cầu khác:
        Gửi yêu cầu
           ×
                Bản đồ
