url:https://www.ivivu.com/khach-san-estland
Tittle :Khách sạn Estland  giá rẻ từ
content :1900 1870từ 7h30-21h hàng ngày
                        Khách sạn
                        Tours
                        Ưu đãi đặc biệt
                        Cẩm nang du lịch
                    Giới thiệuHỏi đápHỗ trợ
                    >
                ×
                Thông tin đăng nhập
                        Tên đăng nhập:
                        Mật khẩu:
                Đăng nhập
                        Tìm nhanh khách sạn
                        Ngày nhận phòng
                        Số đêm
                                12345678910111213141516171819202122232425262728293030+
                        Ngày trả phòng
                         
                        Trang chủ
                        Estland
                Khách sạn Estland 
                Estland
                 XEM BẢN ĐỒ
                Cập nhật giá
                Sắp xếp theo: 
                                    iVIVU đề xuất
                                    Đề xuất
                                    Giá phòng
                                     Giá
                                    Hạng sao
                                         Sao
                        iVIVU đề xuấtGiá phòng - Tăng dần ▲Giá phòng - Giảm dần ▼Hạng sao - Tăng dần ▲Hạng sao - Giảm dần ▼
                    Ecoland
                 115 Randvere Street, Estland
                                Bản đồ
                    Ở Pirita Tallinn
                    699.121 VND
                Chi tiết
                    Cityhotel Tallinn by Unique Hotels
                 Paldiski mnt. 3, Estland
                                Bản đồ
                    Gần Nhà thờ St. Mary
                    792.322 VND
                Chi tiết
                    Lillekula
                 Luha 18B, Estland
                                Bản đồ
                    Gần Nhà thờ St. Mary
                    885.756 VND
                Chi tiết
                    Gotthard Residence
                 Pikk 66Tallinn 10123, Estland
                                Bản đồ
                    Gần Nhà thờ St. Mary
                    1.002.315 VND
                Chi tiết
                    Economy
                 Kopli 2 cTallinn, Estland
                                Bản đồ
                    Gần Nhà thờ St. Mary
                    1.011.072 VND
                Chi tiết
                    Pirita Top Spa
                 1 Regati Pst, Estland
                                Bản đồ
                    Ở Pirita Tallinn
                    1.058.142 VND
                Chi tiết
                    Tallink Express
                 Sadama 9, Estland
                                Bản đồ
                    Gần Nhà thờ St. Olav
                    1.089.676 VND
                Chi tiết
                    Olevi Residents
                 Olevimรคgi 4, Estland
                                Bản đồ
                    Gần Nhà thờ St. Mary
                    1.105.132 VND
                Chi tiết
                    City Portus
                 Uus Sadama 23, Estland
                                Bản đồ
                    Ở Bến Phà Tallinn
                    1.121.661 VND
                Chi tiết
                    Bern
                 Aia 10, Estland
                                Bản đồ
                    Gần Nhà thờ St. Mary
                    1.153.678 VND
                Chi tiết
                    Braavo
                 Aia 20, Estland
                                Bản đồ
                    Gần Nhà thờ St. Mary
                    1.174.701 VND
                Chi tiết
                    St. Olav
                 Lai 5, Estland
                                Bản đồ
                    Gần Nhà thờ St. Mary
                    1.175.612 VND
                Chi tiết
                    Meriton Old Town Garden
                 Lai Street 24/ Pikk Street 29, Estland
                                Bản đồ
                    Gần Nhà thờ St. Mary
                    1.179.200 VND
                Chi tiết
                    Go Shnelli
                 Toompuiestee 37, Estland
                                Bản đồ
                    Gần Nhà thờ St. Mary
                    1.222.514 VND
                Chi tiết
                    Baltic Vana Wiru
                 11 Viru Street, Estland
                                Bản đồ
                    Gần Nhà thờ St. Mary
                    1.281.917 VND
                Chi tiết
    123
    44 khách sạn Estland
                    Cần tư vấn ? 
                    Gọi ngay
                    1900 1870
                 BỘ LỌC TÌM KIẾM
    Tìm khách sạn Estland
          Xếp hạng khách sạn Estland
            Tất cả
      Mức giá khách sạn Estland
        Tất cảDưới 500.000500.000 đến 1.000.0001.000.000 đến 2.000.0002.000.000 đến 5.000.000Trên 5.000.000
            Địa điểm khách sạn Estland
                        Tất cả
                        Aseri
                        Ennu
                        Haapsalu
                        Heltermaa
                        Hiiumaa
                        Ida-Virumaa
                        Insel Muhu
                        Insel Saaremaa
                        Jögevamaa
                        Kabli
                        Kalvi
                        Käsmu
                        Kassari
                        Keila
                        Kõue
                        Kuressaare
                        Läänemaa
                        Lääne-Virumaa
                        Mändjala
                        Mokko
                        Narva
                        Orjaku
                        Otepää
                        Paide
                        Pärnu
                        Pöide
                        Rakvere
                        Roosta
                        Sagadi
                        Suure Rootsi
                        Taagepera
                        Tallinn
                        Tartu
                        Toila
                        Valgamaa Eesti
                        Viljandi
                        Voru
                        Vöru
                        Vosu
                        Xem thêm
                        Thu gọn
    Tiện ích khách sạn Estland
            Tất cả
                            Phòng gia đình
                            Bãi đậu xe ô tô tại khách sạn
                            Thang máy
                            Hồ bơi
                            Phòng tập thể (dorm)
                            Kid Club
                                Đặt phòng theo đoàn?
                                iVIVU đảm bảo sẽ tìm kiếm deal tốt nhất cho bạn!
                        Đặt ngay 
                    ×
                    ĐẶT PHÒNG ĐOÀN
                        Khi đặt phòng theo đoàn với iVIVU.com, bạn sẽ có được khách sạn phù hợp nhất với giá tốt nhất mà không phải tốn thời gian tìm kiếm.
                                 Yêu cầu
                                         Điện thoại 
                                             Email
                                        *
                                 Vui lòng nhập địa điểm.
                                 Chưa nhập địa chỉ email hoặc địa chỉ email chưa đúng
                                 Vui lòng nhập số điện thoại.
                        • iVIVU.com cam kết đảm bảo an toàn thông tin của quý khách hàng. 
                        • Quý khách hàng có thể yêu cầu ngưng dịch vụ tìm kiếm deal tốt nhất bất cứ lúc nào.
                        Đặt phòng đoàn
                         Khách sạn Estland theo hạng sao
                            Khách sạn 1 sao tại Estland
                            Khách sạn 2 sao tại Estland
                            Khách sạn 3 sao tại Estland
                            Khách sạn 4 sao tại Estland
                            Khách sạn 5 sao tại Estland
                             Khách sạn Estland tại các địa điểm phổ biến
                         Khách sạn tại các địa điểm du lịch nổi tiếng khác
                            Khách sạn Andorra
                            Khách sạn Albania
                            Khách sạn Austria
                            Khách sạn Bosnia and Herzigovina
                            Khách sạn Belgium
                            Khách sạn Bulgaria
                            Khách sạn Belarus
                            Khách sạn Switzerland
                            Khách sạn Cyprus
                            Khách sạn Czech Republic
                            Khách sạn Germany
                            Khách sạn Denmark
                            Khách sạn Spain
                            Khách sạn Finland
                            Khách sạn Faeroe Islands
                            Khách sạn France
                            Khách sạn United Kingdom
                            Khách sạn Georgia
                            Khách sạn Gibralter
                            Khách sạn Greenland
                            Khách sạn Greece
                            Khách sạn Croatia
                            Khách sạn Hungary
                            Khách sạn Eire / Ireland
                            Khách sạn Iceland
                            Khách sạn Italy
                            Khách sạn Liechtenstein
                            Khách sạn Lithuania
                            Khách sạn Luxembourg
                            Khách sạn Latvia
                            Khách sạn Monaco
                            Khách sạn Moldova
                            Khách sạn Montenegro
                            Khách sạn Macedonia (FYROM)
                            Khách sạn Northern Mariana Islands
                            Khách sạn Malta
                            Khách sạn Netherlands
                            Khách sạn Norway
                            Khách sạn Poland
                            Khách sạn Portugal
                            Khách sạn Romania
                            Khách sạn Serbia
                            Khách sạn Russian Federation
                            Khách sạn Sweden
                            Khách sạn Slovenia
                            Khách sạn Slovakia
                            Khách sạn San Marino
                            Khách sạn Turkey
                            Khách sạn Ukraine
                    ×
                    Cập nhật giá khách sạn
                                                Ngày nhận
                                            Số đêm
                                                    12345678910111213141516171819202122232425262728293030+
                                                Ngày trả
                                            Số phòng
                                            Người lớn
                        Cập nhật lại giá khách sạn
                        Về iVIVU.comChúng tôiiVIVU BlogPMS - Miễn phí
                        Thông Tin Cần BiếtĐiều kiện & Điều khoảnQuy chế hoạt độngCâu hỏi thường gặp
                        Đối Tác & Liên kết
                                    Vietnam
                                    Airlines
                            VNExpressTiki.vn - Mua sắm online
                        Được chứng nhận
                                iVIVU.com là một thành viên của Thiên Minh Groups
                                Bạn cần trợ giúp? Hãy gọi ngay
                                        CSKH: 1900 1870
                                        Khác:   (08) 3930 8290
                                         Từ 7h30 - 21h hằng ngày
                                    iVIVU.com © 2016 - 
                                        Hệ thống đặt phòng khách sạn trực tuyến hàng
                                        đầu Việt Nam
                                        DKKD: 0312788481, Ngày cấp: 21/05/2014, Sở kế hoạch đầu tư thành phố Hồ Chí Minh
                                        HCM: Lầu 7, Tòa nhà Anh Đăng, 215 Nam Kỳ Khởi Nghĩa, Phường 7, Quận 3, Tp. Hồ Chí Minh
                                        (Xem bản đồ)
                                        HN: Lầu 9, 70-72 Bà Triệu, Quận Hoàn Kiếm, Hà Nội
                                        (Xem bản đồ)
                                        Like để cập nhật cẩm nang du lịch
                                            tc@ivivu.com
    Xin Quý khách đợi trong giây lát
        Vui lòng để lại thông tin yêu cầu đặt phòng khách sạn của Quý khách.
                Giá chỉ mang tính chất tham khảo và không áp dụng vào các ngày lễ tết. Chúng tôi sẽ liên hệ lại trong 24h.
            Họ & Tên: 
            Số điện thoại: 
            Email: 
            Vùng/thành phố yêu cầu:
            Tên khách sạn:
                Ngày nhận phòng:
                Ngày trả phòng:
            Yêu cầu khác:
        Gửi yêu cầu
           ×
                Bản đồ
