url:https://www.ivivu.com/khach-san-bali-indonesia/tony's-villa
Tittle :Tony's Villas
content :1900 1870từ 7h30-21h hàng ngày
                        Khách sạn
                        Tours
                        Ưu đãi đặc biệt
                        Cẩm nang du lịch
                    Giới thiệuHỏi đápHỗ trợ
                    >
                ×
                Thông tin đăng nhập
                        Tên đăng nhập:
                        Mật khẩu:
                Đăng nhập
                        Tìm nhanh khách sạn
                        Ngày nhận phòng
                        Số đêm
                                12345678910111213141516171819202122232425262728293030+
                        Ngày trả phòng
                         
                        Trang chủ
                        Indonesia
                        Bali
                    Tony's Villas
            Tony's Villas
                        Giá chỉ từ
                            2.064.571 VND
                Đặt phòng này
                Jl. Petitenget Kerobokan, Indonesia
                //media.expedia.com/hotels/3000000/2460000/2457800/2457750/2457750_40_b.jpg
            Giá phòng tại Tony's Villas
                            Ngày nhận phòng: 20-11-2016 - 21-11-2016
                            |1 đêm
                            |0 phòng
                            |0 người lớn
                            |0 trẻ em
                                    Thay đổi tìm kiếm
                        Rất tiếc chúng tôi không còn phòng trong thời gian này. Bạn vui lòng chọn thời gian khác.
                                            Ngày nhận phòng
                                            Ngày trả phòng
                                            Số đêm
                                        Số phòng
                                        Người lớn
                                        Trẻ em
                                        Cập nhật
    Đang lấy thông tin giá
    Giá phòng đã bao gồm: 10% thuế GTGT, 5% phí dịch vụ
    Loại phòngTối đaGiá phòng/đêmSố phòngĐặt phòng
        Tiện ích của Tony's Villas
    Vườn
    Đưa/đón sân bay (phụ phí)
    Tổng số phòng - 
    Khu giặt ủi
    Các kênh TV có trả phí
    Nôi (cũi)/giường cho trẻ sơ sinh miễn phí
    TV LCD
    Bàn
    Quầy bar/Sảnh chờ
    Máy sấy tóc
    Giờ nhận phòng là
    Số tầng - 
    Dịch vụ giặt khô/giặt ủi
    Dọn phòng mỗi ngày
    Visa
    Nhà hàng
    Wifi miễn phí
    Bồn tắm
    Trông trẻ hoặc chăm sóc trẻ
    Nhân viên khiêng hành lý/hỗ trợ khách
    Lò nướng BBQ
    Lối vào qua hành lang ngoài
    Có giường gấp/giường phụ
    Dịch vụ truyền hình vệ tinh
    Đồ dùng nhà tắm miễn phí
    Giờ trả phòng là
    Minibar
    Phòng tắm riêng
    Két trong phòng
    Dịch vụ phòng (giới hạn thời gian)
    Bãi xe tự phục vụ miễn phí
    Giờ nhận phòng kết thúc lúc
    Bar cạnh hồ bơi
    Mát-xa - có phục vụ tại phòng
    Máy điều hòa nhiệt độ
    Không được mang theo vật nuôi và vật nuôi hỗ trợ người khuyết tật
    Dịch vụ spa trong khuôn viên
    Hồ bơi ngoài trời
    Két an toàn tại quầy lễ tân
    Quầy lễ tân phục vụ 24 giờ
    MasterCard
    Bồn tắm hoặc buồng tắm vòi sen
    Bàn ủi/Dụng cụ ủi quần áo
                Xem tất cả
        Thông tin Tony's Villas
        Vị trí khách sạn Với những ngày nghỉ tại Tony's Villas, Petitenget - Seminyak, quý vị sẽ cách Phòng triển lãm TAKSU Bali và Petitenget Temple chỉ vài phút. Biệt thự 4 sao này nằm khá gần phạm vi của Quảng trường Seminyak và Bãi biển Batu Belig.Phòng Hãy nghỉ ngơi thoải mái như đang ở nhà mình tại một trong 31 phòng được trang bị máy điều hòa cùng minibar và TV LCD. Các kênh truyền hình vệ tinh sẽ giúp quý vị có những giây phút giải trí thoải mái. Phòng tắm riêng có bồn tắm và đồ dùng nhà tắm miễn phí. Tiện nghi phòng bao gồm két bảo mật và bàn; bên cạnh đó dịch vụ dọn phòng cũng phục vụ hàng ngày.Giải trí, Spa, Dịch vụ cao cấp Hãy để mình được chăm sóc đặc biệt với dịch vụ mát-xa trong khuôn viên hay thư giãn cùng những tiện nghi, dịch vụ như hồ bơi ngoài trời. Biệt thự này còn có truy cập Internet không dây miễn phí, giữ trẻ/trông trẻ và khu lò nướng BBQ.Khu ẩm thực Khách có thể dùng bữa tại nhà hàng của biệt thự - nơi có khung cảnh vườn cùng quầy bar. Hay quý vị cũng có thể nghỉ lại phòng và thưởng thức những bữa ăn ngon với dịch vụ phòng (có giới hạn thời gian). Hãy thư giãn cùng ly đồ uống ưa thích của mình tại quầy bar/khu lounge hay quầy bar bên hồ bơi.Phục vụ nhu cầu công việc và các tiện nghi khác Khách sạn có nhiều dịch vụ, tiện ích dành cho khách, bao gồm dịch vụ giặt ủi/giặt khô, quầy tiếp tân phục vụ 24 giờ/ngày và trang thiết bị giặt ủi. Với khoản phụ phí nhỏ, khách có thể sử dụng xe đưa đón sân bay (phục vụ theo yêu cầu); ngoài ra còn có bãi đậu xe tự phục vụ miễn phí trong khuôn viên.
        Chính sách của Tony's Villas
            Thời gian nhận phòng
            14:00
            Thời gian trả phòng 
            12:00
    Liên hệ Hotline1900 1870hoặc
        gửi yêu cầu
                                    Mở rộng bản đồ
                    Danh lam & Thắng cảnh
                            Phòng triển lãm TAKSU Bali - 0.4 km 
                            Đền Petitenget - 0.5 km 
                            Quảng trường Seminyak - 0.7 km 
                            Bãi biển Batu Belig - 1 km 
                            Bãi biển Seminyak - 1.7 km 
                            Bãi biển Berawa - 2 km 
                            Bãi biển Double Six - 2.3 km 
                            Bãi biển Legian - 2.7 km 
                            Bãi biển Canggu - 3.3 km 
                            Bãi biển Echo - 4.2 km 
                    Sân bay chính  gần nhất
                    Denpasar, Indonesia (DPS-Ngurah Rai Intl.)
                Khu vực
                Sân bay thuận lợi nhất để đến Tony's Villas là Sân bay Denpasar (DPS-Sân bay Quốc tế Ngurah Rai) - 7,4 km / 4,6 mi. Khoảng cách được tính theo đường thẳng từ địa điểm của khách sạn đến điểm tham quan hoặc sân bay và có thể không phản ánh đường đi thực tế.  Khoảng cách được hiển thị tới 0,1 dặm và km gần nhất. 
            Khách sạn tương tự
                                        Khách sạn Inna Grand Bali Beach
                                        Ayodya Resort Bali
                                        Akara
                        Về iVIVU.comChúng tôiiVIVU BlogPMS - Miễn phí
                        Thông Tin Cần BiếtĐiều kiện & Điều khoảnQuy chế hoạt độngCâu hỏi thường gặp
                        Đối Tác & Liên kết
                                    Vietnam
                                    Airlines
                            VNExpressTiki.vn - Mua sắm online
                        Được chứng nhận
                                iVIVU.com là một thành viên của Thiên Minh Groups
                                Bạn cần trợ giúp? Hãy gọi ngay
                                        CSKH: 1900 1870
                                        Khác:   (08) 3930 8290
                                         Từ 7h30 - 21h hằng ngày
                                    iVIVU.com © 2016 - 
                                        Hệ thống đặt phòng khách sạn trực tuyến hàng
                                        đầu Việt Nam
                                        DKKD: 0312788481, Ngày cấp: 21/05/2014, Sở kế hoạch đầu tư thành phố Hồ Chí Minh
                                        HCM: Lầu 7, Tòa nhà Anh Đăng, 215 Nam Kỳ Khởi Nghĩa, Phường 7, Quận 3, Tp. Hồ Chí Minh
                                        (Xem bản đồ)
                                        HN: Lầu 9, 70-72 Bà Triệu, Quận Hoàn Kiếm, Hà Nội
                                        (Xem bản đồ)
                                        Like để cập nhật cẩm nang du lịch
                                            tc@ivivu.com
    Xin Quý khách đợi trong giây lát
        Vui lòng để lại thông tin yêu cầu đặt phòng khách sạn của Quý khách.
                Giá chỉ mang tính chất tham khảo và không áp dụng vào các ngày lễ tết. Chúng tôi sẽ liên hệ lại trong 24h.
            Họ & Tên: 
            Số điện thoại: 
            Email: 
            Vùng/thành phố yêu cầu:
            Tên khách sạn:
                Ngày nhận phòng:
                Ngày trả phòng:
            Yêu cầu khác:
        Gửi yêu cầu
           ×
                Bản đồ
                BaliTony's Villas
