url:https://www.ivivu.com/khach-san-ha-noi?pd=500000
Tittle :Khách sạn Hà Nội  dưới 500.000 VND
content :1900 1870từ 7h30-21h hàng ngày
                        Khách sạn
                        Tours
                        Ưu đãi đặc biệt
                        Cẩm nang du lịch
                    Giới thiệuHỏi đápHỗ trợ
                    >
                ×
                Thông tin đăng nhập
                        Tên đăng nhập:
                        Mật khẩu:
                Đăng nhập
                        Tìm nhanh khách sạn
                        Ngày nhận phòng
                        Số đêm
                                12345678910111213141516171819202122232425262728293030+
                        Ngày trả phòng
                         
                        Trang chủ
                        Việt Nam
                        Hà Nội
                          Dưới 500.000
                Khách sạn Hà Nội  dưới 500.000 VND 
                Hà Nội
                 XEM BẢN ĐỒ
                Cập nhật giá
                Sắp xếp theo: 
                                    iVIVU đề xuất
                                    Đề xuất
                                    Giá phòng
                                     Giá
                                    Hạng sao
                                         Sao
                        iVIVU đề xuấtGiá phòng - Tăng dần ▲Giá phòng - Giảm dần ▼Hạng sao - Tăng dần ▲Hạng sao - Giảm dần ▼
                    Khách sạn Thăng Long 1 Hà Nội
                 52 Cầu Gỗ, Phố Cổ, Quận Hoàn Kiếm, Thủ Đô Hà Nội, Việt Nam
                    7.6
                    Rất tốt
                                    8 nhận xét
                Bản đồ
                    Trung tâm thành phố Hà NộiKhu phố cổ
                    454.300 VND
                Chi tiết
                    Khách sạn Bluebell Hà Nội
                 41 Ngõ Huyện, Hàng Trống, Quận Hoàn Kiếm, Thủ đô Hà Nội, Việt Nam
                    8.0
                    Rất tốt
                                    57 nhận xét
                Bản đồ
                    Trung tâm thành phố Hà NộiKhu phố cổ
                    291.460 VND
                Chi tiết
                    Khách sạn Blue Sky  2 Hà Nội
                 34 Hàng Gà, Hoàn Kiếm, Hà Nội, Việt Nam
                    8.0
                    Rất tốt
                                    42 nhận xét
                Bản đồ
                    Cách chợ Đồng Xuân 5 phút đi bộPhòng gia đìnhPhòng tập thểThang máy
                    477.197 VND
                Chi tiết
                    Khách sạn A25 - Hải Yến Hà Nội (Số 01 Nghĩa Tân Cầu Giấy)
                 Số 01, A24 Nghĩa Tân, Cầu Giấy, Quận Cầu Giấy, Hà Nội, Việt Nam, Việt Nam
                                Bản đồ
                    Trung tâm thành phố Hà NộiCách Hồ Tây 10 phút lái xePhòng có điều hòa
                    484.449 VND
                Chi tiết
                    Khách sạn Camellia 4 Hà Nội
                 44 Hàng Giày, Quận Hoàn Kiếm, Hà Nội, Việt Nam
                                Bản đồ
                    Cách Phố cổ 5 phút đi bộCách chợ Đồng Xuân 6 phút đi bộPhòng gia đìnhCho thuê xe
                    495.600 VND
                Chi tiết
                    Khách sạn Discovery
                 22 Đường Lương Ngọc Quyến, Quận Hoàn Kiếm, Việt Nam
                    8.2
                    Rất tốt
                                    41 nhận xét
                Bản đồ
                    Trung tâm phố cổCho thuê xePhòng gia đìnhPhòng tập thể
                    381.140 VND
                Chi tiết
                    Khách sạn Novotel Suites Hà Nội
                 05 Duy Tân, Quận Cầu Giấy, Hà Nội, Việt Nam
                                Bản đồ
                    Hồ bơi ngoài trờiPhòng gia đìnhDịch vụ spaBãi đậu xe ô tô
                        Liên hệ
                        1900 1870
                         giá rẻ bất ngờ
                Chi tiết
                    Nhà nghỉ Zostel Hà Nội
                 Số 7 Hàng Muối, Quận Hoàn Kiếm, Hà Nội, Việt Nam
                                Bản đồ
                    Cách chợ Đồng Xuân 10 phút đi bộPhòng tập thểPhòng connectingCho thuê xeThiết kế độc đáoPhòng gia đình
                        Liên hệ
                        1900 1870
                         giá rẻ bất ngờ
                Chi tiết
                    Khách sạn Camel City Hà nội
                 8/50 Đào Duy Từ, Quận Hoàn Kiếm, Việt Nam
                    6.9
                    Tốt
                                    20 nhận xét
                Bản đồ
                    Cách Phố cổ 5 phút đi bộCách chợ Đồng Xuân 7 phút đi bộBữa sáng miễn phí
                        Liên hệ
                        1900 1870
                         giá rẻ bất ngờ
                Chi tiết
                    Khách Sạn Golden Legend Hà Nội
                 10 Chân Cầm, Q. Hoàn Kiếm, Hà Nội, Việt Nam
                                Bản đồ
                    phòng Familycách Hồ Hoàn Kiếm 650m
                        Liên hệ
                        1900 1870
                         giá rẻ bất ngờ
                Chi tiết
                    Khách Sạn Tú Linh Palace Hà Nội
                 2B Hàng Gà, Q. Hoàn Kiếm, Hà Nội, Việt Nam
                                Bản đồ
                        Liên hệ
                        1900 1870
                         giá rẻ bất ngờ
                Chi tiết
                    Khách sạn Mường Thanh Grand Hà Nội
                 Lô CC2, Đường Bắc Linh Đàm, Quận Hoàng Mai, Việt Nam
                    6.4
                    Tốt
                                    10 nhận xét
                Bản đồ
                    Hồ bơi trong nhàPhòng gymDịch vụ spaPhòng karaokeTrung tâm thành phố Hà Nội
                        Liên hệ
                        1900 1870
                         giá rẻ bất ngờ
                Chi tiết
                    Khách sạn Phùng Hưng Hà Nội (Khách sạn Mai Hà Nội Cũ)
                 2-D Đường Thành, Quận Hoàn Kiếm, Hà Nội, Việt Nam
                    8.0
                    Rất tốt
                                    38 nhận xét
                Bản đồ
                    Trung tâm thành phốThang máyQuầy bán tourDịch vụ đưa đón tại sân bayCho thuê xe đạp
                        Liên hệ
                        1900 1870
                         giá rẻ bất ngờ
                Chi tiết
                    Khách sạn Indochina Queen II Hà Nội
                 67 Thuốc Bắc, Hoàng Bồ, quận Hoàn Kiếm, Thủ đô Hà Nội, Việt Nam
                    8.0
                    Rất tốt
                                    47 nhận xét
                Bản đồ
                    Thang máyBãi đậu xe ô tô tại khách sạn
                    397.188 VND
                Chi tiết
                    Khách sạn Hà Nội Serene
                 10C Yên Thái, Q. Hoàn Kiếm, Hà Nội, Việt Nam
                                Bản đồ
                    cách Hồ Hoàn Kiếm 700mFamily Room
                        Liên hệ
                        1900 1870
                         giá rẻ bất ngờ
                Chi tiết
    1234
    50 khách sạn Hà Nội
                        Cần đặt phòng? 
                        Gọi ngay
                        Diễm Nguyễn
                            19001870
                 BỘ LỌC TÌM KIẾM
    Tìm khách sạn Hà Nội
          Xếp hạng khách sạn Hà Nội
            Tất cả
      Mức giá khách sạn Hà Nội
        Tất cảDưới 500.000500.000 đến 1.000.0001.000.000 đến 2.000.0002.000.000 đến 5.000.000Trên 5.000.000
        Địa điểm khách sạn Hà Nội
                        Tất cả
                        Gần chợ Đồng Xuân
                        Gần Ga Hà Nội
                        Gần Hồ Hoàn Kiếm
                        Gần Hồ Tây
                        Hồ Gươm
                        Phố cổ Hà Nội
                        Quận Hoàn Kiếm
                        Sân vận động Mỹ Đình
                        Trung tâm hội nghị Quốc Tế
                        Trung tâm thành phố Hà Nội
                        Xem thêm
                        Thu gọn
    Tiện ích khách sạn Hà Nội
            Tất cả
                            Phòng gia đình
                            Bãi đậu xe ô tô tại khách sạn
                            Thang máy
                            Hồ bơi
                            Phòng tập thể (dorm)
                            Kid Club
            Kinh nghiệm du lịch Hà Nội
                        Nếu đã một lần du lịch Hà Nội, chắc chắn bạn không thể nào quên không khí đặc trưng nơi đây, với Hồ Gươm, Hồ Tây, chùa Một Cột, những quán cafe trầm mặc, những con đường nhỏ thấp thoáng bóng cô gánh hàng rong…
Hà Nội hội tụ đủ 4 mùa xuân hạ thu đông, dù đến vào thời gian nào cũng mang đến cho bạn nhiều cảm xúc khó tả. Hãy cùng iVIVU.com lưu lại những kinh nghiệm bổ ích để khám phá một Hà Nội đầy đủ nhất theo cách của bạn nhé!
                            Xem thêm
                                Đặt phòng theo đoàn?
                                iVIVU đảm bảo sẽ tìm kiếm deal tốt nhất cho bạn!
                        Đặt ngay 
                    ×
                    ĐẶT PHÒNG ĐOÀN
                        Khi đặt phòng theo đoàn với iVIVU.com, bạn sẽ có được khách sạn phù hợp nhất với giá tốt nhất mà không phải tốn thời gian tìm kiếm.
                                 Yêu cầu
                                         Điện thoại 
                                             Email
                                        *
                                 Vui lòng nhập địa điểm.
                                 Chưa nhập địa chỉ email hoặc địa chỉ email chưa đúng
                                 Vui lòng nhập số điện thoại.
                        • iVIVU.com cam kết đảm bảo an toàn thông tin của quý khách hàng. 
                        • Quý khách hàng có thể yêu cầu ngưng dịch vụ tìm kiếm deal tốt nhất bất cứ lúc nào.
                        Đặt phòng đoàn
                         Khách sạn Hà Nội theo hạng sao
                            Khách sạn 1 sao tại Hà Nội
                            Khách sạn 2 sao tại Hà Nội
                            Khách sạn 3 sao tại Hà Nội
                            Khách sạn 4 sao tại Hà Nội
                            Khách sạn 5 sao tại Hà Nội
                             Khách sạn Hà Nội tại các địa điểm phổ biến
                                Gần chợ Đồng Xuân
                                Gần Ga Hà Nội
                                Gần Hồ Hoàn Kiếm
                                Gần Hồ Tây
                                Hồ Gươm
                                Phố cổ Hà Nội
                                Quận Hoàn Kiếm
                                Sân vận động Mỹ Đình
                                Trung tâm hội nghị Quốc Tế
                                Trung tâm thành phố Hà Nội
                         Khách sạn tại các địa điểm du lịch nổi tiếng khác
                            Khách sạn Đak Nông
                            Khách sạn Ninh Thuận
                            Khách sạn Kon Tum
                            Khách sạn Quảng Trị
                            Khách sạn Tỉnh Quảng Bình
                            Khách sạn Gia Lai
                            Khách sạn Điện Biên
                            Khách sạn Vĩnh Phúc
                            Khách sạn Hà Tĩnh
                            Khách sạn Đồng Nai
                            Khách sạn Bình Dương
                            Khách sạn Bình Định
                            Khách sạn Hải Dương
                            Khách sạn Tiền Giang
                            Khách sạn Phú Yên
                            Khách sạn Tỉnh Kiên Giang
                            Khách sạn Đaklak
                            Khách sạn Cát Bà
                            Khách sạn Châu Đốc
                            Khách sạn Cần Thơ
                            Khách sạn Phú Quốc
                            Khách sạn Đà Nẵng
                            Khách sạn Phan Thiết
                            Khách sạn Nha Trang
                            Khách sạn Huế
                            Khách sạn Hồ Chí Minh
                            Khách sạn Phan Rang
                            Khách sạn Long Hải
                            Khách sạn Mũi Né
                            Khách sạn Hội An
                            Khách sạn Vịnh Hạ Long
                            Khách sạn Tam Hải
                            Khách sạn Hồ Tràm
                            Khách sạn Vũng Tàu
                            Khách sạn Hải Phòng
                            Khách sạn Ninh Bình
                            Khách sạn Sapa
                            Khách sạn Côn Đảo
                            Khách sạn Nghệ An
                            Khách sạn Quảng Bình
                            Khách sạn Quy Nhơn
                            Khách sạn Thanh Hóa
                            Khách sạn Tuy Hòa
                            Khách sạn Đà Lạt
                            Khách sạn Lagi
                            Khách sạn Quảng Ngãi
                            Khách sạn Lăng Cô
                            Khách sạn Trảng Bom
                            Khách sạn Pleiku
                            Khách sạn Buôn Mê Thuột
                            Khách sạn Hà Giang
                            Khách sạn Cái Bè
                            Khách sạn Lào Cai
                    ×
                    Cập nhật giá khách sạn
                                                Ngày nhận
                                            Số đêm
                                                    12345678910111213141516171819202122232425262728293030+
                                                Ngày trả
                                            Số phòng
                                            Người lớn
                        Cập nhật lại giá khách sạn
                        Về iVIVU.comChúng tôiiVIVU BlogPMS - Miễn phí
                        Thông Tin Cần BiếtĐiều kiện & Điều khoảnQuy chế hoạt độngCâu hỏi thường gặp
                        Đối Tác & Liên kết
                                    Vietnam
                                    Airlines
                            VNExpressTiki.vn - Mua sắm online
                        Được chứng nhận
                                iVIVU.com là một thành viên của Thiên Minh Groups
                                Bạn cần trợ giúp? Hãy gọi ngay
                                        CSKH: 1900 1870
                                        Khác:   (08) 3930 8290
                                         Từ 7h30 - 21h hằng ngày
                                    iVIVU.com © 2016 - 
                                        Hệ thống đặt phòng khách sạn trực tuyến hàng
                                        đầu Việt Nam
                                        DKKD: 0312788481, Ngày cấp: 21/05/2014, Sở kế hoạch đầu tư thành phố Hồ Chí Minh
                                        HCM: Lầu 7, Tòa nhà Anh Đăng, 215 Nam Kỳ Khởi Nghĩa, Phường 7, Quận 3, Tp. Hồ Chí Minh
                                        (Xem bản đồ)
                                        HN: Lầu 9, 70-72 Bà Triệu, Quận Hoàn Kiếm, Hà Nội
                                        (Xem bản đồ)
                                        Like để cập nhật cẩm nang du lịch
                                            tc@ivivu.com
    Xin Quý khách đợi trong giây lát
        Vui lòng để lại thông tin yêu cầu đặt phòng khách sạn của Quý khách.
                Giá chỉ mang tính chất tham khảo và không áp dụng vào các ngày lễ tết. Chúng tôi sẽ liên hệ lại trong 24h.
            Họ & Tên: 
            Số điện thoại: 
            Email: 
            Vùng/thành phố yêu cầu:
            Tên khách sạn:
                Ngày nhận phòng:
                Ngày trả phòng:
            Yêu cầu khác:
        Gửi yêu cầu
           ×
                Bản đồ
