url:https://www.ivivu.com/khach-san-phu-quoc?s=50
Tittle :Khách sạn Phú Quốc 5 sao
content :1900 1870từ 7h30-21h hàng ngày
                        Khách sạn
                        Tours
                        Ưu đãi đặc biệt
                        Cẩm nang du lịch
                    Giới thiệuHỏi đápHỗ trợ
                    >
                ×
                Thông tin đăng nhập
                        Tên đăng nhập:
                        Mật khẩu:
                Đăng nhập
                        Tìm nhanh khách sạn
                        Ngày nhận phòng
                        Số đêm
                                12345678910111213141516171819202122232425262728293030+
                        Ngày trả phòng
                         
                        Trang chủ
                        Việt Nam
                        Phú Quốc
                        5 sao 
                Khách sạn Phú Quốc 5 sao 
                Phú Quốc
                 XEM BẢN ĐỒ
                Cập nhật giá
                Sắp xếp theo: 
                                    iVIVU đề xuất
                                    Đề xuất
                                    Giá phòng
                                     Giá
                                    Hạng sao
                                         Sao
                        iVIVU đề xuấtGiá phòng - Tăng dần ▲Giá phòng - Giảm dần ▼Hạng sao - Tăng dần ▲Hạng sao - Giảm dần ▼
                    Còn 11 ngày - TRỌN GÓI 3N2Đ + Vé Vào Vinpearl Land/Safari 1 lần Cho 2 Khách. 
                        từ 2.480.000  VND / khách
                            3N2Đ+Vé Vinpearl
                            Khu nghỉ dưỡng Novotel Phú Quốc
                         Khu phố 5, Đường Bào, Xã Dương Tơ, Phú Quốc, Kiên Giang, Việt Nam
                            9.4
                            Tuyệt vời
                                                    13 nhận xét
                        Bản đồ
                            Bãi biển riêngHồ bơi ngoài trờiCách chợ Dinh Cậu 19 phút lái xeDịch vụ xông hơi và xông khô miễn phíHoạt động thể thao trên biển
                                Liên hệ
                                    1900 1870
                             giá rẻ bất ngờ
                        Chi tiết
                    Còn 12 ngày - ƯU ĐÃI ĐẶC BIỆT
                            Giá Ưu Đãi 3N2Đ
                            The Shells Resort & Spa Phú Quốc
                         Biển Gành Gió, Thị trấn Đông Dương, Việt Nam
                            9.6
                            Tuyệt vời
                                                    32 nhận xét
                        Bản đồ
                            Bãi biển riêngCách chợ đêm Dinh Cậu 16 phút lái xe
                                Liên hệ
                                    1900 1870
                             giá rẻ bất ngờ
                        Chi tiết
                    Khu nghỉ dưỡng  La Veranda Phú Quốc
                 Đường Trần Hưng Đạo, Bãi Biển Dương Đông, Dương Đông, Đảo Phú Quốc, Việt Nam
                                    1 nhận xét
                Bản đồ
                    Bãi biển riêngHồ bơi ngoài trờiKiến trúc cổ điển
                        Liên hệ
                        1900 1870
                         giá rẻ bất ngờ
                Chi tiết
                    Khu nghỉ dưỡng Vinpearl Phú Quốc
                 Bãi Dài Gành Dầu, Đảo Phú Quốc, Việt Nam
                    9.1
                    Tuyệt vời
                                    43 nhận xét
                Bản đồ
                    Bãi biển riêngCách chợ đêm Dinh Cậu 30 phút lái xe
                    2.898.000 VND
                Chi tiết
                    Vinpearl Phú Quốc Resort & Golf
                 Bãi Dài, Gành Dầu, Phú Quốc, Việt Nam
                                Bản đồ
                    Khu vui chơi Vinpearl  LandBãi biển riêngHồ bơi ngoài trờiCách chợ đêm Dinh Cậu 30p lái xeSân golf
                    3.260.250 VND
                Chi tiết
                    Salinda Island Resort and Spa Phú Quốc
                 Ấp Cửa Lấp, xã Dương Tơ, Đảo Phú Quốc, Việt Nam
                    9.2
                    Tuyệt vời
                                    26 nhận xét
                Bản đồ
                    Bãi biển riêngCách chợ đêm Dinh Cậu 8 phút lái xe
                        Liên hệ
                        1900 1870
                         giá rẻ bất ngờ
                Chi tiết
    6 khách sạn Phú Quốc
                    Cần tư vấn ? 
                    Gọi ngay
                    1900 1870
                 BỘ LỌC TÌM KIẾM
    Tìm khách sạn Phú Quốc
          Xếp hạng khách sạn Phú Quốc
            Tất cả
      Mức giá khách sạn Phú Quốc
        Tất cảDưới 500.000500.000 đến 1.000.0001.000.000 đến 2.000.0002.000.000 đến 5.000.000Trên 5.000.000
        Địa điểm khách sạn Phú Quốc
                        Tất cả
                        Bãi biển Cửa Lấp
                        Bãi biển Dương Đông
                        Bãi biển Ông Lang
                        Bãi Dài
                        Bãi Trường
                        Gần chợ đêm Dinh Cậu
                        Gành Dầu
                        Xem thêm
                        Thu gọn
    Tiện ích khách sạn Phú Quốc
            Tất cả
                            Phòng gia đình
                            Bãi đậu xe ô tô tại khách sạn
                            Thang máy
                            Hồ bơi
                            Phòng tập thể (dorm)
                            Kid Club
            Kinh nghiệm du lịch Phú Quốc
                        Là hòn đảo lớn nhất Việt Nam, Phú Quốc sở hữu những bãi biển trong vắt, những dòng suối yên bình cùng khu rừng nguyên sinh rộng lớn.
Nhắc tới Phú Quốc, không thể không nhắc tới bãi Sao, bãi Dài, đặc sản hồ tiêu, nước mắm, rượu sim hay ngọc trai... Còn nữa, Phú Quốc còn nhiều ẩn số đang chờ bạn khám phá đó, đừng bỏ lỡ!
                            Xem thêm
                                Đặt phòng theo đoàn?
                                iVIVU đảm bảo sẽ tìm kiếm deal tốt nhất cho bạn!
                        Đặt ngay 
                    ×
                    ĐẶT PHÒNG ĐOÀN
                        Khi đặt phòng theo đoàn với iVIVU.com, bạn sẽ có được khách sạn phù hợp nhất với giá tốt nhất mà không phải tốn thời gian tìm kiếm.
                                 Yêu cầu
                                         Điện thoại 
                                             Email
                                        *
                                 Vui lòng nhập địa điểm.
                                 Chưa nhập địa chỉ email hoặc địa chỉ email chưa đúng
                                 Vui lòng nhập số điện thoại.
                        • iVIVU.com cam kết đảm bảo an toàn thông tin của quý khách hàng. 
                        • Quý khách hàng có thể yêu cầu ngưng dịch vụ tìm kiếm deal tốt nhất bất cứ lúc nào.
                        Đặt phòng đoàn
                         Khách sạn Phú Quốc theo hạng sao
                            Khách sạn 1 sao tại Phú Quốc
                            Khách sạn 2 sao tại Phú Quốc
                            Khách sạn 3 sao tại Phú Quốc
                            Khách sạn 4 sao tại Phú Quốc
                            Khách sạn 5 sao tại Phú Quốc
                             Khách sạn Phú Quốc tại các địa điểm phổ biến
                                Bãi biển Cửa Lấp
                                Bãi biển Dương Đông
                                Bãi biển Ông Lang
                                Bãi Dài
                                Bãi Trường
                                Gần chợ đêm Dinh Cậu
                                Gành Dầu
                         Khách sạn tại các địa điểm du lịch nổi tiếng khác
                            Khách sạn Đak Nông
                            Khách sạn Ninh Thuận
                            Khách sạn Kon Tum
                            Khách sạn Quảng Trị
                            Khách sạn Tỉnh Quảng Bình
                            Khách sạn Gia Lai
                            Khách sạn Điện Biên
                            Khách sạn Vĩnh Phúc
                            Khách sạn Hà Tĩnh
                            Khách sạn Đồng Nai
                            Khách sạn Bình Dương
                            Khách sạn Bình Định
                            Khách sạn Hải Dương
                            Khách sạn Tiền Giang
                            Khách sạn Phú Yên
                            Khách sạn Tỉnh Kiên Giang
                            Khách sạn Đaklak
                            Khách sạn Cát Bà
                            Khách sạn Châu Đốc
                            Khách sạn Cần Thơ
                            Khách sạn Đà Nẵng
                            Khách sạn Phan Thiết
                            Khách sạn Nha Trang
                            Khách sạn Hà Nội
                            Khách sạn Huế
                            Khách sạn Hồ Chí Minh
                            Khách sạn Phan Rang
                            Khách sạn Long Hải
                            Khách sạn Mũi Né
                            Khách sạn Hội An
                            Khách sạn Vịnh Hạ Long
                            Khách sạn Tam Hải
                            Khách sạn Hồ Tràm
                            Khách sạn Vũng Tàu
                            Khách sạn Hải Phòng
                            Khách sạn Ninh Bình
                            Khách sạn Sapa
                            Khách sạn Côn Đảo
                            Khách sạn Nghệ An
                            Khách sạn Quảng Bình
                            Khách sạn Quy Nhơn
                            Khách sạn Thanh Hóa
                            Khách sạn Tuy Hòa
                            Khách sạn Đà Lạt
                            Khách sạn Lagi
                            Khách sạn Quảng Ngãi
                            Khách sạn Lăng Cô
                            Khách sạn Trảng Bom
                            Khách sạn Pleiku
                            Khách sạn Buôn Mê Thuột
                            Khách sạn Hà Giang
                            Khách sạn Cái Bè
                            Khách sạn Lào Cai
                    ×
                    Cập nhật giá khách sạn
                                                Ngày nhận
                                            Số đêm
                                                    12345678910111213141516171819202122232425262728293030+
                                                Ngày trả
                                            Số phòng
                                            Người lớn
                        Cập nhật lại giá khách sạn
                        Về iVIVU.comChúng tôiiVIVU BlogPMS - Miễn phí
                        Thông Tin Cần BiếtĐiều kiện & Điều khoảnQuy chế hoạt độngCâu hỏi thường gặp
                        Đối Tác & Liên kết
                                    Vietnam
                                    Airlines
                            VNExpressTiki.vn - Mua sắm online
                        Được chứng nhận
                                iVIVU.com là một thành viên của Thiên Minh Groups
                                Bạn cần trợ giúp? Hãy gọi ngay
                                        CSKH: 1900 1870
                                        Khác:   (08) 3930 8290
                                         Từ 7h30 - 21h hằng ngày
                                    iVIVU.com © 2016 - 
                                        Hệ thống đặt phòng khách sạn trực tuyến hàng
                                        đầu Việt Nam
                                        DKKD: 0312788481, Ngày cấp: 21/05/2014, Sở kế hoạch đầu tư thành phố Hồ Chí Minh
                                        HCM: Lầu 7, Tòa nhà Anh Đăng, 215 Nam Kỳ Khởi Nghĩa, Phường 7, Quận 3, Tp. Hồ Chí Minh
                                        (Xem bản đồ)
                                        HN: Lầu 9, 70-72 Bà Triệu, Quận Hoàn Kiếm, Hà Nội
                                        (Xem bản đồ)
                                        Like để cập nhật cẩm nang du lịch
                                            tc@ivivu.com
    Xin Quý khách đợi trong giây lát
        Vui lòng để lại thông tin yêu cầu đặt phòng khách sạn của Quý khách.
                Giá chỉ mang tính chất tham khảo và không áp dụng vào các ngày lễ tết. Chúng tôi sẽ liên hệ lại trong 24h.
            Họ & Tên: 
            Số điện thoại: 
            Email: 
            Vùng/thành phố yêu cầu:
            Tên khách sạn:
                Ngày nhận phòng:
                Ngày trả phòng:
            Yêu cầu khác:
        Gửi yêu cầu
           ×
                Bản đồ
