url:https://www.ivivu.com/khach-san-hoi-an?l=G%E1%BA%A7n%20B%C3%A3i%20bi%E1%BB%83n%20C%C6%B0%CC%89a%20%C4%90a%CC%A3i
Tittle :Khách sạn Hội An Gần Bãi biển Cửa Đại
content :1900 1870từ 7h30-21h hàng ngày
                        Khách sạn
                        Tours
                        Ưu đãi đặc biệt
                        Cẩm nang du lịch
                    Giới thiệuHỏi đápHỗ trợ
                    >
                ×
                Thông tin đăng nhập
                        Tên đăng nhập:
                        Mật khẩu:
                Đăng nhập
                        Tìm nhanh khách sạn
                        Ngày nhận phòng
                        Số đêm
                                12345678910111213141516171819202122232425262728293030+
                        Ngày trả phòng
                         
                        Trang chủ
                        Việt Nam
                        Hội An
                        Gần Bãi biển Cửa Đại
                Khách sạn Hội An Gần Bãi biển Cửa Đại 
                Hội An
                 XEM BẢN ĐỒ
                Cập nhật giá
                Sắp xếp theo: 
                                    iVIVU đề xuất
                                    Đề xuất
                                    Giá phòng
                                     Giá
                                    Hạng sao
                                         Sao
                        iVIVU đề xuấtGiá phòng - Tăng dần ▲Giá phòng - Giảm dần ▼Hạng sao - Tăng dần ▲Hạng sao - Giảm dần ▼
                    Còn 34 ngày - Trọn gói 3N2Đ + Vé máy bay khứ hồi + Đưa đón sân bay 
                        từ 2.900.000  VND / khách
                            3N2Đ+Vé máy bay | 2tr9/khách
                            Khu nghỉ dưỡng Victoria Hội An Beach Resort & Spa
                         Biển Cửa Đại, Phố cổ Hội An, Việt Nam
                            8.8
                            Rất tốt
                                                    21 nhận xét
                        Bản đồ
                            Hồ BơiBãi biển riêngXe bus ra trung tâmKiến trúc cổ điểnKhu vui chơi trẻ em
                                Liên hệ
                                    1900 1870
                             giá rẻ bất ngờ
                        Chi tiết
                    Khu nghỉ dưỡng Hội An Sunrise Beach
                 Đường Âu Cơ, Biển Cửa Đại, thành phố Hội An, Việt Nam
                    8.5
                    Rất tốt
                                    18 nhận xét
                Bản đồ
                    Wifi/InternetHồ BơiBãi Đậu XePhòng Gia ĐìnhThang MáyNhà Hàng
                        Liên hệ
                        1900 1870
                         giá rẻ bất ngờ
                Chi tiết
                    Khu nghỉ dưỡng The Palm Garden Beach Hội An
                 Đường Lạc Long Quân, Biển Cửa Đại, TP. Hội An, Việt Nam
                    8.1
                    Rất tốt
                                    19 nhận xét
                Bản đồ
                    Bãi tắm riêngView hướng biếnPhòng chơi gameDịch vụ đưa đón sân bayKhu vui chơi trẻ em
                    2.417.026 VND
                Chi tiết
                    Khách sạn Cửa Đại Beach Hội An
                 Đường Âu Cơ, Biển Cửa Đại,TP. Hội An, Việt Nam
                    6.9
                    Tốt
                                    8 nhận xét
                Bản đồ
                    Gần biển Cửa ĐạiBãi tắm riêngXe đạp miễn phíBãi đậu xe miễn phíDịch vụ thu đổi ngoại tệ
                    527.608 VND
                Chi tiết
                    Khu nghỉ dưỡng Hội An Beach
                 01 Cửa Đại, Thành phố Hội An, Việt Nam
                    8.5
                    Rất tốt
                                    20 nhận xét
                Bản đồ
                    Phòng đẹpView hướng biểnView hướng sôngBãi biển riêngCó xe đưa đón tham quan
                        Liên hệ
                        1900 1870
                         giá rẻ bất ngờ
                Chi tiết
                    Khách Sạn Mường Thanh Holiday Hội An
                 Block 9, Khu đô Thị  Phước Trạch - Phước Hải, Đường Âu Cơ, Cửa Đại, Hội An, Quảng Nam , Việt Nam
                                Bản đồ
                    hồ bơigần biển
                        Liên hệ
                        1900 1870
                         giá rẻ bất ngờ
                Chi tiết
                    Khách sạn Sea and Sand Hội An
                 15 Cua Dai Street, Hoi An City, Quang Nam, Việt Nam
                                Bản đồ
                    Dịch vụ visaDịch vụ trông trẻĂn sáng miễn phíBãi biển riêngDịch vụ tour
                    671.256 VND
                Chi tiết
                    Hội An Riverside Resort and Spa
                 175 Cửa Đại, Hội An, Quảng Nam, Việt Nam
                                Bản đồ
                    Bữa sáng miễn phíHồ bơi ngoài trờiView sôngKhông gian sân vườn
                    1.415.903 VND
                Chi tiết
                    Rice Flower Homestay Hoi An
                 Cẩm Châu, Thành phố Hội An , Quang Nam , Việt Nam
                                Bản đồ
                    HomestayPhòng gia đìnhView đẹpDịch vụ tourDịch vụ đưa đón tại sân bay
                        Liên hệ
                        1900 1870
                         giá rẻ bất ngờ
                Chi tiết
    9 khách sạn Hội An
                        Cần đặt phòng? 
                        Gọi ngay
                        Diễm Nguyễn
                            19001870
                        Cần đặt phòng? 
                        Gọi ngay
                        Vân Nguyễn
                            19001870
                 BỘ LỌC TÌM KIẾM
    Tìm khách sạn Hội An
          Xếp hạng khách sạn Hội An
            Tất cả
      Mức giá khách sạn Hội An
        Tất cảDưới 500.000500.000 đến 1.000.0001.000.000 đến 2.000.0002.000.000 đến 5.000.000Trên 5.000.000
        Địa điểm khách sạn Hội An
                        Tất cả
                        Gần Bãi biển Cửa Đại
                        Gần Cầu Nhật Bản
                        Gần Phố cổ Hội An
                        Ở Bờ sông Hội An
                        Phố cổ
                        Xem thêm
                        Thu gọn
    Tiện ích khách sạn Hội An
            Tất cả
                            Phòng gia đình
                            Bãi đậu xe ô tô tại khách sạn
                            Thang máy
                            Hồ bơi
                            Phòng tập thể (dorm)
                            Kid Club
            Kinh nghiệm du lịch Hội An
                        Cuộc sống thường nhật của cư dân, các lễ hội văn hoá cùng với cảnh quan thiên nhiên thơ mộng, các món ăn đặc sản… làm cho Hội An ngày càng hấp dẫn du khách thập phương.
Bạn sẽ tiếc biết bao nhiêu nếu bỏ qua những điều tuyệt diệu còn ẩn giấu của phố cổ nổi bật nhất con đường di sản miền Trung này. Cùng Thổ địa iVIVU.com khám phá tận những ngóc ngách của thành phố nhỏ xinh đẹp này nhé!
                            Xem thêm
                                Đặt phòng theo đoàn?
                                iVIVU đảm bảo sẽ tìm kiếm deal tốt nhất cho bạn!
                        Đặt ngay 
                    ×
                    ĐẶT PHÒNG ĐOÀN
                        Khi đặt phòng theo đoàn với iVIVU.com, bạn sẽ có được khách sạn phù hợp nhất với giá tốt nhất mà không phải tốn thời gian tìm kiếm.
                                 Yêu cầu
                                         Điện thoại 
                                             Email
                                        *
                                 Vui lòng nhập địa điểm.
                                 Chưa nhập địa chỉ email hoặc địa chỉ email chưa đúng
                                 Vui lòng nhập số điện thoại.
                        • iVIVU.com cam kết đảm bảo an toàn thông tin của quý khách hàng. 
                        • Quý khách hàng có thể yêu cầu ngưng dịch vụ tìm kiếm deal tốt nhất bất cứ lúc nào.
                        Đặt phòng đoàn
                         Khách sạn Hội An theo hạng sao
                            Khách sạn 1 sao tại Hội An
                            Khách sạn 2 sao tại Hội An
                            Khách sạn 3 sao tại Hội An
                            Khách sạn 4 sao tại Hội An
                            Khách sạn 5 sao tại Hội An
                             Khách sạn Hội An tại các địa điểm phổ biến
                                Gần Bãi biển Cửa Đại
                                Gần Cầu Nhật Bản
                                Gần Phố cổ Hội An
                                Ở Bờ sông Hội An
                                Phố cổ
                         Khách sạn tại các địa điểm du lịch nổi tiếng khác
                            Khách sạn Đak Nông
                            Khách sạn Ninh Thuận
                            Khách sạn Kon Tum
                            Khách sạn Quảng Trị
                            Khách sạn Tỉnh Quảng Bình
                            Khách sạn Gia Lai
                            Khách sạn Điện Biên
                            Khách sạn Vĩnh Phúc
                            Khách sạn Hà Tĩnh
                            Khách sạn Đồng Nai
                            Khách sạn Bình Dương
                            Khách sạn Bình Định
                            Khách sạn Hải Dương
                            Khách sạn Tiền Giang
                            Khách sạn Phú Yên
                            Khách sạn Tỉnh Kiên Giang
                            Khách sạn Đaklak
                            Khách sạn Cát Bà
                            Khách sạn Châu Đốc
                            Khách sạn Cần Thơ
                            Khách sạn Phú Quốc
                            Khách sạn Đà Nẵng
                            Khách sạn Phan Thiết
                            Khách sạn Nha Trang
                            Khách sạn Hà Nội
                            Khách sạn Huế
                            Khách sạn Hồ Chí Minh
                            Khách sạn Phan Rang
                            Khách sạn Long Hải
                            Khách sạn Mũi Né
                            Khách sạn Vịnh Hạ Long
                            Khách sạn Tam Hải
                            Khách sạn Hồ Tràm
                            Khách sạn Vũng Tàu
                            Khách sạn Hải Phòng
                            Khách sạn Ninh Bình
                            Khách sạn Sapa
                            Khách sạn Côn Đảo
                            Khách sạn Nghệ An
                            Khách sạn Quảng Bình
                            Khách sạn Quy Nhơn
                            Khách sạn Thanh Hóa
                            Khách sạn Tuy Hòa
                            Khách sạn Đà Lạt
                            Khách sạn Lagi
                            Khách sạn Quảng Ngãi
                            Khách sạn Lăng Cô
                            Khách sạn Trảng Bom
                            Khách sạn Pleiku
                            Khách sạn Buôn Mê Thuột
                            Khách sạn Hà Giang
                            Khách sạn Cái Bè
                            Khách sạn Lào Cai
                    ×
                    Cập nhật giá khách sạn
                                                Ngày nhận
                                            Số đêm
                                                    12345678910111213141516171819202122232425262728293030+
                                                Ngày trả
                                            Số phòng
                                            Người lớn
                        Cập nhật lại giá khách sạn
                        Về iVIVU.comChúng tôiiVIVU BlogPMS - Miễn phí
                        Thông Tin Cần BiếtĐiều kiện & Điều khoảnQuy chế hoạt độngCâu hỏi thường gặp
                        Đối Tác & Liên kết
                                    Vietnam
                                    Airlines
                            VNExpressTiki.vn - Mua sắm online
                        Được chứng nhận
                                iVIVU.com là một thành viên của Thiên Minh Groups
                                Bạn cần trợ giúp? Hãy gọi ngay
                                        CSKH: 1900 1870
                                        Khác:   (08) 3930 8290
                                         Từ 7h30 - 21h hằng ngày
                                    iVIVU.com © 2016 - 
                                        Hệ thống đặt phòng khách sạn trực tuyến hàng
                                        đầu Việt Nam
                                        DKKD: 0312788481, Ngày cấp: 21/05/2014, Sở kế hoạch đầu tư thành phố Hồ Chí Minh
                                        HCM: Lầu 7, Tòa nhà Anh Đăng, 215 Nam Kỳ Khởi Nghĩa, Phường 7, Quận 3, Tp. Hồ Chí Minh
                                        (Xem bản đồ)
                                        HN: Lầu 9, 70-72 Bà Triệu, Quận Hoàn Kiếm, Hà Nội
                                        (Xem bản đồ)
                                        Like để cập nhật cẩm nang du lịch
                                            tc@ivivu.com
    Xin Quý khách đợi trong giây lát
        Vui lòng để lại thông tin yêu cầu đặt phòng khách sạn của Quý khách.
                Giá chỉ mang tính chất tham khảo và không áp dụng vào các ngày lễ tết. Chúng tôi sẽ liên hệ lại trong 24h.
            Họ & Tên: 
            Số điện thoại: 
            Email: 
            Vùng/thành phố yêu cầu:
            Tên khách sạn:
                Ngày nhận phòng:
                Ngày trả phòng:
            Yêu cầu khác:
        Gửi yêu cầu
           ×
                Bản đồ
