url:https://www.ivivu.com/khach-san-phu-quoc/khu-nghi-duong-long-mountain-phu-quoc
Tittle :Khu nghỉ dưỡng Long Mountain Phú Quốc
content :1900 1870từ 7h30-21h hàng ngày
                        Khách sạn
                        Tours
                        Ưu đãi đặc biệt
                        Cẩm nang du lịch
                    Giới thiệuHỏi đápHỗ trợ
                    >
                ×
                Thông tin đăng nhập
                        Tên đăng nhập:
                        Mật khẩu:
                Đăng nhập
                        Tìm nhanh khách sạn
                        Ngày nhận phòng
                        Số đêm
                                12345678910111213141516171819202122232425262728293030+
                        Ngày trả phòng
                         
                        Trang chủ
                        Việt Nam
                        Phú Quốc
                    Khu nghỉ dưỡng Long Mountain Phú Quốc
            Khu nghỉ dưỡng Long Mountain Phú Quốc
                        Giá chỉ từ
                            451.350 VND
                Đặt phòng này
                Tổ 5, Ấp Cửa Lấp, Xã Dương Tơ, Huyện Phú Quốc, Việt Nam
                //cdn1.ivivu.com/iVivu/2016/03/25/15/khu-nghi-duong-long-mountain-phu-quoc.jpg
            Giá phòng tại Khu nghỉ dưỡng Long Mountain Phú Quốc
                            Ngày nhận phòng: 20-11-2016 - 21-11-2016
                            |1 đêm
                            |0 phòng
                            |0 người lớn
                            |0 trẻ em
                                    Thay đổi tìm kiếm
                        Rất tiếc chúng tôi không còn phòng trong thời gian này. Bạn vui lòng chọn thời gian khác.
                                            Ngày nhận phòng
                                            Ngày trả phòng
                                            Số đêm
                                        Số phòng
                                        Người lớn
                                        Trẻ em
                                        Cập nhật
    Đang lấy thông tin giá
    Giá phòng đã bao gồm: 10% thuế GTGT, 5% phí dịch vụ
    Loại phòngTối đaGiá phòng/đêmSố phòngĐặt phòng
        Tiện ích của Khu nghỉ dưỡng Long Mountain Phú Quốc
    Dịch vụ dọn phòng
    Hồ bơi
    Sân vườn
    Phòng gia đình
    Dịch vụ giữ hành lý
    Bãi đậu xe ô tô tại khách sạn
    Wifi / Internet miễn phí
    Hồ bơi ngoài trời
    Phục vụ phòng
                Xem tất cả
        Thông tin Khu nghỉ dưỡng Long Mountain Phú Quốc
        Long Mountain Resort Phú Quốc với vị trí khá gần bờ biển và nằm cạnh sau núi là một lựa chọn thích hợp cho du khách muốn tìm một không gian nghĩ dưỡng lý tưởng bên cạnh những người thân yêu của mình. Resort được thiết kế với tất cả 16 bungalow hướng vườn, cạnh đó còn có hồ bơi. Nếu bạn thích tắm biển có thể đi bộ chỉ với 15 phút đi bộ ra được bãi biển tắm chung.
Tọa lạc tại thị trấn Dương Đông ở Đảo Phú Quốc, Long Mountain Resort có hồ bơi, Wi-Fi miễn phí và cửa hàng ngày trong khuôn viên.
Các phòng nghỉ máy lạnh tại đây có TV màn hình phẳng, ấm đun nước điện và tầm nhìn ra hồ bơi. Các phòng tắm riêng đi kèm tiện nghi vòi sen, dép đi trong phòng và đồ vệ sinh cá nhân miễn phí. Trong phòng cũng có khu vực tiếp khách riêng biệt.
        Chính sách của Khu nghỉ dưỡng Long Mountain Phú Quốc
            Thời gian nhận phòng
            14:00
            Thời gian trả phòng 
            12:00
                        Di chuyển
                        Long Mountain Resort Phú Quốc cách Sân bay Quốc tế Phú Quốc 3 km.
                        Hướng dẫn nhận phòng
                        Quý khách vui lòng xuất trình CMND (Hộ chiếu) và phiếu xác nhận đặt phòng khi làm thủ tục nhận phòng tại khách sạn
                        Chính sách phụ thu
                       Chính sách phụ thu:
- Khách sạn phụ thu 100.000VNĐ/khách/đêm- Trẻ em dưới 12 tuổi được miễn phí tiền phòng khi ngủ chung giường với bố mẹ.
    Liên hệ Hotline1900 1870hoặc
        gửi yêu cầu
                                    Mở rộng bản đồ
            Gợi ý tours gần Khu nghỉ dưỡng Long Mountain Phú Quốc 
                        Tour Phú Quốc 1/2N: Bắc Đảo
                    150.000 VND
                            Tour Phú Quốc 1/2N: Bắc Đảo
                                 Trong ngày
                            Phú Quốc
                            KH: hàng ngày. Tham quan 4 tiếng.
                            150.000 VND
                        Tour Phú Quốc 1/2N: Đông Đảo
                    180.000 VND
                            Tour Phú Quốc 1/2N: Đông Đảo
                                 Trong ngày
                            Phú Quốc
                            KH: hàng ngày. Tham quan 4 tiếng.
                            180.000 VND
                        Tour Phú Quốc 1N: Câu cá ngắm san hô Bắc Đảo
                    290.000 VND
                            Tour Phú Quốc 1N: Câu cá ngắm san hô Bắc Đảo
                                 Trong ngày
                            Phú Quốc
                            KH: hàng ngày. Tham quan 6 tiếng.
                            290.000 VND
                        Tour Phú Quốc 1/2N: Câu Mực tại Dương Đông
                    350.000 VND
                            Tour Phú Quốc 1/2N: Câu Mực tại Dương Đông
                                 Trong ngày
                            Phú Quốc
                            KH: hàng ngày.
                            350.000 VND
                        Tour Phú Quốc 1N: Câu cá ngắm san hô Nam Đảo
                    350.000 VND
                            Tour Phú Quốc 1N: Câu cá ngắm san hô Nam Đảo
                                 Trong ngày
                            Phú Quốc
                            KH: hàng ngày. Tham quan 8 tiếng.
                            350.000 VND
                        Vé Vinpearl Land: Nha Trang và Phú Quốc
                    425.000 VND
                            Vé Vinpearl Land: Nha Trang và Phú Quốc
                                 Trong ngày
                            Nha TrangPhú Quốc
                            KH: Hằng ngày.
                            425.000 VND
                        Tour Phú Quốc 1/2N:  Lớp học nấu ăn
                    610.000 VND
                            Tour Phú Quốc 1/2N:  Lớp học nấu ăn
                                 Trong ngày
                            Phú Quốc
                            KH: hàng ngày. Thời gian: 4 tiếng.
                            610.000 VND
            Khách sạn tương tự
                                        Khu Nghỉ Dưỡng La Mer Phú Quốc
                                        8.3
                                        Rất tốt
                                                                            29 nhận xét
                                        Khu nghỉ dưỡng Castaways Phú Quốc
                                        8.8
                                        Rất tốt
                                                                            59 nhận xét
                                        Khách Sạn Q Hào Phú Quốc
                        Về iVIVU.comChúng tôiiVIVU BlogPMS - Miễn phí
                        Thông Tin Cần BiếtĐiều kiện & Điều khoảnQuy chế hoạt độngCâu hỏi thường gặp
                        Đối Tác & Liên kết
                                    Vietnam
                                    Airlines
                            VNExpressTiki.vn - Mua sắm online
                        Được chứng nhận
                                iVIVU.com là một thành viên của Thiên Minh Groups
                                Bạn cần trợ giúp? Hãy gọi ngay
                                        CSKH: 1900 1870
                                        Khác:   (08) 3930 8290
                                         Từ 7h30 - 21h hằng ngày
                                    iVIVU.com © 2016 - 
                                        Hệ thống đặt phòng khách sạn trực tuyến hàng
                                        đầu Việt Nam
                                        DKKD: 0312788481, Ngày cấp: 21/05/2014, Sở kế hoạch đầu tư thành phố Hồ Chí Minh
                                        HCM: Lầu 7, Tòa nhà Anh Đăng, 215 Nam Kỳ Khởi Nghĩa, Phường 7, Quận 3, Tp. Hồ Chí Minh
                                        (Xem bản đồ)
                                        HN: Lầu 9, 70-72 Bà Triệu, Quận Hoàn Kiếm, Hà Nội
                                        (Xem bản đồ)
                                        Like để cập nhật cẩm nang du lịch
                                            tc@ivivu.com
    Xin Quý khách đợi trong giây lát
        Vui lòng để lại thông tin yêu cầu đặt phòng khách sạn của Quý khách.
                Giá chỉ mang tính chất tham khảo và không áp dụng vào các ngày lễ tết. Chúng tôi sẽ liên hệ lại trong 24h.
            Họ & Tên: 
            Số điện thoại: 
            Email: 
            Vùng/thành phố yêu cầu:
            Tên khách sạn:
                Ngày nhận phòng:
                Ngày trả phòng:
            Yêu cầu khác:
        Gửi yêu cầu
           ×
                Bản đồ
                Phú QuốcKhu nghỉ dưỡng Long Mountain Phú Quốc
