url:https://www.ivivu.com/khach-san-sydney-australia/manifold-motor-inn
Tittle :Manifold Motor Inn
content :1900 1870từ 7h30-21h hàng ngày
                        Khách sạn
                        Tours
                        Ưu đãi đặc biệt
                        Cẩm nang du lịch
                    Giới thiệuHỏi đápHỗ trợ
                    >
                ×
                Thông tin đăng nhập
                        Tên đăng nhập:
                        Mật khẩu:
                Đăng nhập
                        Tìm nhanh khách sạn
                        Ngày nhận phòng
                        Số đêm
                                12345678910111213141516171819202122232425262728293030+
                        Ngày trả phòng
                         
                        Trang chủ
                        Australia
                        Sydney
                    Manifold Motor Inn
            Manifold Motor Inn
                        Giá chỉ từ
                            2.294.407 VND
                Đặt phòng này
                295 Manifold Street (Princes H, Australia
                //media.expedia.com/hotels/6000000/5180000/5172800/5172784/5172784_11_b.jpg
            Giá phòng tại Manifold Motor Inn
                            Ngày nhận phòng: 20-11-2016 - 21-11-2016
                            |1 đêm
                            |0 phòng
                            |0 người lớn
                            |0 trẻ em
                                    Thay đổi tìm kiếm
                        Rất tiếc chúng tôi không còn phòng trong thời gian này. Bạn vui lòng chọn thời gian khác.
                                            Ngày nhận phòng
                                            Ngày trả phòng
                                            Số đêm
                                        Số phòng
                                        Người lớn
                                        Trẻ em
                                        Cập nhật
    Đang lấy thông tin giá
    Giá phòng đã bao gồm: 10% thuế GTGT, 5% phí dịch vụ
    Loại phòngTối đaGiá phòng/đêmSố phòngĐặt phòng
        Tiện ích của Manifold Motor Inn
    Phòng giải trí/trò chơi có thưởng
    MasterCard
    Khu phòng khách riêng
    Tủ lạnh
    Visa
    Máy sấy tóc
    Phòng tắm riêng
    Bàn
    Lò nướng BBQ
    Wifi miễn phí
    Wifi miễn phí
    Khu giặt ủi
    Bàn ủi/Dụng cụ ủi quần áo
    Minibar
    Dịch vụ truyền hình kỹ thuật số
    Giờ nhận phòng là
    American Express
    Bãi đậu xe RV, bus, tải
    Quầy lễ tân (giờ làm việc giới hạn)
    Giờ trả phòng là
    Đồ dùng nhà tắm miễn phí
    Không được mang theo vật nuôi và vật nuôi hỗ trợ người khuyết tật
    Điện thoại
    Bữa sáng (phụ phí)
    Dụng cụ pha cà phê/trà
    Bãi xe tự phục vụ miễn phí
    Hệ thống điều hòa nhiệt độ tự động
    Quạt trần
                Xem tất cả
        Thông tin Manifold Motor Inn
        Vị trí khách sạn Tọa lạc tại Ngoại ô Camperdown, Manifold Motor Inn nằm trong cùng khu vực với Câu lạc bộ golf Cobden và Đường sắt Thu nhỏ Cobden. Motel sao này nằm cùng khu vực với Vườn bách thảo Tandarook.Phòng Hãy nghỉ ngơi thoải mái như đang ở nhà mình tại một trong những phòng được trang bị tủ lạnh và minibar. Truy cập Internet không dây miễn phí giúp quý vị luôn giữ liên lạc; trong khi các chương trình truyền hình kỹ thuật số sẽ mang đến những phút giây giải trí thoải mái. Phòng tắm riêng có đồ dùng nhà tắm miễn phí và máy sấy tóc. Tiện nghi phòng bao gồm điện thoại, cùng bàn và khu tiếp khách tách biệt.Giải trí, Spa, Dịch vụ cao cấp Hãy tận hưởng những dịch vụ, tiện ích như truy cập Internet không dây miễn phí, phòng giải trí/trò chơi có thưởng và khu lò nướng BBQ.Khu ẩm thực Khách có thể dùng bữa sáng đầy đủ hàng ngày với một khoản phụ phí nhỏ.Phục vụ nhu cầu công việc và các tiện nghi khác Nhân viên lễ tân chỉ phục vụ trong thời gian nhất định. Có bãi đậu xe tự phục vụ miễn phí trong khuôn viên.
        Chính sách của Manifold Motor Inn
            Thời gian nhận phòng
            13:00
            Thời gian trả phòng 
            10:00
    Liên hệ Hotline1900 1870hoặc
        gửi yêu cầu
                                    Mở rộng bản đồ
                Khu vực
                Sân bay thuận lợi nhất để đến Manifold Motor Inn là Thành phố Melbourne, Bang Victoria (MEL-Sân bay Tullamarine) - 162,2 km / 100,8 mi. Khoảng cách được tính theo đường thẳng từ địa điểm của khách sạn đến điểm tham quan hoặc sân bay và có thể không phản ánh đường đi thực tế.  Khoảng cách được hiển thị đến 0,1 km và dặm gần nhất. 
                        Về iVIVU.comChúng tôiiVIVU BlogPMS - Miễn phí
                        Thông Tin Cần BiếtĐiều kiện & Điều khoảnQuy chế hoạt độngCâu hỏi thường gặp
                        Đối Tác & Liên kết
                                    Vietnam
                                    Airlines
                            VNExpressTiki.vn - Mua sắm online
                        Được chứng nhận
                                iVIVU.com là một thành viên của Thiên Minh Groups
                                Bạn cần trợ giúp? Hãy gọi ngay
                                        CSKH: 1900 1870
                                        Khác:   (08) 3930 8290
                                         Từ 7h30 - 21h hằng ngày
                                    iVIVU.com © 2016 - 
                                        Hệ thống đặt phòng khách sạn trực tuyến hàng
                                        đầu Việt Nam
                                        DKKD: 0312788481, Ngày cấp: 21/05/2014, Sở kế hoạch đầu tư thành phố Hồ Chí Minh
                                        HCM: Lầu 7, Tòa nhà Anh Đăng, 215 Nam Kỳ Khởi Nghĩa, Phường 7, Quận 3, Tp. Hồ Chí Minh
                                        (Xem bản đồ)
                                        HN: Lầu 9, 70-72 Bà Triệu, Quận Hoàn Kiếm, Hà Nội
                                        (Xem bản đồ)
                                        Like để cập nhật cẩm nang du lịch
                                            tc@ivivu.com
    Xin Quý khách đợi trong giây lát
        Vui lòng để lại thông tin yêu cầu đặt phòng khách sạn của Quý khách.
                Giá chỉ mang tính chất tham khảo và không áp dụng vào các ngày lễ tết. Chúng tôi sẽ liên hệ lại trong 24h.
            Họ & Tên: 
            Số điện thoại: 
            Email: 
            Vùng/thành phố yêu cầu:
            Tên khách sạn:
                Ngày nhận phòng:
                Ngày trả phòng:
            Yêu cầu khác:
        Gửi yêu cầu
           ×
                Bản đồ
                SydneyManifold Motor Inn
