url:https://www.ivivu.com/khach-san-hong-kong?p=2
Tittle :Khách sạn Hong kong  giá rẻ từ 1.290.790 VND
content :1900 1870từ 7h30-21h hàng ngày
                        Khách sạn
                        Tours
                        Ưu đãi đặc biệt
                        Cẩm nang du lịch
                    Giới thiệuHỏi đápHỗ trợ
                    >
                ×
                Thông tin đăng nhập
                        Tên đăng nhập:
                        Mật khẩu:
                Đăng nhập
                        Tìm nhanh khách sạn
                        Ngày nhận phòng
                        Số đêm
                                12345678910111213141516171819202122232425262728293030+
                        Ngày trả phòng
                         
                        Trang chủ
                        Hongkong
                        Hong kong
                Khách sạn Hong kong 
                Hong kong
                 XEM BẢN ĐỒ
                Cập nhật giá
                Sắp xếp theo: 
                                    iVIVU đề xuất
                                    Đề xuất
                                    Giá phòng
                                     Giá
                                    Hạng sao
                                         Sao
                        iVIVU đề xuấtGiá phòng - Tăng dần ▲Giá phòng - Giảm dần ▼Hạng sao - Tăng dần ▲Hạng sao - Giảm dần ▼
                    Khách sạn Best Western Grand Hong Kong
                 23 Austin Avenue, Tsim Sha Tsui, Hong Kong, Hồng Kông, Hongkong
                                Bản đồ
                    Tsim Sha TsuiGần Chợ Đêm Phố TempleGần bến phà Star Ferry Pier
                    1.865.043 VND
                Chi tiết
                    Khách sạn Metropark Causeway Bay Hong Kong
                 148 Tung Lo Wan Road, Causeway Bay, Hong Kong, Hong Kong, Hongkong
                                Bản đồ
                    Vịnh CausewayGần Tin Hau Temple
                    2.962.459 VND
                Chi tiết
                    Pop Hotel Hong Kong
                 No. 950, Canton Road, Mongkok, Hongkong
                                Bản đồ
                    Tiện nghi đầy đủKhu vực trung tâmThang máyWifi miễn phíPhòng tắm riêng
                    1.625.659 VND
                Chi tiết
                    Panda
                 3 Tsuen Wah Street, Hongkong
                                Bản đồ
                    Câu lạc bộ sức khỏeĐưa đón trong khu vực miễn phíHồ bơi ngoài trờiTrung tâm thể dụcKhu mua sắm trong khuôn viên
                    1.690.654 VND
                Chi tiết
                    Royal View Hotel Hong Kong
                 353 Castle Peak Road, Ting Kau, Tsuen Wan, Tsuen Wan, Hong Kong, Hồng Kông, Hongkong
                                Bản đồ
                    Hồ bơi ngoài trờiDịch vụ SpaPhòng tập thể dụcView đẹpKhu vui chơi trẻ emKhu vực thuận lợi di chuyển
                    1.820.895 VND
                Chi tiết
                    Harbour Plaza Resort City
                 18 Tin Yan Road, Hongkong
                                Bản đồ
                    Phòng tắm hơiHồ bơi ngoài trờiPhòng trị liệu spaCó dịch vụ xe đưa đónSân quần vợt
                    1.943.227 VND
                Chi tiết
                    Hotel LBP
                 4/F Hollywood Centre, Hongkong
                                Bản đồ
                    Điện thoại nội vùng miễn phíCâu lạc bộ sức khỏeThư việnCó nôi cho trẻ sơ sinhTrung tâm hội nghị
                    2.293.418 VND
                Chi tiết
                    Concerto Inn
                 28 Hung Shing Yeh Beach Yung Shue Wan, Hongkong
                                Bản đồ
                    View đẹpCho phép mang vật nuôiPhòng có ban công riêngDịch vụ cướiKhu dã ngoại
                    2.611.976 VND
                Chi tiết
                    Courtyard Hong Kong Sha Tin
                 1 On Ping Street, Hongkong
                                Bản đồ
                    Thiết kế hiện đạiView đẹpHồ bơi ngoài trờiPhòng tắm hơi sauna
                    2.994.541 VND
                Chi tiết
                    V Wanchai2 Hotel
                 139 Thomson Road, Hongkong
                                Bản đồ
                    Nội thất tiện nghiKhu vực trung tâmNhà hàng ẩm thựcKhu giặt ủiWifi miễn phí
                        Liên hệ
                        1900 1870
                         giá rẻ bất ngờ
                Chi tiết
    12
    25 khách sạn Hong kong
                    Cần tư vấn ? 
                    Gọi ngay
                    1900 1870
                 BỘ LỌC TÌM KIẾM
    Tìm khách sạn Hong kong
          Xếp hạng khách sạn Hong kong
            Tất cả
      Mức giá khách sạn Hong kong
        Tất cảDưới 500.000500.000 đến 1.000.0001.000.000 đến 2.000.0002.000.000 đến 5.000.000Trên 5.000.000
        Địa điểm khách sạn Hong kong
                        Tất cả
                        Discovery Bay
                        Gần Bãi biển Hung Shing Yeh
                        Gần Bến phà Hồng Kông - Macau
                        Gần Chợ Chim Yuen Po
                        Gần Chợ Quý bà
                        Gần Chùa Bà Thiên Hậu
                        Gần Citistore
                        Gần Đài thiên văn Hồng Kông
                        Gần Quảng trường Hàng hải
                        Gần Trung tâm Hội nghị và Triển lãm Hồng Kông
                        Gần Trung tâm Mua sắm Đường Nathan
                        Gần Trung tâm Mua sắm Grand Century Place
                        Gần Trung tâm Mua sắm Kingswood Ginza
                        Gần Trung tâm Shun Tak
                        Gần Trung tâm Thương mại New Town
                        Gần Trường Đua Sha Tin
                        Hồng Kông
                        Ở Aberdeen
                        Ở Đảo Lantau
                        Tsim Sha Tsui
                        Vịnh Causeway
                        Xem thêm
                        Thu gọn
    Tiện ích khách sạn Hong kong
            Tất cả
                            Phòng gia đình
                            Bãi đậu xe ô tô tại khách sạn
                            Thang máy
                            Hồ bơi
                            Phòng tập thể (dorm)
                            Kid Club
                                Đặt phòng theo đoàn?
                                iVIVU đảm bảo sẽ tìm kiếm deal tốt nhất cho bạn!
                        Đặt ngay 
                    ×
                    ĐẶT PHÒNG ĐOÀN
                        Khi đặt phòng theo đoàn với iVIVU.com, bạn sẽ có được khách sạn phù hợp nhất với giá tốt nhất mà không phải tốn thời gian tìm kiếm.
                                 Yêu cầu
                                         Điện thoại 
                                             Email
                                        *
                                 Vui lòng nhập địa điểm.
                                 Chưa nhập địa chỉ email hoặc địa chỉ email chưa đúng
                                 Vui lòng nhập số điện thoại.
                        • iVIVU.com cam kết đảm bảo an toàn thông tin của quý khách hàng. 
                        • Quý khách hàng có thể yêu cầu ngưng dịch vụ tìm kiếm deal tốt nhất bất cứ lúc nào.
                        Đặt phòng đoàn
                         Khách sạn Hong kong theo hạng sao
                            Khách sạn 1 sao tại Hong kong
                            Khách sạn 2 sao tại Hong kong
                            Khách sạn 3 sao tại Hong kong
                            Khách sạn 4 sao tại Hong kong
                            Khách sạn 5 sao tại Hong kong
                         Khách sạn tại các địa điểm du lịch nổi tiếng khác
                            Khách sạn Việt Nam
                            Khách sạn United Arab Emirates
                            Khách sạn Afghanistan
                            Khách sạn Armenia
                            Khách sạn Aserbaidshan
                            Khách sạn Bangladesh
                            Khách sạn Bahrain
                            Khách sạn Brunei Darussalam
                            Khách sạn Bhutan
                            Khách sạn China
                            Khách sạn Hongkong
                            Khách sạn Indonesia
                            Khách sạn Israel
                            Khách sạn India
                            Khách sạn Iraq
                            Khách sạn Iran
                            Khách sạn Jordan
                            Khách sạn Japan
                            Khách sạn Kyrgystan
                            Khách sạn Cambodia
                            Khách sạn Korea, Republic of
                            Khách sạn Kuwait
                            Khách sạn Kazakstan
                            Khách sạn Lao People's Democratic Republic
                            Khách sạn Lebanon
                            Khách sạn Sri Lanka
                            Khách sạn Myanmar
                            Khách sạn Mongolia
                            Khách sạn Macau
                            Khách sạn Maldives
                            Khách sạn Malaysia
                            Khách sạn Nepal
                            Khách sạn Oman
                            Khách sạn Philippines
                            Khách sạn Pakistan
                            Khách sạn Qatar
                            Khách sạn Saudi Arabia
                            Khách sạn Singapore
                            Khách sạn Syrian Arab Republic
                            Khách sạn Thailand
                            Khách sạn Tajikistan
                            Khách sạn East Timor
                            Khách sạn Turkmenistan
                            Khách sạn Taiwan, Province of China
                            Khách sạn Uzbekistan
                            Khách sạn Yemen
                            Khách sạn Campuchia
                    ×
                    Cập nhật giá khách sạn
                                                Ngày nhận
                                            Số đêm
                                                    12345678910111213141516171819202122232425262728293030+
                                                Ngày trả
                                            Số phòng
                                            Người lớn
                        Cập nhật lại giá khách sạn
                        Về iVIVU.comChúng tôiiVIVU BlogPMS - Miễn phí
                        Thông Tin Cần BiếtĐiều kiện & Điều khoảnQuy chế hoạt độngCâu hỏi thường gặp
                        Đối Tác & Liên kết
                                    Vietnam
                                    Airlines
                            VNExpressTiki.vn - Mua sắm online
                        Được chứng nhận
                                iVIVU.com là một thành viên của Thiên Minh Groups
                                Bạn cần trợ giúp? Hãy gọi ngay
                                        CSKH: 1900 1870
                                        Khác:   (08) 3930 8290
                                         Từ 7h30 - 21h hằng ngày
                                    iVIVU.com © 2016 - 
                                        Hệ thống đặt phòng khách sạn trực tuyến hàng
                                        đầu Việt Nam
                                        DKKD: 0312788481, Ngày cấp: 21/05/2014, Sở kế hoạch đầu tư thành phố Hồ Chí Minh
                                        HCM: Lầu 7, Tòa nhà Anh Đăng, 215 Nam Kỳ Khởi Nghĩa, Phường 7, Quận 3, Tp. Hồ Chí Minh
                                        (Xem bản đồ)
                                        HN: Lầu 9, 70-72 Bà Triệu, Quận Hoàn Kiếm, Hà Nội
                                        (Xem bản đồ)
                                        Like để cập nhật cẩm nang du lịch
                                            tc@ivivu.com
    Xin Quý khách đợi trong giây lát
        Vui lòng để lại thông tin yêu cầu đặt phòng khách sạn của Quý khách.
                Giá chỉ mang tính chất tham khảo và không áp dụng vào các ngày lễ tết. Chúng tôi sẽ liên hệ lại trong 24h.
            Họ & Tên: 
            Số điện thoại: 
            Email: 
            Vùng/thành phố yêu cầu:
            Tên khách sạn:
                Ngày nhận phòng:
                Ngày trả phòng:
            Yêu cầu khác:
        Gửi yêu cầu
           ×
                Bản đồ
