url:https://www.ivivu.com/khach-san-saudi-arabia
Tittle :Khách sạn Saudi Arabia  giá rẻ từ
content :1900 1870từ 7h30-21h hàng ngày
                        Khách sạn
                        Tours
                        Ưu đãi đặc biệt
                        Cẩm nang du lịch
                    Giới thiệuHỏi đápHỗ trợ
                    >
                ×
                Thông tin đăng nhập
                        Tên đăng nhập:
                        Mật khẩu:
                Đăng nhập
                        Tìm nhanh khách sạn
                        Ngày nhận phòng
                        Số đêm
                                12345678910111213141516171819202122232425262728293030+
                        Ngày trả phòng
                         
                        Trang chủ
                        Saudi Arabia
                Khách sạn Saudi Arabia 
                Saudi Arabia
                 XEM BẢN ĐỒ
                Cập nhật giá
                Sắp xếp theo: 
                                    iVIVU đề xuất
                                    Đề xuất
                                    Giá phòng
                                     Giá
                                    Hạng sao
                                         Sao
                        iVIVU đề xuấtGiá phòng - Tăng dần ▲Giá phòng - Giảm dần ▼Hạng sao - Tăng dần ▲Hạng sao - Giảm dần ▼
                    Marriott Jeddah
                 Palestine Road And King Fahd Street, Saudi Arabia
                                Bản đồ
                    Ở khu trung tâm thành phố
                    5.317.890 VND
                Chi tiết
                    Marriott
                 King Saud Road, Saudi Arabia
                                Bản đồ
                    Gần Tháp Al Faisaliyah
                    6.900.243 VND
                Chi tiết
                    Tulip Inn Andalusia
                 PO Box 76934Al-Khobar 31952, Saudi Arabia
                                Bản đồ
                    Gần Trung tâm mua sắm Al Rashed
                        Liên hệ
                        1900 1870
                         giá rẻ bất ngờ
                Chi tiết
                    InterContinental Dar El Tawhid
                 Ibrahim Al Khalil Street, Saudi Arabia
                                Bản đồ
                    Gần Cổng Vua Fahad
                        Liên hệ
                        1900 1870
                         giá rẻ bất ngờ
                Chi tiết
                    Sheraton Jeddah Hotel
                 North Corniche Po Box 14315, Saudi Arabia
                                Bản đồ
                    Gần Thủy cung Fakieh
                        Liên hệ
                        1900 1870
                         giá rẻ bất ngờ
                Chi tiết
                    Mercure Grand Golden Jeddah
                 King Fahad Road Sitten Kandara, Saudi Arabia
                                Bản đồ
                    Gần Tòa nhà Nasseef
                        Liên hệ
                        1900 1870
                         giá rẻ bất ngờ
                Chi tiết
                    Crowne Plaza Riyadh Minhal
                 PO Box 17058, Old Airport Rd, Saudi Arabia
                                Bản đồ
                    Gần Riyadh Zoo
                        Liên hệ
                        1900 1870
                         giá rẻ bất ngờ
                Chi tiết
                    Four Seasons
                 KINGDOM CENTRE PO BOX 231000, Saudi Arabia
                                Bản đồ
                    Ở Quận Al Olaya Thủ đô Riyadh
                        Liên hệ
                        1900 1870
                         giá rẻ bất ngờ
                Chi tiết
                    Ramada Continental Jeddah
                 Palestine St, Saudi Arabia
                                Bản đồ
                    Ở khu trung tâm thành phố
                        Liên hệ
                        1900 1870
                         giá rẻ bất ngờ
                Chi tiết
                    Mövenpick Anwar Al Madinah
                 Central Zone, Saudi Arabia
                                Bản đồ
                    Gần Nhà thờ Hồi giáo Al-Masjid al-Nabawi
                        Liên hệ
                        1900 1870
                         giá rẻ bất ngờ
                Chi tiết
                    Mövenpick
                 Prince Turki St., Saudi Arabia
                                Bản đồ
                    Gần Viện bảo tàng Scitech
                        Liên hệ
                        1900 1870
                         giá rẻ bất ngờ
                Chi tiết
                    Le Meridien Towers 
                 Kudai RoadP.O Box 9991Makkah 21955, Saudi Arabia
                                Bản đồ
                    Gần Tháp Abraj Al Bait
                        Liên hệ
                        1900 1870
                         giá rẻ bất ngờ
                Chi tiết
                    InterContinental Al Khobar
                 Bin Bassam Al Andalusi Street, Saudi Arabia
                                Bản đồ
                    Gần Tháp nước Al Khobar
                        Liên hệ
                        1900 1870
                         giá rẻ bất ngờ
                Chi tiết
                    Ramada Al Qassim & Suites
                 King Abdulaziz Road, Saudi Arabia
                                Bản đồ
                    Ở khu trung tâm thành phố
                        Liên hệ
                        1900 1870
                         giá rẻ bất ngờ
                Chi tiết
                    Mercure Khamis Mushayt
                 Al Hazim Ring Road, Saudi Arabia
                                Bản đồ
                    Ở Thành phố Khamis Mushait
                        Liên hệ
                        1900 1870
                         giá rẻ bất ngờ
                Chi tiết
    123...5
    75 khách sạn Saudi Arabia
                    Cần tư vấn ? 
                    Gọi ngay
                    1900 1870
                 BỘ LỌC TÌM KIẾM
    Tìm khách sạn Saudi Arabia
          Xếp hạng khách sạn Saudi Arabia
            Tất cả
      Mức giá khách sạn Saudi Arabia
        Tất cảDưới 500.000500.000 đến 1.000.0001.000.000 đến 2.000.0002.000.000 đến 5.000.000Trên 5.000.000
            Địa điểm khách sạn Saudi Arabia
                        Tất cả
                        Abha
                        Al Ahsa
                        Al Bahah
                        Al Bukayriyah
                        Al Jubayl
                        Al Khobar
                        Al-Hofuf
                        al-'Ula
                        Buraydah
                        Chamis Muschait
                        Dammam
                        Dhahran
                        Gizan
                        Hafar Al-Batin
                        Hail
                        Jeddah
                        Jubail
                        Madinah
                        Mekka
                        Nadschran
                        Riyadh
                        Tabuk
                        Taif
                        Unayzah
                        Yanbu' al-Bahr
                        Xem thêm
                        Thu gọn
    Tiện ích khách sạn Saudi Arabia
            Tất cả
                            Phòng gia đình
                            Bãi đậu xe ô tô tại khách sạn
                            Thang máy
                            Hồ bơi
                            Phòng tập thể (dorm)
                            Kid Club
                                Đặt phòng theo đoàn?
                                iVIVU đảm bảo sẽ tìm kiếm deal tốt nhất cho bạn!
                        Đặt ngay 
                    ×
                    ĐẶT PHÒNG ĐOÀN
                        Khi đặt phòng theo đoàn với iVIVU.com, bạn sẽ có được khách sạn phù hợp nhất với giá tốt nhất mà không phải tốn thời gian tìm kiếm.
                                 Yêu cầu
                                         Điện thoại 
                                             Email
                                        *
                                 Vui lòng nhập địa điểm.
                                 Chưa nhập địa chỉ email hoặc địa chỉ email chưa đúng
                                 Vui lòng nhập số điện thoại.
                        • iVIVU.com cam kết đảm bảo an toàn thông tin của quý khách hàng. 
                        • Quý khách hàng có thể yêu cầu ngưng dịch vụ tìm kiếm deal tốt nhất bất cứ lúc nào.
                        Đặt phòng đoàn
                         Khách sạn Saudi Arabia theo hạng sao
                            Khách sạn 1 sao tại Saudi Arabia
                            Khách sạn 2 sao tại Saudi Arabia
                            Khách sạn 3 sao tại Saudi Arabia
                            Khách sạn 4 sao tại Saudi Arabia
                            Khách sạn 5 sao tại Saudi Arabia
                             Khách sạn Saudi Arabia tại các địa điểm phổ biến
                         Khách sạn tại các địa điểm du lịch nổi tiếng khác
                            Khách sạn Việt Nam
                            Khách sạn United Arab Emirates
                            Khách sạn Afghanistan
                            Khách sạn Armenia
                            Khách sạn Aserbaidshan
                            Khách sạn Bangladesh
                            Khách sạn Bahrain
                            Khách sạn Brunei Darussalam
                            Khách sạn Bhutan
                            Khách sạn China
                            Khách sạn Hongkong
                            Khách sạn Indonesia
                            Khách sạn Israel
                            Khách sạn India
                            Khách sạn Iraq
                            Khách sạn Iran
                            Khách sạn Jordan
                            Khách sạn Japan
                            Khách sạn Kyrgystan
                            Khách sạn Cambodia
                            Khách sạn Korea, Republic of
                            Khách sạn Kuwait
                            Khách sạn Kazakstan
                            Khách sạn Lao People's Democratic Republic
                            Khách sạn Lebanon
                            Khách sạn Sri Lanka
                            Khách sạn Myanmar
                            Khách sạn Mongolia
                            Khách sạn Macau
                            Khách sạn Maldives
                            Khách sạn Malaysia
                            Khách sạn Nepal
                            Khách sạn Oman
                            Khách sạn Philippines
                            Khách sạn Pakistan
                            Khách sạn Qatar
                            Khách sạn Singapore
                            Khách sạn Syrian Arab Republic
                            Khách sạn Thailand
                            Khách sạn Tajikistan
                            Khách sạn East Timor
                            Khách sạn Turkmenistan
                            Khách sạn Taiwan, Province of China
                            Khách sạn Uzbekistan
                            Khách sạn Yemen
                            Khách sạn Campuchia
                    ×
                    Cập nhật giá khách sạn
                                                Ngày nhận
                                            Số đêm
                                                    12345678910111213141516171819202122232425262728293030+
                                                Ngày trả
                                            Số phòng
                                            Người lớn
                        Cập nhật lại giá khách sạn
                        Về iVIVU.comChúng tôiiVIVU BlogPMS - Miễn phí
                        Thông Tin Cần BiếtĐiều kiện & Điều khoảnQuy chế hoạt độngCâu hỏi thường gặp
                        Đối Tác & Liên kết
                                    Vietnam
                                    Airlines
                            VNExpressTiki.vn - Mua sắm online
                        Được chứng nhận
                                iVIVU.com là một thành viên của Thiên Minh Groups
                                Bạn cần trợ giúp? Hãy gọi ngay
                                        CSKH: 1900 1870
                                        Khác:   (08) 3930 8290
                                         Từ 7h30 - 21h hằng ngày
                                    iVIVU.com © 2016 - 
                                        Hệ thống đặt phòng khách sạn trực tuyến hàng
                                        đầu Việt Nam
                                        DKKD: 0312788481, Ngày cấp: 21/05/2014, Sở kế hoạch đầu tư thành phố Hồ Chí Minh
                                        HCM: Lầu 7, Tòa nhà Anh Đăng, 215 Nam Kỳ Khởi Nghĩa, Phường 7, Quận 3, Tp. Hồ Chí Minh
                                        (Xem bản đồ)
                                        HN: Lầu 9, 70-72 Bà Triệu, Quận Hoàn Kiếm, Hà Nội
                                        (Xem bản đồ)
                                        Like để cập nhật cẩm nang du lịch
                                            tc@ivivu.com
    Xin Quý khách đợi trong giây lát
        Vui lòng để lại thông tin yêu cầu đặt phòng khách sạn của Quý khách.
                Giá chỉ mang tính chất tham khảo và không áp dụng vào các ngày lễ tết. Chúng tôi sẽ liên hệ lại trong 24h.
            Họ & Tên: 
            Số điện thoại: 
            Email: 
            Vùng/thành phố yêu cầu:
            Tên khách sạn:
                Ngày nhận phòng:
                Ngày trả phòng:
            Yêu cầu khác:
        Gửi yêu cầu
           ×
                Bản đồ
