url:https://www.ivivu.com/khach-san-maldives-maldives/conrad-maldives-rangali-island
Tittle :Khu nghỉ dưỡng Conrad Maldives Rangali Island
content :1900 1870từ 7h30-21h hàng ngày
                        Khách sạn
                        Tours
                        Ưu đãi đặc biệt
                        Cẩm nang du lịch
                    Giới thiệuHỏi đápHỗ trợ
                    >
                ×
                Thông tin đăng nhập
                        Tên đăng nhập:
                        Mật khẩu:
                Đăng nhập
                        Tìm nhanh khách sạn
                        Ngày nhận phòng
                        Số đêm
                                12345678910111213141516171819202122232425262728293030+
                        Ngày trả phòng
                         
                        Trang chủ
                        Maldives
                        Maldives
                    Khu nghỉ dưỡng Conrad Maldives Rangali Island
            Khu nghỉ dưỡng Conrad Maldives Rangali Island
                        Giá chỉ từ
                            20.795.474 VND
                Đặt phòng này
                Rangali Island, South Ari Atoll, Maldives Islands, Maldives 20077 , Maldives
                //cdn1.ivivu.com/iVivu/2016/06/15/14/khu-nghi-duong-conrad-maldives-rangali-island.jpg
            Giá phòng tại Khu nghỉ dưỡng Conrad Maldives Rangali Island
                            Ngày nhận phòng: 20-11-2016 - 21-11-2016
                            |1 đêm
                            |0 phòng
                            |0 người lớn
                            |0 trẻ em
                                    Thay đổi tìm kiếm
                        Rất tiếc chúng tôi không còn phòng trong thời gian này. Bạn vui lòng chọn thời gian khác.
                                            Ngày nhận phòng
                                            Ngày trả phòng
                                            Số đêm
                                        Số phòng
                                        Người lớn
                                        Trẻ em
                                        Cập nhật
    Đang lấy thông tin giá
    Giá phòng đã bao gồm: 10% thuế GTGT, 5% phí dịch vụ
    Loại phòngTối đaGiá phòng/đêmSố phòngĐặt phòng
        Tiện ích của Khu nghỉ dưỡng Conrad Maldives Rangali Island
    Dịch vụ thu đổi ngoại tệ
    Hồ bơi trẻ em
    Hoạt động thể thao dưới nước
    Két sắt an toàn
    Nhà hàng, Khu ăn uống
    Hồ bơi ngoài trời
    Karaoke
    Quầy bar cạnh bể bơi
    Sân tennis
    Wifi / Internet
    Dịch vụ trông trẻ
    Phòng họp/Dịch vụ hội nghị
    Spa/Beauty Salon/Massage
    Bãi biển riêng
    Cửa hàng đồ lưu niệm
    Quán cà phê
    Quầy bán tour
    Quầy lễ tân 24h
    Phòng tập thể dục
    Dịch vụ giặt ủi
    Phục vụ phòng
    Dịch vụ giữ hành lý
                Xem tất cả
        Thông tin Khu nghỉ dưỡng Conrad Maldives Rangali Island
        Khu nghỉ dưỡng Conrad Maldives Rangali Island sở hữu 150 với các trang thiết bị và nội thất đẹp, êm ái nhằm mang đến cảm giác thoải mái nhất cho quý khách.
Ngoài ra, nhiều phòng còn cung cấp các tiện nghi như khăn tắm, dép, tivi màn hình phẳng, internet không dây, hồ bơi riêng. Những phương tiện giải trí của khách sạn bao gồm bồn tắm nước nóng, bãi biển riêng, phòng thể dục, phòng sauna, hồ bơi ngoài trời được thiết kế để đem đến cho bạn sự thư giãn thoải mái. 
Khu nghỉ dưỡng Conrad Maldives Rangali Island là sự lựa chọn hoàn hảo của quý khách!
        Chính sách của Khu nghỉ dưỡng Conrad Maldives Rangali Island
            Thời gian nhận phòng
            15:00
            Thời gian trả phòng 
            12:00
                        Hướng dẫn nhận phòng
                       - Quý khách vui lòng xuất trình Hộ chiếu và Voucher khi nhận phòng do iVIVU.com cung cấp(Khách sạn có thể sẽ yêu cầu Quý khách số thẻ tín dụng hoặc tiền đặt cọc cho các dịch vụ phát sinh trong thời gian lưu trú của Quý khách)
Lưu ý dành cho khách hàng:- Nhận phòng sớm hoặc trả phòng trễ phụ thuộc vào tình trạng phòng thực tế của Khách sạn. - Mọi chi phí phát sinh không được xác nhận trong đặt phòng này, Quý khách vui lòng thanh toán trực tiếp tại Khách sạn. - Nếu Quý khách có nhu cầu xuất hóa đơn vui lòng cung cấp thông tin và địa chỉ xuất hóa đơn ngay khi thanh toán đơn phòng. Chúng tôi sẽ không thể xuất hóa đơn nếu Quý khách gửi thông tin chậm hơn thời gian trên.
    Liên hệ Hotline1900 1870hoặc
        gửi yêu cầu
                                    Mở rộng bản đồ
                    Sân bay chính  gần nhất
                    Male, Maldives (MLE-Male Intl.)
                Khu vực
                Sân bay thuận lợi nhất để đến Conrad Maldives Rangali Island là Sân bay Male (MLE-Sân bay Quốc tế Male) - 110 km / 68,4 mi. Khoảng cách được tính theo đường thẳng từ địa điểm của khách sạn đến điểm tham quan hoặc sân bay và có thể không phản ánh đường đi thực tế.  Khoảng cách được hiển thị đến 0,1 km và dặm gần nhất. 
            Khách sạn tương tự
                                        Khu nghỉ dưỡng Constance Halaveli Maldives
                                        Sheraton Maldives Full Moon Resort & Spa
                                        Khu nghỉ dưỡng The Sun Siyam Iru Fushi Maldives
                        Về iVIVU.comChúng tôiiVIVU BlogPMS - Miễn phí
                        Thông Tin Cần BiếtĐiều kiện & Điều khoảnQuy chế hoạt độngCâu hỏi thường gặp
                        Đối Tác & Liên kết
                                    Vietnam
                                    Airlines
                            VNExpressTiki.vn - Mua sắm online
                        Được chứng nhận
                                iVIVU.com là một thành viên của Thiên Minh Groups
                                Bạn cần trợ giúp? Hãy gọi ngay
                                        CSKH: 1900 1870
                                        Khác:   (08) 3930 8290
                                         Từ 7h30 - 21h hằng ngày
                                    iVIVU.com © 2016 - 
                                        Hệ thống đặt phòng khách sạn trực tuyến hàng
                                        đầu Việt Nam
                                        DKKD: 0312788481, Ngày cấp: 21/05/2014, Sở kế hoạch đầu tư thành phố Hồ Chí Minh
                                        HCM: Lầu 7, Tòa nhà Anh Đăng, 215 Nam Kỳ Khởi Nghĩa, Phường 7, Quận 3, Tp. Hồ Chí Minh
                                        (Xem bản đồ)
                                        HN: Lầu 9, 70-72 Bà Triệu, Quận Hoàn Kiếm, Hà Nội
                                        (Xem bản đồ)
                                        Like để cập nhật cẩm nang du lịch
                                            tc@ivivu.com
    Xin Quý khách đợi trong giây lát
        Vui lòng để lại thông tin yêu cầu đặt phòng khách sạn của Quý khách.
                Giá chỉ mang tính chất tham khảo và không áp dụng vào các ngày lễ tết. Chúng tôi sẽ liên hệ lại trong 24h.
            Họ & Tên: 
            Số điện thoại: 
            Email: 
            Vùng/thành phố yêu cầu:
            Tên khách sạn:
                Ngày nhận phòng:
                Ngày trả phòng:
            Yêu cầu khác:
        Gửi yêu cầu
           ×
                Bản đồ
                MaldivesKhu nghỉ dưỡng Conrad Maldives Rangali Island
