url:https://www.ivivu.com/khach-san-greece
Tittle :Khách sạn Greece  giá rẻ từ
content :1900 1870từ 7h30-21h hàng ngày
                        Khách sạn
                        Tours
                        Ưu đãi đặc biệt
                        Cẩm nang du lịch
                    Giới thiệuHỏi đápHỗ trợ
                    >
                ×
                Thông tin đăng nhập
                        Tên đăng nhập:
                        Mật khẩu:
                Đăng nhập
                        Tìm nhanh khách sạn
                        Ngày nhận phòng
                        Số đêm
                                12345678910111213141516171819202122232425262728293030+
                        Ngày trả phòng
                         
                        Trang chủ
                        Greece
                Khách sạn Greece 
                Greece
                 XEM BẢN ĐỒ
                Cập nhật giá
                Sắp xếp theo: 
                                    iVIVU đề xuất
                                    Đề xuất
                                    Giá phòng
                                     Giá
                                    Hạng sao
                                         Sao
                        iVIVU đề xuấtGiá phòng - Tăng dần ▲Giá phòng - Giảm dần ▼Hạng sao - Tăng dần ▲Hạng sao - Giảm dần ▼
                    Savvas Aparthotel
                 Laganas Area, Greece
                                Bản đồ
                    Ở Laganas Zakynthos
                    474.879 VND
                Chi tiết
                    Happy Fish
                 Perissa Beach, Greece
                                Bản đồ
                    Ở Perissa Santorini
                    477.070 VND
                Chi tiết
                    Herodotos Studios
                 29092 Limni KeriZakynthos Island, Greece
                                Bản đồ
                    Ở Limni Keri Zakynthos
                    479.011 VND
                Chi tiết
                    Alea Studios
                 Ierou Lochou Str. 2585101 IalissosRhodos, Greece
                                Bản đồ
                    Ở Ialyssos Rhodes
                    485.930 VND
                Chi tiết
                    Marietta
                 Pastida 851 01Rhodes, Greece
                                Bản đồ
                    Ở Theologos Rhodes
                    493.566 VND
                Chi tiết
                    San Giorgio
                 19 Pavlou Mela Street, Greece
                                Bản đồ
                    Gần Cung điện Malia
                    503.101 VND
                Chi tiết
                    Roseberry Studios
                 Faliraki, Greece
                                Bản đồ
                    Ở Faliraki Rhodes
                    508.840 VND
                Chi tiết
                    Dias Apartements
                 25 Olympiados Street, Greece
                                Bản đồ
                    Ở Makrigialos Pydna-Kolindros
                    521.692 VND
                Chi tiết
                    Ntanelis
                 Analypsi 70014Kreta, Greece
                                Bản đồ
                    Ở Analipsi Hersonissos
                    525.334 VND
                Chi tiết
                    Argo
                 Kalithea AveFaliraki 85105 PO BOX 513Rhodos, Greece
                                Bản đồ
                    Ở Faliraki Rhodes
                    529.337 VND
                Chi tiết
                    Dilino
                 Kamari, Greece
                                Bản đồ
                    Ở Kamari Santorini
                    529.723 VND
                Chi tiết
                    Theoni Apartment
                 Eleftheriou Venizelou 179Mália 70007Kreta, Greece
                                Bản đồ
                    Gần Cung điện Malia
                    534.210 VND
                Chi tiết
                    White Palace Studios
                 Agisandrou Str., 2, Greece
                                Bản đồ
                    Ở Faliraki Rhodes
                    534.369 VND
                Chi tiết
                    Amaril
                 K. Gioulounta 15, Greece
                                Bản đồ
                    Ở Platanes Rethymnon
                    537.536 VND
                Chi tiết
                    Villa Anemomilos
                 Close to the Central Square of Fira, Greece
                                Bản đồ
                    Gần Bảo tàng khảo cổ học
                    552.663 VND
                Chi tiết
    123...104
    1549 khách sạn Greece
                    Cần tư vấn ? 
                    Gọi ngay
                    1900 1870
                 BỘ LỌC TÌM KIẾM
    Tìm khách sạn Greece
          Xếp hạng khách sạn Greece
            Tất cả
      Mức giá khách sạn Greece
        Tất cảDưới 500.000500.000 đến 1.000.0001.000.000 đến 2.000.0002.000.000 đến 5.000.000Trên 5.000.000
            Địa điểm khách sạn Greece
                        Tất cả
                        Acharavi
                        Achlada
                        Achladies
                        Adamas
                        Adele
                        Adelianos Kambos
                        Adia
                        Aegiali
                        Aegina Town
                        Aexlandroupolis
                        Afandou
                        Afiartis
                        Afissos
                        Afitos (Athitos)
                        Ag. Georgios by Naxos-City
                        Agali
                        Ageliana
                        Aghios Markos
                        Agia Anna
                        Agia Apostoli
                        Agia Efimia
                        Agia Ermioni
                        Agia Fotini
                        Agia Galini
                        Agia Irini
                        Agia Marina
                        Agia Paraskevi
                        Agia Pelagia
                        Agia Roumeli
                        Agia Thekli
                        Agia Triada
                        Agii Apostoli
                        Agii Pantes
                        Agios Andreas
                        Agios Dimitrios
                        Agios Emilianos
                        Agios Ermogenis
                        Agios Fanourios
                        Agios Fokas
                        Agios Georgios
                        Agios Gordios
                        Agios Ilias
                        Agios Ioannis
                        Agios Isidoros
                        Agios Kirykos
                        Agios Konstantinos
                        Agios Lavrentios
                        Agios Leontas
                        Agios Mamas
                        Agios Matheos
                        Agios Myronas
                        Agios Nikitas
                        Agios Nikolaos
                        Agios Nikolaos Volimes
                        Agios Panteleimonas
                        Agios Pavlos
                        Agios Petros
                        Agios Prokopios
                        Agios Sostis
                        Agios Spyridon
                        Agios Stefanos
                        Agios Yiannis
                        Agrari
                        Agrilos
                        Agrinio
                        Aigaleo
                        Aigeiros
                        Aigio
                        Akoumia
                        Akriotiri
                        Akritochori
                        Akrotiri
                        Alexandroupolis
                        Alikampos
                        Alikanas
                        Aliki
                        Aliko Beach
                        Alinda
                        Alkyes
                        Almiri
                        Almirida
                        Almiros
                        Alonissos
                        Alt Pori
                        Alykes
                        Alykes Beach
                        Amarynthos
                        Ambeliona
                        Amboula
                        Amfiklia
                        Ammoni
                        Ammoudi
                        Ammoudia
                        Amnissos
                        Amoopi
                        Amorgos
                        Amoudara
                        Amoudi
                        Amouliani Island
                        Analipsis
                        Analypsis Ipsos
                        Anatoli
                        Anavissos
                        Anaxos
                        Ancient Olympia
                        Andros Stadt
                        Angidia
                        Angistri
                        Anissaras
                        Ano Garouna
                        Ano Mera
                        Ano Pediná
                        Ano Stavros
                        Ano Vouves
                        Anogia
                        Anos Asites
                        Anthousa
                        Antiparos
                        Antipata
                        Aperi
                        Apollonas
                        Apollonia
                        Apraos
                        Aptera
                        Arachova
                        Archanes
                        Archangelos
                        Areopoli
                        Argalasti
                        Argassi
                        Argiroupoli
                        Argolis
                        Argostoli
                        Argyrades
                        Arillas
                        Aristi
                        Arkassa
                        Arkoudi
                        Armeni
                        Armenistis
                        Arolithos
                        Arta
                        Artemonas
                        Aselinos
                        Asgourou
                        Askeli
                        Askyfos
                        Asmini
                        Asprangeli
                        Aspróvalta
                        Assos
                        Astakeri
                        Asteri
                        Astiraki
                        Astris
                        Astypalaia
                        Athens
                        Atsipopoulos
                        Avdou
                        Avgonima
                        Avlaki
                        Avliotes
                        Axos
                        Azolimnos
                        Bali
                        Balos
                        Barbati
                        Batsi
                        Belokomiti
                        Benitses
                        Boukari
                        Cap Sani
                        Chalikounas
                        Chalki
                        Chalkida
                        Chalkidiki/Khalkidhiki
                        Chania
                        Chanioti
                        Charaki
                        Charkia
                        Cherethiana
                        Chersonissos
                        Chiliadou
                        Chios
                        Chios Town
                        Chirocastello
                        Chora
                        Chora Sfakion
                        Chorafakia
                        Choudetsi
                        Choulakia
                        Choumeri
                        Chrani
                        Chrisoskalitissa
                        Chrissi Akti
                        Chrissi Ammoudia / Golden Beach
                        Chromonastiri
                        Corfu
                        Corfu Town
                        Crete
                        Crithoni
                        Cyclades
                        Damasta
                        Damavolou
                        Damnoni
                        Damouchari
                        Danila
                        Darmarochori
                        Dassia
                        Delphi
                        Demonia
                        Diafani
                        Diakofti
                        Dilofo
                        Dimitsana
                        Dimos Arkadiou
                        Dimos Krioneridas
                        Dionisiou Beach
                        Donousa
                        Doukades
                        Douliana
                        Douneika
                        Drama
                        Drapanias
                        Drepano
                        Drimiskos
                        Drosia
                        Dryos
                        Dytiko
                        Edessa
                        Edipsos
                        Eftalou
                        Egares
                        Elafonissos
                        Elati
                        Elatochori
                        Elefsina
                        Eleftherna
                        Éleónas
                        Eleusis
                        Elia
                        Elia Beach
                        Elia Nikiti / Nikiti
                        Elounda
                        Emponas
                        Emporió
                        Emporios
                        Epidauros
                        Episkopi
                        Eretria
                        Eristos
                        Ermioni
                        Ermones
                        Ermoupolis
                        Exopoli
                        Falassarna
                        Faliraki
                        Fanis
                        Faros
                        Ferma
                        Filiatra
                        Finikas
                        Finiki
                        Finikounda
                        Firostefani
                        Fiscardo
                        Flatsia
                        Flórina
                        Fodele
                        Folegandros
                        Fourka
                        Fournoi
                        Frangokastelo
                        Frikes
                        Gaios
                        Galaxidi
                        Galissas
                        Gargaliani
                        Gargarou-Strand
                        Gastouri
                        Gavalochori
                        Gavrion
                        Gennadi
                        Georgioupolis
                        Gera
                        Gerakári
                        Gerakini
                        Gerani
                        Gialiskari
                        Gialos
                        Gialova
                        Giannades
                        Gimari
                        Glastros
                        Glikadi
                        Glyfa Beach
                        Glyfada
                        Glyfades-Beach
                        Glyki
                        Golden Beach
                        Gournes
                        Gouves
                        Gouvia
                        Gramvoussa
                        Gregolimano
                        Grevena
                        Grikos
                        Gulf of ???
                        Gythion
                        Heraklion
                        Horefto
                        Horto
                        Horton
                        Hydra Town
                        Ierapetra
                        Ierissos
                        Igoumenitsa
                        Ikaria
                        Imerovigli
                        Insel Chios
                        Ioaninna
                        Ioannina
                        Ios Stadt
                        Iraklia (bei Naxos)
                        Iraklion
                        Ireon
                        Iria
                        Isaris
                        Istmia
                        Istron
                        Itea
                        Ithaki
                        Itylo
                        Ixia
                        Kakovatos
                        Kala Nera
                        Kalafati
                        Kalafatis
                        Kalamaki
                        Kalamakia
                        Kalamata
                        Kalambaka
                        Kalami
                        Kalamitsi
                        Kalamos
                        Kalandra
                        Kalathos
                        Kalavros
                        Kalavryta
                        Kali Limenes
                        Kalikratia
                        Kalithea
                        Kallirroi
                        Kallithea
                        Kalloni
                        Kalo Chorio
                        Kalo Livadi
                        Kalo Nero
                        Kalogria
                        Kalonyktis
                        Kalydonia
                        Kalymnos
                        Kalyves
                        Kamares
                        Kamari
                        Kamaria
                        Kambia
                        Kambos
                        Kamena-Vourla
                        Kamilari
                        Kamiros Skala
                        Kampi
                        Kampos
                        Kanali
                        Kanapitsa Beach
                        Kandia
                        Kanoni
                        Kanouli
                        Kantouni
                        Kap Sounion
                        Kapetaniana
                        Kapsalianá
                        Karavados
                        Karavostasis
                        Kardamena
                        Kardamili
                        Kardámyla
                        Karfas
                        Karitsa
                        Karlovassi
                        Karousades
                        Karoussades
                        Karpathos
                        Karpenisi
                        Karterados
                        Karystos
                        Kassiopi
                        Kastellakia
                        Kastellorriso
                        Kastoria
                        Kastraki
                        Kastri
                        Kastro
                        Katakali
                        Katakolo
                        Katalagari
                        Katapola
                        Katarraktis
                        Katastari
                        Katelios
                        Katerini
                        Kato Achaia
                        Kato Alissos
                        Kato Asites
                        Kato Daratsos
                        Kato Galatas
                        Kato Gouves
                        Kato Korakiana
                        Kato Nevrokopi
                        Kato Pavliana
                        Kato Stalos
                        Kato Symi
                        Kato Tripodo
                        Kato Zakros
                        Katouna
                        Katsarou
                        Katsikia
                        Kattavia
                        Kavala
                        Kavos
                        Kavros
                        Kazaviti
                        Kea
                        Kedro-Strand
                        Kefalari
                        Kefalas
                        Kefalonia
                        Kefalos
                        Kerames
                        Keramoti
                        Kerasia
                        Keratokambos
                        Keri
                        Kerkini
                        Kerveli
                        Kifissia
                        Kilada
                        Kilkis
                        Kinetta
                        Kinyra (Kinira)
                        Kionia
                        Kiotari
                        Kiparissia
                        Kipoi
                        Kipos
                        Kira Panaghia
                        Kissamos
                        Kithira
                        Klima
                        Kokkari
                        Kokkini Hani
                        Kokkinos Pirgos
                        Kokkoni
                        Kolios
                        Kolymbari (Kolumbari)
                        Kolymbia
                        Kombi
                        Komeno
                        Komotini
                        Kondili
                        Konitsa
                        Kontias
                        Kontokali
                        Kontomari
                        Korfos
                        Korfos Bay
                        Korinos
                        Korinth
                        Koroni
                        Koropi
                        Kos
                        Kos Town
                        Koskinou
                        Kotronas
                        Koufonisi
                        Koukla
                        Koukounaries
                        Kouloura
                        Koumeika
                        Koundouros
                        Kounopetra
                        Kountourata
                        Kournas
                        Koutouloufari
                        Koutsounari
                        Koutsouras
                        Kozani
                        Kremasti
                        Kréstena
                        Kreta
                        Kriopigi
                        Krios-Beach
                        Kroussonas
                        Kyllini
                        Kymi
                        Kyparissia
                        Kypseli
                        Kythira
                        Labini
                        Lachania
                        Ladiko
                        Laganas
                        Lagonissi
                        Lagopodo
                        Lakithra
                        Lakka
                        Lakki
                        Lakones
                        Lakopetra
                        Lambi
                        Langadia
                        Langouvardos
                        Lardos
                        Larisa
                        Lassi
                        Lefkada
                        Lefkes
                        Lefkimmi
                        Lefkos
                        Lefktro
                        Lefokastro
                        Lentas
                        Leptokaria
                        Lesbos
                        Liapades
                        Ligia
                        Lilikas
                        Limenaria
                        Limeni
                        Limni Keriou
                        Limnionas
                        Limnos
                        Lindos
                        Lipsi
                        Listaros
                        Lithakia
                        Lithí
                        Lithochoro
                        Livadakia
                        Livadi
                        Livadia
                        Lixouri
                        Logaras
                        Logga  Charani
                        Loggos
                        Lothiarika
                        Lourdata
                        Loutra
                        Loutra Kaiafa
                        Loutra Killinis
                        Loutraki
                        Loutsa
                        Lychnos
                        Lygaria
                        Magnisia
                        Makrakomi
                        Makri Gialos
                        Makrigialos
                        Makrinitsa
                        Malaxa
                        Maleme
                        Malia
                        Mandraki
                        Marathia
                        Marathias
                        Marathokefala
                        Marathon
                        Marathopolis
                        Marathoupoli
                        Margariiti
                        Marmari
                        Maronia
                        Maroulas
                        Masouri
                        Mastichari
                        Matala
                        Mati
                        Mavrikiano
                        Mavros Kolimbos
                        Mavrovouni  Gythion
                        Megala Chorafia
                        Megali Ammos
                        Megali Mantinia
                        Megali-Ammos-Strand
                        Megalo Chorio
                        Megalochori
                        Megalos Prinos
                        Meganisi
                        Megas Gialos
                        Megas limionas
                        Melidoni
                        Mesogi
                        Messaria
                        Messini
                        Messinia
                        Messokambos
                        Messolongi
                        Messonghi
                        Messotopos
                        Mesta
                        Metamorfosis
                        Methoni
                        Metochi
                        Metsovo
                        Mikra Mantinia
                        Mikri Vigla
                        Milatos
                        Milia
                        Milina
                        Milos
                        Milos Stadt
                        Minies
                        Mirsini
                        Mithymna
                        Mixorouma
                        Mohlos
                        Molos
                        Monastiri
                        Monemvasia
                        Monodendri
                        Monolithos
                        Monolithos-Beach
                        Monopari
                        Moraitika
                        Mouresi
                        Mourne
                        Mousata
                        Mykali
                        Mykonos
                        Mykonos Town
                        Mylopotas
                        Myrina
                        Myrtia
                        Myrties
                        Myrtos
                        Myrtos Bay
                        Mystras
                        Mytikas
                        Mytilíni
                        Nafpaktos
                        Nafplion
                        Naoussa
                        Naoussa (Imathia)
                        Nauplia
                        Naxos City
                        Nea Fokea
                        Nea Iraklia
                        Nea Iraklitsa
                        Nea Makri
                        Nea Moudania
                        Nea Potidea
                        Nea Styra
                        Neápoli
                        Neo Chorio
                        Neo Itilo
                        Neo Klima
                        Neo Pori
                        Neochori
                        Neorio
                        Neos Marmaras
                        Nevropoli
                        New Golden Beach
                        Nidri
                        Niforeika-Beach
                        Nikiana
                        Nissaki
                        Nochia
                        Oia
                        Oia-Finikia
                        Olympia
                        Olympiada
                        Olympiaki Akti
                        Oreokastro
                        Orestiada
                        Ormos
                        Ormos Emporios
                        Ormos Limnionas
                        Ormos Panaghias
                        Ormos Panagias
                        Ornos
                        Ouranoupolis
                        Pachis
                        Pahena
                        Palekastro
                        Paleloni/Vamos
                        Paleochora
                        Paleochori Beach
                        Paleokastritsa
                        Paleopolis
                        Paleros
                        Pali
                        Paliouri
                        Pano Chersonissos
                        Panormo
                        Panormos
                        Papa Nero-Beach
                        Papadianika
                        Papingo
                        Paradise Beach
                        Paralia
                        Paralio Astros
                        Paramonas
                        Paranga Beach
                        Parasporos
                        Parga
                        Parikia
                        Paros
                        Parthenonas
                        Pastida
                        Patitiri
                        Patmos
                        Patras
                        Paxos
                        Pedi Beach
                        Pefkari
                        Pefki
                        Pefkohori
                        Pelekas
                        Pella
                        Perama
                        Perdika
                        Perea
                        Perigiali
                        Perissa
                        Perivoli
                        Perivolos
                        Peroulades
                        Peroulia
                        Petalidi
                        Petra
                        Petriti
                        Petrochori
                        Petrokefalo
                        Philippou
                        Pigadakia
                        Pigadia
                        Pigi
                        Pigianos Kambos
                        Pilion
                        Piraeus
                        Pirgadikia
                        Pirgi Thermis
                        Pirgos Psilonerou
                        Piskopiano
                        Piso Livadi
                        Plagiari
                        Plaka
                        Plaka Beach
                        Plaka Litochoro
                        Plakias
                        Planos
                        Plastira-Stausee
                        Platamonas
                        Platania
                        Plataniás (Chania)
                        Plataniás (Rethymnon)
                        Platanias-Beach
                        Platanidia
                        Plataria
                        Plati
                        Plati Yialos
                        Platy
                        Platys Gialos Beach
                        Platys Gyalos
                        Plomari
                        Polemarchi Voukolies
                        Polichrono
                        Polineri Grevena Vasilitsa
                        Pollonia
                        Polygyros
                        Poros
                        Poros Town
                        Portaria
                        Porto Heli
                        Porto Koufo
                        Poseidonia
                        Possidi
                        Possidonion
                        Potami
                        Potistika
                        Potokaki
                        Potos
                        Pounta
                        Pounta Area
                        Prasonisi
                        Preveza
                        Prines
                        Prinos
                        Profitis Ilias
                        Provarma
                        Provatas Beach
                        Psakoudia
                        Psalidi
                        Psari Forada
                        Psarou
                        Psathi
                        Psili Ammos
                        Pyrgaki
                        Pyrgi
                        Pyrgos
                        Pythagorion
                        Rafína
                        Rapaniana
                        Rethymnon
                        Rhodes
                        Rhodes Town
                        Riglia
                        Riza
                        Roda
                        Rodakino
                        Roussospiti
                        Rovies
                        Salakos
                        Sambatiki
                        Sami
                        Samonás
                        Samos
                        Samos Town
                        San George
                        Santorin
                        Sarchos
                        Sarlata
                        Sarti
                        Scaleta
                        Selianitika
                        Serres
                        Sfaka
                        Sfakaki
                        Sfakiotes
                        Sgombou
                        Sgourokefali
                        Sidari
                        Sidirohori
                        Sifnos
                        Sinarades
                        Sintiki
                        Sissi
                        Sithonia
                        Sitia
                        Sivas
                        Siviri
                        Sivota
                        Skafidia
                        Skala
                        Skala Eressou
                        Skala Kallonis
                        Skala Panagia
                        Skala Potamias
                        Skala Prinos
                        Skala Rachoni
                        Skala Raxoni
                        Skala Sotiros
                        Skala Sykaminias
                        Skaleta
                        Skiathos
                        Skiathos City
                        Skidi
                        Skopelos
                        Skopelos Town
                        Skotina
                        Skoutari
                        Skroponeri
                        Skyros
                        Sokraki
                        Souda
                        Sougia
                        Spanochori
                        Sparta
                        Spartia
                        Spartilas
                        Spetses Town
                        Spilia
                        St. Giorgios
                        Stafilos Beach
                        Stalis
                        Stalos
                        Stavri
                        Stavromenos
                        Stavros
                        Stegna
                        Stelida
                        Steni Vala
                        Stoupa
                        Svoronata
                        Syros
                        Syvota
                        Syvros
                        Tavari
                        Tavronitis
                        Taxiarchis
                        Telendos
                        Temploni
                        Tersanas
                        Thassos Town
                        Theologos
                        Therma
                        Thermisia
                        Thessaloniki
                        Thira (Fira)
                        Tholaria
                        Tigaki
                        Tilissos
                        Tinos
                        Tolo
                        Tolofona
                        Toriza
                        Toroni
                        Tourlos
                        Tragaki
                        Trapezaki
                        Trianta (Ialysos)
                        Trikala
                        Triopetra
                        Tripoli
                        Trizinia
                        Troulos
                        Trypiti
                        Tsangarada
                        Tsapi
                        Tsilivi
                        Tsivaras
                        Tsoukalades
                        Tsoutsouros
                        Tylissos
                        Tzamarelata
                        Tzaneriá
                        Vafios
                        Vafkeri
                        Vagia
                        Valtessiniko
                        Valtos-Strand
                        Vamos
                        Vari
                        Varia
                        Varkiza
                        Vartholomio
                        Vasilitsi
                        Vassilatika
                        Vassilias
                        Vassiliki
                        Vassilikos
                        Vatera
                        Vathy
                        Vatodedi
                        Vatos
                        Vatsa
                        Vergina
                        Veria
                        Veroia
                        Vessa
                        Vigla
                        Visitsa
                        Vitalades
                        Vítsa
                        Vivari
                        Vlacheronitissa
                        Vlahiana
                        Vlychada
                        Volada
                        Volakas
                        Volimes
                        Volissos
                        Volos
                        Votsalakia-Kambos
                        Votsi
                        Voula
                        Vouliagmeni
                        Vounari
                        Vouno
                        Vourvourou
                        Vrachati
                        Vrachos
                        Vrahassi Lassithi
                        Vrastama
                        Vravrona
                        Vrissi
                        Vromolithos
                        Vrontados
                        Vytina
                        Xanthi
                        Xerokambos
                        Xeropigado
                        Xi Katogis
                        Xirokambi
                        Xylokastro
                        Yaliscari
                        Yennadio
                        Ypsos
                        Zacharo
                        Zagora
                        Zagori-Berge
                        Zakynthos
                        Zaros
                        Xem thêm
                        Thu gọn
    Tiện ích khách sạn Greece
            Tất cả
                            Phòng gia đình
                            Bãi đậu xe ô tô tại khách sạn
                            Thang máy
                            Hồ bơi
                            Phòng tập thể (dorm)
                            Kid Club
                                Đặt phòng theo đoàn?
                                iVIVU đảm bảo sẽ tìm kiếm deal tốt nhất cho bạn!
                        Đặt ngay 
                    ×
                    ĐẶT PHÒNG ĐOÀN
                        Khi đặt phòng theo đoàn với iVIVU.com, bạn sẽ có được khách sạn phù hợp nhất với giá tốt nhất mà không phải tốn thời gian tìm kiếm.
                                 Yêu cầu
                                         Điện thoại 
                                             Email
                                        *
                                 Vui lòng nhập địa điểm.
                                 Chưa nhập địa chỉ email hoặc địa chỉ email chưa đúng
                                 Vui lòng nhập số điện thoại.
                        • iVIVU.com cam kết đảm bảo an toàn thông tin của quý khách hàng. 
                        • Quý khách hàng có thể yêu cầu ngưng dịch vụ tìm kiếm deal tốt nhất bất cứ lúc nào.
                        Đặt phòng đoàn
                         Khách sạn Greece theo hạng sao
                            Khách sạn 1 sao tại Greece
                            Khách sạn 2 sao tại Greece
                            Khách sạn 3 sao tại Greece
                            Khách sạn 4 sao tại Greece
                            Khách sạn 5 sao tại Greece
                             Khách sạn Greece tại các địa điểm phổ biến
                         Khách sạn tại các địa điểm du lịch nổi tiếng khác
                            Khách sạn Andorra
                            Khách sạn Albania
                            Khách sạn Austria
                            Khách sạn Bosnia and Herzigovina
                            Khách sạn Belgium
                            Khách sạn Bulgaria
                            Khách sạn Belarus
                            Khách sạn Switzerland
                            Khách sạn Cyprus
                            Khách sạn Czech Republic
                            Khách sạn Germany
                            Khách sạn Denmark
                            Khách sạn Estland
                            Khách sạn Spain
                            Khách sạn Finland
                            Khách sạn Faeroe Islands
                            Khách sạn France
                            Khách sạn United Kingdom
                            Khách sạn Georgia
                            Khách sạn Gibralter
                            Khách sạn Greenland
                            Khách sạn Croatia
                            Khách sạn Hungary
                            Khách sạn Eire / Ireland
                            Khách sạn Iceland
                            Khách sạn Italy
                            Khách sạn Liechtenstein
                            Khách sạn Lithuania
                            Khách sạn Luxembourg
                            Khách sạn Latvia
                            Khách sạn Monaco
                            Khách sạn Moldova
                            Khách sạn Montenegro
                            Khách sạn Macedonia (FYROM)
                            Khách sạn Northern Mariana Islands
                            Khách sạn Malta
                            Khách sạn Netherlands
                            Khách sạn Norway
                            Khách sạn Poland
                            Khách sạn Portugal
                            Khách sạn Romania
                            Khách sạn Serbia
                            Khách sạn Russian Federation
                            Khách sạn Sweden
                            Khách sạn Slovenia
                            Khách sạn Slovakia
                            Khách sạn San Marino
                            Khách sạn Turkey
                            Khách sạn Ukraine
                    ×
                    Cập nhật giá khách sạn
                                                Ngày nhận
                                            Số đêm
                                                    12345678910111213141516171819202122232425262728293030+
                                                Ngày trả
                                            Số phòng
                                            Người lớn
                        Cập nhật lại giá khách sạn
                        Về iVIVU.comChúng tôiiVIVU BlogPMS - Miễn phí
                        Thông Tin Cần BiếtĐiều kiện & Điều khoảnQuy chế hoạt độngCâu hỏi thường gặp
                        Đối Tác & Liên kết
                                    Vietnam
                                    Airlines
                            VNExpressTiki.vn - Mua sắm online
                        Được chứng nhận
                                iVIVU.com là một thành viên của Thiên Minh Groups
                                Bạn cần trợ giúp? Hãy gọi ngay
                                        CSKH: 1900 1870
                                        Khác:   (08) 3930 8290
                                         Từ 7h30 - 21h hằng ngày
                                    iVIVU.com © 2016 - 
                                        Hệ thống đặt phòng khách sạn trực tuyến hàng
                                        đầu Việt Nam
                                        DKKD: 0312788481, Ngày cấp: 21/05/2014, Sở kế hoạch đầu tư thành phố Hồ Chí Minh
                                        HCM: Lầu 7, Tòa nhà Anh Đăng, 215 Nam Kỳ Khởi Nghĩa, Phường 7, Quận 3, Tp. Hồ Chí Minh
                                        (Xem bản đồ)
                                        HN: Lầu 9, 70-72 Bà Triệu, Quận Hoàn Kiếm, Hà Nội
                                        (Xem bản đồ)
                                        Like để cập nhật cẩm nang du lịch
                                            tc@ivivu.com
    Xin Quý khách đợi trong giây lát
        Vui lòng để lại thông tin yêu cầu đặt phòng khách sạn của Quý khách.
                Giá chỉ mang tính chất tham khảo và không áp dụng vào các ngày lễ tết. Chúng tôi sẽ liên hệ lại trong 24h.
            Họ & Tên: 
            Số điện thoại: 
            Email: 
            Vùng/thành phố yêu cầu:
            Tên khách sạn:
                Ngày nhận phòng:
                Ngày trả phòng:
            Yêu cầu khác:
        Gửi yêu cầu
           ×
                Bản đồ
