url:https://www.ivivu.com/khach-san-london-united-kingdom/the-green-man
Tittle :The Green Man
content :1900 1870từ 7h30-21h hàng ngày
                        Khách sạn
                        Tours
                        Ưu đãi đặc biệt
                        Cẩm nang du lịch
                    Giới thiệuHỏi đápHỗ trợ
                    >
                ×
                Thông tin đăng nhập
                        Tên đăng nhập:
                        Mật khẩu:
                Đăng nhập
                        Tìm nhanh khách sạn
                        Ngày nhận phòng
                        Số đêm
                                12345678910111213141516171819202122232425262728293030+
                        Ngày trả phòng
                         
                        Trang chủ
                        United Kingdom
                        London
                    The Green Man
            The Green Man
                        Giá chỉ từ
                            1.525.816 VND
                Đặt phòng này
                Dagmar Avenue, United Kingdom
                //media.expedia.com/hotels/3000000/2250000/2245400/2245344/2245344_2_b.jpg
            Giá phòng tại The Green Man
                            Ngày nhận phòng: 20-11-2016 - 21-11-2016
                            |1 đêm
                            |0 phòng
                            |0 người lớn
                            |0 trẻ em
                                    Thay đổi tìm kiếm
                        Rất tiếc chúng tôi không còn phòng trong thời gian này. Bạn vui lòng chọn thời gian khác.
                                            Ngày nhận phòng
                                            Ngày trả phòng
                                            Số đêm
                                        Số phòng
                                        Người lớn
                                        Trẻ em
                                        Cập nhật
    Đang lấy thông tin giá
    Giá phòng đã bao gồm: 10% thuế GTGT, 5% phí dịch vụ
    Loại phòngTối đaGiá phòng/đêmSố phòngĐặt phòng
        Tiện ích của The Green Man
    American Express
    Số tầng - 
    Quầy bar/Sảnh chờ
    Giờ trả phòng là
    Không được phép mang vật nuôi
    Dịch vụ cưới
    Khách sạn không khói thuốc
    Wifi miễn phí
    Tổng số phòng - 
    Bàn ủi/Dụng cụ ủi quần áo
    Giờ nhận phòng kết thúc lúc
    Bãi xe tự phục vụ miễn phí
    Lò nướng BBQ
    Bàn
    MasterCard
    Giờ nhận phòng là
    Điện thoại
    Dịch vụ truyền hình kỹ thuật số
    Phòng tắm riêng
    Số lượng tòa nhà/tháp - 
    Dụng cụ pha cà phê/trà
    Visa
    Đưa đón sân bay - đón khách (phụ phí)
    Khu dã ngoại
                Xem tất cả
        Thông tin The Green Man
        Vị trí khách sạn Với những ngày lưu trú tại The Green Man, Wembley, quý vị sẽ ở cách Đấu trường Wembley và Sân vận động Wembley chỉ ít phút. Khách sạn này ở khá gần phạm vi của Đền Hindu Swaminarayan và Công viên Northwick.Phòng Hãy nghỉ ngơi thoải mái như đang ở nhà mình tại một trong 9 phòng. Truy cập Internet không dây miễn phí giúp quý vị luôn giữ liên lạc; trong khi các chương trình truyền hình kỹ thuật số sẽ mang đến những phút giây giải trí thoải mái. Tiện nghi phòng bao gồm điện thoại, cùng bàn và dụng cụ pha cà phê/trà.Giải trí, Spa, Dịch vụ cao cấp Hãy tận hưởng những dịch vụ, tiện ích như dịch vụ cưới, khu dã ngoại và khu lò nướng BBQ.Khu ẩm thực Hãy giải khát với món đồ uống ưa thích của mình tại quầy bar/khu lounge.Phục vụ nhu cầu công việc và các tiện nghi khác Với khoản phụ phí nhỏ, khách có thể sử dụng xe đón khách từ sân bay đến khách sạn (có sẵn 24 giờ); ngoài ra còn có bãi đậu xe tự phục vụ miễn phí trong khuôn viên.
        Chính sách của The Green Man
            Thời gian nhận phòng
            12:00
            Thời gian trả phòng 
            11:00
    Liên hệ Hotline1900 1870hoặc
        gửi yêu cầu
                                    Mở rộng bản đồ
                    Danh lam & Thắng cảnh
                            Đấu trường Wembley - 0.5 km 
                            Sân vận động Wembley - 0.7 km 
                            Công viên Northwick - 3 km 
                            Trung tâm mua sắm Brent Cross - 5.2 km 
                            Ealing Studios - 5.4 km 
                            Khuôn viên Đại học Middlesex Hendon - 5.6 km 
                            Bảo tàng RAF London - 5.7 km 
                            Đại học West London - 5.7 km 
                            Sân golf Brent Valley - 5.8 km 
                            Nghĩa trang chung của tất cả những linh hồn - 6 km 
                Khu vực
                Sân bay thuận lợi nhất để đến The Green Man là Sân bay London (LHR-Sân bay Heathrow) - 14,7 km / 9,1 mi. Khoảng cách được tính theo đường thẳng từ địa điểm của khách sạn đến điểm tham quan hoặc sân bay và có thể không phản ánh đường đi thực tế.  Khoảng cách được hiển thị đến 0,1 km và dặm gần nhất. 
            Khách sạn tương tự
                                        Holiday Inn Express London City
                                        Pembridge Palace
                                        Ibis Earls Court
                        Về iVIVU.comChúng tôiiVIVU BlogPMS - Miễn phí
                        Thông Tin Cần BiếtĐiều kiện & Điều khoảnQuy chế hoạt độngCâu hỏi thường gặp
                        Đối Tác & Liên kết
                                    Vietnam
                                    Airlines
                            VNExpressTiki.vn - Mua sắm online
                        Được chứng nhận
                                iVIVU.com là một thành viên của Thiên Minh Groups
                                Bạn cần trợ giúp? Hãy gọi ngay
                                        CSKH: 1900 1870
                                        Khác:   (08) 3930 8290
                                         Từ 7h30 - 21h hằng ngày
                                    iVIVU.com © 2016 - 
                                        Hệ thống đặt phòng khách sạn trực tuyến hàng
                                        đầu Việt Nam
                                        DKKD: 0312788481, Ngày cấp: 21/05/2014, Sở kế hoạch đầu tư thành phố Hồ Chí Minh
                                        HCM: Lầu 7, Tòa nhà Anh Đăng, 215 Nam Kỳ Khởi Nghĩa, Phường 7, Quận 3, Tp. Hồ Chí Minh
                                        (Xem bản đồ)
                                        HN: Lầu 9, 70-72 Bà Triệu, Quận Hoàn Kiếm, Hà Nội
                                        (Xem bản đồ)
                                        Like để cập nhật cẩm nang du lịch
                                            tc@ivivu.com
    Xin Quý khách đợi trong giây lát
        Vui lòng để lại thông tin yêu cầu đặt phòng khách sạn của Quý khách.
                Giá chỉ mang tính chất tham khảo và không áp dụng vào các ngày lễ tết. Chúng tôi sẽ liên hệ lại trong 24h.
            Họ & Tên: 
            Số điện thoại: 
            Email: 
            Vùng/thành phố yêu cầu:
            Tên khách sạn:
                Ngày nhận phòng:
                Ngày trả phòng:
            Yêu cầu khác:
        Gửi yêu cầu
           ×
                Bản đồ
                LondonThe Green Man
