url:https://www.ivivu.com/khach-san-nepal
Tittle :Khách sạn Nepal  giá rẻ từ
content :1900 1870từ 7h30-21h hàng ngày
                        Khách sạn
                        Tours
                        Ưu đãi đặc biệt
                        Cẩm nang du lịch
                    Giới thiệuHỏi đápHỗ trợ
                    >
                ×
                Thông tin đăng nhập
                        Tên đăng nhập:
                        Mật khẩu:
                Đăng nhập
                        Tìm nhanh khách sạn
                        Ngày nhận phòng
                        Số đêm
                                12345678910111213141516171819202122232425262728293030+
                        Ngày trả phòng
                         
                        Trang chủ
                        Nepal
                Khách sạn Nepal 
                Nepal
                 XEM BẢN ĐỒ
                Cập nhật giá
                Sắp xếp theo: 
                                    iVIVU đề xuất
                                    Đề xuất
                                    Giá phòng
                                     Giá
                                    Hạng sao
                                         Sao
                        iVIVU đề xuấtGiá phòng - Tăng dần ▲Giá phòng - Giảm dần ▼Hạng sao - Tăng dần ▲Hạng sao - Giảm dần ▼
                    Kantipur Temple House
                 Chusyabahal ( Jyatha Tol ), Nepal
                                Bản đồ
                    Ở Thamel Thành phố Kathmandu
                    1.648.595 VND
                Chi tiết
                    Tibet
                 Boudha, Nepal
                                Bản đồ
                    Gần Tháp Boudhanath
                    3.019.800 VND
                Chi tiết
                    Crowne Plaza Kathmandu Soaltee
                 Tahachal Po Box 97, Nepal
                                Bản đồ
                    Gần Quảng trường Kathmandu Durbar
                    3.235.500 VND
                Chi tiết
                    Hyatt Regency Kathmandu
                 Taragaon Boudha, Nepal
                                Bản đồ
                    Gần Tháp Boudhanath
                    3.559.050 VND
                Chi tiết
                    Dwarika's
                 P.O. Box 459BattisputaliKathmandu, Nepal
                                Bản đồ
                    Gần Đền Pashupatinath
                    6.150.196 VND
                Chi tiết
                    Fulbari Resort & Spa
                 Chhinne Danda Kaski Pokhara 15, Nepal
                                Bản đồ
                    Gần Bảo tàng Núi Quốc tế Pokhara
                        Liên hệ
                        1900 1870
                         giá rẻ bất ngờ
                Chi tiết
                    Guest House Kathmandu
                 P.O. Box 21218ThamelKathmandu, Nepal
                                Bản đồ
                    Ở Thamel Thành phố Kathmandu
                        Liên hệ
                        1900 1870
                         giá rẻ bất ngờ
                Chi tiết
                    Park Village Resort
                 PO Box 21218, Nepal
                                Bản đồ
                    Ở Burhanilkantha Thành phố Kathmandu
                        Liên hệ
                        1900 1870
                         giá rẻ bất ngờ
                Chi tiết
                    Shanker
                 Lazimpat, Nepal
                                Bản đồ
                    Ở Thamel Thành phố Kathmandu
                        Liên hệ
                        1900 1870
                         giá rẻ bất ngờ
                Chi tiết
                    Club Himalaya
                 Windy Hills, Nepal
                                Bản đồ
                    Gần Mahadev Pokhari
                        Liên hệ
                        1900 1870
                         giá rẻ bất ngờ
                Chi tiết
                    Trek O'Tel
                 Lakeside, Nepal
                                Bản đồ
                    Gần Đền Barahi
                        Liên hệ
                        1900 1870
                         giá rẻ bất ngờ
                Chi tiết
                    Barahi
                 LakesidePokhara-6, Nepal
                                Bản đồ
                    Gần Đền Barahi
                        Liên hệ
                        1900 1870
                         giá rẻ bất ngờ
                Chi tiết
                    Norbu Linka
                 29 Ward Thamel, Nepal
                                Bản đồ
                    Ở Thamel Thành phố Kathmandu
                        Liên hệ
                        1900 1870
                         giá rẻ bất ngờ
                Chi tiết
                    Moonlight
                 PaknajoleThamelGPO 6667Kathmandu, Nepal
                                Bản đồ
                    Ở Thamel Thành phố Kathmandu
                        Liên hệ
                        1900 1870
                         giá rẻ bất ngờ
                Chi tiết
                    Himalaya
                 Sahid Sukra MargP.O.Box 2141LalitpurKathmandu, Nepal
                                Bản đồ
                    Gần Đền Banglamukhi
                        Liên hệ
                        1900 1870
                         giá rẻ bất ngờ
                Chi tiết
    123
    40 khách sạn Nepal
                    Cần tư vấn ? 
                    Gọi ngay
                    1900 1870
                 BỘ LỌC TÌM KIẾM
    Tìm khách sạn Nepal
          Xếp hạng khách sạn Nepal
            Tất cả
      Mức giá khách sạn Nepal
        Tất cảDưới 500.000500.000 đến 1.000.0001.000.000 đến 2.000.0002.000.000 đến 5.000.000Trên 5.000.000
            Địa điểm khách sạn Nepal
                        Tất cả
                        Bhaktapur
                        Chitwan Nationalpark
                        Dhulikhel
                        Kathmandu
                        Khawa
                        Lalitpur
                        Lumbini
                        Pokhara
                        Thamal
                        Xem thêm
                        Thu gọn
    Tiện ích khách sạn Nepal
            Tất cả
                            Phòng gia đình
                            Bãi đậu xe ô tô tại khách sạn
                            Thang máy
                            Hồ bơi
                            Phòng tập thể (dorm)
                            Kid Club
                                Đặt phòng theo đoàn?
                                iVIVU đảm bảo sẽ tìm kiếm deal tốt nhất cho bạn!
                        Đặt ngay 
                    ×
                    ĐẶT PHÒNG ĐOÀN
                        Khi đặt phòng theo đoàn với iVIVU.com, bạn sẽ có được khách sạn phù hợp nhất với giá tốt nhất mà không phải tốn thời gian tìm kiếm.
                                 Yêu cầu
                                         Điện thoại 
                                             Email
                                        *
                                 Vui lòng nhập địa điểm.
                                 Chưa nhập địa chỉ email hoặc địa chỉ email chưa đúng
                                 Vui lòng nhập số điện thoại.
                        • iVIVU.com cam kết đảm bảo an toàn thông tin của quý khách hàng. 
                        • Quý khách hàng có thể yêu cầu ngưng dịch vụ tìm kiếm deal tốt nhất bất cứ lúc nào.
                        Đặt phòng đoàn
                         Khách sạn Nepal theo hạng sao
                            Khách sạn 1 sao tại Nepal
                            Khách sạn 2 sao tại Nepal
                            Khách sạn 3 sao tại Nepal
                            Khách sạn 4 sao tại Nepal
                            Khách sạn 5 sao tại Nepal
                             Khách sạn Nepal tại các địa điểm phổ biến
                         Khách sạn tại các địa điểm du lịch nổi tiếng khác
                            Khách sạn Việt Nam
                            Khách sạn United Arab Emirates
                            Khách sạn Afghanistan
                            Khách sạn Armenia
                            Khách sạn Aserbaidshan
                            Khách sạn Bangladesh
                            Khách sạn Bahrain
                            Khách sạn Brunei Darussalam
                            Khách sạn Bhutan
                            Khách sạn China
                            Khách sạn Hongkong
                            Khách sạn Indonesia
                            Khách sạn Israel
                            Khách sạn India
                            Khách sạn Iraq
                            Khách sạn Iran
                            Khách sạn Jordan
                            Khách sạn Japan
                            Khách sạn Kyrgystan
                            Khách sạn Cambodia
                            Khách sạn Korea, Republic of
                            Khách sạn Kuwait
                            Khách sạn Kazakstan
                            Khách sạn Lao People's Democratic Republic
                            Khách sạn Lebanon
                            Khách sạn Sri Lanka
                            Khách sạn Myanmar
                            Khách sạn Mongolia
                            Khách sạn Macau
                            Khách sạn Maldives
                            Khách sạn Malaysia
                            Khách sạn Oman
                            Khách sạn Philippines
                            Khách sạn Pakistan
                            Khách sạn Qatar
                            Khách sạn Saudi Arabia
                            Khách sạn Singapore
                            Khách sạn Syrian Arab Republic
                            Khách sạn Thailand
                            Khách sạn Tajikistan
                            Khách sạn East Timor
                            Khách sạn Turkmenistan
                            Khách sạn Taiwan, Province of China
                            Khách sạn Uzbekistan
                            Khách sạn Yemen
                            Khách sạn Campuchia
                    ×
                    Cập nhật giá khách sạn
                                                Ngày nhận
                                            Số đêm
                                                    12345678910111213141516171819202122232425262728293030+
                                                Ngày trả
                                            Số phòng
                                            Người lớn
                        Cập nhật lại giá khách sạn
                        Về iVIVU.comChúng tôiiVIVU BlogPMS - Miễn phí
                        Thông Tin Cần BiếtĐiều kiện & Điều khoảnQuy chế hoạt độngCâu hỏi thường gặp
                        Đối Tác & Liên kết
                                    Vietnam
                                    Airlines
                            VNExpressTiki.vn - Mua sắm online
                        Được chứng nhận
                                iVIVU.com là một thành viên của Thiên Minh Groups
                                Bạn cần trợ giúp? Hãy gọi ngay
                                        CSKH: 1900 1870
                                        Khác:   (08) 3930 8290
                                         Từ 7h30 - 21h hằng ngày
                                    iVIVU.com © 2016 - 
                                        Hệ thống đặt phòng khách sạn trực tuyến hàng
                                        đầu Việt Nam
                                        DKKD: 0312788481, Ngày cấp: 21/05/2014, Sở kế hoạch đầu tư thành phố Hồ Chí Minh
                                        HCM: Lầu 7, Tòa nhà Anh Đăng, 215 Nam Kỳ Khởi Nghĩa, Phường 7, Quận 3, Tp. Hồ Chí Minh
                                        (Xem bản đồ)
                                        HN: Lầu 9, 70-72 Bà Triệu, Quận Hoàn Kiếm, Hà Nội
                                        (Xem bản đồ)
                                        Like để cập nhật cẩm nang du lịch
                                            tc@ivivu.com
    Xin Quý khách đợi trong giây lát
        Vui lòng để lại thông tin yêu cầu đặt phòng khách sạn của Quý khách.
                Giá chỉ mang tính chất tham khảo và không áp dụng vào các ngày lễ tết. Chúng tôi sẽ liên hệ lại trong 24h.
            Họ & Tên: 
            Số điện thoại: 
            Email: 
            Vùng/thành phố yêu cầu:
            Tên khách sạn:
                Ngày nhận phòng:
                Ngày trả phòng:
            Yêu cầu khác:
        Gửi yêu cầu
           ×
                Bản đồ
