url:https://www.ivivu.com/khach-san-phuket?p=2
Tittle :Khách sạn Phuket  giá rẻ từ 271.109 VND
content :1900 1870từ 7h30-21h hàng ngày
                        Khách sạn
                        Tours
                        Ưu đãi đặc biệt
                        Cẩm nang du lịch
                    Giới thiệuHỏi đápHỗ trợ
                    >
                ×
                Thông tin đăng nhập
                        Tên đăng nhập:
                        Mật khẩu:
                Đăng nhập
                        Tìm nhanh khách sạn
                        Ngày nhận phòng
                        Số đêm
                                12345678910111213141516171819202122232425262728293030+
                        Ngày trả phòng
                         
                        Trang chủ
                        Thailand
                        Phuket
                Khách sạn Phuket 
                Phuket
                 XEM BẢN ĐỒ
                Cập nhật giá
                Sắp xếp theo: 
                                    iVIVU đề xuất
                                    Đề xuất
                                    Giá phòng
                                     Giá
                                    Hạng sao
                                         Sao
                        iVIVU đề xuấtGiá phòng - Tăng dần ▲Giá phòng - Giảm dần ▼Hạng sao - Tăng dần ▲Hạng sao - Giảm dần ▼
                    RaTaNa Apart-Hotel
                 7/3 Wiset RoadRawaiMuang Phuket 83130, Thailand
                                Bản đồ
                    Gần đền ChalongCó phòng tắm hơiKhu tập gymBãi đậu xe miễn phíWifi miễn phí
                    977.916 VND
                Chi tiết
                    Phuket Merlin
                 158/1 Jawaraj Road, Phuket 83000 Thailand, Thailand
                                Bản đồ
                    Giá tốtGần TTTM RobinsonHồ bơi ngoài trờiCó bồn tắmCó phòng thông nhau
                    1.010.537 VND
                Chi tiết
                    Trees Club Resort
                 59/46 Moo 5 Kamala, Thailand
                                Bản đồ
                    Sân quần vợtPhòng tắm hơiWifi miễn phíBãi đậu xe miễn phíHồ bơi ngoài trời
                    1.116.806 VND
                Chi tiết
                    Aloha Villa
                 145/2 Rat-U-Thit Songroi Pi Road, Tambon Patong, Amphor Kathu, Phuket, Thailand 83150, Thailand
                                Bản đồ
                    Gần phố đêm BanglaBar cạnh hồ bơiHồ bơi ngoài trờiHỗ trợ book tour du lịchĐưa đón sân bay
                    1.239.138 VND
                Chi tiết
                    Orchidacea Resort
                 210 Koktanode Road,, Kata Beach,, Phuket ,Thailand, Thailand
                                Bản đồ
                    Hồ bơi ngoài trờiPhòng tập gymGần biển Kata NoiHồ bơi cho trẻ emView đẹp
                    1.396.811 VND
                Chi tiết
                    The Bliss
                 40 Thaveewong Rd, Thailand
                                Bản đồ
                    Gần biển PatongGần TTTM JungceylonWifi miễn phíHồ bơi ngoài trờiDọn phòng mỗi ngày
                    1.593.777 VND
                Chi tiết
                    Swissotel Resort Phuket
                 100/10 Moo 3, Kamala Beach, Kathu, Phuket, 83150 Thailand, Thailand
                                Bản đồ
                    Gần biển KamalaPhòng có ban công riêngHồ bơi ngoài trờiPhòng tập gymSpa đầy đủ liệu pháp
                    1.697.822 VND
                Chi tiết
                    Phuket Airport
                 90/9 Moo 1 Saku, Thalang, Phuket, Thailand , Thailand
                                Bản đồ
                    Hồ bơi ngoài trờiPhòng có két sắtGần công viên nước Splash JungleWifi miễn phíĐưa đón sân bay miễn phí
                    1.745.766 VND
                Chi tiết
                    Patong Heritage Hotel
                 205/16 Rath U-Thit 200 Pee Road, Thailand
                                Bản đồ
                    Wifi miễn phíGần phố đêm BanglaBãi đậu xe miễn phíPhòng tập gymHồ bơi ngoài trời
                    1.763.560 VND
                Chi tiết
                    Centara Kata Resort Phuket
                 54 Ked Kwan Road, Karon, Muang, Phuket, 83100,Thailand, Thailand
                                Bản đồ
                    Gần chợ Kata PorpeangHồ bơi ngoài trờiPhòng tắm hơiGiá tốtKhu vui chơi cho trẻ em
                    1.900.473 VND
                Chi tiết
                    The Village Coconut Island
                 51/7 Moo 6, Coconut Island, Koh Kaew, Muang, Phuket 83000, Thailand
                                Bản đồ
                    Hồ bơi riêngBãi biển riêngGần bến tàu Laem HinDịch vụ cướiTiện nghi cao cấp
                    2.254.371 VND
                Chi tiết
                    Novotel Phuket Kamala Beach
                 118/16 Moo 3Tambon KamalaAmphur Kathu83150 Phuket, Thailand
                                Bản đồ
                    Trung tâm hội nghịBãi biển riêngHồ bơi ngoài trờiWifi miễn phíĐưa đón sân bay
                    2.397.709 VND
                Chi tiết
                    At Panta
                 310/51 MOO 1 BAANDONN, THALANG DISTRICT, PHUKET,Thailand, Thailand
                                Bản đồ
                    Hồ bơi ngoài trờiPhòng tắm hơiCó bồn tắm thủy lựcGần đền Wat Pra ThongKhu tổ chức hội nghị
                    2.443.677 VND
                Chi tiết
                    The Westin Siray Bay Resort & Spa
                 21/4 Moo 1 A.Muang, Thailand
                                Bản đồ
                    Phòng hướng biểnBãi đậu xe miễn phíGần đền Koh SireyGần TTTM RobinsonHồ bơi ngoài trời
                    2.798.316 VND
                Chi tiết
                    Marriott's Mai Khao Beach - Phuket
                 234 Mai Khao Thepsasatri RoadTalang83110 Phuket, Thailand
                                Bản đồ
                    Gần biển Mai KhaoDịch vụ cướiHồ bơi ngoài trờiDịch vụ trông trẻCâu lạc bộ thiếu nhi
                    2.829.950 VND
                Chi tiết
    123
    37 khách sạn Phuket
                        Cần đặt phòng? 
                        Gọi ngay
                        Vân Nguyễn
                            19001870
                 BỘ LỌC TÌM KIẾM
    Tìm khách sạn Phuket
          Xếp hạng khách sạn Phuket
            Tất cả
      Mức giá khách sạn Phuket
        Tất cảDưới 500.000500.000 đến 1.000.0001.000.000 đến 2.000.0002.000.000 đến 5.000.000Trên 5.000.000
        Địa điểm khách sạn Phuket
                        Tất cả
                        Gần Bãi biển Kata Noi
                        Gần Bãi biển Laem Singh
                        Gần Bãi biển Mai Khao
                        Gần Bãi biển Patong
                        Gần Bãi biển Surin
                        Gần Bến tàu Laem Hin
                        Gần biển Karon
                        Gần Cầu tàu Chalong
                        Gần Công viên nước Splash Jungle
                        Gần Đền Koh Sirey
                        Gần Đền Wat Pra Thong
                        Gần Phố đêm Bangla
                        Gần Phuket Fantasea
                        Gần Sân golf mini Công viên Dino
                        Gần Sân vận động Boxing Bangla
                        Gần Trung tâm mua sắm Jungcelon
                        Gần Trung tâm mua sắm Jungceylon
                        Gần Trung tâm thương mại Robinson
                        Gần Vườn bướm và thế giới côn trùng Phuket
                        Ở Nai Thon
                        Sa Khu
                        Simon Cabaret Show
                        Tại công viên quốc gia
                        Xem thêm
                        Thu gọn
    Tiện ích khách sạn Phuket
            Tất cả
                            Phòng gia đình
                            Bãi đậu xe ô tô tại khách sạn
                            Thang máy
                            Hồ bơi
                            Phòng tập thể (dorm)
                            Kid Club
                                Đặt phòng theo đoàn?
                                iVIVU đảm bảo sẽ tìm kiếm deal tốt nhất cho bạn!
                        Đặt ngay 
                    ×
                    ĐẶT PHÒNG ĐOÀN
                        Khi đặt phòng theo đoàn với iVIVU.com, bạn sẽ có được khách sạn phù hợp nhất với giá tốt nhất mà không phải tốn thời gian tìm kiếm.
                                 Yêu cầu
                                         Điện thoại 
                                             Email
                                        *
                                 Vui lòng nhập địa điểm.
                                 Chưa nhập địa chỉ email hoặc địa chỉ email chưa đúng
                                 Vui lòng nhập số điện thoại.
                        • iVIVU.com cam kết đảm bảo an toàn thông tin của quý khách hàng. 
                        • Quý khách hàng có thể yêu cầu ngưng dịch vụ tìm kiếm deal tốt nhất bất cứ lúc nào.
                        Đặt phòng đoàn
                         Khách sạn Phuket theo hạng sao
                            Khách sạn 1 sao tại Phuket
                            Khách sạn 2 sao tại Phuket
                            Khách sạn 3 sao tại Phuket
                            Khách sạn 4 sao tại Phuket
                            Khách sạn 5 sao tại Phuket
                         Khách sạn tại các địa điểm du lịch nổi tiếng khác
                            Khách sạn Việt Nam
                            Khách sạn United Arab Emirates
                            Khách sạn Afghanistan
                            Khách sạn Armenia
                            Khách sạn Aserbaidshan
                            Khách sạn Bangladesh
                            Khách sạn Bahrain
                            Khách sạn Brunei Darussalam
                            Khách sạn Bhutan
                            Khách sạn China
                            Khách sạn Hongkong
                            Khách sạn Indonesia
                            Khách sạn Israel
                            Khách sạn India
                            Khách sạn Iraq
                            Khách sạn Iran
                            Khách sạn Jordan
                            Khách sạn Japan
                            Khách sạn Kyrgystan
                            Khách sạn Cambodia
                            Khách sạn Korea, Republic of
                            Khách sạn Kuwait
                            Khách sạn Kazakstan
                            Khách sạn Lao People's Democratic Republic
                            Khách sạn Lebanon
                            Khách sạn Sri Lanka
                            Khách sạn Myanmar
                            Khách sạn Mongolia
                            Khách sạn Macau
                            Khách sạn Maldives
                            Khách sạn Malaysia
                            Khách sạn Nepal
                            Khách sạn Oman
                            Khách sạn Philippines
                            Khách sạn Pakistan
                            Khách sạn Qatar
                            Khách sạn Saudi Arabia
                            Khách sạn Singapore
                            Khách sạn Syrian Arab Republic
                            Khách sạn Thailand
                            Khách sạn Tajikistan
                            Khách sạn East Timor
                            Khách sạn Turkmenistan
                            Khách sạn Taiwan, Province of China
                            Khách sạn Uzbekistan
                            Khách sạn Yemen
                            Khách sạn Campuchia
                    ×
                    Cập nhật giá khách sạn
                                                Ngày nhận
                                            Số đêm
                                                    12345678910111213141516171819202122232425262728293030+
                                                Ngày trả
                                            Số phòng
                                            Người lớn
                        Cập nhật lại giá khách sạn
                        Về iVIVU.comChúng tôiiVIVU BlogPMS - Miễn phí
                        Thông Tin Cần BiếtĐiều kiện & Điều khoảnQuy chế hoạt độngCâu hỏi thường gặp
                        Đối Tác & Liên kết
                                    Vietnam
                                    Airlines
                            VNExpressTiki.vn - Mua sắm online
                        Được chứng nhận
                                iVIVU.com là một thành viên của Thiên Minh Groups
                                Bạn cần trợ giúp? Hãy gọi ngay
                                        CSKH: 1900 1870
                                        Khác:   (08) 3930 8290
                                         Từ 7h30 - 21h hằng ngày
                                    iVIVU.com © 2016 - 
                                        Hệ thống đặt phòng khách sạn trực tuyến hàng
                                        đầu Việt Nam
                                        DKKD: 0312788481, Ngày cấp: 21/05/2014, Sở kế hoạch đầu tư thành phố Hồ Chí Minh
                                        HCM: Lầu 7, Tòa nhà Anh Đăng, 215 Nam Kỳ Khởi Nghĩa, Phường 7, Quận 3, Tp. Hồ Chí Minh
                                        (Xem bản đồ)
                                        HN: Lầu 9, 70-72 Bà Triệu, Quận Hoàn Kiếm, Hà Nội
                                        (Xem bản đồ)
                                        Like để cập nhật cẩm nang du lịch
                                            tc@ivivu.com
    Xin Quý khách đợi trong giây lát
        Vui lòng để lại thông tin yêu cầu đặt phòng khách sạn của Quý khách.
                Giá chỉ mang tính chất tham khảo và không áp dụng vào các ngày lễ tết. Chúng tôi sẽ liên hệ lại trong 24h.
            Họ & Tên: 
            Số điện thoại: 
            Email: 
            Vùng/thành phố yêu cầu:
            Tên khách sạn:
                Ngày nhận phòng:
                Ngày trả phòng:
            Yêu cầu khác:
        Gửi yêu cầu
           ×
                Bản đồ
