url:https://www.ivivu.com/khach-san-viet-nam
Tittle :Khách sạn Việt Nam  giá rẻ từ
content :1900 1870từ 7h30-21h hàng ngày
                        Khách sạn
                        Tours
                        Ưu đãi đặc biệt
                        Cẩm nang du lịch
                    Giới thiệuHỏi đápHỗ trợ
                    >
                ×
                Thông tin đăng nhập
                        Tên đăng nhập:
                        Mật khẩu:
                Đăng nhập
                        Tìm nhanh khách sạn
                        Ngày nhận phòng
                        Số đêm
                                12345678910111213141516171819202122232425262728293030+
                        Ngày trả phòng
                         
                        Trang chủ
                        Việt Nam
                Khách sạn Việt Nam 
                Việt Nam
                 XEM BẢN ĐỒ
                Cập nhật giá
                Sắp xếp theo: 
                                    iVIVU đề xuất
                                    Đề xuất
                                    Giá phòng
                                     Giá
                                    Hạng sao
                                         Sao
                        iVIVU đề xuấtGiá phòng - Tăng dần ▲Giá phòng - Giảm dần ▼Hạng sao - Tăng dần ▲Hạng sao - Giảm dần ▼
                    Khách sạn Asiana Sapa
                 27 Đường Hoàng Liên, Thị Trấn Sapa, Lào Cai, Việt Nam
                    7.9
                    Rất tốt
                                    7 nhận xét
                Bản đồ
                    Cách Nhà Thờ Đá 7 phút đi bộBãi đậu xe miễn phí
                    275.825 VND
                Chi tiết
                    Khách sạn Linh Đan Sài Gòn
                 12/7-12/9 Cù Lao, Quận Phú Nhuận, Việt Nam
                    7.6
                    Rất tốt
                                    13 nhận xét
                Bản đồ
                    Bãi đậu xeThang máyPhòng gia đình
                        Liên hệ
                        1900 1870
                         giá rẻ bất ngờ
                Chi tiết
                    Khách sạn Tâm Dung 1 Đà Lạt
                 18-A Nam Kỳ Khởi Nghĩa, Tp. Đà Lạt, Việt Nam
                    8.1
                    Rất tốt
                                    249 nhận xét
                Bản đồ
                    Phòng gia đìnhCách chợ Đà Lạt 8 phút đi bộThang máyPhòng 6 khách
                    287.500 VND
                Chi tiết
                    Khách sạn Gold Đà Nẵng
                 24 Đường Núi Thành, Quận Hải Châu, TP.Đà Nẵng, Việt Nam
                    8.4
                    Rất tốt
                                    84 nhận xét
                Bản đồ
                    Trung tâm thành phốCách cầu Rồng 2 phút lái xecách bãi biển Mỹ Khê 7 phút lái xephòng Family
                    424.800 VND
                Chi tiết
                    Khách sạn Thi Thảo - Gardenia Đà Lạt
                 137-139 Phan Bội Châu, Đà Lạt, Việt Nam
                    7.9
                    Rất tốt
                                    78 nhận xét
                Bản đồ
                    Phòng FamilyThang máy100m đến chợ Đà Lạt
                    460.000 VND
                Chi tiết
                    Khách sạn Asian Ruby Central Sài Gòn
                 277 Đường Lê Thánh Tôn, Phường Bến Thành, Quận 1, Tp. Hồ Chí Minh, Việt Nam
                    8.6
                    Rất tốt
                                    86 nhận xét
                Bản đồ
                    Cách chợ Bến Thành 3 phút đi bộCách khu phố tây 8 phút đi bộPhòng gia đình
                    737.205 VND
                Chi tiết
                    Khách sạn Minh Đăng Vũng Tàu
                 5 La Văn Cầu, Bãi Sau, Vũng Tàu, Việt Nam
                    8.5
                    Rất tốt
                                    121 nhận xét
                Bản đồ
                    Cho thuê xe máyBãi đậu xe ô tôCách bãi biển 5 phút đi bộPhòng gia đình
                    277.695 VND
                Chi tiết
                    Khách sạn A La Carte Đà Nẵng Beach
                 200 Võ Nguyên Giáp, Quận Sơn Trà, Tp. Đà Nẵng, Việt Nam
                    9.0
                    Tuyệt vời
                                    46 nhận xét
                Bản đồ
                    Hồ bơi chân mâyCách trung tâm 5 phút lái xengay bãi tắm Phạm Văn Đồngcách sân bay Đà Nẵng 6kmphòng Family
                    2.130.000 VND
                Chi tiết
                    Khách sạn  Havana Nha Trang
                 38 Trần Phú, phường Lộc Thọ, Nha Trang, Việt Nam
                    9.2
                    Tuyệt vời
                                    57 nhận xét
                Bản đồ
                    Hồ bơi ngoài trờiSân tennisĐường hầm thông ra biểnCó phòng FamilyCó bãi biển riêng
                        Liên hệ
                        1900 1870
                         giá rẻ bất ngờ
                Chi tiết
                    Victoria Phan Thiết Beach Resort & Spa
                 Km số 9 Phú Hải, Phan Thiết , Việt Nam
                    8.2
                    Rất tốt
                                    45 nhận xét
                Bản đồ
                    Có bãi biển riêngHồ bơi ngoài trờiPhòng BungalowPhòng Family
                        Liên hệ
                        1900 1870
                         giá rẻ bất ngờ
                Chi tiết
                    Famiana Resort & Spa Phú Quốc
                 Ấp Cửa Lấp, Dương Tơ,Phú Quốc, Việt Nam
                    8.2
                    Rất tốt
                                    26 nhận xét
                Bản đồ
                    Bãi biển riêngCách chợ Dinh Cậu 9 phút lái xe
                    2.505.000 VND
                Chi tiết
                    Khách Sạn Starlet Nha Trang
                 32 Tuệ Tĩnh, Lộc Thọ, Tp. Nha Trang, Khánh Hòa , Việt Nam
                    11.0
                    Chưa có
                                Bản đồ
                    gần bãi biển Nha Tranggần chợ đêm
                    722.953 VND
                Chi tiết
                    Khu nghỉ dưỡng Six Senses Ninh Vân Bay Nha Trang
                 Vịnh Ninh Vân, Ninh Hòa, Khánh Hòa, Việt Nam
                    10.0
                    Tuyệt vời
                                    15 nhận xét
                Bản đồ
                    Hồ bơi ngoài trờiCó phòng FamilyDịch vụ SpaBãi biển riêngĐưa đón sân bayKhu villa
                        Liên hệ
                        1900 1870
                         giá rẻ bất ngờ
                Chi tiết
                    Khu nghỉ dưỡng Mia Nha Trang
                 Đường Bãi Dông, Cam Hải Đông, Cam Lâm, TP.Nha Trang, Việt Nam
                    9.7
                    Tuyệt vời
                                    12 nhận xét
                Bản đồ
                    Bãi biển riêngCó phòng FamilyKhu villa
                    3.865.050 VND
                Chi tiết
                    The Shells Resort & Spa Phú Quốc
                 Biển Gành Gió, Thị trấn Đông Dương, Việt Nam
                    9.6
                    Tuyệt vời
                                    32 nhận xét
                Bản đồ
                    Bãi biển riêngCách chợ đêm Dinh Cậu 16 phút lái xe
                        Liên hệ
                        1900 1870
                         giá rẻ bất ngờ
                Chi tiết
    123...69
    1033 khách sạn Việt Nam
                    Cần tư vấn ? 
                    Gọi ngay
                    1900 1870
                 BỘ LỌC TÌM KIẾM
    Tìm khách sạn Việt Nam
          Xếp hạng khách sạn Việt Nam
            Tất cả
      Mức giá khách sạn Việt Nam
        Tất cảDưới 500.000500.000 đến 1.000.0001.000.000 đến 2.000.0002.000.000 đến 5.000.000Trên 5.000.000
            Địa điểm khách sạn Việt Nam
                        Tất cả
                        Bắc Ninh
                        Bến Tre
                        Biên Hòa
                        Bình Định
                        Bình Dương
                        Buôn Mê Thuột
                        Cà Mau
                        Cái Bè
                        Cần Thơ
                        Cát Bà
                        Châu Đốc
                        Côn Đảo
                        Đà Lạt
                        Đà Nẵng
                        Đak Nông
                        Đaklak
                        Điện Biên
                        Điện Biên Phủ
                        Doc Let
                        Đồng Hới
                        Đồng Nai
                        Đồng Tháp
                        Gia Lai
                        Hà Giang
                        Hà Nội
                        Hà Tĩnh
                        Hải Dương
                        Hải Phòng
                        Hồ Chí Minh
                        Hồ Tràm
                        Hòa Bình
                        Hội An
                        Huế
                        Kon Tum
                        Lagi
                        Lai Châu
                        Lăng Cô
                        Lạng Sơn
                        Lào Cai
                        Long Hải
                        Mũi Né
                        Nghệ An
                        Nha Trang
                        Ninh Bình
                        Ninh Thuận
                        Núi Thành
                        Phan Rang
                        Phan Thiết
                        Phú Quốc
                        Phú Vinh
                        Phú Yên
                        Pleiku
                        Quảng Bình
                        Quảng Nam
                        Quảng Ngãi
                        Quảng Trị
                        Quy Nhơn
                        Sapa
                        Tam Hải
                        Tân Bình
                        Thanh Hóa
                        Tiền Giang
                        Tỉnh Kiên Giang
                        Tỉnh Quảng Bình
                        Tỉnh Quảng Nam
                        Trảng Bom
                        Tuy Hòa
                        Tuyên Quang
                        Vinh
                        Vịnh Hạ Long
                        Vĩnh Phúc
                        Vũng Tàu
                        Xem thêm
                        Thu gọn
    Tiện ích khách sạn Việt Nam
            Tất cả
                            Phòng gia đình
                            Bãi đậu xe ô tô tại khách sạn
                            Thang máy
                            Hồ bơi
                            Phòng tập thể (dorm)
                            Kid Club
                                Đặt phòng theo đoàn?
                                iVIVU đảm bảo sẽ tìm kiếm deal tốt nhất cho bạn!
                        Đặt ngay 
                    ×
                    ĐẶT PHÒNG ĐOÀN
                        Khi đặt phòng theo đoàn với iVIVU.com, bạn sẽ có được khách sạn phù hợp nhất với giá tốt nhất mà không phải tốn thời gian tìm kiếm.
                                 Yêu cầu
                                         Điện thoại 
                                             Email
                                        *
                                 Vui lòng nhập địa điểm.
                                 Chưa nhập địa chỉ email hoặc địa chỉ email chưa đúng
                                 Vui lòng nhập số điện thoại.
                        • iVIVU.com cam kết đảm bảo an toàn thông tin của quý khách hàng. 
                        • Quý khách hàng có thể yêu cầu ngưng dịch vụ tìm kiếm deal tốt nhất bất cứ lúc nào.
                        Đặt phòng đoàn
                         Khách sạn Việt Nam theo hạng sao
                            Khách sạn 1 sao tại Việt Nam
                            Khách sạn 2 sao tại Việt Nam
                            Khách sạn 3 sao tại Việt Nam
                            Khách sạn 4 sao tại Việt Nam
                            Khách sạn 5 sao tại Việt Nam
                             Khách sạn Việt Nam tại các địa điểm phổ biến
                         Khách sạn tại các địa điểm du lịch nổi tiếng khác
                            Khách sạn Đak Nông
                            Khách sạn Ninh Thuận
                            Khách sạn Kon Tum
                            Khách sạn Quảng Trị
                            Khách sạn Tỉnh Quảng Bình
                            Khách sạn Gia Lai
                            Khách sạn Điện Biên
                            Khách sạn Vĩnh Phúc
                            Khách sạn Hà Tĩnh
                            Khách sạn Đồng Nai
                            Khách sạn Bình Dương
                            Khách sạn Bình Định
                            Khách sạn Hải Dương
                            Khách sạn Tiền Giang
                            Khách sạn Phú Yên
                            Khách sạn Tỉnh Kiên Giang
                            Khách sạn Đaklak
                            Khách sạn Cát Bà
                            Khách sạn Châu Đốc
                            Khách sạn Cần Thơ
                            Khách sạn Phú Quốc
                            Khách sạn Đà Nẵng
                            Khách sạn Phan Thiết
                            Khách sạn Nha Trang
                            Khách sạn Hà Nội
                            Khách sạn Huế
                            Khách sạn Hồ Chí Minh
                            Khách sạn Phan Rang
                            Khách sạn Long Hải
                            Khách sạn Mũi Né
                            Khách sạn Hội An
                            Khách sạn Vịnh Hạ Long
                            Khách sạn Tam Hải
                            Khách sạn Hồ Tràm
                            Khách sạn Vũng Tàu
                            Khách sạn Hải Phòng
                            Khách sạn Ninh Bình
                            Khách sạn Sapa
                            Khách sạn Côn Đảo
                            Khách sạn Nghệ An
                            Khách sạn Quảng Bình
                            Khách sạn Quy Nhơn
                            Khách sạn Thanh Hóa
                            Khách sạn Tuy Hòa
                            Khách sạn Đà Lạt
                            Khách sạn Lagi
                            Khách sạn Quảng Ngãi
                            Khách sạn Lăng Cô
                            Khách sạn Trảng Bom
                            Khách sạn Pleiku
                            Khách sạn Buôn Mê Thuột
                            Khách sạn Hà Giang
                            Khách sạn Cái Bè
                            Khách sạn Lào Cai
                    ×
                    Cập nhật giá khách sạn
                                                Ngày nhận
                                            Số đêm
                                                    12345678910111213141516171819202122232425262728293030+
                                                Ngày trả
                                            Số phòng
                                            Người lớn
                        Cập nhật lại giá khách sạn
                        Về iVIVU.comChúng tôiiVIVU BlogPMS - Miễn phí
                        Thông Tin Cần BiếtĐiều kiện & Điều khoảnQuy chế hoạt độngCâu hỏi thường gặp
                        Đối Tác & Liên kết
                                    Vietnam
                                    Airlines
                            VNExpressTiki.vn - Mua sắm online
                        Được chứng nhận
                                iVIVU.com là một thành viên của Thiên Minh Groups
                                Bạn cần trợ giúp? Hãy gọi ngay
                                        CSKH: 1900 1870
                                        Khác:   (08) 3930 8290
                                         Từ 7h30 - 21h hằng ngày
                                    iVIVU.com © 2016 - 
                                        Hệ thống đặt phòng khách sạn trực tuyến hàng
                                        đầu Việt Nam
                                        DKKD: 0312788481, Ngày cấp: 21/05/2014, Sở kế hoạch đầu tư thành phố Hồ Chí Minh
                                        HCM: Lầu 7, Tòa nhà Anh Đăng, 215 Nam Kỳ Khởi Nghĩa, Phường 7, Quận 3, Tp. Hồ Chí Minh
                                        (Xem bản đồ)
                                        HN: Lầu 9, 70-72 Bà Triệu, Quận Hoàn Kiếm, Hà Nội
                                        (Xem bản đồ)
                                        Like để cập nhật cẩm nang du lịch
                                            tc@ivivu.com
    Xin Quý khách đợi trong giây lát
        Vui lòng để lại thông tin yêu cầu đặt phòng khách sạn của Quý khách.
                Giá chỉ mang tính chất tham khảo và không áp dụng vào các ngày lễ tết. Chúng tôi sẽ liên hệ lại trong 24h.
            Họ & Tên: 
            Số điện thoại: 
            Email: 
            Vùng/thành phố yêu cầu:
            Tên khách sạn:
                Ngày nhận phòng:
                Ngày trả phòng:
            Yêu cầu khác:
        Gửi yêu cầu
           ×
                Bản đồ
