url:https://www.ivivu.com/khach-san-ha-noi/khach-san-thang-long-1-ha-noi
Tittle :Khách sạn Thăng Long 1 Hà Nội
content :1900 1870từ 7h30-21h hàng ngày
                        Khách sạn
                        Tours
                        Ưu đãi đặc biệt
                        Cẩm nang du lịch
                    Giới thiệuHỏi đápHỗ trợ
                    >
                ×
                Thông tin đăng nhập
                        Tên đăng nhập:
                        Mật khẩu:
                Đăng nhập
                        Tìm nhanh khách sạn
                        Ngày nhận phòng
                        Số đêm
                                12345678910111213141516171819202122232425262728293030+
                        Ngày trả phòng
                         
                        Trang chủ
                        Việt Nam
                        Hà Nội
                    Khách sạn Thăng Long 1 Hà Nội
            Khách sạn Thăng Long 1 Hà Nội
                        Giá chỉ từ
                            454.300 VND
                Đặt phòng này
                52 Cầu Gỗ, Phố Cổ, Quận Hoàn Kiếm, Thủ Đô Hà Nội, Việt Nam
                //cdn1.ivivu.com/iVivu/2016/05/19/14/khach-san-thang-long-1-ha-noi.jpg
            Giá phòng tại Khách sạn Thăng Long 1 Hà Nội
                            Ngày nhận phòng: 19-11-2016 - 20-11-2016
                            |1 đêm
                            |0 phòng
                            |0 người lớn
                            |0 trẻ em
                                    Thay đổi tìm kiếm
                        Rất tiếc chúng tôi không còn phòng trong thời gian này. Bạn vui lòng chọn thời gian khác.
                                            Ngày nhận phòng
                                            Ngày trả phòng
                                            Số đêm
                                        Số phòng
                                        Người lớn
                                        Trẻ em
                                        Cập nhật
    Đang lấy thông tin giá
    Giá phòng đã bao gồm: 10% thuế GTGT, 5% phí dịch vụ
    Loại phòngTối đaGiá phòng/đêmSố phòngĐặt phòng
        Tiện ích của Khách sạn Thăng Long 1 Hà Nội
    Phòng gia đình
    Dịch vụ thu đổi ngoại tệ
    Dịch vụ đưa đón sân bay
    Phục vụ phòng
    Dịch vụ giặt ủi
    Máy ATM
    Quầy bán tour
    Wifi / Internet
    Cho thuê xe
    Phòng hút thuốc
    Quầy lễ tân 24h
    Dịch vụ cho thuê xe đạp
                Xem tất cả
        Thông tin Khách sạn Thăng Long 1 Hà Nội
        Khách sạn Thăng Long 1 Hà Nội có vị trí tại trung tâm phố cổ Hà Nội, với vị trì thuận lợi du khách có thể tham quan những địa điểm nổi tiếng tại thủ đô Hà Nội. Bên cạnh đó, thiết kế của khách sạn phối hợp giữa hiện đại và cổ điển tạo cảm giác ấm áp và thoải mái cho du khách khi đên đây.
Khách sạn có tất cả 18 phòng và các phòng nghỉ tại khách sạn Thăng Long 1 được lắp máy lạnh và đi kèm truyền hình cáp, khu vực tiếp khách cũng như minibar. Đồ vệ sinh cá nhân miễn phí cũng được cung cấp để tạo thuận tiện cho khách.
        Chính sách của Khách sạn Thăng Long 1 Hà Nội
            Thời gian nhận phòng
            14:00
            Thời gian trả phòng 
            12:00
                        Di chuyển
                        - Cách hồ Hoàn Kiếm 850m.
- Cách Lăng Chủ Tịch Hồ Chí Minh 2.5km.
- Cách sân bay Quốc tê Nội Bài 38 phút lái xe.
                        Hướng dẫn nhận phòng
                        Quý khách vui lòng xuất trình Hộ chiếu/CMND và Phiếu nhận phòng của iVIVU.com khi nhận phòng tại khách sạn. (Khách sạn có thể sẽ yêu cầu Quý khách số thẻ tín dụng hoặc tiền đặt cọc cho các dịch vụ phát sinh trong thời gian lưu trú của Quý khách) Lưu ý dành cho khách hàng : - Nhận phòng sớm hoặc trả phòng trễ phụ thuộc vào tình trạng phòng thực tế của Khách sạn. - Mọi chi phí phát sinh không được xác nhận trong đặt phòng này, Quý khách vui lòng thanh toán trực tiếp tại Khách sạn.
                        Chính sách phụ thu
                       - Miễn phí tối đa 1 trẻ em dưới 9 tuổi khi sử dụng chung giường với cha mẹ.
- Trẻ em từ 9 tuổi trở lên tính phụ thu như người lớn thứ 3.
                Đánh giá khách hàng về khách sạn Khách sạn Thăng Long 1 Hà Nội
                        7.6 /10
                        Rất tốt 
                            8 đánh giá
                            Đánh giá gần đây
                                            Hoàng Ngọc Phương
                                                6.0
                                                                                            Tốt 
                                                 19-09-2015
                                                Tôi đặt dùm người nhà và được nghe phản hồi là phòng quá nhỏ, nhà vệ sinh cũng nhỏ. 
                                            Feilong
                                                10.0
                                                                                            Tuyệt vời 
                                                 20-09-2014
                                                Rất tốt,
Đội ngũ nhân viên nhiệt tình
Khách sạn gần hồ Hoàn Kiếm, trung tâm thành phố.
Phòng yên tĩnh, sạch sẽ, tôi hài lòng.
                                            jamesjames
                                                8.0
                                                                                            Rất tốt 
                                                 17-09-2014
                                                Tôi đã trải qua bốn đêm trong khách sạn. Các nhân viên đã hoàn toàn thân thiện và  nói tiếng Anh rất tốt. Họ đã giúp tôi đi vòng quanh thành phố và làm cho tôi cảm thấy thoải mái trong suốt thời gian ở đây. 
                                            Lynn
                                                7.0
                                                                                            Rất tốt 
                                                 16-09-2014
                                                Dịch vụ rất tốt.
Khách sạn giải quyết nhiều vấn đề cho chúng tôi: bắt taxi, đặt vé tàu, ăn uống,...
                                            margolis_marmite
                                                7.0
                                                                                            Rất tốt 
                                                 10-09-2014
                                                Tôi đã ở đây 3 đêm, thấy các nhân viên thân thiện. Phòng luôn sạch sẽ.
Vị trí tốt. Giá phòng tương đối. 
                         3 nhận xét
    Liên hệ Hotline1900 1870hoặc
        gửi yêu cầu
                                    Mở rộng bản đồ
            Gợi ý tours gần Khách sạn Thăng Long 1 Hà Nội 
                        Tour Hạ Long 1N: Ngắm Hạ Long kết hợp du thuyền
                    3.090.000 VND
                            Tour Hạ Long 1N: Ngắm Hạ Long kết hợp du thuyền
                                 Trong ngày
                            Hạ LongHà Nội
                            KH: hằng ngày. Ngắm Hạ Long bằng Thủy Phi Cơ. Chỉ có tại iVIVU
                            3.090.000 VND
            Khách sạn tương tự
                                        Khách sạn Discovery
                                        8.2
                                        Rất tốt
                                                                            41 nhận xét
                                        Khách sạn A25 - Hải Yến Hà Nội (Số 01 Nghĩa Tân Cầu Giấy)
                        Về iVIVU.comChúng tôiiVIVU BlogPMS - Miễn phí
                        Thông Tin Cần BiếtĐiều kiện & Điều khoảnQuy chế hoạt độngCâu hỏi thường gặp
                        Đối Tác & Liên kết
                                    Vietnam
                                    Airlines
                            VNExpressTiki.vn - Mua sắm online
                        Được chứng nhận
                                iVIVU.com là một thành viên của Thiên Minh Groups
                                Bạn cần trợ giúp? Hãy gọi ngay
                                        CSKH: 1900 1870
                                        Khác:   (08) 3930 8290
                                         Từ 7h30 - 21h hằng ngày
                                    iVIVU.com © 2016 - 
                                        Hệ thống đặt phòng khách sạn trực tuyến hàng
                                        đầu Việt Nam
                                        DKKD: 0312788481, Ngày cấp: 21/05/2014, Sở kế hoạch đầu tư thành phố Hồ Chí Minh
                                        HCM: Lầu 7, Tòa nhà Anh Đăng, 215 Nam Kỳ Khởi Nghĩa, Phường 7, Quận 3, Tp. Hồ Chí Minh
                                        (Xem bản đồ)
                                        HN: Lầu 9, 70-72 Bà Triệu, Quận Hoàn Kiếm, Hà Nội
                                        (Xem bản đồ)
                                        Like để cập nhật cẩm nang du lịch
                                            tc@ivivu.com
    Xin Quý khách đợi trong giây lát
        Vui lòng để lại thông tin yêu cầu đặt phòng khách sạn của Quý khách.
                Giá chỉ mang tính chất tham khảo và không áp dụng vào các ngày lễ tết. Chúng tôi sẽ liên hệ lại trong 24h.
            Họ & Tên: 
            Số điện thoại: 
            Email: 
            Vùng/thành phố yêu cầu:
            Tên khách sạn:
                Ngày nhận phòng:
                Ngày trả phòng:
            Yêu cầu khác:
        Gửi yêu cầu
           ×
                Bản đồ
                Hà NộiKhách sạn Thăng Long 1 Hà Nội
