url:https://www.ivivu.com/khach-san-da-lat?sb=price
Tittle :Khách sạn Đà Lạt  giá rẻ từ 160.480 VND
content :1900 1870từ 7h30-21h hàng ngày
                        Khách sạn
                        Tours
                        Ưu đãi đặc biệt
                        Cẩm nang du lịch
                    Giới thiệuHỏi đápHỗ trợ
                    >
                ×
                Thông tin đăng nhập
                        Tên đăng nhập:
                        Mật khẩu:
                Đăng nhập
                        Tìm nhanh khách sạn
                        Ngày nhận phòng
                        Số đêm
                                12345678910111213141516171819202122232425262728293030+
                        Ngày trả phòng
                         
                        Trang chủ
                        Việt Nam
                        Đà Lạt
                Khách sạn Đà Lạt 
                Đà Lạt
                 XEM BẢN ĐỒ
                Cập nhật giá
                Sắp xếp theo: 
                                    iVIVU đề xuất
                                    Đề xuất
                                    Giá phòng
                                     Giá
                                    Hạng sao
                                         Sao
                        iVIVU đề xuấtGiá phòng - Tăng dần ▲Giá phòng - Giảm dần ▼Hạng sao - Tăng dần ▲Hạng sao - Giảm dần ▼
                    Khu nghỉ dưỡng Edensee Lake Resort & Spa Đà Lạt
                 Khu 2 Hồ Tuyền Lâm,  Đà Lạt, Việt Nam
                    8.4
                    Rất tốt
                                    32 nhận xét
                Bản đồ
                    Kiến trúc châu ÂuBể bơi trong nhàSân tennisKhu vực hồ Tuyền LâmDịch vụ SpaCó xe bus đưa - đón ra chợ Đà Lạt miễn phí theo lịch trình
                    2.150.000 VND
                Chi tiết
                    Còn 11 ngày - ƯU ĐÃI ĐẶC BIỆT
                            Khuyến Mãi Tháng 11
                            Ana Mandara Villas Đà Lạt Resort & Spa
                         Lê Lai, Phường 5, Tp Đà Lạt, Việt Nam
                            9.0
                            Tuyệt vời
                                                    27 nhận xét
                        Bản đồ
                            Biệt thự cổKiến trúc PhápHồ bơi nước ấmDịch vụ spa đẳng cấpVilla 2-3 phòng ngủ
                            1.970.000 VND
                        Chi tiết
                    Villa An Tôn Đà Lạt
                 31A An Tôn, Phường 5, Thành phố Đà Lạt, Việt Nam
                                Bản đồ
                    Villa nguyên cănBãi đậu xe ô tôPhòng gia đình
                    1.759.500 VND
                Chi tiết
                    Khách sạn Mường Thanh Đà Lạt
                 42 Phan Bội Châu,  phường 1, Tp.  Đà Lạt, Việt Nam
                    8.9
                    Rất tốt
                                    94 nhận xét
                Bản đồ
                    Hồ bơi trong nhàCách Hồ Xuân Hương 100mCách vườn hoa Đà Lạt 1.6km
                    1.407.600 VND
                Chi tiết
                    Villa Hồ Bảo Đại Đà Lạt
                  33 Trần Thái Tông, phường 10, Tp. Đà Lạt, Việt Nam
                                Bản đồ
                    Biệt thự nghỉ dưỡngThích hợp cho gia đình & nhóm bạnKhông gian yên tĩnhCách chợ Đà Lạt 15 phút lái xe
                    1.380.000 VND
                Chi tiết
                    Khách sạn Du Parc Đà Lạt
                 15 Trần Phú, Tp. Đà Lạt, Việt Nam
                    8.8
                    Rất tốt
                                    8 nhận xét
                Bản đồ
                    Kiến trúc PhápCách nhà thờ Con Gà 2 phút đi bộBãi đậu xe ô tôThang máy cổ điển
                    1.334.288 VND
                Chi tiết
                    Khách sạn Sài Gòn Đà Lạt
                 180 Đường 3 Tháng 2, Phường 4, Đà Lạt, Việt Nam
                    8.2
                    Rất tốt
                                    54 nhận xét
                Bản đồ
                    Bể bơi trong nhàSân tennisPhòng tập gymThang máy
                    1.292.650 VND
                Chi tiết
                    Khách sạn Sammy Đà Lạt
                 1 Lê Hồng Phong, Thành phố Đà Lạt, Việt Nam
                    7.4
                    Rất tốt
                                    27 nhận xét
                Bản đồ
                    Kiến trúc PhápBãi đậu xe ôtôCách chợ Đà Lạt 6 phút lái xeThang máy
                    1.226.610 VND
                Chi tiết
                    Khách sạn Ngọc Lan Đà Lạt
                 42 đường Nguyễn Chí Thanh, Thành phố Đà Lạt, Việt Nam
                    8.6
                    Rất tốt
                                    72 nhận xét
                Bản đồ
                    Thiết kế hiện đạiHướng hồ Xuân HươngNgay chợ Đà LạtPhòng gia đìnhDịch vụ spa
                    1.139.277 VND
                Chi tiết
                    Còn 11 ngày - ƯU ĐÃI ĐẶC BIỆT
                            Giá ưu đãi
                            Khu nghỉ dưỡng Terracotta Đà Lạt
                         Phân khu chức năng 7.9, Khu du lịch Hồ Tuyền Lâm, phường 3, thành phố Đà Lạt, Việt Nam
                            8.9
                            Rất tốt
                                                    20 nhận xét
                        Bản đồ
                            Phòng thiết kế hiện đạiCó hồ bơiCó xe đưa - đón ra chợ Đà Lạt miễn phí theo lịch trìnhCó Villa 4 & 5 phòng ngủ
                            1.024.650 VND
                        Chi tiết
                    Dos Villa Đà Lạt
                 178 Trần Đại Nghĩa, Phường 8, Thành phố Đà Lạt, Việt Nam
                                Bản đồ
                    Biệt thự sân vườnKhông gian  yên tĩnhPhòng gia đìnhCách chợ Đà Lạt & Hồ Xuân Hương 10 phút lái xe
                    1.003.000 VND
                Chi tiết
                    Khu nghỉ dưỡng Cadasa Đà Lạt
                 16 Trần Hưng Đạo, Phường 10, Tp. Đà Lạt, Việt Nam
                                    3 nhận xét
                Bản đồ
                    Biệt thự cổVilla cho gia đìnhSân vườn rộng rãiCách chợ Đà Lạt & Hồ Xuân Hương 2km
                    920.000 VND
                Chi tiết
                    Khách sạn River Prince  Đà Lạt
                 135 - 145 Phan Đình Phùng, Tp. Đà Lạt, Lâm Đồng, Việt Nam
                                    1 nhận xét
                Bản đồ
                    Cách chợ Đà Lạt 8 phút đi bộThang máyPhòng gia đình
                    885.000 VND
                Chi tiết
                    Monet Garden Villa Đà Lạt (tên cũ Hoàng Anh Đất Xanh)
                 3 Nguyễn Du, Thành phố Đà Lạt, Việt Nam
                    9.3
                    Tuyệt vời
                                    48 nhận xét
                Bản đồ
                    VillaKhông gian sân vườnThích hợp nghỉ dưỡngSân tennis
                    885.000 VND
                Chi tiết
                    Khách sạn La Sapinette Đà Lạt
                 1 Phan Chu Trinh, Đà Lạt, Việt Nam
                    8.6
                    Rất tốt
                                    39 nhận xét
                Bản đồ
                    Kiến trúc hiện đại PhápPhòng xông hơi
                    872.850 VND
                Chi tiết
    123...7
    91 khách sạn Đà Lạt
                        Cần đặt phòng? 
                        Gọi ngay
                        Thanh Nguyễn
                            19001870
                        Cần đặt phòng? 
                        Gọi ngay
                        Trúc Nguyễn
                            19001870
                        Cần đặt phòng? 
                        Gọi ngay
                        Thúy Trần
                            19001870
                        Cần đặt phòng? 
                        Gọi ngay
                        Trần Trí Thế
                            19001870
                 BỘ LỌC TÌM KIẾM
    Tìm khách sạn Đà Lạt
          Xếp hạng khách sạn Đà Lạt
            Tất cả
      Mức giá khách sạn Đà Lạt
        Tất cảDưới 500.000500.000 đến 1.000.0001.000.000 đến 2.000.0002.000.000 đến 5.000.000Trên 5.000.000
        Địa điểm khách sạn Đà Lạt
                        Tất cả
                        Chợ Đà Lạt
                        Gần chợ Đà Lạt
                        Gần hồ Xuân Hương
                        Hồ Xuân Hương
                        Khu du lịch hồ Tuyền Lâm
                        Trung tâm thành phố Đà Lạt
                        Xem thêm
                        Thu gọn
    Tiện ích khách sạn Đà Lạt
            Tất cả
                            Phòng gia đình
                            Bãi đậu xe ô tô tại khách sạn
                            Thang máy
                            Hồ bơi
                            Phòng tập thể (dorm)
                            Kid Club
            Kinh nghiệm du lịch Đà Lạt
                        Ngoài những địa chỉ quen thuộc như hồ Xuân Hương, đỉnh Langbiang, dinh Bảo Đại hay thiền viện Trúc Lâm,... bạn có biết Đà Lạt còn nhiều thứ tuyệt vời khác nữa không?
Nhất định bạn phải thưởng thức món nem nướng, sữa đậu nành nóng hay bánh ướt lòng gà ngon nức tiếng. Chưa hết đâu, bạn còn phải đến thăm thác Voi - nơi có cầu vồng suốt ngày hay bãi Tiên Sa, hồ Đại Ninh nữa nhé. Hãy để iVIVU.com mách bạn!
                            Xem thêm
                                Đặt phòng theo đoàn?
                                iVIVU đảm bảo sẽ tìm kiếm deal tốt nhất cho bạn!
                        Đặt ngay 
                    ×
                    ĐẶT PHÒNG ĐOÀN
                        Khi đặt phòng theo đoàn với iVIVU.com, bạn sẽ có được khách sạn phù hợp nhất với giá tốt nhất mà không phải tốn thời gian tìm kiếm.
                                 Yêu cầu
                                         Điện thoại 
                                             Email
                                        *
                                 Vui lòng nhập địa điểm.
                                 Chưa nhập địa chỉ email hoặc địa chỉ email chưa đúng
                                 Vui lòng nhập số điện thoại.
                        • iVIVU.com cam kết đảm bảo an toàn thông tin của quý khách hàng. 
                        • Quý khách hàng có thể yêu cầu ngưng dịch vụ tìm kiếm deal tốt nhất bất cứ lúc nào.
                        Đặt phòng đoàn
                         Khách sạn Đà Lạt theo hạng sao
                            Khách sạn 1 sao tại Đà Lạt
                            Khách sạn 2 sao tại Đà Lạt
                            Khách sạn 3 sao tại Đà Lạt
                            Khách sạn 4 sao tại Đà Lạt
                            Khách sạn 5 sao tại Đà Lạt
                             Khách sạn Đà Lạt tại các địa điểm phổ biến
                                Chợ Đà Lạt
                                Gần chợ Đà Lạt
                                Gần hồ Xuân Hương
                                Hồ Xuân Hương
                                Khu du lịch hồ Tuyền Lâm
                                Trung tâm thành phố Đà Lạt
                         Khách sạn tại các địa điểm du lịch nổi tiếng khác
                            Khách sạn Đak Nông
                            Khách sạn Ninh Thuận
                            Khách sạn Kon Tum
                            Khách sạn Quảng Trị
                            Khách sạn Tỉnh Quảng Bình
                            Khách sạn Gia Lai
                            Khách sạn Điện Biên
                            Khách sạn Vĩnh Phúc
                            Khách sạn Hà Tĩnh
                            Khách sạn Đồng Nai
                            Khách sạn Bình Dương
                            Khách sạn Bình Định
                            Khách sạn Hải Dương
                            Khách sạn Tiền Giang
                            Khách sạn Phú Yên
                            Khách sạn Tỉnh Kiên Giang
                            Khách sạn Đaklak
                            Khách sạn Cát Bà
                            Khách sạn Châu Đốc
                            Khách sạn Cần Thơ
                            Khách sạn Phú Quốc
                            Khách sạn Đà Nẵng
                            Khách sạn Phan Thiết
                            Khách sạn Nha Trang
                            Khách sạn Hà Nội
                            Khách sạn Huế
                            Khách sạn Hồ Chí Minh
                            Khách sạn Phan Rang
                            Khách sạn Long Hải
                            Khách sạn Mũi Né
                            Khách sạn Hội An
                            Khách sạn Vịnh Hạ Long
                            Khách sạn Tam Hải
                            Khách sạn Hồ Tràm
                            Khách sạn Vũng Tàu
                            Khách sạn Hải Phòng
                            Khách sạn Ninh Bình
                            Khách sạn Sapa
                            Khách sạn Côn Đảo
                            Khách sạn Nghệ An
                            Khách sạn Quảng Bình
                            Khách sạn Quy Nhơn
                            Khách sạn Thanh Hóa
                            Khách sạn Tuy Hòa
                            Khách sạn Lagi
                            Khách sạn Quảng Ngãi
                            Khách sạn Lăng Cô
                            Khách sạn Trảng Bom
                            Khách sạn Pleiku
                            Khách sạn Buôn Mê Thuột
                            Khách sạn Hà Giang
                            Khách sạn Cái Bè
                            Khách sạn Lào Cai
                    ×
                    Cập nhật giá khách sạn
                                                Ngày nhận
                                            Số đêm
                                                    12345678910111213141516171819202122232425262728293030+
                                                Ngày trả
                                            Số phòng
                                            Người lớn
                        Cập nhật lại giá khách sạn
                        Về iVIVU.comChúng tôiiVIVU BlogPMS - Miễn phí
                        Thông Tin Cần BiếtĐiều kiện & Điều khoảnQuy chế hoạt độngCâu hỏi thường gặp
                        Đối Tác & Liên kết
                                    Vietnam
                                    Airlines
                            VNExpressTiki.vn - Mua sắm online
                        Được chứng nhận
                                iVIVU.com là một thành viên của Thiên Minh Groups
                                Bạn cần trợ giúp? Hãy gọi ngay
                                        CSKH: 1900 1870
                                        Khác:   (08) 3930 8290
                                         Từ 7h30 - 21h hằng ngày
                                    iVIVU.com © 2016 - 
                                        Hệ thống đặt phòng khách sạn trực tuyến hàng
                                        đầu Việt Nam
                                        DKKD: 0312788481, Ngày cấp: 21/05/2014, Sở kế hoạch đầu tư thành phố Hồ Chí Minh
                                        HCM: Lầu 7, Tòa nhà Anh Đăng, 215 Nam Kỳ Khởi Nghĩa, Phường 7, Quận 3, Tp. Hồ Chí Minh
                                        (Xem bản đồ)
                                        HN: Lầu 9, 70-72 Bà Triệu, Quận Hoàn Kiếm, Hà Nội
                                        (Xem bản đồ)
                                        Like để cập nhật cẩm nang du lịch
                                            tc@ivivu.com
    Xin Quý khách đợi trong giây lát
        Vui lòng để lại thông tin yêu cầu đặt phòng khách sạn của Quý khách.
                Giá chỉ mang tính chất tham khảo và không áp dụng vào các ngày lễ tết. Chúng tôi sẽ liên hệ lại trong 24h.
            Họ & Tên: 
            Số điện thoại: 
            Email: 
            Vùng/thành phố yêu cầu:
            Tên khách sạn:
                Ngày nhận phòng:
                Ngày trả phòng:
            Yêu cầu khác:
        Gửi yêu cầu
           ×
                Bản đồ
