url:https://www.ivivu.com/blog/gioi-thieu/
Tittle :Giới thiệu về iVIVU.com
content :Về iVIVU.comCảm nhận của khách hàng iVIVU.com			
					Trang ChủKhuyến MãiMuôn MàuĐiểm đến
Việt Nam
	Du lịch Phan ThiếtDu lịch Đà LạtDu lịch Đà NẵngDu lịch Hà NộiDu lịch Hội AnDu lịch HuếDu lịch Nha TrangDu lịch Phú QuốcDu lịch Vịnh Hạ LongDu lịch Vũng TàuDu lịch SapaDu lịch Tp.Hồ Chí Minh
Đông Nam Á
	Du lịch CampuchiaDu lịch IndonesiaDu lịch LàoDu lịch MalaysiaDu lịch MyanmarDu lịch PhilippinesDu lịch SingaporeDu lịch Thái Lan
Thế Giới
	Châu ÁChâu ÂuChâu MỹChâu PhiChâu Úc
Top iVIVU
Ẩm thựcMẹoĐặt tourĐặt khách sạnCHÚNG TÔI					
		Về iVIVU.com
		iVIVU.com – hệ thống đặt phòng khách sạn trực tuyến, cung cấp giải pháp tối ưu giúp người dùng tìm kiếm và đặt phòng với hệ thống xác nhận và giữ phòng tức thời, phương thức thanh toán đa dạng, dịch vụ chăm sóc khách hàng chuyên nghiệp.
iVIVU.com là thành viên của Tập đoàn TMG Việt Nam với hơn 20 năm kinh nghiệm trong lĩnh vực Du lịch – Khách sạn. TMG Việt Nam hiện đang sở hữu các thương hiệu nổi tiếng trên thị trường như Buffalo Tours, Hàng không Hải Âu, Victoria Hotels and Resorts, ÊMM,… iVIVU.com phục vụ khách hàng toàn cầu, đặc biệt khu vực Đông Nam Á, bao gồm các tổ chức, công ty, đơn vị, cá nhân có nhu cầu đi công tác, hội thảo, thăm người thân, du lịch, chữa bệnh, v.v…
iVIVU.com đã đạt giải thưởng The Guide 2013 dành cho Website Thương mại điện tử về du lịch tốt nhất Việt Nam.
iVIVU.com & các điểm ưu việt:
– Đáp ứng mọi yêu cầu có thể của khách hàng từ cá nhân tới tổ chức, không phân biệt vị trí địa lý.
– Cung cấp dịch vụ đa dạng, đầy đủ loại khách sạn, loại phòng ở phạm vi toàn cầu, với hệ thống khoảng 2.500 khách sạn tại Việt Nam & hơn 30.000 khách sạn quốc tế.
– Dịch vụ khách hàng nhiệt tâm, chu đáo.
– Thanh toán linh hoạt, nhanh chóng, an toàn.
– Luôn có chương trình ưu đãi, khuyến mại, giảm giá đặc biệt cho khách đoàn, công ty, tổ chức.
Ngoài ra, iVIVU.com cung cấp miễn phí hệ thống quản lý khách sạn (Property Management System – PMS) cho khách sạn vừa và nhỏ; mạng Extranet cho các khách sạn lớn, resort cao cấp trong và ngoài Việt Nam.
Vui lòng liên hệ:
1. Dịch vụ khách hàng, đặt phòng khách sạn: Hotline 1900 1870 – Email: TC@iVIVU.com
2. Nhà cung cấp liên hệ – Email: Market@ivivu.com
3. Liên hệ Marketing – Email: Marketing@ivivu.com
4. Các liên hệ khác: 1900 1870
				Tìm bài viết	
			Đọc nhiềuBài mới
                                        Du lịch Vũng Tàu: Cẩm nang từ A đến Z                                    
                                        16/10/2014                                    
                                        Du lịch đảo Nam Du: Cẩm nang từ A đến Z...                                    
                                        21/03/2015                                    
                                        Du lịch Nha Trang: 10 điểm du lịch tham quan hấp d...                                    
                                        29/06/2012                                    
                                        Du lịch Đà Lạt - Cẩm nang du lịch Đà Lạt từ A đến ...                                    
                                        26/09/2013                                    
                                        Tất tần tật những kinh nghiệm bạn cần biết trước k...                                    
                                        25/07/2014                                    
                                        Lên kế hoạch rủ nhau du lịch Đà Lạt tham gia lễ hộ...                                    
                                16/11/2016                            
                                        Tour Đài Loan giá sốc trọn gói chỉ 8.990.000 đồng,...                                    
                                15/11/2016                            
                                        Check-in Victoria Hội An 4 sao 3 ngày 2 đêm bao lu...                                    
                                15/11/2016                            
                                        Du lịch Đà Lạt check-in 2 điểm đến đẹp như mơ tron...                                    
                                14/11/2016                            
                                        Có một Việt Nam đẹp mê mẩn trong bộ ảnh du lịch củ...                                    
                                13/11/2016                            
		Khách sạn Việt Nam			 Khách sạn Đà Lạt  Khách sạn Đà Nẵng  Khách sạn Hà Nội  Khách sạn Hội An  Khách sạn Huế  Khách sạn Nha Trang   Khách sạn Phan Thiết   Khách sạn Phú Quốc  Khách sạn Sapa  Khách sạn Sài gòn Khách sạn Hạ Long  Khách sạn Vũng Tàu
		Khách sạn Quốc tế			 Khách sạn Campuchia  Khách sạn Đài Loan  Khách sạn Hàn Quốc  Khách sạn Hồng Kông  Khách sạn Indonesia  Khách sạn Lào  Khách sạn Malaysia  Khách sạn Myammar  Khách sạn Nhật Bản  Khách sạn Philippines  Khách sạn Singapore  Khách sạn Thái Lan  Khách sạn Trung Quốc 
		Cẩm nang du lịch 2015			
         Du lịch Nha Trang 
         Du lịch Đà Nẵng 
         Du lịch Đà Lạt 
         Du lịch Côn đảo Vũng Tàu 
         Du lịch Hạ Long 
         Du lịch Huế 
         Du lịch Hà Nội 
         Du lịch Mũi Né 
         Du lịch Campuchia 
         Du lịch Myanmar 
         Du lịch Malaysia 
         Du lịch Úc 
         Du lịch Hong Kong 
         Du lịch Singapore 
         Du lịch Trung Quốc 
         Du lịch Nhật Bản 
         Du lịch Hàn Quốc 
Tweets by @ivivudotcom
		Bạn quan tâm chủ đề gì?book khách sạn giá rẻ
book khách sạn trực tuyến
book phòng khách sạn giá rẻ
Cẩm nang du lịch Hà Nội
du lịch
Du lịch Hàn Quốc
du lịch Hà Nội
Du lịch Hội An
Du lịch Nha Trang
du lịch nhật bản
Du lịch Singapore
du lịch sài gòn
du lịch Thái Lan
du lịch thế giới
Du lịch Đà Nẵng
du lịch đà lạt
hà nội
hệ thống đặt khách sạn trực tuyến
ivivu
ivivu.com
khách sạn
Khách sạn giá rẻ
khách sạn Hà Nội
khách sạn hà nội giá rẻ
khách sạn khuyến mãi
khách sạn nhật bản
khách sạn sài gòn
khách sạn Đà Lạt
khách sạn Đà Nẵng
kinh nghiệm du lịch
Kinh nghiệm du lịch Hà Nội
mẹo du lịch
Nhật bản
sài gòn
vi vu
vivu
Việt Nam
Đặt phòng khách sạn online
đặt khách sạn
đặt khách sạn giá rẻ
đặt khách sạn trực tuyến
đặt phòng giá rẻ
đặt phòng khách sạn
đặt phòng khách sạn trực tuyến
đặt phòng trực tuyến
                                                            Like để cập nhật cẩm nang du lịch			
                                                                    iVIVU.com ©
                                                                        2016 - Hệ thống đặt phòng khách sạn & Tours hàng đầu Việt Nam
                                                                            HCM: Lầu 7, Tòa nhà Anh Đăng, 215 Nam
                                                                            Kỳ Khởi Nghĩa, P.7, Q.3, Tp. Hồ Chí Minh
                                                                            HN: Lầu 12, 70-72 Bà Triệu, Quận Hoàn
                                                                            Kiếm, Hà Nội
                                                                    Được chứng nhận
                iVIVU.com là thành viên của Thiên Minh Groups
                                                                    Về iVIVU.com
                                                                            Chúng tôiiVIVU BlogPMS - Miễn phí
                                                                    Thông Tin Cần Biết
                                                                            Điều kiện & Điều
                                                                                khoảnChính sách bảo mật
                                                                        Câu hỏi thường gặp
                                                                    Đối Tác & Liên kết
                                                                            Vietnam
                                                                                Airlines
                                                                            VNExpressTiki.vn - Mua sắm
                                                                                online
                                                            Chuyên mụcĂn ChơiCHÚNG TÔIChụpDU LỊCH & ẨM THỰCDU LỊCH & SHOPPINGDu lịch hèDu lịch TếtDU LỊCH THẾ GIỚIDu lịch tự túcDU LỊCH VIỆT NAM►Du lịch Bình Thuận►Du lịch Mũi NéĐảo Phú QuýDu lịch Bình ĐịnhDu lịch Cô TôDu lịch Hà GiangDu lịch miền TâyDu lịch Nam DuDu lịch Ninh ThuậnDu lịch Quảng BìnhDu lịch đảo Lý SơnHóngKểKhách hàng iVIVU.comKhuyến Mãi►Mỗi ngày một khách sạnMuôn MàuThư ngỏTiêu ĐiểmTIN DU LỊCHTour du lịchĐI VÀ NGHĨĐiểm đến
