url:https://www.ivivu.com/khach-san-belgium-europe
Tittle :Khách sạn Belgium  giá rẻ từ
content :1900 1870từ 7h30-21h hàng ngày
                        Khách sạn
                        Tours
                        Ưu đãi đặc biệt
                        Cẩm nang du lịch
                    Giới thiệuHỏi đápHỗ trợ
                    >
                ×
                Thông tin đăng nhập
                        Tên đăng nhập:
                        Mật khẩu:
                Đăng nhập
                        Tìm nhanh khách sạn
                        Ngày nhận phòng
                        Số đêm
                                12345678910111213141516171819202122232425262728293030+
                        Ngày trả phòng
                         
                        Trang chủ
                        Belgium
                Khách sạn Belgium 
                Belgium
                 XEM BẢN ĐỒ
                Cập nhật giá
                Sắp xếp theo: 
                                    iVIVU đề xuất
                                    Đề xuất
                                    Giá phòng
                                     Giá
                                    Hạng sao
                                         Sao
                        iVIVU đề xuấtGiá phòng - Tăng dần ▲Giá phòng - Giảm dần ▼Hạng sao - Tăng dần ▲Hạng sao - Giảm dần ▼
                    Ibis budget Aachen Raeren Grenze
                 Aire de repos de Lichtenbusch, Belgium
                                Bản đồ
                    Ở Raeren
                    1.041.557 VND
                Chi tiết
                    Ibis budget Brugge Centrum Station
                 Marie Popelinplantsoen 4, Belgium
                                Bản đồ
                    Gần Minnewater
                    1.076.427 VND
                Chi tiết
                    Campanile Brüssel Airport
                 Excelsiorlaan 21930 Zaventem, Belgium
                                Bản đồ
                    Gần Trụ sở NATO
                    1.153.316 VND
                Chi tiết
                    Ibis budget Brussels South Ruisbroek
                 Vorstsesteenweg 1001601 Ruisbroek, Belgium
                                Bản đồ
                    Ở Ruisbroek Sint-Pieters-Leeuw
                    1.204.574 VND
                Chi tiết
                    Ibis budget Leuven Centrum
                 Martelarenlaan 10, Belgium
                                Bản đồ
                    Gần Ladeuzeplein
                    1.245.010 VND
                Chi tiết
                    Campanile Brüssel Vilvoorde
                 Luchthavenlaan 2, Belgium
                                Bản đồ
                    Ở Vilvoorde
                    1.245.010 VND
                Chi tiết
                    Ibis budget Brussels Airport
                 Bessenveldstraat, Belgium
                                Bản đồ
                    Ở Diegem Machelen
                    1.255.832 VND
                Chi tiết
                    Ibis budget Antwerpen Port
                 Luithagen Haven 6A, Belgium
                                Bản đồ
                    Ở Antwerp
                    1.255.832 VND
                Chi tiết
                    Max
                 Boulevard Adolphe Max 107, Belgium
                                Bản đồ
                    Gần Bảo tàng Truyện tranh Bỉ
                    1.307.144 VND
                Chi tiết
                    Ibis budget Liège
                 Rue de l'Arbre Courte Joie 3804000 Liege, Belgium
                                Bản đồ
                    Gần sân bay
                    1.332.719 VND
                Chi tiết
                    Ibis Styles Nivelles
                 Avenue Paul Henry Spaak1400 Nivelles, Belgium
                                Bản đồ
                    Ở vùng ngoại ô
                    1.349.189 VND
                Chi tiết
                    Ibis Charleroi Centre Gare
                 Quai De Flandre 12, Belgium
                                Bản đồ
                    Gần Stade du Pays de Charleloi
                    1.349.423 VND
                Chi tiết
                    Tulip Inn Antwerpen
                 Potvlietlaan 2, Belgium
                                Bản đồ
                    Ở Đường Ring Road Antwerp
                    1.356.830 VND
                Chi tiết
                    Holiday Inn Schuman
                 Breydelstraat 20-24Brussels 1040, Belgium
                                Bản đồ
                    Gần Công viên Jubilee
                    1.371.420 VND
                Chi tiết
                    Best Western Plus Aero 44
                 Rue Bleriot 4, Belgium
                                Bản đồ
                    Ở Khu trung tâm Khoa học Aeropole Charleroi
                    1.383.977 VND
                Chi tiết
    123...20
    291 khách sạn Belgium
                    Cần tư vấn ? 
                    Gọi ngay
                    1900 1870
                 BỘ LỌC TÌM KIẾM
    Tìm khách sạn Belgium
          Xếp hạng khách sạn Belgium
            Tất cả
      Mức giá khách sạn Belgium
        Tất cảDưới 500.000500.000 đến 1.000.0001.000.000 đến 2.000.0002.000.000 đến 5.000.000Trên 5.000.000
            Địa điểm khách sạn Belgium
                        Tất cả
                        (De) Panne
                        Aalst
                        Aalter
                        Aarschot
                        Aartselaar
                        Alle-sur-Semois
                        Alveringem
                        Amel
                        Angleur
                        Anhee
                        Antwerp
                        Arlon
                        As
                        Assesse
                        Ath
                        Attert
                        Aubange
                        Aubel
                        Ave-et-Auffe
                        Avelgem
                        Aye
                        Aywaille
                        Baarle-Hertog
                        Barbencon
                        Barvaux
                        Basse-Bodeux
                        Bastogne
                        Beauraing
                        Beccol Theux
                        Beernem
                        Beringen
                        Beveren
                        Bièvre
                        Bilzen
                        Blaimont
                        Blankenberge
                        Blegny
                        Bois-de-Villers
                        Bomal-sur-Ourthe
                        Boncelles
                        Bonheiden
                        Borgloon
                        Bornem
                        Bouillon
                        Bousval
                        Bovigny
                        Braine-le-Château
                        Brasschaat
                        Bredene
                        Bree
                        Bruges
                        Brussels
                        Burg-Reuland
                        Bütgenbach
                        Casteau
                        Charleroi
                        Chaudfontaine
                        Cherain
                        Chevetogne
                        Ciney
                        Comblain-au-Pont
                        Comblain-la-Tour
                        Coo
                        Corbion
                        Crupet
                        Damme
                        Daverdisse
                        De Haan
                        De Panne - Adinkerke
                        Dendermonde
                        Diegem
                        Diest
                        Diksmuide
                        Dilbeek
                        Dinant
                        Dochamps
                        Drogenbos
                        Durbuy
                        Eben-Emael
                        Ellezelles
                        Emines
                        Enghien
                        Erezée
                        Essen
                        Eupen
                        Evergem
                        Falaën
                        Fayt-Lez-Manage
                        Ferrieres
                        Fleurus
                        Florenville
                        Francorchamps
                        Froidchapelle
                        Gavere
                        Gedinne
                        Geel
                        Gembloux
                        Genk
                        Gent
                        Genval
                        Ghent
                        Ghislenghien
                        Gingelom
                        Gistel
                        Gosselies
                        Gouvy
                        Grimbergen
                        Grobbendonk
                        Groot Bijgaarden
                        Grupont
                        Haasrode
                        Habay La Neuve
                        Halle
                        Hamont-Achel
                        Han-Sur-Lesse
                        Harre
                        Hasselt
                        Heist-op-den-Berg
                        Henri-Chapelle
                        Hensies
                        Herbeumont
                        Herentals
                        Herstal
                        Herve
                        Heusden Zolder
                        Heuvelland
                        Hoeilaart
                        Hollogne
                        Holsbeek
                        Hotton
                        Houffalize
                        Houthalen-Helchteren
                        Houyet
                        Huldenberg-Neerijse
                        Huy
                        Ichtegem
                        Ieper
                        Itegem
                        Ittre
                        Izegem
                        Jabbeke
                        Jalhay
                        Jupille
                        Kaprijke
                        Kasterlee
                        Kelmis
                        Kemmel
                        Kluisbergen
                        Knesselare
                        Knokke
                        Koksijde
                        Kortenberg
                        Kortrijk
                        Kuurne
                        La Gleize
                        La Louviere
                        La Roche-en-Ardenne
                        Laforet
                        Lanaken
                        Langemark-Poelkapelle
                        Lavacherie
                        Leernes
                        Leuven
                        Libin
                        Libramont
                        Liege
                        Lier
                        Ligneuville
                        Lille
                        Limelette
                        Limont
                        Lisogne
                        Lochristi
                        Lokeren
                        Lommel
                        Louette St. Pierre
                        Louvain-la-Neuve
                        Louveigné
                        Lummen
                        Lustin
                        Lüttich
                        Maarkedal
                        Maaseik
                        Maasmechelen
                        Maffe
                        Maissin
                        Maldegem
                        Malmedy
                        Manhay
                        Marche-en-Famenne
                        Marcourt
                        Martelange
                        Masnuy-Saint-Jean
                        Mecheln
                        Meer
                        Menen
                        Merelbeke
                        Middelkerke
                        Modave
                        Mol
                        Momignies
                        Mons (Bergen)
                        Mont St Aubert
                        Mouscron
                        Moxhe
                        Nadrin
                        Namur
                        Nassogne
                        Neufchâteau
                        Nieuwerkerken
                        Nieuwpoort
                        Ninove
                        Nivelles
                        Noirefontaine
                        Ny
                        Ocquier
                        Oignies En Thierache
                        Onhaye
                        Oostduinkerke
                        Oostkamp
                        Ostend
                        Ottignies
                        Oudenaarde
                        Oudenburg
                        Oud-Turnhout
                        Ouffet
                        Ouren
                        Overijse
                        Ovifat
                        Paliseul
                        Parike-Brakel
                        Peer
                        Pepinster
                        Péreybère
                        Petite Chapelle
                        Poix St. Hubert
                        Polleur
                        Poperinge
                        Raeren
                        Ransart
                        Rebecq
                        Retie
                        Riemst / Heukelom
                        Rixensart
                        Robertville
                        Rochefort
                        Roeselare
                        Ronse
                        Roumont
                        Ruddervoorde
                        Ruisbroek
                        Saint Hubert
                        Sainte-Ode
                        Sankt Vith
                        Sart-Lez-Spa
                        Semois
                        Seneffe
                        Sint-Genesius-Rode
                        Sint-Laureins
                        Sint-Maria-Horebeke
                        Sint-Niklaas
                        Sint-Truiden
                        Soignies
                        Somme-Leuze
                        Sourbrodt
                        Spa
                        St. Ghislain
                        Stambruges
                        Stavelot
                        Stoumont
                        Strombeek-Bever
                        Tenneville
                        Tervuren
                        Teuven
                        Theux
                        Thimister-Clermont
                        Thuin
                        Tielt
                        Tienen
                        Tongeren
                        Tongern
                        Torhout
                        Tournai
                        Trois-Ponts
                        Trooz
                        Turnhout
                        Ursel
                        Varsenare
                        Vaux-sur-Sure
                        Vencimont
                        Verviers
                        Veurne / Steenkerke
                        Vielsalm
                        Vignee
                        Villers-sur-Lesse
                        Vilvoorde
                        Virton
                        Visé
                        Voeren
                        Vresse-sur-Semois
                        Waasmunster
                        Waimes
                        Walcourt
                        Waregem
                        Waterlooo
                        Watou
                        Wavre
                        Weelde
                        Wellen
                        Wellin
                        Werbomont
                        Werchter
                        Westende
                        Westerlo
                        Wevelgem
                        Weywertz
                        Wirtzfeld
                        Zaventem
                        Zedelgem
                        Zelzate
                        Zonhoven
                        Zuienkerke
                        Zutendaal
                        Xem thêm
                        Thu gọn
    Tiện ích khách sạn Belgium
            Tất cả
                            Phòng gia đình
                            Bãi đậu xe ô tô tại khách sạn
                            Thang máy
                            Hồ bơi
                            Phòng tập thể (dorm)
                            Kid Club
                                Đặt phòng theo đoàn?
                                iVIVU đảm bảo sẽ tìm kiếm deal tốt nhất cho bạn!
                        Đặt ngay 
                    ×
                    ĐẶT PHÒNG ĐOÀN
                        Khi đặt phòng theo đoàn với iVIVU.com, bạn sẽ có được khách sạn phù hợp nhất với giá tốt nhất mà không phải tốn thời gian tìm kiếm.
                                 Yêu cầu
                                         Điện thoại 
                                             Email
                                        *
                                 Vui lòng nhập địa điểm.
                                 Chưa nhập địa chỉ email hoặc địa chỉ email chưa đúng
                                 Vui lòng nhập số điện thoại.
                        • iVIVU.com cam kết đảm bảo an toàn thông tin của quý khách hàng. 
                        • Quý khách hàng có thể yêu cầu ngưng dịch vụ tìm kiếm deal tốt nhất bất cứ lúc nào.
                        Đặt phòng đoàn
                         Khách sạn Belgium theo hạng sao
                            Khách sạn 1 sao tại Belgium
                            Khách sạn 2 sao tại Belgium
                            Khách sạn 3 sao tại Belgium
                            Khách sạn 4 sao tại Belgium
                            Khách sạn 5 sao tại Belgium
                             Khách sạn Belgium tại các địa điểm phổ biến
                         Khách sạn tại các địa điểm du lịch nổi tiếng khác
                            Khách sạn Andorra
                            Khách sạn Albania
                            Khách sạn Austria
                            Khách sạn Bosnia and Herzigovina
                            Khách sạn Bulgaria
                            Khách sạn Belarus
                            Khách sạn Switzerland
                            Khách sạn Cyprus
                            Khách sạn Czech Republic
                            Khách sạn Germany
                            Khách sạn Denmark
                            Khách sạn Estland
                            Khách sạn Spain
                            Khách sạn Finland
                            Khách sạn Faeroe Islands
                            Khách sạn France
                            Khách sạn United Kingdom
                            Khách sạn Georgia
                            Khách sạn Gibralter
                            Khách sạn Greenland
                            Khách sạn Greece
                            Khách sạn Croatia
                            Khách sạn Hungary
                            Khách sạn Eire / Ireland
                            Khách sạn Iceland
                            Khách sạn Italy
                            Khách sạn Liechtenstein
                            Khách sạn Lithuania
                            Khách sạn Luxembourg
                            Khách sạn Latvia
                            Khách sạn Monaco
                            Khách sạn Moldova
                            Khách sạn Montenegro
                            Khách sạn Macedonia (FYROM)
                            Khách sạn Northern Mariana Islands
                            Khách sạn Malta
                            Khách sạn Netherlands
                            Khách sạn Norway
                            Khách sạn Poland
                            Khách sạn Portugal
                            Khách sạn Romania
                            Khách sạn Serbia
                            Khách sạn Russian Federation
                            Khách sạn Sweden
                            Khách sạn Slovenia
                            Khách sạn Slovakia
                            Khách sạn San Marino
                            Khách sạn Turkey
                            Khách sạn Ukraine
                    ×
                    Cập nhật giá khách sạn
                                                Ngày nhận
                                            Số đêm
                                                    12345678910111213141516171819202122232425262728293030+
                                                Ngày trả
                                            Số phòng
                                            Người lớn
                        Cập nhật lại giá khách sạn
                        Về iVIVU.comChúng tôiiVIVU BlogPMS - Miễn phí
                        Thông Tin Cần BiếtĐiều kiện & Điều khoảnQuy chế hoạt độngCâu hỏi thường gặp
                        Đối Tác & Liên kết
                                    Vietnam
                                    Airlines
                            VNExpressTiki.vn - Mua sắm online
                        Được chứng nhận
                                iVIVU.com là một thành viên của Thiên Minh Groups
                                Bạn cần trợ giúp? Hãy gọi ngay
                                        CSKH: 1900 1870
                                        Khác:   (08) 3930 8290
                                         Từ 7h30 - 21h hằng ngày
                                    iVIVU.com © 2016 - 
                                        Hệ thống đặt phòng khách sạn trực tuyến hàng
                                        đầu Việt Nam
                                        DKKD: 0312788481, Ngày cấp: 21/05/2014, Sở kế hoạch đầu tư thành phố Hồ Chí Minh
                                        HCM: Lầu 7, Tòa nhà Anh Đăng, 215 Nam Kỳ Khởi Nghĩa, Phường 7, Quận 3, Tp. Hồ Chí Minh
                                        (Xem bản đồ)
                                        HN: Lầu 9, 70-72 Bà Triệu, Quận Hoàn Kiếm, Hà Nội
                                        (Xem bản đồ)
                                        Like để cập nhật cẩm nang du lịch
                                            tc@ivivu.com
    Xin Quý khách đợi trong giây lát
        Vui lòng để lại thông tin yêu cầu đặt phòng khách sạn của Quý khách.
                Giá chỉ mang tính chất tham khảo và không áp dụng vào các ngày lễ tết. Chúng tôi sẽ liên hệ lại trong 24h.
            Họ & Tên: 
            Số điện thoại: 
            Email: 
            Vùng/thành phố yêu cầu:
            Tên khách sạn:
                Ngày nhận phòng:
                Ngày trả phòng:
            Yêu cầu khác:
        Gửi yêu cầu
           ×
                Bản đồ
