url:https://www.ivivu.com/khach-san-phu-quoc?s=30
Tittle :Khách sạn Phú Quốc 3 sao
content :1900 1870từ 7h30-21h hàng ngày
                        Khách sạn
                        Tours
                        Ưu đãi đặc biệt
                        Cẩm nang du lịch
                    Giới thiệuHỏi đápHỗ trợ
                    >
                ×
                Thông tin đăng nhập
                        Tên đăng nhập:
                        Mật khẩu:
                Đăng nhập
                        Tìm nhanh khách sạn
                        Ngày nhận phòng
                        Số đêm
                                12345678910111213141516171819202122232425262728293030+
                        Ngày trả phòng
                         
                        Trang chủ
                        Việt Nam
                        Phú Quốc
                        3 sao 
                Khách sạn Phú Quốc 3 sao 
                Phú Quốc
                 XEM BẢN ĐỒ
                Cập nhật giá
                Sắp xếp theo: 
                                    iVIVU đề xuất
                                    Đề xuất
                                    Giá phòng
                                     Giá
                                    Hạng sao
                                         Sao
                        iVIVU đề xuấtGiá phòng - Tăng dần ▲Giá phòng - Giảm dần ▼Hạng sao - Tăng dần ▲Hạng sao - Giảm dần ▼
                    Khu nghỉ dưỡng Kim Hoa Phú Quốc
                 88/2 Đường Trần Hưng Đạo, Thị trấn Dương Đông, Phú Quốc, Việt Nam
                    8.2
                    Rất tốt
                                    44 nhận xét
                Bản đồ
                    Bãi biển riêngCách chợ đêm Dinh Cậu 5 phút lái xe
                    1.089.000 VND
                Chi tiết
                    Khách sạn Light House Phú Quốc
                 15 Trần Hưng Đạo, Tổ 7, thị trấn Dương Đông , đảo Phú Quốc, Việt Nam
                    7.7
                    Rất tốt
                                    15 nhận xét
                Bản đồ
                    Cách bãi biển 5 phút đi bộCách chợ đêm Dinh Cậu 3 phút đi bộ
                    707.410 VND
                Chi tiết
                    Khu Nghỉ Dưỡng Orange Phú Quốc
                 Số 88/5 Trần Hưng Đạo, Khu phố 7, Thị trấn Dương Đông, Huyện Phú Quốc, Tỉnh Kiên Giang, Việt Nam
                                    1 nhận xét
                Bản đồ
                    Bãi biển riêngHồ bơi ngoài trời
                        Liên hệ
                        1900 1870
                         giá rẻ bất ngờ
                Chi tiết
                    Khu nghỉ dưỡng Daisy Phú Quốc
                 Tổ 1, Trần Hưng Đạo, Khu Phố 7, Dương Đông, Phú Quốc, Việt Nam
                                    1 nhận xét
                Bản đồ
                    Cách biển 15 phút đi bộCách chợ đêm Dinh Cậu 7 phút lái xe
                    1.960.000 VND
                Chi tiết
                    Khách sạn Praha Phú Quốc
                 Trần Hưng Đạo, Dương Tơ, Phú Quốc, Việt Nam
                                Bản đồ
                    Cách bãi biển Cửa Lấp 10 phút đi bộCách chợ Dinh Cậu 8 phút lái xe
                    1.178.820 VND
                Chi tiết
                    Khu nghỉ dưỡng Tropicana Phú Quốc
                 100C/4 Trần Hưng Đạo, Dương Đông, Phú Quốc, Việt Nam
                                Bản đồ
                    Bãi biển riêngCách chợ đêm Dinh Cậu 4 phút lái xe
                    1.630.000 VND
                Chi tiết
                    Khu nghỉ dưỡng Mango Bay Phú Quốc
                 Bãi Biển Ông lang, Ông Lang, Đảo Phú Quốc, Việt Nam
                    8.9
                    Rất tốt
                                    15 nhận xét
                Bản đồ
                    Bãi biển riêngCách chợ đêm Dinh Cậu 20 phút lái xe
                    2.696.400 VND
                Chi tiết
                    Khu nghỉ dưỡng Arcadia Phú Quốc
                 Khu phố 7, Đường Trần Hưng Đạo, Thị trấn Dương Đông, Phú Quốc, Việt Nam
                    8.6
                    Rất tốt
                                    13 nhận xét
                Bản đồ
                    Cách chợ đêm Dinh Cậu 10 phút lái xeBãi biển riêng
                    961.552 VND
                Chi tiết
                    Khu Nghỉ Dưỡng Vela Phú Quốc
                 Tổ 3, ấp Ông Lang, xã Cửa Dương, huyện Phú Quốc, Tỉnh Kiên Giang, Việt Nam
                                Bản đồ
                    Cách biển 3 phút đi bộCách chợ đêm Dinh cậu 20 phút lái xe
                    1.132.800 VND
                Chi tiết
                    Chez Carole Resort & Spa Phú Quốc
                 Tổ 1, Ấp 4, Cửa Cạn, Đảo Phú Quốc, Việt Nam, Việt Nam
                                Bản đồ
                    Bãi biển riêngThiết kế ấn tượngCách chợ đêm Dinh Cậu 30 phút lái xe
                    1.200.000 VND
                Chi tiết
                    Khu Nghỉ Dưỡng Hồng Bin Bungalow Phú Quốc
                 Tổ 10, Khu phố 7, Dương Đông, Đảo Phú Quốc, Việt Nam, Việt Nam
                                Bản đồ
                    Cách chợ đêm Dinh Cậu 6 phút lái xeKhu biệt thựHồ bơi ngoài trời
                    925.761 VND
                Chi tiết
                    Khu nghỉ dưỡng Terrace Phú Quốc
                 118/6 Trần Hưng Đạo, Dương Đông, Đảo Phú Quốc, Việt Nam
                                Bản đồ
                    Cách bãi biển 5 phút đi bộCách chợ đêm Dinh Cậu 6 phút lái xe
                    1.532.820 VND
                Chi tiết
                    Khách sạn Hương Biển Phú Quốc
                 01 Võ Thị Sáu, Dương Đông, Đảo Phú Quốc, Việt Nam
                                    2 nhận xét
                Bản đồ
                    Cách chợ đêm Dinh Cậu 5 phút đi bộCách biển 3 phút đi bộ
                    1.340.000 VND
                Chi tiết
                    Tràng An Beach Resort & Spa Phú Quốc
                 60 Trần Hưng Đạo , Khu phố 7, Dương Đông, Phú Quốc, Việt Nam
                                Bản đồ
                    Cách chợ đêm Dinh cậu 5 phút đi bộCách biển 4 phút đi bộ
                    1.180.000 VND
                Chi tiết
                    Khu nghỉ dưỡng Thiên Hải Sơn Phú Quốc
                 68 Trần Hưng Đạo, Dương Đông, Phú Quốc, Việt Nam
                                Bản đồ
                    Cách bãi biển 3 phút đi bộCách chợ đêm Dinh Cậu 7 phút đi bộ
                    2.160.000 VND
                Chi tiết
    12
    22 khách sạn Phú Quốc
                    Cần tư vấn ? 
                    Gọi ngay
                    1900 1870
                 BỘ LỌC TÌM KIẾM
    Tìm khách sạn Phú Quốc
          Xếp hạng khách sạn Phú Quốc
            Tất cả
      Mức giá khách sạn Phú Quốc
        Tất cảDưới 500.000500.000 đến 1.000.0001.000.000 đến 2.000.0002.000.000 đến 5.000.000Trên 5.000.000
        Địa điểm khách sạn Phú Quốc
                        Tất cả
                        Bãi biển Cửa Lấp
                        Bãi biển Dương Đông
                        Bãi biển Ông Lang
                        Bãi Dài
                        Bãi Trường
                        Gần chợ đêm Dinh Cậu
                        Gành Dầu
                        Xem thêm
                        Thu gọn
    Tiện ích khách sạn Phú Quốc
            Tất cả
                            Phòng gia đình
                            Bãi đậu xe ô tô tại khách sạn
                            Thang máy
                            Hồ bơi
                            Phòng tập thể (dorm)
                            Kid Club
            Kinh nghiệm du lịch Phú Quốc
                        Là hòn đảo lớn nhất Việt Nam, Phú Quốc sở hữu những bãi biển trong vắt, những dòng suối yên bình cùng khu rừng nguyên sinh rộng lớn.
Nhắc tới Phú Quốc, không thể không nhắc tới bãi Sao, bãi Dài, đặc sản hồ tiêu, nước mắm, rượu sim hay ngọc trai... Còn nữa, Phú Quốc còn nhiều ẩn số đang chờ bạn khám phá đó, đừng bỏ lỡ!
                            Xem thêm
                                Đặt phòng theo đoàn?
                                iVIVU đảm bảo sẽ tìm kiếm deal tốt nhất cho bạn!
                        Đặt ngay 
                    ×
                    ĐẶT PHÒNG ĐOÀN
                        Khi đặt phòng theo đoàn với iVIVU.com, bạn sẽ có được khách sạn phù hợp nhất với giá tốt nhất mà không phải tốn thời gian tìm kiếm.
                                 Yêu cầu
                                         Điện thoại 
                                             Email
                                        *
                                 Vui lòng nhập địa điểm.
                                 Chưa nhập địa chỉ email hoặc địa chỉ email chưa đúng
                                 Vui lòng nhập số điện thoại.
                        • iVIVU.com cam kết đảm bảo an toàn thông tin của quý khách hàng. 
                        • Quý khách hàng có thể yêu cầu ngưng dịch vụ tìm kiếm deal tốt nhất bất cứ lúc nào.
                        Đặt phòng đoàn
                         Khách sạn Phú Quốc theo hạng sao
                            Khách sạn 1 sao tại Phú Quốc
                            Khách sạn 2 sao tại Phú Quốc
                            Khách sạn 3 sao tại Phú Quốc
                            Khách sạn 4 sao tại Phú Quốc
                            Khách sạn 5 sao tại Phú Quốc
                             Khách sạn Phú Quốc tại các địa điểm phổ biến
                                Bãi biển Cửa Lấp
                                Bãi biển Dương Đông
                                Bãi biển Ông Lang
                                Bãi Dài
                                Bãi Trường
                                Gần chợ đêm Dinh Cậu
                                Gành Dầu
                         Khách sạn tại các địa điểm du lịch nổi tiếng khác
                            Khách sạn Đak Nông
                            Khách sạn Ninh Thuận
                            Khách sạn Kon Tum
                            Khách sạn Quảng Trị
                            Khách sạn Tỉnh Quảng Bình
                            Khách sạn Gia Lai
                            Khách sạn Điện Biên
                            Khách sạn Vĩnh Phúc
                            Khách sạn Hà Tĩnh
                            Khách sạn Đồng Nai
                            Khách sạn Bình Dương
                            Khách sạn Bình Định
                            Khách sạn Hải Dương
                            Khách sạn Tiền Giang
                            Khách sạn Phú Yên
                            Khách sạn Tỉnh Kiên Giang
                            Khách sạn Đaklak
                            Khách sạn Cát Bà
                            Khách sạn Châu Đốc
                            Khách sạn Cần Thơ
                            Khách sạn Đà Nẵng
                            Khách sạn Phan Thiết
                            Khách sạn Nha Trang
                            Khách sạn Hà Nội
                            Khách sạn Huế
                            Khách sạn Hồ Chí Minh
                            Khách sạn Phan Rang
                            Khách sạn Long Hải
                            Khách sạn Mũi Né
                            Khách sạn Hội An
                            Khách sạn Vịnh Hạ Long
                            Khách sạn Tam Hải
                            Khách sạn Hồ Tràm
                            Khách sạn Vũng Tàu
                            Khách sạn Hải Phòng
                            Khách sạn Ninh Bình
                            Khách sạn Sapa
                            Khách sạn Côn Đảo
                            Khách sạn Nghệ An
                            Khách sạn Quảng Bình
                            Khách sạn Quy Nhơn
                            Khách sạn Thanh Hóa
                            Khách sạn Tuy Hòa
                            Khách sạn Đà Lạt
                            Khách sạn Lagi
                            Khách sạn Quảng Ngãi
                            Khách sạn Lăng Cô
                            Khách sạn Trảng Bom
                            Khách sạn Pleiku
                            Khách sạn Buôn Mê Thuột
                            Khách sạn Hà Giang
                            Khách sạn Cái Bè
                            Khách sạn Lào Cai
                    ×
                    Cập nhật giá khách sạn
                                                Ngày nhận
                                            Số đêm
                                                    12345678910111213141516171819202122232425262728293030+
                                                Ngày trả
                                            Số phòng
                                            Người lớn
                        Cập nhật lại giá khách sạn
                        Về iVIVU.comChúng tôiiVIVU BlogPMS - Miễn phí
                        Thông Tin Cần BiếtĐiều kiện & Điều khoảnQuy chế hoạt độngCâu hỏi thường gặp
                        Đối Tác & Liên kết
                                    Vietnam
                                    Airlines
                            VNExpressTiki.vn - Mua sắm online
                        Được chứng nhận
                                iVIVU.com là một thành viên của Thiên Minh Groups
                                Bạn cần trợ giúp? Hãy gọi ngay
                                        CSKH: 1900 1870
                                        Khác:   (08) 3930 8290
                                         Từ 7h30 - 21h hằng ngày
                                    iVIVU.com © 2016 - 
                                        Hệ thống đặt phòng khách sạn trực tuyến hàng
                                        đầu Việt Nam
                                        DKKD: 0312788481, Ngày cấp: 21/05/2014, Sở kế hoạch đầu tư thành phố Hồ Chí Minh
                                        HCM: Lầu 7, Tòa nhà Anh Đăng, 215 Nam Kỳ Khởi Nghĩa, Phường 7, Quận 3, Tp. Hồ Chí Minh
                                        (Xem bản đồ)
                                        HN: Lầu 9, 70-72 Bà Triệu, Quận Hoàn Kiếm, Hà Nội
                                        (Xem bản đồ)
                                        Like để cập nhật cẩm nang du lịch
                                            tc@ivivu.com
    Xin Quý khách đợi trong giây lát
        Vui lòng để lại thông tin yêu cầu đặt phòng khách sạn của Quý khách.
                Giá chỉ mang tính chất tham khảo và không áp dụng vào các ngày lễ tết. Chúng tôi sẽ liên hệ lại trong 24h.
            Họ & Tên: 
            Số điện thoại: 
            Email: 
            Vùng/thành phố yêu cầu:
            Tên khách sạn:
                Ngày nhận phòng:
                Ngày trả phòng:
            Yêu cầu khác:
        Gửi yêu cầu
           ×
                Bản đồ
