url:https://www.ivivu.com/khach-san-hong-kong/the-salisbury-ymca
Tittle :The Salisbury – YMCA of Hong Kong
content :1900 1870từ 7h30-21h hàng ngày
                        Khách sạn
                        Tours
                        Ưu đãi đặc biệt
                        Cẩm nang du lịch
                    Giới thiệuHỏi đápHỗ trợ
                    >
                ×
                Thông tin đăng nhập
                        Tên đăng nhập:
                        Mật khẩu:
                Đăng nhập
                        Tìm nhanh khách sạn
                        Ngày nhận phòng
                        Số đêm
                                12345678910111213141516171819202122232425262728293030+
                        Ngày trả phòng
                         
                        Trang chủ
                        Hongkong
                        Hong kong
                    The Salisbury – YMCA of Hong Kong
            The Salisbury – YMCA of Hong Kong
                        Giá chỉ từ
                            4.073.535 VND
                Đặt phòng này
                41 Salisbury Road, Tsim Sha Tsui, Hong Kong, Hongkong
                //cdn1.ivivu.com/iVivu/2015/11/05/10/the-salisbury-ymca-of-hong-kong.jpg
            Giá phòng tại The Salisbury – YMCA of Hong Kong
                            Ngày nhận phòng: 20-11-2016 - 21-11-2016
                            |1 đêm
                            |0 phòng
                            |0 người lớn
                            |0 trẻ em
                                    Thay đổi tìm kiếm
                        Rất tiếc chúng tôi không còn phòng trong thời gian này. Bạn vui lòng chọn thời gian khác.
                                            Ngày nhận phòng
                                            Ngày trả phòng
                                            Số đêm
                                        Số phòng
                                        Người lớn
                                        Trẻ em
                                        Cập nhật
    Đang lấy thông tin giá
    Giá phòng đã bao gồm: 10% thuế GTGT, 5% phí dịch vụ
    Loại phòngTối đaGiá phòng/đêmSố phòngĐặt phòng
        Tiện ích của The Salisbury – YMCA of Hong Kong
    Phục vụ phòng (có giới hạn thời gian)
    Máy ATM
    Phòng hút thuốc
        Thông tin The Salisbury – YMCA of Hong Kong
        Sở hữu trí\n Quý khách nghỉ tại The Salisbury -YMCA của Hồng Kông đặt bạn ở trung tâm của Kowloon, bước từ Trung tâm Văn hóa Hồng Kông và Nathan Road. Khách sạn dành cho gia đình này gần Avenue of Stars và Hong Kong Coliseum.\n\n phòng\n Làm cho mình ở nhà trong một trong số 363 phòng máy lạnh có tính năng minibar. Lập trình cáp cung cấp giải trí và truy cập Internet có dây và không dây miễn phí. Các tiện nghi bao gồm điện thoại, cũng như két và bàn.\n\n Rec, Spa, Tiện nghi cao cấp\n Thưởng thức một loạt các tiện nghi giải trí, bao gồm bể bơi trong nhà, bồn spa và tắm hơi. Khách sạn này cũng có truy cập Internet không dây ( tính phí) và một salon tóc.\n\n ăn uống\n Đáp ứng sự thèm ăn của bạn tại khách sạn
        Chính sách của The Salisbury – YMCA of Hong Kong
            Thời gian nhận phòng
            14:00
            Thời gian trả phòng 
            12:00
                        Hướng dẫn nhận phòng
                       - Quý khách vui lòng xuất trình Hộ chiếu/CMND và Phiếu nhận phòng của iVIVU.com khi nhận phòng tại khách sạn.  (Khách sạn có thể sẽ yêu cầu Quý khách số thẻ tín dụng hoặc tiền đặt cọc cho các dịch vụ phát sinh trong thời gian lưu trú của Quý khách)
Lưu ý dành cho khách hàng :
- Xuất trình Voucher khi nhận phòng do iVIVU.com cung cấp - Nhận phòng sớm hoặc trả phòng trễ phụ thuộc vào tình trạng phòng thực tế của Khách sạn.  - Mọi chi phí phát sinh không được xác nhận trong đặt phòng này, Quý khách vui lòng thanh toán trực tiếp tại Khách sạn.  - Nếu Quý khách có nhu cầu xuất hóa đơn vui lòng cung cấp thông tin và địa chỉ xuất hóa đơn ngay khi thanh toán đơn phòng. Chúng tôi sẽ không thể xuất hóa đơn nếu Quý khách gửi thông tin chậm hơn thời gian trên.
    Liên hệ Hotline1900 1870hoặc
        gửi yêu cầu
                                    Mở rộng bản đồ
                    Danh lam & Thắng cảnh
                            Trung tâm Văn hoá Hồng Kông - 0.1 km 
                            1881 Di sản - 0.1 km 
                            Bảo tàng Không gian Hồng Kông - 0.1 km 
                            Khu nhà Chungking - 0.2 km 
                            Khu tổng thể thương mại Habour City - 0.2 km 
                            Trung tâm Mua sắm Đường Nathan (Golden Mile) - 0.2 km 
                            iSQUARE - 0.2 km 
                            Tháp Đồng hồ Tsim Sha Tsui - 0.3 km 
                            Đại lộ các ngôi sao - 0.3 km 
                            Đường Canton - 0.3 km 
                    Sân bay chính  gần nhất
                    Hong Kong, Hong Kong (HKG-Hong Kong Intl.)
                Khu vực
                Sân bay thuận lợi nhất để đến The Salisbury -YMCA of Hong Kong là Sân bay Hồng Kông (HKG-Sân bay Quốc tế Hồng Kông) - 24,2 km / 15,1 mi. Khoảng cách được tính theo đường thẳng từ địa điểm của khách sạn đến điểm tham quan hoặc sân bay và có thể không phản ánh đường đi thực tế.  Khoảng cách được hiển thị đến 0,1 km và dặm gần nhất. 
            Khách sạn tương tự
                                        V Wanchai2 Hotel
                                        Khách sạn Ovolo Aberdeen Harbour
                                        B P International Hotel Hong Kong
                        Về iVIVU.comChúng tôiiVIVU BlogPMS - Miễn phí
                        Thông Tin Cần BiếtĐiều kiện & Điều khoảnQuy chế hoạt độngCâu hỏi thường gặp
                        Đối Tác & Liên kết
                                    Vietnam
                                    Airlines
                            VNExpressTiki.vn - Mua sắm online
                        Được chứng nhận
                                iVIVU.com là một thành viên của Thiên Minh Groups
                                Bạn cần trợ giúp? Hãy gọi ngay
                                        CSKH: 1900 1870
                                        Khác:   (08) 3930 8290
                                         Từ 7h30 - 21h hằng ngày
                                    iVIVU.com © 2016 - 
                                        Hệ thống đặt phòng khách sạn trực tuyến hàng
                                        đầu Việt Nam
                                        DKKD: 0312788481, Ngày cấp: 21/05/2014, Sở kế hoạch đầu tư thành phố Hồ Chí Minh
                                        HCM: Lầu 7, Tòa nhà Anh Đăng, 215 Nam Kỳ Khởi Nghĩa, Phường 7, Quận 3, Tp. Hồ Chí Minh
                                        (Xem bản đồ)
                                        HN: Lầu 9, 70-72 Bà Triệu, Quận Hoàn Kiếm, Hà Nội
                                        (Xem bản đồ)
                                        Like để cập nhật cẩm nang du lịch
                                            tc@ivivu.com
    Xin Quý khách đợi trong giây lát
        Vui lòng để lại thông tin yêu cầu đặt phòng khách sạn của Quý khách.
                Giá chỉ mang tính chất tham khảo và không áp dụng vào các ngày lễ tết. Chúng tôi sẽ liên hệ lại trong 24h.
            Họ & Tên: 
            Số điện thoại: 
            Email: 
            Vùng/thành phố yêu cầu:
            Tên khách sạn:
                Ngày nhận phòng:
                Ngày trả phòng:
            Yêu cầu khác:
        Gửi yêu cầu
           ×
                Bản đồ
                Hong kongThe Salisbury – YMCA of Hong Kong
