url:https://www.ivivu.com/khach-san-sapa/khach-san-asiana-sapa-thac-bac
Tittle :Khách sạn Asiana Sapa
content :1900 1870từ 7h30-21h hàng ngày
                        Khách sạn
                        Tours
                        Ưu đãi đặc biệt
                        Cẩm nang du lịch
                    Giới thiệuHỏi đápHỗ trợ
                    >
                ×
                Thông tin đăng nhập
                        Tên đăng nhập:
                        Mật khẩu:
                Đăng nhập
                        Tìm nhanh khách sạn
                        Ngày nhận phòng
                        Số đêm
                                12345678910111213141516171819202122232425262728293030+
                        Ngày trả phòng
                         
                        Trang chủ
                        Việt Nam
                        Sapa
                    Khách sạn Asiana Sapa
            Khách sạn Asiana Sapa
                        Giá chỉ từ
                            275.825 VND
                Đặt phòng này
                27 Đường Hoàng Liên, Thị Trấn Sapa, Lào Cai, Việt Nam
                //cdn1.ivivu.com/iVivu/2016/06/14/17/khach-san-asiana-sapa.jpg
            Giá phòng tại Khách sạn Asiana Sapa
                            Ngày nhận phòng: 19-11-2016 - 20-11-2016
                            |1 đêm
                            |0 phòng
                            |0 người lớn
                            |0 trẻ em
                                    Thay đổi tìm kiếm
                        Rất tiếc chúng tôi không còn phòng trong thời gian này. Bạn vui lòng chọn thời gian khác.
                                            Ngày nhận phòng
                                            Ngày trả phòng
                                            Số đêm
                                        Số phòng
                                        Người lớn
                                        Trẻ em
                                        Cập nhật
    Đang lấy thông tin giá
    Giá phòng đã bao gồm: 10% thuế GTGT, 5% phí dịch vụ
    Loại phòngTối đaGiá phòng/đêmSố phòngĐặt phòng
        Tiện ích của Khách sạn Asiana Sapa
    Dịch vụ thu đổi ngoại tệ
    Nhà hàng, Khu ăn uống
    Bãi đậu xe ô tô tại khách sạn
    Mở cửa 24/7
    Dịch vụ giặt ủi
    Phục vụ phòng
    Quầy bán tour
    Bàn làm việc
    Dịch vụ đưa đón sân bay
    Dịch vụ giữ hành lý
    Cho thuê xe
    Wifi / Internet
    Quầy lễ tân 24h
                Xem tất cả
        Thông tin Khách sạn Asiana Sapa
        Khách sạn Asiana Sapa tọa lạc trên đường Hoàng Liên cách núi Fansipan 7km. Với vị trí thuận lợi du khách có thể tham quan những địa điểm nổi tiếng tại đây một cách thuận lợi hơn, bên cạnh đó thiết kế của khách sạn với tấm nhìn ra quang cảnh núi non hoặc khu vườn tạo không gian thoáng đãng hơn cho du khách khi chọn khách sạn Asiana Sapa là nơi dừng chân cho mình.
Khách sạn có tất cả 20 phòng và một số phòng cho tầm nhìn ra quang cảnh núi non hoặc khu vườn. Tất cả các phòng đi kèm phòng tắm riêng.
        Chính sách của Khách sạn Asiana Sapa
            Thời gian nhận phòng
            14:00
            Thời gian trả phòng 
            12:00
                        Di chuyển
                        Hướng dẫn từ Hà Nội lên Lào Cai:
- Cách thuận tiện nhất để đến Sapa từ Hà Nội là đi bằng xe lửa từ Ga Hà Nội lên Ga Lào Cai chuyến tối. Hầu hết khách du lịch lên Sapa đều đón xe lửa đêm từ Hà Nội, xuất phát vào buổi tối từ Hà Nội và đến Lào Cai vào sáng hôm sau. Để đạp ứng nhu cầu của quý khách, Những công ty riêng còn cung cấp những dịch vụ toa tàu cao cấp. Những toa này rất sạch sẽ, thoải mái, tiện nghi với máy lạnh và giường mềm. Công ty đường sắt Việt Nam cũng có bán vé giường mềm. Quý khách có thể mua vé tàu rẻ tại ga Hà Nội và đắt hơn một chút từ những khách sạn tại khu phố cổ. Từ Sapa về Hà Nội: xe lửa từ Hà Nội đến Lào Cai sẽ dừng tại ga Lào Cai, chỉ cách khoảng 40km từ Sapa.
- Có Nhiều chuyến xe buýt đưa khách từ Hà Nội đến Sapa xuất phát vào nhiều giờ khác nhau trong ngày từ bến xe Mỹ Đình, xe cũng đón khách từ khách sạn ở khu phố cổ.
- Nếu muốn khám phá, quý khách có thể thuê xe máy lên Sapa, khoảng 10 giờ lái xe.
- Để đến Sapa, quý khách có thể đi xe buýt thêm hơn 1 giờ, xe riêng hoặc taxi. Khách sạn có cung cấp dịch vụ đón tại ga. Giá vé xe buýt từ ga Lào Cai đến Sapa khoảng 50.000 đồng/ 1 lượt(2.5 đô) hoặc đi bằng xe riêng ( chỉ từ $US30/xe) Khi đến Sapa, những xe buýt nhỏ thường đưa quý khách xuống phố. Thỉnh thoảng họ dừng tại trạm hoặc bên ngoài nhà thờ. Nhà thờ tọa lạc ngay trung tâm thị trấn Sapa và gần trạm xe buýt. Từ nhà thờ, đi xuống phố Mường Hoa, sau đó đi thẳng khoảng 5 phút. Khách sạn nằm ngay đường chính theo hướng đến làng dân tộc thiểu số Lao Chải và Tà Vân. Chỉ cách chợ Sapa 500m, có tầm nhìn hướng ra thung lũng Violet và ngon Fancipan. Rất thuận tiện để đón xe buýt đến ga Lào Cai.
..
                        Hướng dẫn nhận phòng
                        - Quý khách vui lòng xuất trình Hộ chiếu/CMND và Phiếu nhận phòng của iVIVU.com khi nhận phòng tại khách sạn. (Khách sạn có thể sẽ yêu cầu Quý khách số thẻ tín dụng hoặc tiền đặt cọc cho các dịch vụ phát sinh trong thời gian lưu trú của Quý khách) Lưu ý dành cho khách hàng : - Nhận phòng sớm hoặc trả phòng trễ phụ thuộc vào tình trạng phòng thực tế của Khách sạn. - Mọi chi phí phát sinh không được xác nhận trong đặt phòng này, Quý khách vui lòng thanh toán trực tiếp tại Khách sạn. - Nếu Quý khách có nhu cầu xuất hóa đơn vui lòng cung cấp thông tin và địa chỉ xuất hóa đơn ngay khi thanh toán đơn phòng. Chúng tôi sẽ không thể xuất hóa đơn nếu Quý khách gửi thông tin chậm hơn thời gian trên.
                        Chính sách phụ thu
                        - Miễn phí tối đa 1 trẻ em dưới 6 tuổi khi sử dụng chung giường với cha mẹ.
- Trẻ em từ 6-10 tuổi sử dụng chung giường với cha mẹ và phụ thu 110.000 VNĐ/trẻ em/đêm.
- Trẻ em từ 11 tuổi trở lên tính phụ thu như người lớn.
Extra Bed:
- Phòng Standard: 300.000 VNĐ/người/đêm.
- Phòng Superior, Deluxe, Suite: 350.000 VNĐ/người/đêm.
                        Hoạt động giải trí
                       Trung tâm văn hoá Sapa, chợ tình (05-10 phút đi xe máy), Nhà thờ đá (03 - 05 phút đi bộ), Núi Hàm Rồng (đi bộ 05 - 10 phút), Bản Cát Cát (đi bộ 20-30 phút), Bản Lao Chải, xã Tả Van (đi bộ 30 phút)...
                Đánh giá khách hàng về khách sạn Khách sạn Asiana Sapa
                        7.9 /10
                        Rất tốt 
                            7 đánh giá
                            Đánh giá gần đây
                                             Ngô Văn Trung
                                                7.5
                                                                                            Rất tốt 
                                                 25-01-2016
                                                Khách sạn tốt, nhân viên vui vẻ nhiệt tình, dịch vụ của iVIVU.com có chất lượng tốt.
                                             Lê Thanh Tùng
                                                8.0
                                                                                            Rất tốt 
                                                 18-01-2016
                                                Khách sạn tôi thấy rất tốt không có gì phàn nàn cả . Nhân viên Ivivu tư vấn nhiệt tình .
                                             Trịnh Thị Hồng Hạnh
                                                7.0
                                                                                            Rất tốt 
                                                 11-12-2015
                                                Thiết bị trong phòng không tốt. Tivi không mở được, tủ bị mốc, nhà vệ sinh không có giấy , rác của khách trước không đổ. Tuy nhiên nhân viên ở đây lại rất nhiệt tình, vui vẻ.
                                             Trần Văn Hanh
                                                8.0
                                                                                            Rất tốt 
                                                 01-12-2015
                                                Tôi hài lòng khi ở đây! Khách sạn có giá cả phù hợp, phòng ốc sạch sẽ và nhân viên thân thiện. Cảm ơn ivivu.com đã hỗ trợ trong chuyến đi này.
                                            Jomin J 
                                                9.0
                                                                                            Tuyệt vời 
                                                 06-08-2014
                                                Phòng lớn và sạch sẽ. Nhân viên thân thiện và đáng yêu, rất nhiệt tình với khách hàng. Mọi thứ nơi đây đều tuyệt vời.
                         2 nhận xét
    Liên hệ Hotline1900 1870hoặc
        gửi yêu cầu
                                    Mở rộng bản đồ
            Khách sạn tương tự
                                        Khách sạn Elysian Sapa
                                                                                                                1 nhận xét
                                        Khách sạn Fansipan View Sapa
                                                                                                                3 nhận xét
                                        Khách sạn Grand View Sapa
                                                                                                                2 nhận xét
                        Về iVIVU.comChúng tôiiVIVU BlogPMS - Miễn phí
                        Thông Tin Cần BiếtĐiều kiện & Điều khoảnQuy chế hoạt độngCâu hỏi thường gặp
                        Đối Tác & Liên kết
                                    Vietnam
                                    Airlines
                            VNExpressTiki.vn - Mua sắm online
                        Được chứng nhận
                                iVIVU.com là một thành viên của Thiên Minh Groups
                                Bạn cần trợ giúp? Hãy gọi ngay
                                        CSKH: 1900 1870
                                        Khác:   (08) 3930 8290
                                         Từ 7h30 - 21h hằng ngày
                                    iVIVU.com © 2016 - 
                                        Hệ thống đặt phòng khách sạn trực tuyến hàng
                                        đầu Việt Nam
                                        DKKD: 0312788481, Ngày cấp: 21/05/2014, Sở kế hoạch đầu tư thành phố Hồ Chí Minh
                                        HCM: Lầu 7, Tòa nhà Anh Đăng, 215 Nam Kỳ Khởi Nghĩa, Phường 7, Quận 3, Tp. Hồ Chí Minh
                                        (Xem bản đồ)
                                        HN: Lầu 9, 70-72 Bà Triệu, Quận Hoàn Kiếm, Hà Nội
                                        (Xem bản đồ)
                                        Like để cập nhật cẩm nang du lịch
                                            tc@ivivu.com
    Xin Quý khách đợi trong giây lát
        Vui lòng để lại thông tin yêu cầu đặt phòng khách sạn của Quý khách.
                Giá chỉ mang tính chất tham khảo và không áp dụng vào các ngày lễ tết. Chúng tôi sẽ liên hệ lại trong 24h.
            Họ & Tên: 
            Số điện thoại: 
            Email: 
            Vùng/thành phố yêu cầu:
            Tên khách sạn:
                Ngày nhận phòng:
                Ngày trả phòng:
            Yêu cầu khác:
        Gửi yêu cầu
           ×
                Bản đồ
                SapaKhách sạn Asiana Sapa
