url:https://www.ivivu.com/khach-san-da-nang/a-la-carte-da-nang-beach
Tittle :Khách sạn A La Carte Đà Nẵng Beach
content :1900 1870từ 7h30-21h hàng ngày
                        Khách sạn
                        Tours
                        Ưu đãi đặc biệt
                        Cẩm nang du lịch
                    Giới thiệuHỏi đápHỗ trợ
                    >
                ×
                Thông tin đăng nhập
                        Tên đăng nhập:
                        Mật khẩu:
                Đăng nhập
                        Tìm nhanh khách sạn
                        Ngày nhận phòng
                        Số đêm
                                12345678910111213141516171819202122232425262728293030+
                        Ngày trả phòng
                         
                        Trang chủ
                        Việt Nam
                        Đà Nẵng
                    Khách sạn A La Carte Đà Nẵng Beach
            Khách sạn A La Carte Đà Nẵng Beach
                        Giá chỉ từ
                            2.130.000 VND
                Đặt phòng này
                200 Võ Nguyên Giáp, Quận Sơn Trà, Tp. Đà Nẵng, Việt Nam
                //cdn1.ivivu.com/iVivu/2015/12/31/16/a-la-carte-da-nang-beach.png
                        Khuyến Mãi Đặt Sớm -15%
                chỉ có tại iVIVU.com
                Video vềKhách sạn A La Carte Đà Nẵng Beach
            Giá phòng tại Khách sạn A La Carte Đà Nẵng Beach
                            Ngày nhận phòng: 20-11-2016 - 21-11-2016
                            |1 đêm
                            |0 phòng
                            |0 người lớn
                            |0 trẻ em
                                    Thay đổi tìm kiếm
                        Rất tiếc chúng tôi không còn phòng trong thời gian này. Bạn vui lòng chọn thời gian khác.
                                            Ngày nhận phòng
                                            Ngày trả phòng
                                            Số đêm
                                        Số phòng
                                        Người lớn
                                        Trẻ em
                                        Cập nhật
    Đang lấy thông tin giá
    Giá phòng đã bao gồm: 10% thuế GTGT, 5% phí dịch vụ
    Loại phòngTối đaGiá phòng/đêmSố phòngĐặt phòng
        Tiện ích của Khách sạn A La Carte Đà Nẵng Beach
    Phòng họp/Dịch vụ hội nghị
    Wifi / Internet
    Spa/Beauty Salon/Massage
    Cho thuê xe
    Dịch vụ thu đổi ngoại tệ
    Phòng gia đình
    Ban công / Sân
    Nhà hàng, Khu ăn uống
    Dịch vụ giặt ủi
    Tủ lạnh
    Phục vụ phòng
    Dịch vụ dọn phòng
    Quầy lễ tân 24h
    Bar/Club/Pub
    Phòng tập thể dục
    Dịch vụ cho thuê xe đạp
    Dịch vụ đưa đón sân bay
    Dịch vụ giữ hành lý
    Kid Club
    Bãi đậu xe ô tô tại khách sạn
    Hồ bơi ngoài trời
    Quán cà phê
    Quầy bán tour
    Thang máy
    Truyền hình vệ tinh / cáp
                Xem tất cả
        Thông tin Khách sạn A La Carte Đà Nẵng Beach
        A La Carte Da Nang Beach Hotel là điểm lý tưởng cho du khách muốn khám phá Đà Nẵng. Khách sạn A La Carte Đà Nẵng tọa lạc tại bãi biển Mỹ Khê xinh đẹp. Khách sạn cách sân bay Đà Nẵng khoảng 6 km, cách Hội An khoảng 25 km.Với vị trí thuận lợi, khách sạn dễ dàng tiếp cận những điểm tham quan du lịch nổi tiếng của thành phố.
Tại A La Carte Da Nang Beach Hotel, mọi sự cố gắng đều nhằm mục đích khiến cho du khách hài lòng. Khách sạn trang bị một loạt thiết bị trực tuyến để nhằm thỏa mãn cả vị khách khó tính nhất. Ngoài ra, A La Carte Đà Nẵng sẽ là khách sạn đầu tiên tại Việt Nam có hồ bơi vô tận nằm trên tầng thượng với tầm nhìn ngoạn mục giúp du khách có những trải nghiệm khác biệt và thư giãn tuyệt đối.
Du khách có thể tận hưởng các hoạt động như lặn biển, lặn với ống thở, đi xe đạp hoặc câu cá. Các tiện nghi khác tại Alacarte bao gồm phòng chơi game, sân chơi trẻ em, thư viện và câu lạc bộ trẻ em.
        Chính sách của Khách sạn A La Carte Đà Nẵng Beach
            Thời gian nhận phòng
            14:00
            Thời gian trả phòng 
            11:00
                        Di chuyển
                        - Cách bãi tắm Phạm Văn Đồng 100m.
- Cách cầu Rồng 2.5km.
- Cách sân bay Quốc tế Đà Nẵng 5.8km.
                        Hướng dẫn nhận phòng
                        Quý khách vui lòng xuất trình Hộ chiếu/CMND và Phiếu nhận phòng của iVIVU.com khi nhận phòng tại khách sạn. (Khách sạn có thể sẽ yêu cầu Quý khách số thẻ tín dụng hoặc tiền đặt cọc cho các dịch vụ phát sinh trong thời gian lưu trú của Quý khách)
Lưu ý dành cho khách hàng : - Nhận phòng sớm hoặc trả phòng trễ phụ thuộc vào tình trạng phòng thực tế của Khách sạn. - Mọi chi phí phát sinh không được xác nhận trong đặt phòng này, Quý khách vui lòng thanh toán trực tiếp tại Khách sạn.
                        Chính sách phụ thu 
                       - Miễn phí tối đa 2 trẻ em dưới 6 tuổi khi sử dụng chung giường với cha mẹ.
- Trẻ em từ 6-11 tuổi sử dụng chung giường với cha mẹ phụ thu 150.000 VNĐ/trẻ em/đêm (không bao gồm ăn sáng) hoặc phụ thu 300.000 VNĐ/trẻ em/đêm bao gồm giường phụ (không bao gồm ăn sáng).
- Trẻ em từ 12 tuổi trở lên bắt buộc kê thêm giường phụ và phụ thu 500.000 VNĐ/trẻ em/đêm (không bao gồm ăn sáng).
- Phụ thu ăn sáng (áp dụng đến 30/10/2016):
+ Trẻ từ 6 -11 tuổi phụ thu: 90.000vnd/trẻ em/ngày
+ Trẻ từ 12 trở lên phụ thu: 180.000vnd/người/ngày
- Phụ thu ăn sáng (áp dụng từ 01/11/2016 đến 30/10/2017):
+ Trẻ từ 6 -11 tuổi phụ thu: 100.000vnd/trẻ em/ngày
+ Trẻ từ 12 trở lên phụ thu: 200.000vnd/người/ngày
Extra Bed: 500.000 VNĐ/người/đêm ( không bao gồm ăn sáng)
* Extrabed áp dụng cho các loại phòng Light, Light Plus, Delight
                Đánh giá khách hàng về khách sạn Khách sạn A La Carte Đà Nẵng Beach
                        9.0 /10
                        Tuyệt vời 
                            46 đánh giá
                            Đánh giá gần đây
                                             Trần Hà Nguyên
                                                9.0
                                                                                            Tuyệt vời 
                                                 12-08-2016
                                                Tôi cảm thấy hài lòng ở khách sạn về mọi mặt, chất lượng tốt, dịch vụ ổn. ivivu.com thì tư vấn cho tôi rất nhiệt tình.
                                            Dương Thanh Huyền
                                                10.0
                                                                                            Tuyệt vời 
                                                 10-08-2016
                                                Nhìn chung khách sạn trong chuyến đi Đà Nẵng của tôi rất tốt từ phòng ốc, thái độ nhân viên và dịch vụ, tuy nhiên đôi lúc hơi ồn. Bạn Mai bên ivivu tư vấn cho tôi rất nhiệt tình và vui vẻ.
                                             HO LIEN ANH
                                                8.0
                                                                                            Rất tốt 
                                                 24-01-2016
                                                Tôi thấy khách sạn này cũng không có gì đặc biệt tuy nhiên tôi thấy Lễ Tân làm thũ tục CI và CO khách hơi tôi nên không hài lòng lắm nên tôi cho 8 điểm . Nhân viên Ivivu thì hỗ trợ nhiệt tình và rất tốt.
                                             Vương Thị Thanh Thảo
                                                10.0
                                                                                            Tuyệt vời 
                                                 22-01-2016
                                                A La Carte và Morin thì mọi thứ đều rất tuyết vời nếu lần sau tôi có đi Đà Nẵng thì cũng sẽ ở lại đây . Nhân viên Ivivi thì tư vấn rất nhiệt tình , gọn gàng cũng confirm chu đáo nên tôi khá hài lòng. 
                                             Nguyễn Xuân Đàn
                                                8.0
                                                                                            Rất tốt 
                                                 22-01-2016
                                                Khách sạn ở tốt. Nhân viên vui vẻ, phòng sạch sẽ gọn gàng. Tuy nhiên, lúc đầu tôi đặt phòng hướng biển. Lúc tới lại đưa tôi nhận phòng không hướng biển, báo là kín phòng rồi. Lúc sau, khi tôi nói chuyện lại là có dặn trước, khách sạn lại đổi tôi qua phòng khác có hướng biển. Việc này chưa được hay lắm!
                         41 nhận xét
    Liên hệ Hotline1900 1870hoặc
        gửi yêu cầu
                                    Mở rộng bản đồ
                    Danh lam & Thắng cảnh
                            Bãi biển Mỹ Khê - 1.1 km 
                            Viện bảo tàng nghệ thuật điêu khắc Chăm - 2.6 km 
                            Núi Sơn Trà - 6.9 km 
                            Ngũ Hành Sơn - 7.4 km 
                Khu vực
                Sân bay thuận lợi nhất để đến Khách sạn A La Carte Đà Nẵng Beach là Sân bay Đà Nẵng (DAD-Sân bay Quốc tế Đà Nẵng) - 5 km / 3,1 mi. Khoảng cách được tính theo đường thẳng từ địa điểm của khách sạn đến điểm tham quan hoặc sân bay và có thể không phản ánh đường đi thực tế.  Khoảng cách được hiển thị đến 0,1 km và dặm gần nhất. 
            Gợi ý tours gần Khách sạn A La Carte Đà Nẵng Beach 
                        Tour Đà Nẵng 1N: Ngũ Hành Sơn - Hội An
                    500.000 VND
                            Tour Đà Nẵng 1N: Ngũ Hành Sơn - Hội An
                                 Trong ngày
                            Đà NẵngHội An
                            KH: Hằng ngày.
                            500.000 VND
                        Tour Đà Nẵng 1N: Cù Lao Chàm
                    600.000 VND
                            Tour Đà Nẵng 1N: Cù Lao Chàm
                                 Trong ngày
                            Cù Lao ChàmĐà Nẵng
                            KH: Hằng ngày.
                            600.000 VND
                        Tour Đà Nẵng 1N: Bán đảo Sơn Trà
                    690.000 VND
                            Tour Đà Nẵng 1N: Bán đảo Sơn Trà
                                 Trong ngày
                            Đà Nẵng
                            KH: Hằng ngày.
                            690.000 VND
                        Tour Đà Nẵng 1N: Khám phá rừng quốc gia Bạch Mã
                    750.000 VND
                            Tour Đà Nẵng 1N: Khám phá rừng quốc gia Bạch Mã
                                 Trong ngày
                            Đà Nẵng
                            KH: Hằng ngày. Áp dụng cho 5 khách trở lên.
                            750.000 VND
                        Tour Đà Nẵng 1N: Thánh địa Mỹ Sơn
                    750.000 VND
                            Tour Đà Nẵng 1N: Thánh địa Mỹ Sơn
                                 Trong ngày
                            Đà NẵngHội An
                            KH: Hằng ngày. Áp dụng đoàn 5 khách trở lên mới khởi hành.
                            750.000 VND
                        Tour Đà Nẵng 1N: Huế
                    800.000 VND
                            Tour Đà Nẵng 1N: Huế
                                 Trong ngày
                            Đà NẵngHuế
                            KH: Hằng ngày tại Đà Nẵng, tham quan Cố Đô Huế: Lăng Cô, Lăng Tự Đức, Đại Nội, Chùa Thiên Mụ
                            800.000 VND
                        Tour Đà Nẵng 1N: Hội An - Thánh địa Mỹ Sơn
                    850.000 VND
                            Tour Đà Nẵng 1N: Hội An - Thánh địa Mỹ Sơn
                                 Trong ngày
                            Đà NẵngHội An
                            KH: Hằng ngày. Ít nhất 5 khách mới khởi hành.
                            850.000 VND
                        Tour Đà Nẵng 1N : Bà Nà - Núi Chúa
                    950.000 VND
                            Tour Đà Nẵng 1N : Bà Nà - Núi Chúa
                                 Trong ngày
                            Đà Nẵng
                            KH: Hằng ngày.
                            950.000 VND
            Khách sạn tương tự
                                        Khách sạn Mường Thanh Đà Nẵng
                                        8.8
                                        Rất tốt
                                                                            49 nhận xét
                                        Holiday Beach Danang Hotel & Resort
                                        8.5
                                        Rất tốt
                                                                            15 nhận xét
                                        Khu nghỉ dưỡng The Blossom Đà Nẵng
                        Về iVIVU.comChúng tôiiVIVU BlogPMS - Miễn phí
                        Thông Tin Cần BiếtĐiều kiện & Điều khoảnQuy chế hoạt độngCâu hỏi thường gặp
                        Đối Tác & Liên kết
                                    Vietnam
                                    Airlines
                            VNExpressTiki.vn - Mua sắm online
                        Được chứng nhận
                                iVIVU.com là một thành viên của Thiên Minh Groups
                                Bạn cần trợ giúp? Hãy gọi ngay
                                        CSKH: 1900 1870
                                        Khác:   (08) 3930 8290
                                         Từ 7h30 - 21h hằng ngày
                                    iVIVU.com © 2016 - 
                                        Hệ thống đặt phòng khách sạn trực tuyến hàng
                                        đầu Việt Nam
                                        DKKD: 0312788481, Ngày cấp: 21/05/2014, Sở kế hoạch đầu tư thành phố Hồ Chí Minh
                                        HCM: Lầu 7, Tòa nhà Anh Đăng, 215 Nam Kỳ Khởi Nghĩa, Phường 7, Quận 3, Tp. Hồ Chí Minh
                                        (Xem bản đồ)
                                        HN: Lầu 9, 70-72 Bà Triệu, Quận Hoàn Kiếm, Hà Nội
                                        (Xem bản đồ)
                                        Like để cập nhật cẩm nang du lịch
                                            tc@ivivu.com
    Xin Quý khách đợi trong giây lát
        Vui lòng để lại thông tin yêu cầu đặt phòng khách sạn của Quý khách.
                Giá chỉ mang tính chất tham khảo và không áp dụng vào các ngày lễ tết. Chúng tôi sẽ liên hệ lại trong 24h.
            Họ & Tên: 
            Số điện thoại: 
            Email: 
            Vùng/thành phố yêu cầu:
            Tên khách sạn:
                Ngày nhận phòng:
                Ngày trả phòng:
            Yêu cầu khác:
        Gửi yêu cầu
           ×
                Bản đồ
                Đà NẵngKhách sạn A La Carte Đà Nẵng Beach
