url:https://www.ivivu.com/khach-san-maldives-asia?ps=5000000
Tittle :Khách sạn Maldives  trên 5.000.000 VND
content :1900 1870từ 7h30-21h hàng ngày
                        Khách sạn
                        Tours
                        Ưu đãi đặc biệt
                        Cẩm nang du lịch
                    Giới thiệuHỏi đápHỗ trợ
                    >
                ×
                Thông tin đăng nhập
                        Tên đăng nhập:
                        Mật khẩu:
                Đăng nhập
                        Tìm nhanh khách sạn
                        Ngày nhận phòng
                        Số đêm
                                12345678910111213141516171819202122232425262728293030+
                        Ngày trả phòng
                         
                        Trang chủ
                        Maldives
                         Trên 5.000.000 
                Khách sạn Maldives  trên 5.000.000 VND 
                Maldives
                 XEM BẢN ĐỒ
                Cập nhật giá
                Sắp xếp theo: 
                                    iVIVU đề xuất
                                    Đề xuất
                                    Giá phòng
                                     Giá
                                    Hạng sao
                                         Sao
                        iVIVU đề xuấtGiá phòng - Tăng dần ▲Giá phòng - Giảm dần ▼Hạng sao - Tăng dần ▲Hạng sao - Giảm dần ▼
                    Khu nghỉ dưỡng Club Med Kani
                 North Male Atoll, Kani Island, Maldives, Maldives
                                Bản đồ
                    Ở North Male AtollMaldives IslandsCách sân bay quốc tế Malé 20kmtiện nghisang trọnghoạt động thể thao dưới nướchoạt động thể thao và giải trí dành cho trẻ
                    15.536.613 VND
                Chi tiết
                    Khu nghỉ dưỡng Club Med Finolhu Villas
                 North Male Atoll, Finolhu Island, Maldives , Maldives
                                Bản đồ
                    thiên đường nghỉ dưỡngMaldives Islandssang trọng và cao cấp
                    36.580.440 VND
                Chi tiết
                    Bandos Island Resort & Spa Maldives
                 Bandos Maldives Bandos, North Male Atoll 08480, Maldives, Maldives
                                Bản đồ
                    Gần Bãi biển BandosGần Bãi biển Kuda Bandos
                    6.955.808 VND
                Chi tiết
                    Anantara Veli Resort & Spa Maldives
                 P.O. Box 2098 Veligandu, South Male Atoll  Male,  Maldives, Maldives
                                Bản đồ
                    Gần Bãi biển Bodu HurraaGần Maafushi Reef
                    17.360.268 VND
                Chi tiết
                    Sheraton Maldives Full Moon Resort & Spa
                 Furanafushi Island, North Male’ Atoll, Republic of Maldives, 08240 Furanafushi, Maldives, Maldives
                                Bản đồ
                    Gần Bãi biển KurumbaGần Bãi biển Paradise Island
                    10.664.660 VND
                Chi tiết
                    Khu nghỉ dưỡng The Sun Siyam Iru Fushi Maldives
                 P.O. Box 2036, Malé Noonu Atoll, Maldives, Maldives
                                Bản đồ
                    Noonu Atoll
                    6.282.308 VND
                Chi tiết
                    Khu nghỉ dưỡng Constance Halaveli Maldives
                 Halaveli, 20252 Hangnaameedhoo, Maldives, Maldives
                                Bản đồ
                    Gần Nhà đá ngầm FesduBắc Đảo san hô Ari
                    20.768.817 VND
                Chi tiết
                    Centara Ras Fushi Resort & Spa Maldives
                 North Male Atoll, Giraavarn Island,, 20225 Male City, Maldives, Maldives
                                Bản đồ
                    Gần Bãi biển LagunaGần Bảo tàng Quốc Gia
                    14.433.432 VND
                Chi tiết
                    Khu nghỉ dưỡng Conrad Maldives Rangali Island
                 Rangali Island, South Ari Atoll, Maldives Islands, Maldives 20077 , Maldives
                                Bản đồ
                    Ở Đảo Nam AriĐảo Rangali
                    20.795.474 VND
                Chi tiết
                    Khu nghỉ dưỡng Jumeirah Dhevanafushi Maldives
                 Meradhoo Island, Huvadhoo Atoll, Maldives Islands, Maldives, Maldives
                                Bản đồ
                    Ở Meradhoo
                    23.199.316 VND
                Chi tiết
                    Paradise Island Resort & Spa Maldives
                 Lankanfinolhu, 08420 Male City, Maldives, Maldives
                                Bản đồ
                    Gần Bãi biển Paradise IslandGần Orofino Jewellery
                    5.922.322 VND
                Chi tiết
                    Khách sạn Hulhule Island Maldives
                 Hulhule Island Hotel, P.O Box 2118, Male, Maldives, Maldives
                                Bản đồ
                    Ở Đảo Bắc MaleHulhule
                    6.463.285 VND
                Chi tiết
                    Khu nghỉ dưỡng Adaaran Select Meedhupparu Island Maldives
                 Raa Atoll, 05160 Meedhoo, Maldives, Maldives
                                Bản đồ
                    Ở Maldives’ Ra Atoll
                    8.983.905 VND
                Chi tiết
                    Khu nghỉ dưỡng Baros Maldives
                 PO Box 2015, North Male Atoll, 08120 Male City, Maldives, Maldives
                                Bản đồ
                    Gần Bãi biển AngsanaGần Bãi biển Vabbininfaru
                    17.416.177 VND
                Chi tiết
                    Anantara Dhigu Resort & Spa Maldives
                 Dhigufinolhu Island, PO Box 2014, South Male Atoll, 08190 Gulhi, Maldives, Maldives
                                Bản đồ
                    Gần Bãi biển Bodu HurraaGần Bãi biển Dhigufinolhu
                    17.738.184 VND
                Chi tiết
    123...5
    65 khách sạn Maldives
                        Cần đặt phòng? 
                        Gọi ngay
                        Vân Nguyễn
                            19001870
                 BỘ LỌC TÌM KIẾM
    Tìm khách sạn Maldives
          Xếp hạng khách sạn Maldives
            Tất cả
      Mức giá khách sạn Maldives
        Tất cảDưới 500.000500.000 đến 1.000.0001.000.000 đến 2.000.0002.000.000 đến 5.000.000Trên 5.000.000
            Địa điểm khách sạn Maldives
                        Tất cả
                        Addu Atoll
                        Ari Atoll
                        Baa Atoll
                        Dhigufinolhu
                        Dhonakulhi Island
                        Dhoni Mighili
                        Embudhufushi
                        Faafu Atoll
                        Felidhu Atoll
                        Funamadua
                        Gaafu Dhaalu Atoll
                        Gan
                        Guraidhoo
                        Haa Alifu Atoll
                        Hanimaadhoo
                        Hulhule Island
                        Hulhumalé Island
                        Ihuru
                        Komandoo
                        Laamu Atoll
                        Laviyani Atoll
                        Lily
                        Maafushi
                        Maalefushi
                        Madivaru
                        Maldives
                        Malé City
                        Malediven
                        Meemu Atoll
                        Meeru
                        Meradhoo Island
                        Mirihi
                        Nakatchafushi
                        Noonu Atoll
                        Nord Huvadhu Atoll
                        North Ari Atoll
                        North Male Atoll
                        Raa Atoll
                        Rangali
                        Rasdhu Atoll
                        Reethi
                        Shaviyani Atoll
                        South Male Atoll
                        South Nilandhe Atoll
                        Süd Ari Atoll
                        Süd Nilandhe Atoll
                        Thaa Atoll
                        Velassaru (Laguna)
                        Veligandu
                        Xem thêm
                        Thu gọn
    Tiện ích khách sạn Maldives
            Tất cả
                            Phòng gia đình
                            Bãi đậu xe ô tô tại khách sạn
                            Thang máy
                            Hồ bơi
                            Phòng tập thể (dorm)
                            Kid Club
                                Đặt phòng theo đoàn?
                                iVIVU đảm bảo sẽ tìm kiếm deal tốt nhất cho bạn!
                        Đặt ngay 
                    ×
                    ĐẶT PHÒNG ĐOÀN
                        Khi đặt phòng theo đoàn với iVIVU.com, bạn sẽ có được khách sạn phù hợp nhất với giá tốt nhất mà không phải tốn thời gian tìm kiếm.
                                 Yêu cầu
                                         Điện thoại 
                                             Email
                                        *
                                 Vui lòng nhập địa điểm.
                                 Chưa nhập địa chỉ email hoặc địa chỉ email chưa đúng
                                 Vui lòng nhập số điện thoại.
                        • iVIVU.com cam kết đảm bảo an toàn thông tin của quý khách hàng. 
                        • Quý khách hàng có thể yêu cầu ngưng dịch vụ tìm kiếm deal tốt nhất bất cứ lúc nào.
                        Đặt phòng đoàn
                         Khách sạn Maldives theo hạng sao
                            Khách sạn 1 sao tại Maldives
                            Khách sạn 2 sao tại Maldives
                            Khách sạn 3 sao tại Maldives
                            Khách sạn 4 sao tại Maldives
                            Khách sạn 5 sao tại Maldives
                             Khách sạn Maldives tại các địa điểm phổ biến
                         Khách sạn tại các địa điểm du lịch nổi tiếng khác
                            Khách sạn Việt Nam
                            Khách sạn United Arab Emirates
                            Khách sạn Afghanistan
                            Khách sạn Armenia
                            Khách sạn Aserbaidshan
                            Khách sạn Bangladesh
                            Khách sạn Bahrain
                            Khách sạn Brunei Darussalam
                            Khách sạn Bhutan
                            Khách sạn China
                            Khách sạn Hongkong
                            Khách sạn Indonesia
                            Khách sạn Israel
                            Khách sạn India
                            Khách sạn Iraq
                            Khách sạn Iran
                            Khách sạn Jordan
                            Khách sạn Japan
                            Khách sạn Kyrgystan
                            Khách sạn Cambodia
                            Khách sạn Korea, Republic of
                            Khách sạn Kuwait
                            Khách sạn Kazakstan
                            Khách sạn Lao People's Democratic Republic
                            Khách sạn Lebanon
                            Khách sạn Sri Lanka
                            Khách sạn Myanmar
                            Khách sạn Mongolia
                            Khách sạn Macau
                            Khách sạn Malaysia
                            Khách sạn Nepal
                            Khách sạn Oman
                            Khách sạn Philippines
                            Khách sạn Pakistan
                            Khách sạn Qatar
                            Khách sạn Saudi Arabia
                            Khách sạn Singapore
                            Khách sạn Syrian Arab Republic
                            Khách sạn Thailand
                            Khách sạn Tajikistan
                            Khách sạn East Timor
                            Khách sạn Turkmenistan
                            Khách sạn Taiwan, Province of China
                            Khách sạn Uzbekistan
                            Khách sạn Yemen
                            Khách sạn Campuchia
                    ×
                    Cập nhật giá khách sạn
                                                Ngày nhận
                                            Số đêm
                                                    12345678910111213141516171819202122232425262728293030+
                                                Ngày trả
                                            Số phòng
                                            Người lớn
                        Cập nhật lại giá khách sạn
                        Về iVIVU.comChúng tôiiVIVU BlogPMS - Miễn phí
                        Thông Tin Cần BiếtĐiều kiện & Điều khoảnQuy chế hoạt độngCâu hỏi thường gặp
                        Đối Tác & Liên kết
                                    Vietnam
                                    Airlines
                            VNExpressTiki.vn - Mua sắm online
                        Được chứng nhận
                                iVIVU.com là một thành viên của Thiên Minh Groups
                                Bạn cần trợ giúp? Hãy gọi ngay
                                        CSKH: 1900 1870
                                        Khác:   (08) 3930 8290
                                         Từ 7h30 - 21h hằng ngày
                                    iVIVU.com © 2016 - 
                                        Hệ thống đặt phòng khách sạn trực tuyến hàng
                                        đầu Việt Nam
                                        DKKD: 0312788481, Ngày cấp: 21/05/2014, Sở kế hoạch đầu tư thành phố Hồ Chí Minh
                                        HCM: Lầu 7, Tòa nhà Anh Đăng, 215 Nam Kỳ Khởi Nghĩa, Phường 7, Quận 3, Tp. Hồ Chí Minh
                                        (Xem bản đồ)
                                        HN: Lầu 9, 70-72 Bà Triệu, Quận Hoàn Kiếm, Hà Nội
                                        (Xem bản đồ)
                                        Like để cập nhật cẩm nang du lịch
                                            tc@ivivu.com
    Xin Quý khách đợi trong giây lát
        Vui lòng để lại thông tin yêu cầu đặt phòng khách sạn của Quý khách.
                Giá chỉ mang tính chất tham khảo và không áp dụng vào các ngày lễ tết. Chúng tôi sẽ liên hệ lại trong 24h.
            Họ & Tên: 
            Số điện thoại: 
            Email: 
            Vùng/thành phố yêu cầu:
            Tên khách sạn:
                Ngày nhận phòng:
                Ngày trả phòng:
            Yêu cầu khác:
        Gửi yêu cầu
           ×
                Bản đồ
