url:https://www.ivivu.com/khach-san-slovakia
Tittle :Khách sạn Slovakia  giá rẻ từ
content :1900 1870từ 7h30-21h hàng ngày
                        Khách sạn
                        Tours
                        Ưu đãi đặc biệt
                        Cẩm nang du lịch
                    Giới thiệuHỏi đápHỗ trợ
                    >
                ×
                Thông tin đăng nhập
                        Tên đăng nhập:
                        Mật khẩu:
                Đăng nhập
                        Tìm nhanh khách sạn
                        Ngày nhận phòng
                        Số đêm
                                12345678910111213141516171819202122232425262728293030+
                        Ngày trả phòng
                         
                        Trang chủ
                        Slovakia
                Khách sạn Slovakia 
                Slovakia
                 XEM BẢN ĐỒ
                Cập nhật giá
                Sắp xếp theo: 
                                    iVIVU đề xuất
                                    Đề xuất
                                    Giá phòng
                                     Giá
                                    Hạng sao
                                         Sao
                        iVIVU đề xuấtGiá phòng - Tăng dần ▲Giá phòng - Giảm dần ▼Hạng sao - Tăng dần ▲Hạng sao - Giảm dần ▼
                    Color
                 Pri Starom myte 1, Slovakia
                                Bản đồ
                    Gần Zlate Piesky
                    982.369 VND
                Chi tiết
                    Best Western Hotel West
                 Koliba Kamzik, Slovakia
                                Bản đồ
                    Gần Đài Truyền Hình Kamzik
                    994.927 VND
                Chi tiết
                    Slovakia
                 Namestie Ludovita Stura 2, Slovakia
                                Bản đồ
                    Gần Marianske Namestie
                    1.037.353 VND
                Chi tiết
                    Set
                 Kalinčiakova 29/A831 03 Bratislava, Slovakia
                                Bản đồ
                    Ở Nivy Bratislava
                    1.131.787 VND
                Chi tiết
                    Best Western Antares
                 Sulekova 15, Slovakia
                                Bản đồ
                    Gần Đài tưởng niệm Slavin
                    1.217.643 VND
                Chi tiết
                    Hotel Saffron
                 Radlinského 27811 07 Bratislava, Slovakia
                                Bản đồ
                    Gần Cung điện Tổng Giám mục
                    1.249.215 VND
                Chi tiết
                    Chopin Hotel Bratislava
                 Galvaniho Street 28, Slovakia
                                Bản đồ
                    Gần Zlate Piesky
                    1.255.832 VND
                Chi tiết
                    Ibis Bratislava Centrum
                 Zamocka 38, Slovakia
                                Bản đồ
                    Gần Nhà thờ St. Martin&rsquo;s
                    1.268.904 VND
                Chi tiết
                    Botel Gracia
                 Razusovo Nabrezie, Slovakia
                                Bản đồ
                    Gần Cầu Mới
                    1.281.461 VND
                Chi tiết
                    Botel Marina
                 Nabrezie arm. Gen. L. Svobodu, Slovakia
                                Bản đồ
                    Gần Lâu đài Bratislava
                    1.281.461 VND
                Chi tiết
                    Apollo Dukla
                 Dulovo Namestie 1, Slovakia
                                Bản đồ
                    Ở Nivy Bratislava
                    1.388.336 VND
                Chi tiết
                    abba Bratislava
                 Štefánikova 481105 Bratislava, Slovakia
                                Bản đồ
                    Gần Đài tưởng niệm Slavin
                    1.507.742 VND
                Chi tiết
                    Park Inn Danube
                 Rybne Namestie 1, Slovakia
                                Bản đồ
                    Gần Nhà thờ St. Martin&rsquo;s
                    1.512.124 VND
                Chi tiết
                    Holiday Inn Bratislava
                 Bajkalska 25/A, Slovakia
                                Bản đồ
                    Ở Nivy Bratislava
                    1.512.124 VND
                Chi tiết
                    Austria Trend Bratislava
                 Vysoka 2A, Slovakia
                                Bản đồ
                    Gần Cung điện Tổng Giám mục
                    1.601.826 VND
                Chi tiết
    1234
    50 khách sạn Slovakia
                    Cần tư vấn ? 
                    Gọi ngay
                    1900 1870
                 BỘ LỌC TÌM KIẾM
    Tìm khách sạn Slovakia
          Xếp hạng khách sạn Slovakia
            Tất cả
      Mức giá khách sạn Slovakia
        Tất cảDưới 500.000500.000 đến 1.000.0001.000.000 đến 2.000.0002.000.000 đến 5.000.000Trên 5.000.000
            Địa điểm khách sạn Slovakia
                        Tất cả
                        Bad Pistyan
                        Banska Bystrica
                        Banska Stiavnica (Schemnitz)
                        Bardejov
                        Bela (Nitriansky kraj)
                        Benesova
                        Besenova
                        Bojnice
                        Bratislava
                        Brezno / Tale
                        Cadca-Rakova
                        Demänova Dolina
                        Devin
                        Dolny Kubin/Orava
                        Dolny Smokovec
                        Donovaly
                        Dubovica-Zliabky
                        Dudince
                        Dunjaska Streda
                        Hodrusa Hámre
                        Holic
                        Horny Smokivec
                        Horny Vadicov
                        Hrinova
                        Humenne
                        Jasná
                        Kaluza
                        Kezmarok
                        Komarno
                        Kosice
                        Kremnica
                        Krompachy
                        Krpacovo
                        Levice
                        Levoca
                        Limbach
                        Liptovska Sielnica
                        Liptovsky Hradok
                        Liptovsky Jan
                        Liptovsky Mikulas
                        Liptovsky Trnovec
                        Lozorno
                        Lucenec
                        Lucky
                        Mala Lucivna
                        Malatiny
                        Martin
                        Mlynky
                        Modra
                        Myto pod Dumbierom
                        Namestovo
                        Nitra
                        Nitrianske Rudno
                        Nova Lesna
                        Nové Zámky
                        Novy Smokovec
                        Oponice
                        Oravska Lesna
                        Oscadnica
                        Parnica
                        Patince
                        Pezinok
                        Piestany
                        Podbanske
                        Podbrezová
                        Poprad
                        Presov
                        Pribylina
                        Prievidza
                        Puchov
                        Rajecke Teplice
                        Ruzomberok
                        Sachticky Spania Dolina
                        Salgovce
                        Senec
                        Skalica
                        Sliac
                        Sliace
                        Smizany
                        Spisska Nova Ves
                        Spisské Podhradie
                        Stara Lesna
                        Stara Lubovna
                        Stara Tura
                        Stary Smokovec
                        Stola
                        Strbske Pleso
                        Svätý Jur
                        Tale
                        Tatranska Javorina
                        Tatranska Lomnica
                        Tatranska Matliare
                        Tatranska Polianka
                        Tatranska Strba
                        Teplicka nad Vahom
                        Terchova
                        Topolcany
                        Trencianske Teplice
                        Trencin
                        Trnava
                        Trstena
                        Turcianske Teplice
                        Valcianska Dolina/Kleine Fatra
                        Velka Lomnica
                        Velky Meder
                        Velky Slavkov
                        Vricko
                        Vyhne
                        Vysna Boca
                        Vysne Ruzbachy
                        Vysoké Tatry
                        Zazriva
                        Zdiar
                        Zeliezovce
                        Zilina
                        Zuberec
                        Zvolen
                        Xem thêm
                        Thu gọn
    Tiện ích khách sạn Slovakia
            Tất cả
                            Phòng gia đình
                            Bãi đậu xe ô tô tại khách sạn
                            Thang máy
                            Hồ bơi
                            Phòng tập thể (dorm)
                            Kid Club
                                Đặt phòng theo đoàn?
                                iVIVU đảm bảo sẽ tìm kiếm deal tốt nhất cho bạn!
                        Đặt ngay 
                    ×
                    ĐẶT PHÒNG ĐOÀN
                        Khi đặt phòng theo đoàn với iVIVU.com, bạn sẽ có được khách sạn phù hợp nhất với giá tốt nhất mà không phải tốn thời gian tìm kiếm.
                                 Yêu cầu
                                         Điện thoại 
                                             Email
                                        *
                                 Vui lòng nhập địa điểm.
                                 Chưa nhập địa chỉ email hoặc địa chỉ email chưa đúng
                                 Vui lòng nhập số điện thoại.
                        • iVIVU.com cam kết đảm bảo an toàn thông tin của quý khách hàng. 
                        • Quý khách hàng có thể yêu cầu ngưng dịch vụ tìm kiếm deal tốt nhất bất cứ lúc nào.
                        Đặt phòng đoàn
                         Khách sạn Slovakia theo hạng sao
                            Khách sạn 1 sao tại Slovakia
                            Khách sạn 2 sao tại Slovakia
                            Khách sạn 3 sao tại Slovakia
                            Khách sạn 4 sao tại Slovakia
                            Khách sạn 5 sao tại Slovakia
                             Khách sạn Slovakia tại các địa điểm phổ biến
                         Khách sạn tại các địa điểm du lịch nổi tiếng khác
                            Khách sạn Andorra
                            Khách sạn Albania
                            Khách sạn Austria
                            Khách sạn Bosnia and Herzigovina
                            Khách sạn Belgium
                            Khách sạn Bulgaria
                            Khách sạn Belarus
                            Khách sạn Switzerland
                            Khách sạn Cyprus
                            Khách sạn Czech Republic
                            Khách sạn Germany
                            Khách sạn Denmark
                            Khách sạn Estland
                            Khách sạn Spain
                            Khách sạn Finland
                            Khách sạn Faeroe Islands
                            Khách sạn France
                            Khách sạn United Kingdom
                            Khách sạn Georgia
                            Khách sạn Gibralter
                            Khách sạn Greenland
                            Khách sạn Greece
                            Khách sạn Croatia
                            Khách sạn Hungary
                            Khách sạn Eire / Ireland
                            Khách sạn Iceland
                            Khách sạn Italy
                            Khách sạn Liechtenstein
                            Khách sạn Lithuania
                            Khách sạn Luxembourg
                            Khách sạn Latvia
                            Khách sạn Monaco
                            Khách sạn Moldova
                            Khách sạn Montenegro
                            Khách sạn Macedonia (FYROM)
                            Khách sạn Northern Mariana Islands
                            Khách sạn Malta
                            Khách sạn Netherlands
                            Khách sạn Norway
                            Khách sạn Poland
                            Khách sạn Portugal
                            Khách sạn Romania
                            Khách sạn Serbia
                            Khách sạn Russian Federation
                            Khách sạn Sweden
                            Khách sạn Slovenia
                            Khách sạn San Marino
                            Khách sạn Turkey
                            Khách sạn Ukraine
                    ×
                    Cập nhật giá khách sạn
                                                Ngày nhận
                                            Số đêm
                                                    12345678910111213141516171819202122232425262728293030+
                                                Ngày trả
                                            Số phòng
                                            Người lớn
                        Cập nhật lại giá khách sạn
                        Về iVIVU.comChúng tôiiVIVU BlogPMS - Miễn phí
                        Thông Tin Cần BiếtĐiều kiện & Điều khoảnQuy chế hoạt độngCâu hỏi thường gặp
                        Đối Tác & Liên kết
                                    Vietnam
                                    Airlines
                            VNExpressTiki.vn - Mua sắm online
                        Được chứng nhận
                                iVIVU.com là một thành viên của Thiên Minh Groups
                                Bạn cần trợ giúp? Hãy gọi ngay
                                        CSKH: 1900 1870
                                        Khác:   (08) 3930 8290
                                         Từ 7h30 - 21h hằng ngày
                                    iVIVU.com © 2016 - 
                                        Hệ thống đặt phòng khách sạn trực tuyến hàng
                                        đầu Việt Nam
                                        DKKD: 0312788481, Ngày cấp: 21/05/2014, Sở kế hoạch đầu tư thành phố Hồ Chí Minh
                                        HCM: Lầu 7, Tòa nhà Anh Đăng, 215 Nam Kỳ Khởi Nghĩa, Phường 7, Quận 3, Tp. Hồ Chí Minh
                                        (Xem bản đồ)
                                        HN: Lầu 9, 70-72 Bà Triệu, Quận Hoàn Kiếm, Hà Nội
                                        (Xem bản đồ)
                                        Like để cập nhật cẩm nang du lịch
                                            tc@ivivu.com
    Xin Quý khách đợi trong giây lát
        Vui lòng để lại thông tin yêu cầu đặt phòng khách sạn của Quý khách.
                Giá chỉ mang tính chất tham khảo và không áp dụng vào các ngày lễ tết. Chúng tôi sẽ liên hệ lại trong 24h.
            Họ & Tên: 
            Số điện thoại: 
            Email: 
            Vùng/thành phố yêu cầu:
            Tên khách sạn:
                Ngày nhận phòng:
                Ngày trả phòng:
            Yêu cầu khác:
        Gửi yêu cầu
           ×
                Bản đồ
