url:https://www.ivivu.com/khach-san-afghanistan
Tittle :Khách sạn Afghanistan  giá rẻ từ
content :1900 1870từ 7h30-21h hàng ngày
                        Khách sạn
                        Tours
                        Ưu đãi đặc biệt
                        Cẩm nang du lịch
                    Giới thiệuHỏi đápHỗ trợ
                    >
                ×
                Thông tin đăng nhập
                        Tên đăng nhập:
                        Mật khẩu:
                Đăng nhập
                        Tìm nhanh khách sạn
                        Ngày nhận phòng
                        Số đêm
                                12345678910111213141516171819202122232425262728293030+
                        Ngày trả phòng
                         
                        Trang chủ
                        Afghanistan
                Khách sạn Afghanistan 
                Afghanistan
                 XEM BẢN ĐỒ
                Cập nhật giá
                Sắp xếp theo: 
                                    iVIVU đề xuất
                                    Đề xuất
                                    Giá phòng
                                     Giá
                                    Hạng sao
                                         Sao
                        iVIVU đề xuấtGiá phòng - Tăng dần ▲Giá phòng - Giảm dần ▼Hạng sao - Tăng dần ▲Hạng sao - Giảm dần ▼
    Rất tiếc, không tìm thấy khách sạn nào trong này.Vui lòng thử lại hoặc liên hệ HOTLINE 1900 1870 để được hỗ trợ.
                    Cần tư vấn ? 
                    Gọi ngay
                    1900 1870
                 BỘ LỌC TÌM KIẾM
    Tìm khách sạn Afghanistan
          Xếp hạng khách sạn Afghanistan
            Tất cả
      Mức giá khách sạn Afghanistan
        Tất cảDưới 500.000500.000 đến 1.000.0001.000.000 đến 2.000.0002.000.000 đến 5.000.000Trên 5.000.000
            Địa điểm khách sạn Afghanistan
                        Tất cả
                        Kabul
                        Xem thêm
                        Thu gọn
    Tiện ích khách sạn Afghanistan
            Tất cả
                            Phòng gia đình
                            Bãi đậu xe ô tô tại khách sạn
                            Thang máy
                            Hồ bơi
                            Phòng tập thể (dorm)
                            Kid Club
                                Đặt phòng theo đoàn?
                                iVIVU đảm bảo sẽ tìm kiếm deal tốt nhất cho bạn!
                        Đặt ngay 
                    ×
                    ĐẶT PHÒNG ĐOÀN
                        Khi đặt phòng theo đoàn với iVIVU.com, bạn sẽ có được khách sạn phù hợp nhất với giá tốt nhất mà không phải tốn thời gian tìm kiếm.
                                 Yêu cầu
                                         Điện thoại 
                                             Email
                                        *
                                 Vui lòng nhập địa điểm.
                                 Chưa nhập địa chỉ email hoặc địa chỉ email chưa đúng
                                 Vui lòng nhập số điện thoại.
                        • iVIVU.com cam kết đảm bảo an toàn thông tin của quý khách hàng. 
                        • Quý khách hàng có thể yêu cầu ngưng dịch vụ tìm kiếm deal tốt nhất bất cứ lúc nào.
                        Đặt phòng đoàn
                         Khách sạn Afghanistan theo hạng sao
                            Khách sạn 1 sao tại Afghanistan
                            Khách sạn 2 sao tại Afghanistan
                            Khách sạn 3 sao tại Afghanistan
                            Khách sạn 4 sao tại Afghanistan
                            Khách sạn 5 sao tại Afghanistan
                             Khách sạn Afghanistan tại các địa điểm phổ biến
                         Khách sạn tại các địa điểm du lịch nổi tiếng khác
                            Khách sạn Việt Nam
                            Khách sạn United Arab Emirates
                            Khách sạn Armenia
                            Khách sạn Aserbaidshan
                            Khách sạn Bangladesh
                            Khách sạn Bahrain
                            Khách sạn Brunei Darussalam
                            Khách sạn Bhutan
                            Khách sạn China
                            Khách sạn Hongkong
                            Khách sạn Indonesia
                            Khách sạn Israel
                            Khách sạn India
                            Khách sạn Iraq
                            Khách sạn Iran
                            Khách sạn Jordan
                            Khách sạn Japan
                            Khách sạn Kyrgystan
                            Khách sạn Cambodia
                            Khách sạn Korea, Republic of
                            Khách sạn Kuwait
                            Khách sạn Kazakstan
                            Khách sạn Lao People's Democratic Republic
                            Khách sạn Lebanon
                            Khách sạn Sri Lanka
                            Khách sạn Myanmar
                            Khách sạn Mongolia
                            Khách sạn Macau
                            Khách sạn Maldives
                            Khách sạn Malaysia
                            Khách sạn Nepal
                            Khách sạn Oman
                            Khách sạn Philippines
                            Khách sạn Pakistan
                            Khách sạn Qatar
                            Khách sạn Saudi Arabia
                            Khách sạn Singapore
                            Khách sạn Syrian Arab Republic
                            Khách sạn Thailand
                            Khách sạn Tajikistan
                            Khách sạn East Timor
                            Khách sạn Turkmenistan
                            Khách sạn Taiwan, Province of China
                            Khách sạn Uzbekistan
                            Khách sạn Yemen
                            Khách sạn Campuchia
                    ×
                    Cập nhật giá khách sạn
                                                Ngày nhận
                                            Số đêm
                                                    12345678910111213141516171819202122232425262728293030+
                                                Ngày trả
                                            Số phòng
                                            Người lớn
                        Cập nhật lại giá khách sạn
                        Về iVIVU.comChúng tôiiVIVU BlogPMS - Miễn phí
                        Thông Tin Cần BiếtĐiều kiện & Điều khoảnQuy chế hoạt độngCâu hỏi thường gặp
                        Đối Tác & Liên kết
                                    Vietnam
                                    Airlines
                            VNExpressTiki.vn - Mua sắm online
                        Được chứng nhận
                                iVIVU.com là một thành viên của Thiên Minh Groups
                                Bạn cần trợ giúp? Hãy gọi ngay
                                        CSKH: 1900 1870
                                        Khác:   (08) 3930 8290
                                         Từ 7h30 - 21h hằng ngày
                                    iVIVU.com © 2016 - 
                                        Hệ thống đặt phòng khách sạn trực tuyến hàng
                                        đầu Việt Nam
                                        DKKD: 0312788481, Ngày cấp: 21/05/2014, Sở kế hoạch đầu tư thành phố Hồ Chí Minh
                                        HCM: Lầu 7, Tòa nhà Anh Đăng, 215 Nam Kỳ Khởi Nghĩa, Phường 7, Quận 3, Tp. Hồ Chí Minh
                                        (Xem bản đồ)
                                        HN: Lầu 9, 70-72 Bà Triệu, Quận Hoàn Kiếm, Hà Nội
                                        (Xem bản đồ)
                                        Like để cập nhật cẩm nang du lịch
                                            tc@ivivu.com
    Xin Quý khách đợi trong giây lát
        Vui lòng để lại thông tin yêu cầu đặt phòng khách sạn của Quý khách.
                Giá chỉ mang tính chất tham khảo và không áp dụng vào các ngày lễ tết. Chúng tôi sẽ liên hệ lại trong 24h.
            Họ & Tên: 
            Số điện thoại: 
            Email: 
            Vùng/thành phố yêu cầu:
            Tên khách sạn:
                Ngày nhận phòng:
                Ngày trả phòng:
            Yêu cầu khác:
        Gửi yêu cầu
           ×
                Bản đồ
