url:https://www.ivivu.com/khach-san-ha-noi?s=50
Tittle :Khách sạn Hà Nội 5 sao
content :1900 1870từ 7h30-21h hàng ngày
                        Khách sạn
                        Tours
                        Ưu đãi đặc biệt
                        Cẩm nang du lịch
                    Giới thiệuHỏi đápHỗ trợ
                    >
                ×
                Thông tin đăng nhập
                        Tên đăng nhập:
                        Mật khẩu:
                Đăng nhập
                        Tìm nhanh khách sạn
                        Ngày nhận phòng
                        Số đêm
                                12345678910111213141516171819202122232425262728293030+
                        Ngày trả phòng
                         
                        Trang chủ
                        Việt Nam
                        Hà Nội
                        5 sao 
                Khách sạn Hà Nội 5 sao 
                Hà Nội
                 XEM BẢN ĐỒ
                Cập nhật giá
                Sắp xếp theo: 
                                    iVIVU đề xuất
                                    Đề xuất
                                    Giá phòng
                                     Giá
                                    Hạng sao
                                         Sao
                        iVIVU đề xuấtGiá phòng - Tăng dần ▲Giá phòng - Giảm dần ▼Hạng sao - Tăng dần ▲Hạng sao - Giảm dần ▼
                    Khách sạn Somerset Grand Hà Nội
                 49 Hai Bà Trưng, Quận Hoàn Kiếm, Hà Nội, Việt Nam
                    9.2
                    Tuyệt vời
                                    15 nhận xét
                Bản đồ
                    Hồ bơi ngoài trờiSân tennisPhòng gia đìnhBãi đỗ xePhòng gymTrung tâm thành phố Hà Nội
                    3.034.073 VND
                Chi tiết
                    Khách sạn Pan Pacific Hà Nội
                 01 Đường Thanh Niên, Quận Ba Đình, Hà Nội, Việt Nam
                                Bản đồ
                    Đối diện Hồ TâyHồ bơi trong nhàPhòng gia đìnhBãi đậu xe ô tô
                    2.811.996 VND
                Chi tiết
                    Khách sạn Somerset Hòa Bình Hà Nội
                 106 Hoàng Quốc Việt, Quận Cầu Giấy, Hà Nội, Việt Nam
                    7.7
                    Rất tốt
                                    10 nhận xét
                Bản đồ
                    Khu vui chơi trẻ emPhòng tập gymThư viện điện tửHồ bơi trong nhàBãi đậu xe ô tô
                    2.162.000 VND
                Chi tiết
                    Khách sạn Boss Legend Hà Nội
                 21 Hàng Thùng, Hoàn Kiếm, Hà Nội, Việt Nam
                                Bản đồ
                    Cách Phố cổ 5 phút đi bộDịch vụ spaPhòng gymBãi đậu xe ô tôPhòng gia đình
                    1.708.883 VND
                Chi tiết
                    Khách sạn Fraser Suites Hà Nội
                 51 Xuân Diệu, Tây Hồ, Hà Nội, Việt Nam
                    9.1
                    Tuyệt vời
                                    18 nhận xét
                Bản đồ
                    Cách Hồ Tây 5 phút đi bộHồ bơi ngoài trờiPhòng gymKhu vui chơi trẻ emPhòng gia đìnhBãi đậu xe
                    3.276.483 VND
                Chi tiết
                    Khách sạn Daewoo Hà Nội
                 360 Kim Mã, Quận Ba Đình, Việt Nam
                    8.4
                    Rất tốt
                                    18 nhận xét
                Bản đồ
                    Hồ bơi ngoài trờiKhu vui chơi trẻ emPhòng gymDịch vụ spaBãi đậu xe
                    2.359.736 VND
                Chi tiết
                    Khách sạn Melia Hà Nội
                 44-B Lý Thường Kiệt, Hà Nội, Việt Nam
                    8.3
                    Rất tốt
                                    23 nhận xét
                Bản đồ
                    Trung tâm thành phố Hà NộiHồ bơi ngoài trờiBãi đậu xeDịch vụ spa
                    6.500.000 VND
                Chi tiết
                    Khu căn hộ cao cấp Daeha Hà Nội
                 360 Kim Mã, quận Ba Đình, Việt Nam
                                Bản đồ
                    Hồ bơi ngoài trờiDịch vụ spaBãi đậu xe miễn phíGần công viên Thủ Lệ và Lăng Bác
                    1.749.720 VND
                Chi tiết
                    Intercontinental Hanoi Westlake
                 1a Nghi Tam Tay Ho, Việt Nam
                                Bản đồ
                    Đối diện Hồ TâyHồ bơi ngoài trờiPhòng gymBãi đậu xe miễn phí
                    2.658.513 VND
                Chi tiết
                    Khách sạn JW Marriott Hà Nội
                 08 Đỗ Đức Dục, Mễ Trì, Từ Liêm, Hà Nội, Việt Nam
                                Bản đồ
                    Bãi đậu xe miễn phíHồ bơi trong nhà
                        Liên hệ
                        1900 1870
                         giá rẻ bất ngờ
                Chi tiết
                    Khách sạn Sofitel  Legend Metropole Hà Nội
                 15 Ngô Quyền, Quận Hoàn Kiếm, Hà Nội, Việt Nam
                                Bản đồ
                    Hồ bơiDịch vụ trông trẻ
                        Liên hệ
                        1900 1870
                         giá rẻ bất ngờ
                Chi tiết
                    Khách sạn Lotte Hà Nội
                  54 Liễu Giai, Ba Đình, Hà Nội, Việt Nam
                                Bản đồ
                    Hồ bơiBãi đạu xe miên phí
                        Liên hệ
                        1900 1870
                         giá rẻ bất ngờ
                Chi tiết
    12 khách sạn Hà Nội
                        Cần đặt phòng? 
                        Gọi ngay
                        Diễm Nguyễn
                            19001870
                 BỘ LỌC TÌM KIẾM
    Tìm khách sạn Hà Nội
          Xếp hạng khách sạn Hà Nội
            Tất cả
      Mức giá khách sạn Hà Nội
        Tất cảDưới 500.000500.000 đến 1.000.0001.000.000 đến 2.000.0002.000.000 đến 5.000.000Trên 5.000.000
        Địa điểm khách sạn Hà Nội
                        Tất cả
                        Gần chợ Đồng Xuân
                        Gần Ga Hà Nội
                        Gần Hồ Hoàn Kiếm
                        Gần Hồ Tây
                        Hồ Gươm
                        Phố cổ Hà Nội
                        Quận Hoàn Kiếm
                        Sân vận động Mỹ Đình
                        Trung tâm hội nghị Quốc Tế
                        Trung tâm thành phố Hà Nội
                        Xem thêm
                        Thu gọn
    Tiện ích khách sạn Hà Nội
            Tất cả
                            Phòng gia đình
                            Bãi đậu xe ô tô tại khách sạn
                            Thang máy
                            Hồ bơi
                            Phòng tập thể (dorm)
                            Kid Club
            Kinh nghiệm du lịch Hà Nội
                        Nếu đã một lần du lịch Hà Nội, chắc chắn bạn không thể nào quên không khí đặc trưng nơi đây, với Hồ Gươm, Hồ Tây, chùa Một Cột, những quán cafe trầm mặc, những con đường nhỏ thấp thoáng bóng cô gánh hàng rong…
Hà Nội hội tụ đủ 4 mùa xuân hạ thu đông, dù đến vào thời gian nào cũng mang đến cho bạn nhiều cảm xúc khó tả. Hãy cùng iVIVU.com lưu lại những kinh nghiệm bổ ích để khám phá một Hà Nội đầy đủ nhất theo cách của bạn nhé!
                            Xem thêm
                                Đặt phòng theo đoàn?
                                iVIVU đảm bảo sẽ tìm kiếm deal tốt nhất cho bạn!
                        Đặt ngay 
                    ×
                    ĐẶT PHÒNG ĐOÀN
                        Khi đặt phòng theo đoàn với iVIVU.com, bạn sẽ có được khách sạn phù hợp nhất với giá tốt nhất mà không phải tốn thời gian tìm kiếm.
                                 Yêu cầu
                                         Điện thoại 
                                             Email
                                        *
                                 Vui lòng nhập địa điểm.
                                 Chưa nhập địa chỉ email hoặc địa chỉ email chưa đúng
                                 Vui lòng nhập số điện thoại.
                        • iVIVU.com cam kết đảm bảo an toàn thông tin của quý khách hàng. 
                        • Quý khách hàng có thể yêu cầu ngưng dịch vụ tìm kiếm deal tốt nhất bất cứ lúc nào.
                        Đặt phòng đoàn
                         Khách sạn Hà Nội theo hạng sao
                            Khách sạn 1 sao tại Hà Nội
                            Khách sạn 2 sao tại Hà Nội
                            Khách sạn 3 sao tại Hà Nội
                            Khách sạn 4 sao tại Hà Nội
                            Khách sạn 5 sao tại Hà Nội
                             Khách sạn Hà Nội tại các địa điểm phổ biến
                                Gần chợ Đồng Xuân
                                Gần Ga Hà Nội
                                Gần Hồ Hoàn Kiếm
                                Gần Hồ Tây
                                Hồ Gươm
                                Phố cổ Hà Nội
                                Quận Hoàn Kiếm
                                Sân vận động Mỹ Đình
                                Trung tâm hội nghị Quốc Tế
                                Trung tâm thành phố Hà Nội
                         Khách sạn tại các địa điểm du lịch nổi tiếng khác
                            Khách sạn Đak Nông
                            Khách sạn Ninh Thuận
                            Khách sạn Kon Tum
                            Khách sạn Quảng Trị
                            Khách sạn Tỉnh Quảng Bình
                            Khách sạn Gia Lai
                            Khách sạn Điện Biên
                            Khách sạn Vĩnh Phúc
                            Khách sạn Hà Tĩnh
                            Khách sạn Đồng Nai
                            Khách sạn Bình Dương
                            Khách sạn Bình Định
                            Khách sạn Hải Dương
                            Khách sạn Tiền Giang
                            Khách sạn Phú Yên
                            Khách sạn Tỉnh Kiên Giang
                            Khách sạn Đaklak
                            Khách sạn Cát Bà
                            Khách sạn Châu Đốc
                            Khách sạn Cần Thơ
                            Khách sạn Phú Quốc
                            Khách sạn Đà Nẵng
                            Khách sạn Phan Thiết
                            Khách sạn Nha Trang
                            Khách sạn Huế
                            Khách sạn Hồ Chí Minh
                            Khách sạn Phan Rang
                            Khách sạn Long Hải
                            Khách sạn Mũi Né
                            Khách sạn Hội An
                            Khách sạn Vịnh Hạ Long
                            Khách sạn Tam Hải
                            Khách sạn Hồ Tràm
                            Khách sạn Vũng Tàu
                            Khách sạn Hải Phòng
                            Khách sạn Ninh Bình
                            Khách sạn Sapa
                            Khách sạn Côn Đảo
                            Khách sạn Nghệ An
                            Khách sạn Quảng Bình
                            Khách sạn Quy Nhơn
                            Khách sạn Thanh Hóa
                            Khách sạn Tuy Hòa
                            Khách sạn Đà Lạt
                            Khách sạn Lagi
                            Khách sạn Quảng Ngãi
                            Khách sạn Lăng Cô
                            Khách sạn Trảng Bom
                            Khách sạn Pleiku
                            Khách sạn Buôn Mê Thuột
                            Khách sạn Hà Giang
                            Khách sạn Cái Bè
                            Khách sạn Lào Cai
                    ×
                    Cập nhật giá khách sạn
                                                Ngày nhận
                                            Số đêm
                                                    12345678910111213141516171819202122232425262728293030+
                                                Ngày trả
                                            Số phòng
                                            Người lớn
                        Cập nhật lại giá khách sạn
                        Về iVIVU.comChúng tôiiVIVU BlogPMS - Miễn phí
                        Thông Tin Cần BiếtĐiều kiện & Điều khoảnQuy chế hoạt độngCâu hỏi thường gặp
                        Đối Tác & Liên kết
                                    Vietnam
                                    Airlines
                            VNExpressTiki.vn - Mua sắm online
                        Được chứng nhận
                                iVIVU.com là một thành viên của Thiên Minh Groups
                                Bạn cần trợ giúp? Hãy gọi ngay
                                        CSKH: 1900 1870
                                        Khác:   (08) 3930 8290
                                         Từ 7h30 - 21h hằng ngày
                                    iVIVU.com © 2016 - 
                                        Hệ thống đặt phòng khách sạn trực tuyến hàng
                                        đầu Việt Nam
                                        DKKD: 0312788481, Ngày cấp: 21/05/2014, Sở kế hoạch đầu tư thành phố Hồ Chí Minh
                                        HCM: Lầu 7, Tòa nhà Anh Đăng, 215 Nam Kỳ Khởi Nghĩa, Phường 7, Quận 3, Tp. Hồ Chí Minh
                                        (Xem bản đồ)
                                        HN: Lầu 9, 70-72 Bà Triệu, Quận Hoàn Kiếm, Hà Nội
                                        (Xem bản đồ)
                                        Like để cập nhật cẩm nang du lịch
                                            tc@ivivu.com
    Xin Quý khách đợi trong giây lát
        Vui lòng để lại thông tin yêu cầu đặt phòng khách sạn của Quý khách.
                Giá chỉ mang tính chất tham khảo và không áp dụng vào các ngày lễ tết. Chúng tôi sẽ liên hệ lại trong 24h.
            Họ & Tên: 
            Số điện thoại: 
            Email: 
            Vùng/thành phố yêu cầu:
            Tên khách sạn:
                Ngày nhận phòng:
                Ngày trả phòng:
            Yêu cầu khác:
        Gửi yêu cầu
           ×
                Bản đồ
