url:https://www.ivivu.com/khach-san-jakarta?pd=500000
Tittle :Khách sạn Jakarta  dưới 500.000 VND
content :1900 1870từ 7h30-21h hàng ngày
                        Khách sạn
                        Tours
                        Ưu đãi đặc biệt
                        Cẩm nang du lịch
                    Giới thiệuHỏi đápHỗ trợ
                    >
                ×
                Thông tin đăng nhập
                        Tên đăng nhập:
                        Mật khẩu:
                Đăng nhập
                        Tìm nhanh khách sạn
                        Ngày nhận phòng
                        Số đêm
                                12345678910111213141516171819202122232425262728293030+
                        Ngày trả phòng
                         
                        Trang chủ
                        Indonesia
                        Jakarta
                          Dưới 500.000
                Khách sạn Jakarta  dưới 500.000 VND 
                Jakarta
                 XEM BẢN ĐỒ
                Cập nhật giá
                Sắp xếp theo: 
                                    iVIVU đề xuất
                                    Đề xuất
                                    Giá phòng
                                     Giá
                                    Hạng sao
                                         Sao
                        iVIVU đề xuấtGiá phòng - Tăng dần ▲Giá phòng - Giảm dần ▼Hạng sao - Tăng dần ▲Hạng sao - Giảm dần ▼
                    Batavia
                 Jl. Kali Besar Barat 44-46, Indonesia
                                Bản đồ
                    Gần Bảo tàng Rối
                        Liên hệ
                        1900 1870
                         giá rẻ bất ngờ
                Chi tiết
                    Neo Mangga Dua
                 Rukan Mangga Dua Square Blok A No. 10 - 23, Jakarta, Indonesia
                                Bản đồ
                    Ở Thị trấn Old Jakarta Thủ đô Jakarta
                        Liên hệ
                        1900 1870
                         giá rẻ bất ngờ
                Chi tiết
    2 khách sạn Jakarta
                        Cần đặt phòng? 
                        Gọi ngay
                        Vân Nguyễn
                            19001870
                 BỘ LỌC TÌM KIẾM
    Tìm khách sạn Jakarta
          Xếp hạng khách sạn Jakarta
            Tất cả
      Mức giá khách sạn Jakarta
        Tất cảDưới 500.000500.000 đến 1.000.0001.000.000 đến 2.000.0002.000.000 đến 5.000.000Trên 5.000.000
        Địa điểm khách sạn Jakarta
                        Tất cả
                        Gần Bảo tàng Lâm nghiệp
                        Gần Bảo tàng Lưu trữ Quốc gia
                        Gần Bảo tàng Rối
                        Gần Công viên Giải trí Ismail Marzuki
                        Gần Công viên Văn hóa Taman Mini Indonesia Indah
                        Gần Cung điện thủ tướng
                        Gần Đài tưởng niệm Quốc gia
                        Gần Karang Setra Water Park
                        Gần Khu mua sắm mái vòm Bellezza
                        Gần Khu nghỉ mát Ancol Dreamland
                        Gần Khu vui chơi Giggle the Fun Factory
                        Gần Kidzania
                        Gần Lokasari Plaza
                        Gần Mal Ciputra Jakarta
                        Gần Mangga Dua
                        Gần Nhà thờ Jakarta
                        Gần Pasar Baru
                        Gần Phòng triển lãm Quốc gia In-đô-nê-xi-a
                        Gần Plaza Glodok
                        Gần Sân Gôn Cengkareng
                        Gần Sân vận động Bung Karno
                        Gần Sarinah Mall
                        Gần SeaWorld Indonesia
                        Gần Setiabudi One
                        Gần Tanah Abang Market
                        Gần Thamrin City Shopping Mall
                        Gần Trung tâm Mua sắm Mal Kelapa Gading
                        Gần Trung tâm mua sắm Orchid Garden
                        Gần Trung tâm Thương mại Ciputra World 1
                        Gần Trung tâm Thương mại In-đô-nê-xi-a
                        Gần Trung tâm thương mại Kota Kasablanka
                        Gần Trung tâm Thương mại Semanggi
                        Ở Cengkareng
                        Ở Cilandak
                        Ở Gambir
                        Ở Kebayoran Baru
                        Ở Menteng
                        Ở Palmerah
                        Ở Sunter
                        Ở Tam Giác Vàng
                        Ở Tanah Abang
                        Ở Thị trấn Old Jakarta
                        Thủ đô Jakarta
                        Xem thêm
                        Thu gọn
    Tiện ích khách sạn Jakarta
            Tất cả
                            Phòng gia đình
                            Bãi đậu xe ô tô tại khách sạn
                            Thang máy
                            Hồ bơi
                            Phòng tập thể (dorm)
                            Kid Club
                                Đặt phòng theo đoàn?
                                iVIVU đảm bảo sẽ tìm kiếm deal tốt nhất cho bạn!
                        Đặt ngay 
                    ×
                    ĐẶT PHÒNG ĐOÀN
                        Khi đặt phòng theo đoàn với iVIVU.com, bạn sẽ có được khách sạn phù hợp nhất với giá tốt nhất mà không phải tốn thời gian tìm kiếm.
                                 Yêu cầu
                                         Điện thoại 
                                             Email
                                        *
                                 Vui lòng nhập địa điểm.
                                 Chưa nhập địa chỉ email hoặc địa chỉ email chưa đúng
                                 Vui lòng nhập số điện thoại.
                        • iVIVU.com cam kết đảm bảo an toàn thông tin của quý khách hàng. 
                        • Quý khách hàng có thể yêu cầu ngưng dịch vụ tìm kiếm deal tốt nhất bất cứ lúc nào.
                        Đặt phòng đoàn
                         Khách sạn Jakarta theo hạng sao
                            Khách sạn 1 sao tại Jakarta
                            Khách sạn 2 sao tại Jakarta
                            Khách sạn 3 sao tại Jakarta
                            Khách sạn 4 sao tại Jakarta
                            Khách sạn 5 sao tại Jakarta
                         Khách sạn tại các địa điểm du lịch nổi tiếng khác
                            Khách sạn Việt Nam
                            Khách sạn United Arab Emirates
                            Khách sạn Afghanistan
                            Khách sạn Armenia
                            Khách sạn Aserbaidshan
                            Khách sạn Bangladesh
                            Khách sạn Bahrain
                            Khách sạn Brunei Darussalam
                            Khách sạn Bhutan
                            Khách sạn China
                            Khách sạn Hongkong
                            Khách sạn Indonesia
                            Khách sạn Israel
                            Khách sạn India
                            Khách sạn Iraq
                            Khách sạn Iran
                            Khách sạn Jordan
                            Khách sạn Japan
                            Khách sạn Kyrgystan
                            Khách sạn Cambodia
                            Khách sạn Korea, Republic of
                            Khách sạn Kuwait
                            Khách sạn Kazakstan
                            Khách sạn Lao People's Democratic Republic
                            Khách sạn Lebanon
                            Khách sạn Sri Lanka
                            Khách sạn Myanmar
                            Khách sạn Mongolia
                            Khách sạn Macau
                            Khách sạn Maldives
                            Khách sạn Malaysia
                            Khách sạn Nepal
                            Khách sạn Oman
                            Khách sạn Philippines
                            Khách sạn Pakistan
                            Khách sạn Qatar
                            Khách sạn Saudi Arabia
                            Khách sạn Singapore
                            Khách sạn Syrian Arab Republic
                            Khách sạn Thailand
                            Khách sạn Tajikistan
                            Khách sạn East Timor
                            Khách sạn Turkmenistan
                            Khách sạn Taiwan, Province of China
                            Khách sạn Uzbekistan
                            Khách sạn Yemen
                            Khách sạn Campuchia
                    ×
                    Cập nhật giá khách sạn
                                                Ngày nhận
                                            Số đêm
                                                    12345678910111213141516171819202122232425262728293030+
                                                Ngày trả
                                            Số phòng
                                            Người lớn
                        Cập nhật lại giá khách sạn
                        Về iVIVU.comChúng tôiiVIVU BlogPMS - Miễn phí
                        Thông Tin Cần BiếtĐiều kiện & Điều khoảnQuy chế hoạt độngCâu hỏi thường gặp
                        Đối Tác & Liên kết
                                    Vietnam
                                    Airlines
                            VNExpressTiki.vn - Mua sắm online
                        Được chứng nhận
                                iVIVU.com là một thành viên của Thiên Minh Groups
                                Bạn cần trợ giúp? Hãy gọi ngay
                                        CSKH: 1900 1870
                                        Khác:   (08) 3930 8290
                                         Từ 7h30 - 21h hằng ngày
                                    iVIVU.com © 2016 - 
                                        Hệ thống đặt phòng khách sạn trực tuyến hàng
                                        đầu Việt Nam
                                        DKKD: 0312788481, Ngày cấp: 21/05/2014, Sở kế hoạch đầu tư thành phố Hồ Chí Minh
                                        HCM: Lầu 7, Tòa nhà Anh Đăng, 215 Nam Kỳ Khởi Nghĩa, Phường 7, Quận 3, Tp. Hồ Chí Minh
                                        (Xem bản đồ)
                                        HN: Lầu 9, 70-72 Bà Triệu, Quận Hoàn Kiếm, Hà Nội
                                        (Xem bản đồ)
                                        Like để cập nhật cẩm nang du lịch
                                            tc@ivivu.com
    Xin Quý khách đợi trong giây lát
        Vui lòng để lại thông tin yêu cầu đặt phòng khách sạn của Quý khách.
                Giá chỉ mang tính chất tham khảo và không áp dụng vào các ngày lễ tết. Chúng tôi sẽ liên hệ lại trong 24h.
            Họ & Tên: 
            Số điện thoại: 
            Email: 
            Vùng/thành phố yêu cầu:
            Tên khách sạn:
                Ngày nhận phòng:
                Ngày trả phòng:
            Yêu cầu khác:
        Gửi yêu cầu
           ×
                Bản đồ
