url:https://www.ivivu.com/khach-san-phuket/khach-san-phuket-island-view
Tittle :Khách sạn Phuket Island View
content :1900 1870từ 7h30-21h hàng ngày
                        Khách sạn
                        Tours
                        Ưu đãi đặc biệt
                        Cẩm nang du lịch
                    Giới thiệuHỏi đápHỗ trợ
                    >
                ×
                Thông tin đăng nhập
                        Tên đăng nhập:
                        Mật khẩu:
                Đăng nhập
                        Tìm nhanh khách sạn
                        Ngày nhận phòng
                        Số đêm
                                12345678910111213141516171819202122232425262728293030+
                        Ngày trả phòng
                         
                        Trang chủ
                        Thailand
                        Phuket
                    Khách sạn Phuket Island View
            Khách sạn Phuket Island View
                        Giá chỉ từ
                            1.269.625 VND
                Đặt phòng này
                144 Karon Road, Tambon Karon, Karon, Phuket, Thailand 83100, Thailand
                //cdn1.ivivu.com/iVivu/2016/09/27/14/khach-san-phuket-island-view.png
            Giá phòng tại Khách sạn Phuket Island View
                            Ngày nhận phòng: 20-11-2016 - 21-11-2016
                            |1 đêm
                            |0 phòng
                            |0 người lớn
                            |0 trẻ em
                                    Thay đổi tìm kiếm
                        Rất tiếc chúng tôi không còn phòng trong thời gian này. Bạn vui lòng chọn thời gian khác.
                                            Ngày nhận phòng
                                            Ngày trả phòng
                                            Số đêm
                                        Số phòng
                                        Người lớn
                                        Trẻ em
                                        Cập nhật
    Đang lấy thông tin giá
    Giá phòng đã bao gồm: 10% thuế GTGT, 5% phí dịch vụ
    Loại phòngTối đaGiá phòng/đêmSố phòngĐặt phòng
        Tiện ích của Khách sạn Phuket Island View
    Bãi đậu xe ô tô tại khách sạn
    Hồ bơi ngoài trời
    Quầy bar cạnh bể bơi
    Hồ bơi trẻ em
    Nhà hàng, Khu ăn uống
    Sân vườn
    Phòng gia đình
    Spa/Beauty Salon/Massage
    Wifi / Internet
    Dịch vụ giữ hành lý
    Kid Club
    Bar/Club/Pub
    Quầy lễ tân 24h
                Xem tất cả
        Thông tin Khách sạn Phuket Island View
        Khách sạn Phuket Island View là một nơi trú ẩn yên bình nép trong khu vườn thơm hẻo lánh chỉ cách 50m từ bãi cát vàng của bãi biển Karon. Từ đây quý khách có thể đi bộ một đoạn ngắn đến bãi biển Karon và tận hưởng những bãi cát mềm mại ấm áp tạo nên một không gian hoang sơ.
Tất cả 201 phòng nghỉ tại Khách sạn Phuket Island View đều được trang bị tốt với đầy đủ các tiện nghi bao gồm ban công riêng, máy lạnh, truyền hình cáp, điện thoại, máy sấy tóc, cà phê và trà, phòng tắm với vòi sen hoặc bồn tắm.
        Chính sách của Khách sạn Phuket Island View
            Thời gian nhận phòng
            14:00
            Thời gian trả phòng 
            12:00
                        Hướng dẫn nhận phòng
                       - Quý khách vui lòng xuất trình Hộ chiếu và Voucher khi nhận phòng do iVIVU.com cung cấp(Khách sạn có thể sẽ yêu cầu Quý khách số thẻ tín dụng hoặc tiền đặt cọc cho các dịch vụ phát sinh trong thời gian lưu trú của Quý khách)
Lưu ý dành cho khách hàng:- Nhận phòng sớm hoặc trả phòng trễ phụ thuộc vào tình trạng phòng thực tế của Khách sạn. - Mọi chi phí phát sinh không được xác nhận trong đặt phòng này, Quý khách vui lòng thanh toán trực tiếp tại Khách sạn. - Nếu Quý khách có nhu cầu xuất hóa đơn vui lòng cung cấp thông tin và địa chỉ xuất hóa đơn ngay khi thanh toán đơn phòng. Chúng tôi sẽ không thể xuất hóa đơn nếu Quý khách gửi thông tin chậm hơn thời gian trên.
    Liên hệ Hotline1900 1870hoặc
        gửi yêu cầu
                                    Mở rộng bản đồ
            Khách sạn tương tự
                                        Orchidacea Resort
                                        Phuket Airport
                                        Khác sạn APK Resort & Spa
                        Về iVIVU.comChúng tôiiVIVU BlogPMS - Miễn phí
                        Thông Tin Cần BiếtĐiều kiện & Điều khoảnQuy chế hoạt độngCâu hỏi thường gặp
                        Đối Tác & Liên kết
                                    Vietnam
                                    Airlines
                            VNExpressTiki.vn - Mua sắm online
                        Được chứng nhận
                                iVIVU.com là một thành viên của Thiên Minh Groups
                                Bạn cần trợ giúp? Hãy gọi ngay
                                        CSKH: 1900 1870
                                        Khác:   (08) 3930 8290
                                         Từ 7h30 - 21h hằng ngày
                                    iVIVU.com © 2016 - 
                                        Hệ thống đặt phòng khách sạn trực tuyến hàng
                                        đầu Việt Nam
                                        DKKD: 0312788481, Ngày cấp: 21/05/2014, Sở kế hoạch đầu tư thành phố Hồ Chí Minh
                                        HCM: Lầu 7, Tòa nhà Anh Đăng, 215 Nam Kỳ Khởi Nghĩa, Phường 7, Quận 3, Tp. Hồ Chí Minh
                                        (Xem bản đồ)
                                        HN: Lầu 9, 70-72 Bà Triệu, Quận Hoàn Kiếm, Hà Nội
                                        (Xem bản đồ)
                                        Like để cập nhật cẩm nang du lịch
                                            tc@ivivu.com
    Xin Quý khách đợi trong giây lát
        Vui lòng để lại thông tin yêu cầu đặt phòng khách sạn của Quý khách.
                Giá chỉ mang tính chất tham khảo và không áp dụng vào các ngày lễ tết. Chúng tôi sẽ liên hệ lại trong 24h.
            Họ & Tên: 
            Số điện thoại: 
            Email: 
            Vùng/thành phố yêu cầu:
            Tên khách sạn:
                Ngày nhận phòng:
                Ngày trả phòng:
            Yêu cầu khác:
        Gửi yêu cầu
           ×
                Bản đồ
                PhuketKhách sạn Phuket Island View
