url:https://www.ivivu.com/khach-san-buon-ma-thuot
Tittle :Khách sạn Buôn Mê Thuột  giá rẻ từ 224.200 VND
content :1900 1870từ 7h30-21h hàng ngày
                        Khách sạn
                        Tours
                        Ưu đãi đặc biệt
                        Cẩm nang du lịch
                    Giới thiệuHỏi đápHỗ trợ
                    >
                ×
                Thông tin đăng nhập
                        Tên đăng nhập:
                        Mật khẩu:
                Đăng nhập
                        Tìm nhanh khách sạn
                        Ngày nhận phòng
                        Số đêm
                                12345678910111213141516171819202122232425262728293030+
                        Ngày trả phòng
                         
                        Trang chủ
                        Việt Nam
                        Buôn Mê Thuột
                Khách sạn Buôn Mê Thuột 
                Buôn Mê Thuột
                 XEM BẢN ĐỒ
                Cập nhật giá
                Sắp xếp theo: 
                                    iVIVU đề xuất
                                    Đề xuất
                                    Giá phòng
                                     Giá
                                    Hạng sao
                                         Sao
                        iVIVU đề xuấtGiá phòng - Tăng dần ▲Giá phòng - Giảm dần ▼Hạng sao - Tăng dần ▲Hạng sao - Giảm dần ▼
                    Khu nghỉ dưỡng Coffee Tour Buôn Mê Thuột
                 149 - 153 đường Lý Thái Tổ, Thành phố Buôn Ma Thuột, Đăk Lăk, Việt Nam
                    8.3
                    Rất tốt
                                    13 nhận xét
                Bản đồ
                    Không gian sân vườnPhòng thoáng mát & sạch sẽBãi đậu xe
                    495.600 VND
                Chi tiết
                    Khách sạn Bạch Mã Buôn Ma Thuột
                 7-13 Trần Đức Cảnh, Tp Buôn Mê Thuột, Đăk Lăk, Việt Nam
                    8.2
                    Rất tốt
                                    10 nhận xét
                Bản đồ
                    Tọa lạc tại trung tâm thành phốPhòng sạch sẽ &  thoáng
                    390.000 VND
                Chi tiết
                    Khách sạn Cát Phú Buôn Ma Thuột
                 113 Hai Bà Trưng, Tp Buôn Ma Thuột, Đăk Lăk, Việt Nam
                                    1 nhận xét
                Bản đồ
                    Khách sạn 1 saoNgay trung tâmCó thang máy
                    224.200 VND
                Chi tiết
                    Khách Sạn Hoàng Lộc Buôn Mê Thuột
                 Số 07-09 đường Ybih Aleo, Tp. Buôn Mê Thuột, Dak Lak, Việt Nam
                                Bản đồ
                    Nằm ở trung tâm thành phố Buôn Mê Thuột.
                    500.000 VND
                Chi tiết
                    Khách sạn Dakruco Buôn Ma Thuột  - 3 sao
                 30 Nguyễn Chí Thanh, Tp. Buôn Ma Thuột, Đăk Lăk, Việt Nam
                                Bản đồ
                    Giá rẻNgay trung tâm thành phố
                    690.300 VND
                Chi tiết
                    Khách sạn Sài Gòn Ban Mê
                 01-03 Phan Chu Trinh, Thành phố, Việt Nam
                                Bản đồ
                    Ngay trung tâm thành phố Buôn Ma ThuộtNgay ngã 6 Phù ĐổngGần sân bay
                    1.785.143 VND
                Chi tiết
                    Khách sạn Dakruco Buôn Ma Thuột  - 4 sao
                 30 Nguyễn Chí Thanh, Tp. Buôn Ma Thuột, Đăk Lăk, Việt Nam
                                Bản đồ
                    Ngay trung tâm thành phồ Buôn ma ThuộtKhách sạn 4 sao
                        Liên hệ
                        1900 1870
                         giá rẻ bất ngờ
                Chi tiết
    7 khách sạn Buôn Mê Thuột
                    Cần tư vấn ? 
                    Gọi ngay
                    1900 1870
                 BỘ LỌC TÌM KIẾM
    Tìm khách sạn Buôn Mê Thuột
          Xếp hạng khách sạn Buôn Mê Thuột
            Tất cả
      Mức giá khách sạn Buôn Mê Thuột
        Tất cảDưới 500.000500.000 đến 1.000.0001.000.000 đến 2.000.0002.000.000 đến 5.000.000Trên 5.000.000
        Địa điểm khách sạn Buôn Mê Thuột
                        Tất cả
                        Buôn Ma Thuột
                        Ngã 6 Ban Mê
                        Xem thêm
                        Thu gọn
    Tiện ích khách sạn Buôn Mê Thuột
            Tất cả
                            Phòng gia đình
                            Bãi đậu xe ô tô tại khách sạn
                            Thang máy
                            Hồ bơi
                            Phòng tập thể (dorm)
                            Kid Club
            Kinh nghiệm du lịch Buôn Mê Thuột
                                Đặt phòng theo đoàn?
                                iVIVU đảm bảo sẽ tìm kiếm deal tốt nhất cho bạn!
                        Đặt ngay 
                    ×
                    ĐẶT PHÒNG ĐOÀN
                        Khi đặt phòng theo đoàn với iVIVU.com, bạn sẽ có được khách sạn phù hợp nhất với giá tốt nhất mà không phải tốn thời gian tìm kiếm.
                                 Yêu cầu
                                         Điện thoại 
                                             Email
                                        *
                                 Vui lòng nhập địa điểm.
                                 Chưa nhập địa chỉ email hoặc địa chỉ email chưa đúng
                                 Vui lòng nhập số điện thoại.
                        • iVIVU.com cam kết đảm bảo an toàn thông tin của quý khách hàng. 
                        • Quý khách hàng có thể yêu cầu ngưng dịch vụ tìm kiếm deal tốt nhất bất cứ lúc nào.
                        Đặt phòng đoàn
                         Khách sạn Buôn Mê Thuột theo hạng sao
                            Khách sạn 1 sao tại Buôn Mê Thuột
                            Khách sạn 2 sao tại Buôn Mê Thuột
                            Khách sạn 3 sao tại Buôn Mê Thuột
                            Khách sạn 4 sao tại Buôn Mê Thuột
                            Khách sạn 5 sao tại Buôn Mê Thuột
                         Khách sạn tại các địa điểm du lịch nổi tiếng khác
                            Khách sạn Đak Nông
                            Khách sạn Ninh Thuận
                            Khách sạn Kon Tum
                            Khách sạn Quảng Trị
                            Khách sạn Tỉnh Quảng Bình
                            Khách sạn Gia Lai
                            Khách sạn Điện Biên
                            Khách sạn Vĩnh Phúc
                            Khách sạn Hà Tĩnh
                            Khách sạn Đồng Nai
                            Khách sạn Bình Dương
                            Khách sạn Bình Định
                            Khách sạn Hải Dương
                            Khách sạn Tiền Giang
                            Khách sạn Phú Yên
                            Khách sạn Tỉnh Kiên Giang
                            Khách sạn Đaklak
                            Khách sạn Cát Bà
                            Khách sạn Châu Đốc
                            Khách sạn Cần Thơ
                            Khách sạn Phú Quốc
                            Khách sạn Đà Nẵng
                            Khách sạn Phan Thiết
                            Khách sạn Nha Trang
                            Khách sạn Hà Nội
                            Khách sạn Huế
                            Khách sạn Hồ Chí Minh
                            Khách sạn Phan Rang
                            Khách sạn Long Hải
                            Khách sạn Mũi Né
                            Khách sạn Hội An
                            Khách sạn Vịnh Hạ Long
                            Khách sạn Tam Hải
                            Khách sạn Hồ Tràm
                            Khách sạn Vũng Tàu
                            Khách sạn Hải Phòng
                            Khách sạn Ninh Bình
                            Khách sạn Sapa
                            Khách sạn Côn Đảo
                            Khách sạn Nghệ An
                            Khách sạn Quảng Bình
                            Khách sạn Quy Nhơn
                            Khách sạn Thanh Hóa
                            Khách sạn Tuy Hòa
                            Khách sạn Đà Lạt
                            Khách sạn Lagi
                            Khách sạn Quảng Ngãi
                            Khách sạn Lăng Cô
                            Khách sạn Trảng Bom
                            Khách sạn Pleiku
                            Khách sạn Hà Giang
                            Khách sạn Cái Bè
                            Khách sạn Lào Cai
                    ×
                    Cập nhật giá khách sạn
                                                Ngày nhận
                                            Số đêm
                                                    12345678910111213141516171819202122232425262728293030+
                                                Ngày trả
                                            Số phòng
                                            Người lớn
                        Cập nhật lại giá khách sạn
                        Về iVIVU.comChúng tôiiVIVU BlogPMS - Miễn phí
                        Thông Tin Cần BiếtĐiều kiện & Điều khoảnQuy chế hoạt độngCâu hỏi thường gặp
                        Đối Tác & Liên kết
                                    Vietnam
                                    Airlines
                            VNExpressTiki.vn - Mua sắm online
                        Được chứng nhận
                                iVIVU.com là một thành viên của Thiên Minh Groups
                                Bạn cần trợ giúp? Hãy gọi ngay
                                        CSKH: 1900 1870
                                        Khác:   (08) 3930 8290
                                         Từ 7h30 - 21h hằng ngày
                                    iVIVU.com © 2016 - 
                                        Hệ thống đặt phòng khách sạn trực tuyến hàng
                                        đầu Việt Nam
                                        DKKD: 0312788481, Ngày cấp: 21/05/2014, Sở kế hoạch đầu tư thành phố Hồ Chí Minh
                                        HCM: Lầu 7, Tòa nhà Anh Đăng, 215 Nam Kỳ Khởi Nghĩa, Phường 7, Quận 3, Tp. Hồ Chí Minh
                                        (Xem bản đồ)
                                        HN: Lầu 9, 70-72 Bà Triệu, Quận Hoàn Kiếm, Hà Nội
                                        (Xem bản đồ)
                                        Like để cập nhật cẩm nang du lịch
                                            tc@ivivu.com
    Xin Quý khách đợi trong giây lát
        Vui lòng để lại thông tin yêu cầu đặt phòng khách sạn của Quý khách.
                Giá chỉ mang tính chất tham khảo và không áp dụng vào các ngày lễ tết. Chúng tôi sẽ liên hệ lại trong 24h.
            Họ & Tên: 
            Số điện thoại: 
            Email: 
            Vùng/thành phố yêu cầu:
            Tên khách sạn:
                Ngày nhận phòng:
                Ngày trả phòng:
            Yêu cầu khác:
        Gửi yêu cầu
           ×
                Bản đồ
