url:https://www.ivivu.com/blog/page/481/
Tittle :Cẩm nang du lịch
content :Về iVIVU.comCảm nhận của khách hàng iVIVU.com			
					Trang ChủKhuyến MãiMuôn MàuĐiểm đến
Việt Nam
	Du lịch Phan ThiếtDu lịch Đà LạtDu lịch Đà NẵngDu lịch Hà NộiDu lịch Hội AnDu lịch HuếDu lịch Nha TrangDu lịch Phú QuốcDu lịch Vịnh Hạ LongDu lịch Vũng TàuDu lịch SapaDu lịch Tp.Hồ Chí Minh
Đông Nam Á
	Du lịch CampuchiaDu lịch IndonesiaDu lịch LàoDu lịch MalaysiaDu lịch MyanmarDu lịch PhilippinesDu lịch SingaporeDu lịch Thái Lan
Thế Giới
	Châu ÁChâu ÂuChâu MỹChâu PhiChâu Úc
Top iVIVU
Ẩm thựcMẹoĐặt tourĐặt khách sạnCHÚNG TÔI					
		Thông tin du lịch Phan Thiết
				01/09/2011			
							/
					no comments				
				/									
				97694 views			 
		Khi nói đến du lịch Phan Thiết, người ta nghĩ ngay đến miền duyên hải với những bãi tắm sạch, đẹp nổi tiếng. Đã từ lâu là điểm đến đầy quyến rũ. Phan Thiết còn là điểm hẹn của những “tour”…
		Những điểm tham quan hấp dẫn tại Phú Quốc
				01/09/2011			
							/
					no comments				
				/									
				383270 views			 
		Hòn đảo xinh đẹp này nằm dọc bờ biển giữa biên giới Việt Nam và Cam-pu-chia, nơi quý khách có thể đáp chuyến bay ngắn từ thành phố Hồ Chí Minh. Vào thời điểm mùa mưa trong năm ở phần…
		Cẩm nang du lịch Vũng Tàu
				01/09/2011			
							/
					no comments				
				/									
				150208 views			 
		Vũng Tàu là một thành phố ven biển nên nơi đây có những bãi biển lý tưởng để du khách nghỉ mát và tắm biển. Vũng Tàu nằm trên bán đảo cùng tên, là tỉnh lỵ của tỉnh Bà Rịa…
		« Previous
1
…
476
477
478
479
480
481				
				Tìm bài viết	
			Đọc nhiềuBài mới
                                        Du lịch Vũng Tàu: Cẩm nang từ A đến Z                                    
                                        16/10/2014                                    
                                        Du lịch đảo Nam Du: Cẩm nang từ A đến Z...                                    
                                        21/03/2015                                    
                                        Du lịch Nha Trang: 10 điểm du lịch tham quan hấp d...                                    
                                        29/06/2012                                    
                                        Du lịch Đà Lạt - Cẩm nang du lịch Đà Lạt từ A đến ...                                    
                                        26/09/2013                                    
                                        Tất tần tật những kinh nghiệm bạn cần biết trước k...                                    
                                        25/07/2014                                    
                                        Lên kế hoạch rủ nhau du lịch Đà Lạt tham gia lễ hộ...                                    
                                16/11/2016                            
                                        Tour Đài Loan giá sốc trọn gói chỉ 8.990.000 đồng,...                                    
                                15/11/2016                            
                                        Check-in Victoria Hội An 4 sao 3 ngày 2 đêm bao lu...                                    
                                15/11/2016                            
                                        Du lịch Đà Lạt check-in 2 điểm đến đẹp như mơ tron...                                    
                                14/11/2016                            
                                        Có một Việt Nam đẹp mê mẩn trong bộ ảnh du lịch củ...                                    
                                13/11/2016                            
		Khách sạn Việt Nam			 Khách sạn Đà Lạt  Khách sạn Đà Nẵng  Khách sạn Hà Nội  Khách sạn Hội An  Khách sạn Huế  Khách sạn Nha Trang   Khách sạn Phan Thiết   Khách sạn Phú Quốc  Khách sạn Sapa  Khách sạn Sài gòn Khách sạn Hạ Long  Khách sạn Vũng Tàu
		Khách sạn Quốc tế			 Khách sạn Campuchia  Khách sạn Đài Loan  Khách sạn Hàn Quốc  Khách sạn Hồng Kông  Khách sạn Indonesia  Khách sạn Lào  Khách sạn Malaysia  Khách sạn Myammar  Khách sạn Nhật Bản  Khách sạn Philippines  Khách sạn Singapore  Khách sạn Thái Lan  Khách sạn Trung Quốc 
		Cẩm nang du lịch 2015			
         Du lịch Nha Trang 
         Du lịch Đà Nẵng 
         Du lịch Đà Lạt 
         Du lịch Côn đảo Vũng Tàu 
         Du lịch Hạ Long 
         Du lịch Huế 
         Du lịch Hà Nội 
         Du lịch Mũi Né 
         Du lịch Campuchia 
         Du lịch Myanmar 
         Du lịch Malaysia 
         Du lịch Úc 
         Du lịch Hong Kong 
         Du lịch Singapore 
         Du lịch Trung Quốc 
         Du lịch Nhật Bản 
         Du lịch Hàn Quốc 
Tweets by @ivivudotcom
		Bạn quan tâm chủ đề gì?book khách sạn giá rẻ
book khách sạn trực tuyến
book phòng khách sạn giá rẻ
Cẩm nang du lịch Hà Nội
du lịch
Du lịch Hàn Quốc
du lịch Hà Nội
Du lịch Hội An
Du lịch Nha Trang
du lịch nhật bản
Du lịch Singapore
du lịch sài gòn
du lịch Thái Lan
du lịch thế giới
Du lịch Đà Nẵng
du lịch đà lạt
hà nội
hệ thống đặt khách sạn trực tuyến
ivivu
ivivu.com
khách sạn
Khách sạn giá rẻ
khách sạn Hà Nội
khách sạn hà nội giá rẻ
khách sạn khuyến mãi
khách sạn nhật bản
khách sạn sài gòn
khách sạn Đà Lạt
khách sạn Đà Nẵng
kinh nghiệm du lịch
Kinh nghiệm du lịch Hà Nội
mẹo du lịch
Nhật bản
sài gòn
vi vu
vivu
Việt Nam
Đặt phòng khách sạn online
đặt khách sạn
đặt khách sạn giá rẻ
đặt khách sạn trực tuyến
đặt phòng giá rẻ
đặt phòng khách sạn
đặt phòng khách sạn trực tuyến
đặt phòng trực tuyến
                                                            Like để cập nhật cẩm nang du lịch			
                                                                    iVIVU.com ©
                                                                        2016 - Hệ thống đặt phòng khách sạn & Tours hàng đầu Việt Nam
                                                                            HCM: Lầu 7, Tòa nhà Anh Đăng, 215 Nam
                                                                            Kỳ Khởi Nghĩa, P.7, Q.3, Tp. Hồ Chí Minh
                                                                            HN: Lầu 12, 70-72 Bà Triệu, Quận Hoàn
                                                                            Kiếm, Hà Nội
                                                                    Được chứng nhận
                iVIVU.com là thành viên của Thiên Minh Groups
                                                                    Về iVIVU.com
                                                                            Chúng tôiiVIVU BlogPMS - Miễn phí
                                                                    Thông Tin Cần Biết
                                                                            Điều kiện & Điều
                                                                                khoảnChính sách bảo mật
                                                                        Câu hỏi thường gặp
                                                                    Đối Tác & Liên kết
                                                                            Vietnam
                                                                                Airlines
                                                                            VNExpressTiki.vn - Mua sắm
                                                                                online
                                                            Chuyên mụcĂn ChơiCHÚNG TÔIChụpDU LỊCH & ẨM THỰCDU LỊCH & SHOPPINGDu lịch hèDu lịch TếtDU LỊCH THẾ GIỚIDu lịch tự túcDU LỊCH VIỆT NAM►Du lịch Bình Thuận►Du lịch Mũi NéĐảo Phú QuýDu lịch Bình ĐịnhDu lịch Cô TôDu lịch Hà GiangDu lịch miền TâyDu lịch Nam DuDu lịch Ninh ThuậnDu lịch Quảng BìnhDu lịch đảo Lý SơnHóngKểKhách hàng iVIVU.comKhuyến Mãi►Mỗi ngày một khách sạnMuôn MàuThư ngỏTiêu ĐiểmTIN DU LỊCHTour du lịchĐI VÀ NGHĨĐiểm đến
