url:https://www.ivivu.com/khach-san-phu-quoc?pd=1000000&ps=500000
Tittle :Khách sạn Phú Quốc  từ 500.000 VND đến 1.000.000 VND
content :1900 1870từ 7h30-21h hàng ngày
                        Khách sạn
                        Tours
                        Ưu đãi đặc biệt
                        Cẩm nang du lịch
                    Giới thiệuHỏi đápHỗ trợ
                    >
                ×
                Thông tin đăng nhập
                        Tên đăng nhập:
                        Mật khẩu:
                Đăng nhập
                        Tìm nhanh khách sạn
                        Ngày nhận phòng
                        Số đêm
                                12345678910111213141516171819202122232425262728293030+
                        Ngày trả phòng
                         
                        Trang chủ
                        Việt Nam
                        Phú Quốc
                          500.000 - 1.000.000
                Khách sạn Phú Quốc  từ 500.000 VND đến 1.000.000 VND 
                Phú Quốc
                 XEM BẢN ĐỒ
                Cập nhật giá
                Sắp xếp theo: 
                                    iVIVU đề xuất
                                    Đề xuất
                                    Giá phòng
                                     Giá
                                    Hạng sao
                                         Sao
                        iVIVU đề xuấtGiá phòng - Tăng dần ▲Giá phòng - Giảm dần ▼Hạng sao - Tăng dần ▲Hạng sao - Giảm dần ▼
                    Khu nghỉ dưỡng Castaways Phú Quốc
                 143 Đường Trần Hưng Đạo,Dương Tơ, Phú Quốc, Việt Nam
                    8.8
                    Rất tốt
                                    59 nhận xét
                Bản đồ
                    Cách bãi biển 5 phút đi bộCách chợ đêm Dinh Cậu 6 phút lái xeCho thuê xe đạp và xe máy
                    810.970 VND
                Chi tiết
                    Khách sạn La Vita Phú Quốc
                 49/7 Trần Hưng Đạo, Dương Đông, Phú Quốc, Việt Nam
                    8.4
                    Rất tốt
                                    20 nhận xét
                Bản đồ
                    Cách chợ đêm Dinh Cậu 6 phút đi bộCách bãi biển 7 phút đi bộ
                    908.600 VND
                Chi tiết
                    Khách sạn Light House Phú Quốc
                 15 Trần Hưng Đạo, Tổ 7, thị trấn Dương Đông , đảo Phú Quốc, Việt Nam
                    7.7
                    Rất tốt
                                    15 nhận xét
                Bản đồ
                    Cách bãi biển 5 phút đi bộCách chợ đêm Dinh Cậu 3 phút đi bộ
                    707.410 VND
                Chi tiết
                    Khu Nghỉ Dưỡng La Mer Phú Quốc
                 118 Đường Trần Hưng Đạo, Thị Trấn Dương Đông, Đảo Phú Quốc, Việt Nam
                    8.3
                    Rất tốt
                                    29 nhận xét
                Bản đồ
                    Cách biển 7 phút đi bộCách chợ đêm Dinh Cậu 6 phút lái xe
                    955.800 VND
                Chi tiết
                    Khu nghỉ dưỡng Arcadia Phú Quốc
                 Khu phố 7, Đường Trần Hưng Đạo, Thị trấn Dương Đông, Phú Quốc, Việt Nam
                    8.6
                    Rất tốt
                                    13 nhận xét
                Bản đồ
                    Cách chợ đêm Dinh Cậu 10 phút lái xeBãi biển riêng
                    961.552 VND
                Chi tiết
                    Khu Nghỉ Dưỡng Hồng Bin Bungalow Phú Quốc
                 Tổ 10, Khu phố 7, Dương Đông, Đảo Phú Quốc, Việt Nam, Việt Nam
                                Bản đồ
                    Cách chợ đêm Dinh Cậu 6 phút lái xeKhu biệt thựHồ bơi ngoài trời
                    925.761 VND
                Chi tiết
                    Khu Nghỉ Dưỡng Liên Hiệp Thành Phú Quốc
                 118/12 Trần Hưng Đạo, TT Dương Đông, Phú Quốc , Kiên Giang., Việt Nam
                                    2 nhận xét
                Bản đồ
                    Bãi biển riêngCách chợ Dinh Cậu 9 phút lái xe
                    885.000 VND
                Chi tiết
                    Khu nghỉ dưỡng T&T Phú Quốc
                 118/6 Trần Hưng Đạo, khu phố 7, Dương Đông, Phú Quốc, Việt Nam
                                Bản đồ
                    Cách chợ đêm Dinh Cậu 7 phút lái xeCách biển 3 phút đi bộ
                    826.000 VND
                Chi tiết
                    Khách Sạn Biển Xanh Phú Quốc
                 85 đường Trần Hưng Đạo, khu phố 7, thị trấn Dương Đông, Phú Quốc, Kiên Giang, Việt Nam
                                Bản đồ
                    Cách chợ đêm Dinh Cậu 3 phút lái xeCách biển 100m
                    708.000 VND
                Chi tiết
                    Khách Sạn Blue Sky Phú Quốc
                 40 Lê Thị Gấm, khu phố 1, thị trấn Dương Đông, Phú Quốc, Kiên Giang, Việt Nam
                                Bản đồ
                    Cách chợ đêm Dinh Cậu 7 phút đi bộTrung tâm thị trấnCách biển 500mKhách sạn mới xây
                    590.000 VND
                Chi tiết
                    Khách sạn Galaxy Phú Quốc
                 77 Trần Hưng Đạo, khu phố 7 Dương Đông, Phú Quốc, Việt Nam, Việt Nam
                                Bản đồ
                    Thang máyTour du lịchHồ bơiCho thuê xeCách Chợ đêm DInh Cậu 3p chạy xe
                    767.000 VND
                Chi tiết
                    Khách Sạn Q Hào Phú Quốc
                 122 Trần Hưng Đạo, Tổ 8, Khu phố 7, Dương Đông, Phú Quốc, Kiên Giang, Việt Nam
                                Bản đồ
                    Cách chợ đêm Dinh Cậu 6 phút lái xeCách bãi biển 5 phút đi bộThang máyPhòng tập thể
                    944.000 VND
                Chi tiết
    12 khách sạn Phú Quốc
                    Cần tư vấn ? 
                    Gọi ngay
                    1900 1870
                 BỘ LỌC TÌM KIẾM
    Tìm khách sạn Phú Quốc
          Xếp hạng khách sạn Phú Quốc
            Tất cả
      Mức giá khách sạn Phú Quốc
        Tất cảDưới 500.000500.000 đến 1.000.0001.000.000 đến 2.000.0002.000.000 đến 5.000.000Trên 5.000.000
        Địa điểm khách sạn Phú Quốc
                        Tất cả
                        Bãi biển Cửa Lấp
                        Bãi biển Dương Đông
                        Bãi biển Ông Lang
                        Bãi Dài
                        Bãi Trường
                        Gần chợ đêm Dinh Cậu
                        Gành Dầu
                        Xem thêm
                        Thu gọn
    Tiện ích khách sạn Phú Quốc
            Tất cả
                            Phòng gia đình
                            Bãi đậu xe ô tô tại khách sạn
                            Thang máy
                            Hồ bơi
                            Phòng tập thể (dorm)
                            Kid Club
            Kinh nghiệm du lịch Phú Quốc
                        Là hòn đảo lớn nhất Việt Nam, Phú Quốc sở hữu những bãi biển trong vắt, những dòng suối yên bình cùng khu rừng nguyên sinh rộng lớn.
Nhắc tới Phú Quốc, không thể không nhắc tới bãi Sao, bãi Dài, đặc sản hồ tiêu, nước mắm, rượu sim hay ngọc trai... Còn nữa, Phú Quốc còn nhiều ẩn số đang chờ bạn khám phá đó, đừng bỏ lỡ!
                            Xem thêm
                                Đặt phòng theo đoàn?
                                iVIVU đảm bảo sẽ tìm kiếm deal tốt nhất cho bạn!
                        Đặt ngay 
                    ×
                    ĐẶT PHÒNG ĐOÀN
                        Khi đặt phòng theo đoàn với iVIVU.com, bạn sẽ có được khách sạn phù hợp nhất với giá tốt nhất mà không phải tốn thời gian tìm kiếm.
                                 Yêu cầu
                                         Điện thoại 
                                             Email
                                        *
                                 Vui lòng nhập địa điểm.
                                 Chưa nhập địa chỉ email hoặc địa chỉ email chưa đúng
                                 Vui lòng nhập số điện thoại.
                        • iVIVU.com cam kết đảm bảo an toàn thông tin của quý khách hàng. 
                        • Quý khách hàng có thể yêu cầu ngưng dịch vụ tìm kiếm deal tốt nhất bất cứ lúc nào.
                        Đặt phòng đoàn
                         Khách sạn Phú Quốc theo hạng sao
                            Khách sạn 1 sao tại Phú Quốc
                            Khách sạn 2 sao tại Phú Quốc
                            Khách sạn 3 sao tại Phú Quốc
                            Khách sạn 4 sao tại Phú Quốc
                            Khách sạn 5 sao tại Phú Quốc
                             Khách sạn Phú Quốc tại các địa điểm phổ biến
                                Bãi biển Cửa Lấp
                                Bãi biển Dương Đông
                                Bãi biển Ông Lang
                                Bãi Dài
                                Bãi Trường
                                Gần chợ đêm Dinh Cậu
                                Gành Dầu
                         Khách sạn tại các địa điểm du lịch nổi tiếng khác
                            Khách sạn Đak Nông
                            Khách sạn Ninh Thuận
                            Khách sạn Kon Tum
                            Khách sạn Quảng Trị
                            Khách sạn Tỉnh Quảng Bình
                            Khách sạn Gia Lai
                            Khách sạn Điện Biên
                            Khách sạn Vĩnh Phúc
                            Khách sạn Hà Tĩnh
                            Khách sạn Đồng Nai
                            Khách sạn Bình Dương
                            Khách sạn Bình Định
                            Khách sạn Hải Dương
                            Khách sạn Tiền Giang
                            Khách sạn Phú Yên
                            Khách sạn Tỉnh Kiên Giang
                            Khách sạn Đaklak
                            Khách sạn Cát Bà
                            Khách sạn Châu Đốc
                            Khách sạn Cần Thơ
                            Khách sạn Đà Nẵng
                            Khách sạn Phan Thiết
                            Khách sạn Nha Trang
                            Khách sạn Hà Nội
                            Khách sạn Huế
                            Khách sạn Hồ Chí Minh
                            Khách sạn Phan Rang
                            Khách sạn Long Hải
                            Khách sạn Mũi Né
                            Khách sạn Hội An
                            Khách sạn Vịnh Hạ Long
                            Khách sạn Tam Hải
                            Khách sạn Hồ Tràm
                            Khách sạn Vũng Tàu
                            Khách sạn Hải Phòng
                            Khách sạn Ninh Bình
                            Khách sạn Sapa
                            Khách sạn Côn Đảo
                            Khách sạn Nghệ An
                            Khách sạn Quảng Bình
                            Khách sạn Quy Nhơn
                            Khách sạn Thanh Hóa
                            Khách sạn Tuy Hòa
                            Khách sạn Đà Lạt
                            Khách sạn Lagi
                            Khách sạn Quảng Ngãi
                            Khách sạn Lăng Cô
                            Khách sạn Trảng Bom
                            Khách sạn Pleiku
                            Khách sạn Buôn Mê Thuột
                            Khách sạn Hà Giang
                            Khách sạn Cái Bè
                            Khách sạn Lào Cai
                    ×
                    Cập nhật giá khách sạn
                                                Ngày nhận
                                            Số đêm
                                                    12345678910111213141516171819202122232425262728293030+
                                                Ngày trả
                                            Số phòng
                                            Người lớn
                        Cập nhật lại giá khách sạn
                        Về iVIVU.comChúng tôiiVIVU BlogPMS - Miễn phí
                        Thông Tin Cần BiếtĐiều kiện & Điều khoảnQuy chế hoạt độngCâu hỏi thường gặp
                        Đối Tác & Liên kết
                                    Vietnam
                                    Airlines
                            VNExpressTiki.vn - Mua sắm online
                        Được chứng nhận
                                iVIVU.com là một thành viên của Thiên Minh Groups
                                Bạn cần trợ giúp? Hãy gọi ngay
                                        CSKH: 1900 1870
                                        Khác:   (08) 3930 8290
                                         Từ 7h30 - 21h hằng ngày
                                    iVIVU.com © 2016 - 
                                        Hệ thống đặt phòng khách sạn trực tuyến hàng
                                        đầu Việt Nam
                                        DKKD: 0312788481, Ngày cấp: 21/05/2014, Sở kế hoạch đầu tư thành phố Hồ Chí Minh
                                        HCM: Lầu 7, Tòa nhà Anh Đăng, 215 Nam Kỳ Khởi Nghĩa, Phường 7, Quận 3, Tp. Hồ Chí Minh
                                        (Xem bản đồ)
                                        HN: Lầu 9, 70-72 Bà Triệu, Quận Hoàn Kiếm, Hà Nội
                                        (Xem bản đồ)
                                        Like để cập nhật cẩm nang du lịch
                                            tc@ivivu.com
    Xin Quý khách đợi trong giây lát
        Vui lòng để lại thông tin yêu cầu đặt phòng khách sạn của Quý khách.
                Giá chỉ mang tính chất tham khảo và không áp dụng vào các ngày lễ tết. Chúng tôi sẽ liên hệ lại trong 24h.
            Họ & Tên: 
            Số điện thoại: 
            Email: 
            Vùng/thành phố yêu cầu:
            Tên khách sạn:
                Ngày nhận phòng:
                Ngày trả phòng:
            Yêu cầu khác:
        Gửi yêu cầu
           ×
                Bản đồ
