url:https://www.ivivu.com/khach-san-lithuania
Tittle :Khách sạn Lithuania  giá rẻ từ
content :1900 1870từ 7h30-21h hàng ngày
                        Khách sạn
                        Tours
                        Ưu đãi đặc biệt
                        Cẩm nang du lịch
                    Giới thiệuHỏi đápHỗ trợ
                    >
                ×
                Thông tin đăng nhập
                        Tên đăng nhập:
                        Mật khẩu:
                Đăng nhập
                        Tìm nhanh khách sạn
                        Ngày nhận phòng
                        Số đêm
                                12345678910111213141516171819202122232425262728293030+
                        Ngày trả phòng
                         
                        Trang chủ
                        Lithuania
                Khách sạn Lithuania 
                Lithuania
                 XEM BẢN ĐỒ
                Cập nhật giá
                Sắp xếp theo: 
                                    iVIVU đề xuất
                                    Đề xuất
                                    Giá phòng
                                     Giá
                                    Hạng sao
                                         Sao
                        iVIVU đề xuấtGiá phòng - Tăng dần ▲Giá phòng - Giảm dần ▼Hạng sao - Tăng dần ▲Hạng sao - Giảm dần ▼
                    Ecotel Vilnius
                 Slucko Str.8, Lithuania
                                Bản đồ
                    Ở Quận Thương mại Vilnius
                    1.092.628 VND
                Chi tiết
                    Rinno
                 25 Vingriu Str, Lithuania
                                Bản đồ
                    Gần Tòa thị chính Vilnius
                    1.212.075 VND
                Chi tiết
                    Neringa
                 Gedimino Ave 23, Lithuania
                                Bản đồ
                    Gần Nhà thờ Vilnius
                    1.603.977 VND
                Chi tiết
                    Park Inn by Radisson Vilnius North 
                 Ukmerges Str 363, Lithuania
                                Bản đồ
                    Ở Vilnius
                    2.352.147 VND
                Chi tiết
                    Park Inn Kaunas
                 27 Donelaicio Street, Lithuania
                                Bản đồ
                    Gần Bảo tàng Chiến tranh Vytautas the Great
                        Liên hệ
                        1900 1870
                         giá rẻ bất ngờ
                Chi tiết
                    Conti
                 Raugyklos 7/2, Lithuania
                                Bản đồ
                    Gần Tòa thị chính Vilnius
                        Liên hệ
                        1900 1870
                         giá rẻ bất ngờ
                Chi tiết
                    Algirdas
                 Algirdo str. 24, Lithuania
                                Bản đồ
                    Gần Tòa thị chính Vilnius
                        Liên hệ
                        1900 1870
                         giá rẻ bất ngờ
                Chi tiết
                    Zemaites
                 Zemaites st. 15, Lithuania
                                Bản đồ
                    Gần Tòa thị chính Vilnius
                        Liên hệ
                        1900 1870
                         giá rẻ bất ngờ
                Chi tiết
                    Vandenis
                 Birutes Ave.47, Lithuania
                                Bản đồ
                    Gần Bến tàu Palanga
                        Liên hệ
                        1900 1870
                         giá rẻ bất ngờ
                Chi tiết
                    Tilto
                 Tilto Str 8, Lithuania
                                Bản đồ
                    Gần Nhà thờ Vilnius
                        Liên hệ
                        1900 1870
                         giá rẻ bất ngờ
                Chi tiết
                    Europa Stay Vilnius
                 Azuolyno str. 7, Lithuania
                                Bản đồ
                    Gần Phòng triển lãm Nghệ thuật Quốc gia
                        Liên hệ
                        1900 1870
                         giá rẻ bất ngờ
                Chi tiết
                    e-GuestHouse
                 T. Ševčenkos gatvė 16Vilnius 03223, Lithuania
                                Bản đồ
                    Gần Tòa thị chính Vilnius
                        Liên hệ
                        1900 1870
                         giá rẻ bất ngờ
                Chi tiết
                    Ibis Kaunas Centre
                 Vytauto av 2844328 KaunasLithuania, Lithuania
                                Bản đồ
                    Gần Bảo tàng Chiến tranh Vytautas the Great
                        Liên hệ
                        1900 1870
                         giá rẻ bất ngờ
                Chi tiết
                    Comfort Hotel LT
                 Mindaugo gatvė 27Vilnius 03211, Lithuania
                                Bản đồ
                    Gần Cổng Bình minh
                        Liên hệ
                        1900 1870
                         giá rẻ bất ngờ
                Chi tiết
                    Corner Hotel
                 T. Ševčenkos gatvė 16Vilnius 03223, Lithuania
                                Bản đồ
                    Gần Tòa thị chính Vilnius
                        Liên hệ
                        1900 1870
                         giá rẻ bất ngờ
                Chi tiết
    123
    40 khách sạn Lithuania
                    Cần tư vấn ? 
                    Gọi ngay
                    1900 1870
                 BỘ LỌC TÌM KIẾM
    Tìm khách sạn Lithuania
          Xếp hạng khách sạn Lithuania
            Tất cả
      Mức giá khách sạn Lithuania
        Tất cảDưới 500.000500.000 đến 1.000.0001.000.000 đến 2.000.0002.000.000 đến 5.000.000Trên 5.000.000
            Địa điểm khách sạn Lithuania
                        Tất cả
                        Alytus
                        Anyksciai
                        Aukstadvaris
                        Birstonas
                        Birzai
                        Druskininkai
                        Garliava
                        Juodkrante
                        Jurbarkas
                        Karkle
                        Kaunas
                        Kedainiai
                        Kernave
                        Kintai
                        Klaipeda
                        Lankupiai
                        Lazdijai
                        Marijampole
                        Mazeikiai
                        Moletai
                        Nida
                        Pagegiai
                        Palanga
                        Panevezys
                        Pervalka
                        Plateliai
                        Plunge
                        Preila
                        Prienai
                        Siauliai
                        Silute
                        Smalininkai
                        Sventoji
                        Sverksna
                        Taurage
                        Trakai
                        Vente
                        Vilnius
                        Visaginas
                        Xem thêm
                        Thu gọn
    Tiện ích khách sạn Lithuania
            Tất cả
                            Phòng gia đình
                            Bãi đậu xe ô tô tại khách sạn
                            Thang máy
                            Hồ bơi
                            Phòng tập thể (dorm)
                            Kid Club
                                Đặt phòng theo đoàn?
                                iVIVU đảm bảo sẽ tìm kiếm deal tốt nhất cho bạn!
                        Đặt ngay 
                    ×
                    ĐẶT PHÒNG ĐOÀN
                        Khi đặt phòng theo đoàn với iVIVU.com, bạn sẽ có được khách sạn phù hợp nhất với giá tốt nhất mà không phải tốn thời gian tìm kiếm.
                                 Yêu cầu
                                         Điện thoại 
                                             Email
                                        *
                                 Vui lòng nhập địa điểm.
                                 Chưa nhập địa chỉ email hoặc địa chỉ email chưa đúng
                                 Vui lòng nhập số điện thoại.
                        • iVIVU.com cam kết đảm bảo an toàn thông tin của quý khách hàng. 
                        • Quý khách hàng có thể yêu cầu ngưng dịch vụ tìm kiếm deal tốt nhất bất cứ lúc nào.
                        Đặt phòng đoàn
                         Khách sạn Lithuania theo hạng sao
                            Khách sạn 1 sao tại Lithuania
                            Khách sạn 2 sao tại Lithuania
                            Khách sạn 3 sao tại Lithuania
                            Khách sạn 4 sao tại Lithuania
                            Khách sạn 5 sao tại Lithuania
                             Khách sạn Lithuania tại các địa điểm phổ biến
                         Khách sạn tại các địa điểm du lịch nổi tiếng khác
                            Khách sạn Andorra
                            Khách sạn Albania
                            Khách sạn Austria
                            Khách sạn Bosnia and Herzigovina
                            Khách sạn Belgium
                            Khách sạn Bulgaria
                            Khách sạn Belarus
                            Khách sạn Switzerland
                            Khách sạn Cyprus
                            Khách sạn Czech Republic
                            Khách sạn Germany
                            Khách sạn Denmark
                            Khách sạn Estland
                            Khách sạn Spain
                            Khách sạn Finland
                            Khách sạn Faeroe Islands
                            Khách sạn France
                            Khách sạn United Kingdom
                            Khách sạn Georgia
                            Khách sạn Gibralter
                            Khách sạn Greenland
                            Khách sạn Greece
                            Khách sạn Croatia
                            Khách sạn Hungary
                            Khách sạn Eire / Ireland
                            Khách sạn Iceland
                            Khách sạn Italy
                            Khách sạn Liechtenstein
                            Khách sạn Luxembourg
                            Khách sạn Latvia
                            Khách sạn Monaco
                            Khách sạn Moldova
                            Khách sạn Montenegro
                            Khách sạn Macedonia (FYROM)
                            Khách sạn Northern Mariana Islands
                            Khách sạn Malta
                            Khách sạn Netherlands
                            Khách sạn Norway
                            Khách sạn Poland
                            Khách sạn Portugal
                            Khách sạn Romania
                            Khách sạn Serbia
                            Khách sạn Russian Federation
                            Khách sạn Sweden
                            Khách sạn Slovenia
                            Khách sạn Slovakia
                            Khách sạn San Marino
                            Khách sạn Turkey
                            Khách sạn Ukraine
                    ×
                    Cập nhật giá khách sạn
                                                Ngày nhận
                                            Số đêm
                                                    12345678910111213141516171819202122232425262728293030+
                                                Ngày trả
                                            Số phòng
                                            Người lớn
                        Cập nhật lại giá khách sạn
                        Về iVIVU.comChúng tôiiVIVU BlogPMS - Miễn phí
                        Thông Tin Cần BiếtĐiều kiện & Điều khoảnQuy chế hoạt độngCâu hỏi thường gặp
                        Đối Tác & Liên kết
                                    Vietnam
                                    Airlines
                            VNExpressTiki.vn - Mua sắm online
                        Được chứng nhận
                                iVIVU.com là một thành viên của Thiên Minh Groups
                                Bạn cần trợ giúp? Hãy gọi ngay
                                        CSKH: 1900 1870
                                        Khác:   (08) 3930 8290
                                         Từ 7h30 - 21h hằng ngày
                                    iVIVU.com © 2016 - 
                                        Hệ thống đặt phòng khách sạn trực tuyến hàng
                                        đầu Việt Nam
                                        DKKD: 0312788481, Ngày cấp: 21/05/2014, Sở kế hoạch đầu tư thành phố Hồ Chí Minh
                                        HCM: Lầu 7, Tòa nhà Anh Đăng, 215 Nam Kỳ Khởi Nghĩa, Phường 7, Quận 3, Tp. Hồ Chí Minh
                                        (Xem bản đồ)
                                        HN: Lầu 9, 70-72 Bà Triệu, Quận Hoàn Kiếm, Hà Nội
                                        (Xem bản đồ)
                                        Like để cập nhật cẩm nang du lịch
                                            tc@ivivu.com
    Xin Quý khách đợi trong giây lát
        Vui lòng để lại thông tin yêu cầu đặt phòng khách sạn của Quý khách.
                Giá chỉ mang tính chất tham khảo và không áp dụng vào các ngày lễ tết. Chúng tôi sẽ liên hệ lại trong 24h.
            Họ & Tên: 
            Số điện thoại: 
            Email: 
            Vùng/thành phố yêu cầu:
            Tên khách sạn:
                Ngày nhận phòng:
                Ngày trả phòng:
            Yêu cầu khác:
        Gửi yêu cầu
           ×
                Bản đồ
