url:https://www.ivivu.com/khach-san-ho-chi-minh?pd=1000000&ps=500000
Tittle :Khách sạn Hồ Chí Minh  từ 500.000 VND đến 1.000.000 VND
content :1900 1870từ 7h30-21h hàng ngày
                        Khách sạn
                        Tours
                        Ưu đãi đặc biệt
                        Cẩm nang du lịch
                    Giới thiệuHỏi đápHỗ trợ
                    >
                ×
                Thông tin đăng nhập
                        Tên đăng nhập:
                        Mật khẩu:
                Đăng nhập
                        Tìm nhanh khách sạn
                        Ngày nhận phòng
                        Số đêm
                                12345678910111213141516171819202122232425262728293030+
                        Ngày trả phòng
                         
                        Trang chủ
                        Việt Nam
                        Hồ Chí Minh
                          500.000 - 1.000.000
                Khách sạn Hồ Chí Minh  từ 500.000 VND đến 1.000.000 VND 
                Hồ Chí Minh
                 XEM BẢN ĐỒ
                Cập nhật giá
                Sắp xếp theo: 
                                    iVIVU đề xuất
                                    Đề xuất
                                    Giá phòng
                                     Giá
                                    Hạng sao
                                         Sao
                        iVIVU đề xuấtGiá phòng - Tăng dần ▲Giá phòng - Giảm dần ▼Hạng sao - Tăng dần ▲Hạng sao - Giảm dần ▼
                    Khách Sạn TTC Deluxe Airport Sài Gòn
                 315 Hoàng Văn Thụ, Phường 2, Quận Tân Bình, Tp. Hồ Chí Minh, Việt Nam
                                Bản đồ
                    trung tâm thành phố 2 kmchợ Bến Thành 5.5km
                    802.400 VND
                Chi tiết
                    Khách Sạn Nhật Hạ 2 Sài Gòn
                 149-151 Lý Tự Trọng, Phường Bến Thành, Quận 1, Tp. Hồ Chí Minh, Việt Nam
                                Bản đồ
                    Cách chợ Bến Thành 600m
                    975.600 VND
                Chi tiết
                    Khách sạn Asian Ruby Central Sài Gòn
                 277 Đường Lê Thánh Tôn, Phường Bến Thành, Quận 1, Tp. Hồ Chí Minh, Việt Nam
                    8.6
                    Rất tốt
                                    86 nhận xét
                Bản đồ
                    Cách chợ Bến Thành 3 phút đi bộCách khu phố tây 8 phút đi bộPhòng gia đình
                    737.205 VND
                Chi tiết
                    Khách sạn Hoàng Ngân Sài Gòn
                 29 - 31 Bùi Thị Xuân, Phường Bến Thành, Quận 1, Việt Nam
                    8.0
                    Rất tốt
                                    18 nhận xét
                Bản đồ
                    Cách chợ Bến Thành 10 phút đi bộCách khu phố tây 10 phút đi bộBãi đậu xe ô tôCho thuê xe máy
                    760.725 VND
                Chi tiết
                    Khách sạn Bông Sen Annex Sài Gòn
                 61 - 63 Hai Bà Trưng, Quận 1, Tp.Hồ Chí Minh, Việt Nam
                                Bản đồ
                    Trung Tâm Sài GònCách Nhà hát lớn 6 phút đi bộPhòng gia đìnhDịch vụ spa
                    926.772 VND
                Chi tiết
                    Khách sạn Phan Long Sài Gòn
                 6/18 Cách Mạng Tháng 8, P. Bến Thành, Q.1, Việt Nam
                                Bản đồ
                    Cách chợ Bến Thành 10 phút đi bộPhòng familyCho thuê xeCách TTTM Zen Plaza 3 phút đi bộ
                    501.500 VND
                Chi tiết
                    Khách sạn TTC Đông Du Sài Gòn
                 20-22-24 Đông Du, Phường Bến Nghé, Quận 1, Thành phố Hồ Chí Minh, Việt Nam
                                Bản đồ
                    Cách chợ Bến Thành 7 phút lái xePhòng gia đìnhCho thuê xeKhu người Nhật
                    731.010 VND
                Chi tiết
                    Khách sạn TTC Deluxe Tân Bình
                 489 Lý Thường Kiệt, Phường 8, Quận Tân Bình, Tp.HCM, Vietnam, Việt Nam
                                    2 nhận xét
                Bản đồ
                    Cách sân bay 15 phút lái xeBãi đậu xe ô tôPhòng gia đình
                    649.000 VND
                Chi tiết
                    Khách sạn Lavender - Lê Anh Xuân Sài Gòn
                 47-49-51 Lê Anh Xuân, Phường Bến Thành, Quận 1, Thành phố Hồ Chí Minh, Việt Nam
                                Bản đồ
                    Cách chợ Bến Thành 4 phút đi bộBãi đậu xe ô tôDịch vụ cho thuê xe máy
                    979.400 VND
                Chi tiết
                    Khách sạn A25 Đề Thám Sài Gòn
                 274-276 Đề Thám, Quận 1, Thành phố Hồ Chí Minh, Việt Nam
                                Bản đồ
                    Khu phố tâyCách chợ Bến Thành 10 phút đi bộDịch vụ cho thuê xe
                    847.620 VND
                Chi tiết
                    Khách sạn Eden Roc Sài Gòn
                 34A Tăng Bạt Hổ, Phường 11, Quận Bình Thạnh, Thành phố Hồ Chí Minh, Việt Nam
                                Bản đồ
                    Phòng gia đìnhBãi đậu xe ô tôCho thuê xe máy
                    752.250 VND
                Chi tiết
                    Khách sạn White Lion Sài Gòn
                 15C Cao Thắng, Phường 2, Quận 3, TP. HCM, Việt Nam
                    6.9
                    Tốt
                                    6 nhận xét
                Bản đồ
                    Phòng gia đìnhBãi đậu xe ô tôCách chợ Bến Thành 8 phút lái xeDịch vụ cho thuê xe
                    995.227 VND
                Chi tiết
                    Khách sạn Hồ Sen Boutique Sài Gòn (Hồ Sen 2 Cũ)
                 4A Đường Thi Sách, Phường Bến Nghé, Quận 1, Tp. Hồ Chí Minh, Việt Nam
                                Bản đồ
                    Dịch vụ cho thuê xePhòng gia đìnhCách Nhà hát lớn 6 phút đi bộThang máy
                    708.000 VND
                Chi tiết
                    Khách sạn New Epoch Sài Gòn
                 120 Cách Mạng Tháng 08, Quận 3, Tp.Hồ Chí Minh, Việt Nam
                                Bản đồ
                    Cách trung tâm ca nhạc Lan Anh 10 phút đi bộDịch vụ spa và xông hơiPhòng gymCho thuê xe máy
                    708.000 VND
                Chi tiết
                    Khách Sạn A&Em - 8A Thái Văn Lung Sài Gòn
                 8A/1D2 đường Thái Văn Lung, phường Bến Nghé, quận 1, Tp. Hồ Chí Minh, Việt Nam
                                Bản đồ
                    Cách chợ Bến Thành 15 phút đi bộCách Nhà hát lớn 7 phút đi bộThang máy
                    973.500 VND
                Chi tiết
    123
    36 khách sạn Hồ Chí Minh
                        Cần đặt phòng? 
                        Gọi ngay
                        Thanh Nguyễn
                            19001870
                        Cần đặt phòng? 
                        Gọi ngay
                        Trúc Nguyễn
                            19001870
                        Cần đặt phòng? 
                        Gọi ngay
                        Thúy Trần
                            19001870
                 BỘ LỌC TÌM KIẾM
    Tìm khách sạn Hồ Chí Minh
          Xếp hạng khách sạn Hồ Chí Minh
            Tất cả
      Mức giá khách sạn Hồ Chí Minh
        Tất cảDưới 500.000500.000 đến 1.000.0001.000.000 đến 2.000.0002.000.000 đến 5.000.000Trên 5.000.000
        Địa điểm khách sạn Hồ Chí Minh
                        Tất cả
                        Ngoại thành
                        Quận 07
                        Quận 1
                        Quận 1 - Chợ Bến Thành
                        Quận 1 - Khu Tây ba lô
                        Quận 1 - Nhà hát Thành Phố
                        Quận 10
                        Quận 3
                        Quận 5 - Chinatown
                        Quận 7
                        Quận 7 - SECC
                        Sân bay Tân Sơn Nhất
                        Thành phố Hồ Chí Minh
                        Trung tâm thành phố
                        Xem thêm
                        Thu gọn
    Tiện ích khách sạn Hồ Chí Minh
            Tất cả
                            Phòng gia đình
                            Bãi đậu xe ô tô tại khách sạn
                            Thang máy
                            Hồ bơi
                            Phòng tập thể (dorm)
                            Kid Club
            Kinh nghiệm du lịch Hồ Chí Minh
                        Bạn có biết, ngoài những tòa nhà cao tầng nằm san sát nhau, những khu vui chơi giải trí, trung tâm mua sắm sầm uất, Sài Gòn cũng không thiếu những biệt thự cổ kính, những ngôi chợ truyền thống tồn tại đã hàng trăm năm?
Sài Gòn rộng lớn chắc chắn không thiếu những “đặc sản” du lịch như cơm sườn bì chả, vui chơi phố Tây Phạm Ngũ Lão, mua sắm ở chợ Bến Thành hay về với bình yên biển Cần Giờ…
                            Xem thêm
                                Đặt phòng theo đoàn?
                                iVIVU đảm bảo sẽ tìm kiếm deal tốt nhất cho bạn!
                        Đặt ngay 
                    ×
                    ĐẶT PHÒNG ĐOÀN
                        Khi đặt phòng theo đoàn với iVIVU.com, bạn sẽ có được khách sạn phù hợp nhất với giá tốt nhất mà không phải tốn thời gian tìm kiếm.
                                 Yêu cầu
                                         Điện thoại 
                                             Email
                                        *
                                 Vui lòng nhập địa điểm.
                                 Chưa nhập địa chỉ email hoặc địa chỉ email chưa đúng
                                 Vui lòng nhập số điện thoại.
                        • iVIVU.com cam kết đảm bảo an toàn thông tin của quý khách hàng. 
                        • Quý khách hàng có thể yêu cầu ngưng dịch vụ tìm kiếm deal tốt nhất bất cứ lúc nào.
                        Đặt phòng đoàn
                         Khách sạn Hồ Chí Minh theo hạng sao
                            Khách sạn 1 sao tại Hồ Chí Minh
                            Khách sạn 2 sao tại Hồ Chí Minh
                            Khách sạn 3 sao tại Hồ Chí Minh
                            Khách sạn 4 sao tại Hồ Chí Minh
                            Khách sạn 5 sao tại Hồ Chí Minh
                             Khách sạn Hồ Chí Minh tại các địa điểm phổ biến
                                Ngoại thành
                                Quận 07
                                Quận 1
                                Quận 1 - Chợ Bến Thành
                                Quận 1 - Khu Tây ba lô
                                Quận 1 - Nhà hát Thành Phố
                                Quận 10
                                Quận 3
                                Quận 5 - Chinatown
                                Quận 7
                                Quận 7 - SECC
                                Sân bay Tân Sơn Nhất
                                Thành phố Hồ Chí Minh
                                Trung tâm thành phố
                         Khách sạn tại các địa điểm du lịch nổi tiếng khác
                            Khách sạn Đak Nông
                            Khách sạn Ninh Thuận
                            Khách sạn Kon Tum
                            Khách sạn Quảng Trị
                            Khách sạn Tỉnh Quảng Bình
                            Khách sạn Gia Lai
                            Khách sạn Điện Biên
                            Khách sạn Vĩnh Phúc
                            Khách sạn Hà Tĩnh
                            Khách sạn Đồng Nai
                            Khách sạn Bình Dương
                            Khách sạn Bình Định
                            Khách sạn Hải Dương
                            Khách sạn Tiền Giang
                            Khách sạn Phú Yên
                            Khách sạn Tỉnh Kiên Giang
                            Khách sạn Đaklak
                            Khách sạn Cát Bà
                            Khách sạn Châu Đốc
                            Khách sạn Cần Thơ
                            Khách sạn Phú Quốc
                            Khách sạn Đà Nẵng
                            Khách sạn Phan Thiết
                            Khách sạn Nha Trang
                            Khách sạn Hà Nội
                            Khách sạn Huế
                            Khách sạn Phan Rang
                            Khách sạn Long Hải
                            Khách sạn Mũi Né
                            Khách sạn Hội An
                            Khách sạn Vịnh Hạ Long
                            Khách sạn Tam Hải
                            Khách sạn Hồ Tràm
                            Khách sạn Vũng Tàu
                            Khách sạn Hải Phòng
                            Khách sạn Ninh Bình
                            Khách sạn Sapa
                            Khách sạn Côn Đảo
                            Khách sạn Nghệ An
                            Khách sạn Quảng Bình
                            Khách sạn Quy Nhơn
                            Khách sạn Thanh Hóa
                            Khách sạn Tuy Hòa
                            Khách sạn Đà Lạt
                            Khách sạn Lagi
                            Khách sạn Quảng Ngãi
                            Khách sạn Lăng Cô
                            Khách sạn Trảng Bom
                            Khách sạn Pleiku
                            Khách sạn Buôn Mê Thuột
                            Khách sạn Hà Giang
                            Khách sạn Cái Bè
                            Khách sạn Lào Cai
                    ×
                    Cập nhật giá khách sạn
                                                Ngày nhận
                                            Số đêm
                                                    12345678910111213141516171819202122232425262728293030+
                                                Ngày trả
                                            Số phòng
                                            Người lớn
                        Cập nhật lại giá khách sạn
                        Về iVIVU.comChúng tôiiVIVU BlogPMS - Miễn phí
                        Thông Tin Cần BiếtĐiều kiện & Điều khoảnQuy chế hoạt độngCâu hỏi thường gặp
                        Đối Tác & Liên kết
                                    Vietnam
                                    Airlines
                            VNExpressTiki.vn - Mua sắm online
                        Được chứng nhận
                                iVIVU.com là một thành viên của Thiên Minh Groups
                                Bạn cần trợ giúp? Hãy gọi ngay
                                        CSKH: 1900 1870
                                        Khác:   (08) 3930 8290
                                         Từ 7h30 - 21h hằng ngày
                                    iVIVU.com © 2016 - 
                                        Hệ thống đặt phòng khách sạn trực tuyến hàng
                                        đầu Việt Nam
                                        DKKD: 0312788481, Ngày cấp: 21/05/2014, Sở kế hoạch đầu tư thành phố Hồ Chí Minh
                                        HCM: Lầu 7, Tòa nhà Anh Đăng, 215 Nam Kỳ Khởi Nghĩa, Phường 7, Quận 3, Tp. Hồ Chí Minh
                                        (Xem bản đồ)
                                        HN: Lầu 9, 70-72 Bà Triệu, Quận Hoàn Kiếm, Hà Nội
                                        (Xem bản đồ)
                                        Like để cập nhật cẩm nang du lịch
                                            tc@ivivu.com
    Xin Quý khách đợi trong giây lát
        Vui lòng để lại thông tin yêu cầu đặt phòng khách sạn của Quý khách.
                Giá chỉ mang tính chất tham khảo và không áp dụng vào các ngày lễ tết. Chúng tôi sẽ liên hệ lại trong 24h.
            Họ & Tên: 
            Số điện thoại: 
            Email: 
            Vùng/thành phố yêu cầu:
            Tên khách sạn:
                Ngày nhận phòng:
                Ngày trả phòng:
            Yêu cầu khác:
        Gửi yêu cầu
           ×
                Bản đồ
