url:http://dulich.vnexpress.net/mua-sam/viet-nam/ha-noi
Tittle :Những địa điểm mua sắm khi đi du lịch Hà Nội - VnExpress Du lịch
content : 
                     Trang chủ Thời sự Góc nhìn Thế giới Kinh doanh Giải trí Thể thao Pháp luật Giáo dục Sức khỏe Gia đình Du lịch Khoa học Số hóa Xe Cộng đồng Tâm sự Rao vặt Video Ảnh  Cười 24h qua Liên hệ Tòa soạn Thông tin Tòa soạn
                            © Copyright 1997- VnExpress.net, All rights reserved
                            ® VnExpress giữ bản quyền nội dung trên website này.
                         Hotline:
                            0123.888.0123 (Hà Nội) 
                            0129.233.3555 (TP HCM) 
                                    Thế giớiPháp luậtXã hộiKinh doanhGiải tríÔ tô - Xe máy Thể thaoSố hóaGia đình
                         
                     
                    Thời sựThế giớiKinh doanhGiải tríThể thaoPháp luậtGiáo dụcSức khỏeGia đìnhDu lịchKhoa họcSố hóaXeCộng đồngTâm sựVideoCườiRao vặt
    Việt NamQuốc tếCộng đồngẢnh
                Các địa danh khác
		        24h qua
            Du lịch Việt Nam 
                        Hà Nội
                                        Du Lịch 
                                        Hà Nội 
                                        Các địa danh
                                 
                                Việt NamQuốc tếCộng đồngẢnh
                    Đồ Du lịch và dã ngoại Umove
                    13A Phố Hàng Điếu, Cửa Đông, Hoàn Kiếm, Hà Nội                                        
	Hiện thực hóa những ý tưởng về một sự thay đổi trong đời sống du lịch, hệ thống cửa hàng của Umove ra đời là một cách tiếp cận trực tiếp và nhanh chóng nhất đối với nhu cầu mua sắm của khách hàng.
	Tại mỗi cửa hàng Quý khách sẽ 
            Khách sạn168Nhà hàng22Tham quan135Giải trí10Mua sắm11           
                                                            Chợ đêm phố cổ Hà Nội
                                Hàng Ngang, Hàng Đào, Hàng Đường, quận Hoàn Kiếm, Hà Nội                                                                
	Chợ đêm phố được tổ chức từ 18h – 23h các tối thứ 6, 7 và chủ nhật hàng tuần tại tuyến đi bộ gần 3km xuyên qua những ngôi nhà còn giữ được nhiều nét cổ xưa, bắt đầu từ phố hàng Đào tiếp giáp với quảng trường Đông 
                                                            Phố Hàng Mã
                                Hàng Mã, Hoàn Kiếm, Hà Nội                                                                
	Phố Hàng Mã là đất thôn cũ Yên Phú. Tên cũ thời Pháp thuộc là Rue du Cuive. Đoạn phố phía đông trên đất thôn cũ Vĩnh Hanh vẫn có tên gọi thông thường là phố Hàng Mã. Dân ở phố này có một số gia đình người làng Tân 
                                                            Chợ hoa đêm Quảng Bá
                                236, Đường Âu Cơ , Tây Hồ, Hà Nội                                                                
	Chợ hoa đêm đã có từ rất lâu, những người dân sống ở đây cũng không nhớ rõ chính xác là từ khi nào chỉ biết rằng trước đây là khu chợ tạm, rồi do nhu cầu buôn bán của người dân nên dân dần mở rộng thành chợ hoa 
                                                            Làng lụa Vạn Phúc
                                Phường Vạn Phúc, quận Hà Đông, cách trung tâm Hà Nội khoảng 10 km                                                                
	Nằm bên bờ sông Nhuệ, làng lụa Vạn Phúc vẫn còn giữ được ít nhiều nét cổ kính quê ngày xưa như hình ảnh cây đa cổ thụ, giếng nước, sân đình, buổi chiều vẫn họp chợ dưới gốc đa trước đình. "Lụa Hà Đông" cũng như các sản phẩm 
                                                            Làng gốm Bát Tràng
                                Xã Bát Tràng, huyện Gia Lâm, Hà Nội                                                                
	Gốm Bát Tràng là tên gọi chung cho các loại đồ gốm được sản xuất tại làng Bát Tràng, Gia Lâm, Hà Nội. Theo nghĩa Hán Việt, chữ Bát là bát ăn của nhà sư, chữ Tràng nghĩa là "cái sân lớn", là mảnh đất dành riêng cho chuyên môn. 
                                                            Trung tâm thương mại Parkson
                                1 Thái Hà, Đống Đa, Hà Nội                                                                
	Trung tâm mua sắm Parkson có vị trí rất đắc lợi khi chiếm đến 3 mặt tiền lớn tại ngã tư Tây Sơn, Chùa Bộc và Thái Hà. Trung tâm có hơn 100 gian hàng và tiếp tục được mở rộng chuyên bày bán các mặt hàng chủ yếu là 
                                                            Trung tâm thương mại Vincom
                                191 Bà Triệu, Hai Bà Trưng, Hà Nội                                                                
	  Là một trung tâm thương mại có 21 tầng, các trang thiết bị hiện đại. Nó đã đạt tiêu chuẩn quốc tế và trở thành tháp đôi lớn nhất Hà Nội  vào lúc khai trương chính thức năm 2001. Hiện nay tòa tháp gồm 3 cao ốc liên thông nằm 
                                                            Chợ Hàng Bè
                                Phố Cầu Gỗ, Hoàn Kiếm, Hà Nội                                                                
	Hàng Bè là một trong những ngôi chợ đã gắn bó với người dân phố cổ cả trăm năm nay. Trải qua bao lần đổi thay, nó trở thành một phần không thể thiếu trong cuộc sống của người dân Hà Nội. Với người Kẻ Chợ – Thăng Long, chợ 
                                                            Chợ Hàng Da
                                Phường Cửa Đông, Hoàn Kiếm, Hà Nội                                                                
	Là một trong những chợ truyền thống lâu năm của Hà Nội, lại nằm ở khu vực đô hội của Hà thành, chợ Hàng Da không chỉ là địa chỉ quen thuộc của người dân nơi đây mà còn là nơi trung chuyển, cung cấp hàng hóa cho các vùng 
                                                            Chợ Đồng Xuân
                                Số 1, phố Đồng Xuân, Hoàn Kiếm, Hà Nội                                                                
	Chợ ra đời từ năm 1889 trên địa phận phường Đồng Xuân. Ban đầu chợ họp ngoài trời, sau được xây thành chợ với năm cầu khung sắt, lợp tôn tráng kẽm, dài 52 m (1,56 ft), cao 19 m (57 ft). Nằm gần ga đầu cầu Long Biên bên 
        Xem nhiều nhất
    Anh Tây đi bộ khắp thế giới mê mẩn núi rừng Việt NamViệt Nam đứng top đầu khách chi tiêu nhiều nhất ở Nhật BảnThủ tướng chỉ ra 3 giải pháp để phát triển du lịchNhững món đồ không thể thiếu khi đi du lịch cuối nămVị đậm đà tinh tế trong món gà sốt tiêu tỏi
    Top điểm đến
     
                        Kế hoạch 4 ngày khám phá đảo thiên đường ở Campuchia
                        Những món ngon nên thử của Phú Quốc
                        Khách du lịch được mời dùng toilet miễn phí ở Đà Nẵng
                        Chuyến bay Cần Thơ - Đà Lạt chỉ mất một giờ
                        Những cây cầu có tên gọi độc đáo ở miền Tây
                        Lá sấu dệt thảm vàng trên đường phố Hà Nội
					Trang chủ
                         Đặt VnExpress làm trang chủ
                         Đặt VnExpress làm trang chủ
                         Về đầu trang
                     
								  Thời sự
								  Góc nhìn
								  Pháp luật
								  Giáo dục
								  Thế giới
								  Gia đình
								  Kinh doanh
							   Hàng hóa
							   Doanh nghiệp
							   Ebank
								  Giải trí
							   Giới sao
							   Thời trang
							   Phim
								  Thể thao
							   Bóng đá
							   Tennis
							   Các môn khác
								  Video
								  Ảnh
								  Infographics
								  Sức khỏe
							   Các bệnh
							   Khỏe đẹp
							   Dinh dưỡng
								  Du lịch
							   Việt Nam
							   Quốc tế
							   Cộng đồng
								  Khoa học
							   Môi trường
							   Công nghệ mới
							   Hỏi - đáp
								  Số hóa
							   Sản phẩm
							   Đánh giá
							   Đời sống số
								  Xe
							   Tư vấn
							   Thị trường
							   Diễn đàn
								  Cộng đồng
								  Tâm sự
								  Cười
								  Rao vặt
                    Trang chủThời sựGóc nhìnThế giớiKinh doanhGiải tríThể thaoPháp luậtGiáo dụcSức khỏeGia đìnhDu lịchKhoa họcSố hóaXeCộng đồngTâm sựVideoCườiRao vặt
                            © Copyright 1997 VnExpress.net,  All rights reserved
                            ® VnExpress giữ bản quyền nội dung trên website này.
                            VnExpress tuyển dụng   Liên hệ quảng cáo  / Liên hệ Tòa soạn
                            Thông tin Tòa soạn.0123.888.0123 (HN) - 0129.233.3555 (TP HCM)
                                     Liên hệ Tòa soạn
                                     Thông tin Tòa soạn
                                    0123.888.0123 (HN) 
                                    0129.233.3555 (TP HCM)
                                © Copyright 1997 VnExpress.net,  All rights reserved
                                ® VnExpress giữ bản quyền nội dung trên website này.
                     
         
