url:http://dulich.vnexpress.net/tin-tuc/lu-khach-viet/hanh-trinh-hanh-phuc
Tittle :Du lịch Hành trình hạnh phúc, thông tin địa điểm du lịch Hành trình hạnh phúc 2014 - VnExpress Du lịch
content : 
                     Trang chủ Thời sự Góc nhìn Thế giới Kinh doanh Giải trí Thể thao Pháp luật Giáo dục Sức khỏe Gia đình Du lịch Khoa học Số hóa Xe Cộng đồng Tâm sự Rao vặt Video Ảnh  Cười 24h qua Liên hệ Tòa soạn Thông tin Tòa soạn
                            © Copyright 1997- VnExpress.net, All rights reserved
                            ® VnExpress giữ bản quyền nội dung trên website này.
                         Hotline:
                            0123.888.0123 (Hà Nội) 
                            0129.233.3555 (TP HCM) 
                                    Thế giớiPháp luậtXã hộiKinh doanhGiải tríÔ tô - Xe máy Thể thaoSố hóaGia đình
                         
                     
                    Thời sựThế giớiKinh doanhGiải tríThể thaoPháp luậtGiáo dụcSức khỏeGia đìnhDu lịchKhoa họcSố hóaXeCộng đồngTâm sựVideoCườiRao vặt
    Việt NamQuốc tếCộng đồngẢnh
		        24h qua
            Du lịch Lữ khách Việt 
                        Hành trình hạnh phúc
                                        Du Lịch 
                                        Hành trình hạnh phúc 
                                 
                                Việt NamQuốc tếCộng đồngẢnh
                            Trải nghiệm Trung Đông bằng du thuyền 5 sao
                            Những điều thú vị chỉ có ở xứ Phù Tang
                            Nét đặc sắc trong ẩm thực ba miền
                            Lễ hội rước kiệu đầy màu sắc ở Nhật Bản
                            Vietravel tặng 100 triệu đồng cho nhà vô địch Olympia 2016
                            Chìm đắm trong ký ức đêm Rằm phố Hội
                            Nhớ món ăn quê mùa nước nổi
                            Vietravel khai thác thành công 7 chuyến bay Vinh - Bangkok
                            Bức tranh thu lãng mạn ở xứ bạch dương
                            Hơn 100 suất du lịch 0 đồng nhờ tấm vé Le Billet D’or
                            Quyền Linh, Miu Lê săn vé du lịch giảm giá
                            Bangkok - Thiên đường mua sắm giá rẻ
                            Khám phá 'Con đường tơ lụa' huyền thoại
                            Khuyến mãi du lịch dành riêng cho thiếu nhi
                            Các trò chơi mạo hiểm trong mùa hè
                            Giải đua xe F1 – Đấu trường tốc độ
                            Những ngôi chùa cổ kính đất Thăng Long
                            Trầm tư thành cổ Ayutthaya
                            Sắc xuân cổ kính trên đất Trung Quốc
                            Thiên đường mùa xuân khiến du khách ngỡ ngàng
                            Mùa hoa cải nhuộm vàng sắc xuân
                            Ngọn núi thiêng Sri Pada
                            Trắng trời Tây Nguyên mùa hoa tháng ba
                            Trẩy hội mùa xuân phương Bắc
                                                12 
                        Xem tiếp
      Bán tour giờ chót
       
                  Vietravel giảm 3 triệu đồng tour miền Trung
        3,990,000 đ 6,990,000 đ 
                  Vietravel giảm đến 44% tour Phú Quốc - Vinpearl Resort 5 sao
        5,290,000 đ 9,290,000 đ 
                  Vietravel giảm hơn 5 triệu đồng tour Hà Nội
        7,990,000 đ 13,190,000 đ 
                  Vietravel giảm 20 triệu đồng tour nước Anh
        59,990,000 đ 79,990,000 đ 
                  Vietravel giảm 16-17 triệu đồng tour Mỹ
        42,990,000 đ 59,000,000 đ 
					Trang chủ
                         Đặt VnExpress làm trang chủ
                         Đặt VnExpress làm trang chủ
                         Về đầu trang
                     
								  Thời sự
								  Góc nhìn
								  Pháp luật
								  Giáo dục
								  Thế giới
								  Gia đình
								  Kinh doanh
							   Hàng hóa
							   Doanh nghiệp
							   Ebank
								  Giải trí
							   Giới sao
							   Thời trang
							   Phim
								  Thể thao
							   Bóng đá
							   Tennis
							   Các môn khác
								  Video
								  Ảnh
								  Infographics
								  Sức khỏe
							   Các bệnh
							   Khỏe đẹp
							   Dinh dưỡng
								  Du lịch
							   Việt Nam
							   Quốc tế
							   Cộng đồng
								  Khoa học
							   Môi trường
							   Công nghệ mới
							   Hỏi - đáp
								  Số hóa
							   Sản phẩm
							   Đánh giá
							   Đời sống số
								  Xe
							   Tư vấn
							   Thị trường
							   Diễn đàn
								  Cộng đồng
								  Tâm sự
								  Cười
								  Rao vặt
                    Trang chủThời sựGóc nhìnThế giớiKinh doanhGiải tríThể thaoPháp luậtGiáo dụcSức khỏeGia đìnhDu lịchKhoa họcSố hóaXeCộng đồngTâm sựVideoCườiRao vặt
                            © Copyright 1997 VnExpress.net,  All rights reserved
                            ® VnExpress giữ bản quyền nội dung trên website này.
                            VnExpress tuyển dụng   Liên hệ quảng cáo  / Liên hệ Tòa soạn
                            Thông tin Tòa soạn.0123.888.0123 (HN) - 0129.233.3555 (TP HCM)
                                     Liên hệ Tòa soạn
                                     Thông tin Tòa soạn
                                    0123.888.0123 (HN) 
                                    0129.233.3555 (TP HCM)
                                © Copyright 1997 VnExpress.net,  All rights reserved
                                ® VnExpress giữ bản quyền nội dung trên website này.
                     
         
