url:http://dulich.vnexpress.net/photo/anh-video/20-ban-tiec-quang-ba-net-dep-am-thuc-o-da-nang-3474450.html?utm_campaign=boxtracking&utm_medium=box_recommend&utm_source=detail
Tittle :20 bàn tiệc quảng bá nét đẹp ẩm thực ở Đà Nẵng - VnExpress Du lịch
content : 
                     Trang chủ Thời sự Góc nhìn Thế giới Kinh doanh Giải trí Thể thao Pháp luật Giáo dục Sức khỏe Gia đình Du lịch Khoa học Số hóa Xe Cộng đồng Tâm sự Rao vặt Video Ảnh  Cười 24h qua Liên hệ Tòa soạn Thông tin Tòa soạn
                            © Copyright 1997- VnExpress.net, All rights reserved
                            ® VnExpress giữ bản quyền nội dung trên website này.
                         Hotline:
                            0123.888.0123 (Hà Nội) 
                            0129.233.3555 (TP HCM) 
                                    Thế giớiPháp luậtXã hộiKinh doanhGiải tríÔ tô - Xe máy Thể thaoSố hóaGia đình
                         
                     
                    Thời sựThế giớiKinh doanhGiải tríThể thaoPháp luậtGiáo dụcSức khỏeGia đìnhDu lịchKhoa họcSố hóaXeCộng đồngTâm sựVideoCườiRao vặt
    Việt NamQuốc tếCộng đồngẢnh
		        24h qua
            Du lịch Ảnh 
                                        Du Lịch 
                                        Ảnh 
                                 
                                Việt NamQuốc tếCộng đồngẢnh
                            Thứ ba, 27/9/2016 | 08:09 GMT+7                        
|
                        20 bàn tiệc quảng bá nét đẹp ẩm thực ở Đà Nẵng                                                
                    Các đầu bếp đến từ TP.HCM, Nha Trang, Huế, Quảng Nam và Đà Nẵng đã thực hiện 20 bàn tiệc trong cuộc thi đầu bếp giỏi, nhằm quảng bá nét đẹp ẩm thực đến với du khách trong và ngoài nước.
                                Món ngon Hà Nội quanh khu Nhà Thờ
                                Những món ăn đi cùng năm tháng ở Chợ Lớn
                                             
	Hội thi "Đầu bếp giỏi Đà Nẵng mở rộng" diễn ra cuối tuần qua phía bờ đông cầu Rồng thu hút đông đảo người dân và du khách. Sự kiện do Trung tâm xúc tiến du lịch Đà Nẵng phối hợp trường hướng nghiệp Á Âu và một số đơn vị tài trợ tổ chức.
                                                                                 
                                             
	20 đội thi đến từ Đà Nẵng, Kon Tum, Nha Trang, TP.HCM, Huế cùng nhau tranh tài. Trong đó, nhiều đầu bếp từng học tại trường hướng nghiệp Á Âu. Mỗi đội có 150 phút để chế biển ra bàn tiệc 4 món.
                                                                                 
                                             
	Món thịt ba rọi cuộn cá và tôm hùm thực sự bắt mắt. Hội thi được tổ chức nhân sự kiện Đại hội thể thao bãi biển châu Á 2016 đang diễn ra tại Đà Nẵng.
                                                                                 
                                             
	Các đầu bếp tham gia cuộc thi là đầu bếp tại các nhà hàng, khách sạn lớn. Trong hình là món chè xoài quê nhà. 
                                                                                 
                                             
	Món cá mú hấp xì dầu được trang trí đẹp mắt. Theo ban tổ chức, cuộc thi nhằm quảng bá nét đẹp ẩm thực, con người Đà Nẵng nói riêng, Việt Nam nói chung đến du khách và bạn bè quốc tế.
                                                                                 
                                             
	Món gà rút xương, cá xốt măng nấm tươi, gỏi bưởi tôm trên một bàn tiệc.
                                                                                 
                                             
	Một mâm tiệc gồm gỏi, lẩu chả cá, giò rút xương, xôi vị ngũ sắc.
                                                                                 
                                             
	Những bàn tiệc có món lẩu cũng được chú trọng trang trí bàn rau sống nhằm tạo ấn tượng cho người thưởng thức. Hình ảnh cầu Rồng ở Đà Nẵng được nhiều đầu bếp chọn để tạo hình từ quả bí đỏ.
                                                                                 
                                             
	Năm nay, ban tổ chức quyết định trao 30 triệu đồng cho đầu bếp giành giải nhất, giải nhì là 17 triệu đồng và giải 3 là 12 triệu đồng.
                                                                                 
                                             
	Những món ngon được các thí sinh thể hiện nhằm tôn vinh vẻ đẹp của nghề đầu bếp, với mục đích phát triển du lịch ẩm thực truyền thống của Việt Nam đến với du khách.
                                                                                 
                                             
	Món chè trứng Hồng trà được đầu bếp chế biến tinh tế. Các giám khảo mất khá nhiều thời gian để thẩm định các món ngon của 20 bàn tiệc.
                                                                                 
                                             
	Nhiều đầu bếp đến tham gia cuộc thi tranh thủ chụp lại những món ngon của đồng nghiệp để học hỏi thêm.
                                                                                 
	Nguyễn Đông
                Ẩm thực Việt Nam
                    Bánh mì là món ăn đường phố ngon nhất thế giới (14/11)
                                             
                    Quán phở ngon và những tên gọi 'xấu xí' (13/11)
                                             
                    Đầu bếp nổi tiếng châu Âu thích châu chấu rang Việt Nam (12/11)
                                             
                    Giới trẻ hào hứng check-in với mì bay (27/10)
                                             
                    Tô phở 'Thạch Sanh' tại Mỹ (27/10)
                                             
                Xem thêm
                         
                Ý kiến bạn đọc (0) 
                Mới nhất | Quan tâm nhất
                Mới nhấtQuan tâm nhất
            Xem thêm
                        Ý kiến của bạn
                            20/1000
                                    Tắt chia sẻĐăng xuất
                         
                                Ý kiến của bạn
                                20/1000
                                 
                        Tags
                                                    Đà Nẵng
                                                    Ẩm thực
                                                    Đầu bếp
                                                    Món ngon
                                                    Du khách
    Tin Khác
                                                     
                            Diễm My ăn trưa, trồng rau cùng người dân Hội An
                                                             
                                                     
                            Khu ổ chuột đầy rẫy tội phạm một thời ở Hong Kong
                                                             
                                                     
                            Góc tối của lễ hội phụ nữ khoe ngực trần tại Tây Ban Nha
                                                             
                            Những bữa tiệc 'nóng mắt' với bong bóng xà phòng
                                                             
                                    Đồi cỏ hồng Đà Lạt biến thành cỏ tuyết sau một đêm
                                                                             
                                    Vợ chồng Thu Phương nếm 'bún chửi' Hà Nội
                                                                             
                                    'Vườn thú người' - vết nhơ trong lịch sử châu Âu
                                                                             
                                    Vẻ đẹp của thị trấn nơi William và Kate gặp nhau
                                                                             
                                    Khu cắm trại giữa rừng dương cách Sài Gòn 3 giờ chạy xe
                                                                             
                                    Vẻ đẹp thơ mộng mùa lá đỏ Nhật Bản
                                                                             
                                    Bên trong thị trấn ma lớn nhất thế giới ở quê hương Thành Cát Tư Hãn
                                                                             
                                    Cô gái bị fan cuồng sao y bản chính khi đi du lịch
                                                                             
                                    Quang Vinh khám phá hai mặt đối lập của Sài Gòn
                                                                             
                                    Bảo tàng áo dài tư nhân duy nhất ở Sài Gòn
                                                                             
        Khuyến mãi Du lịch
		  prev
		   next
                                Tour ngắm hoa tam giác mạch từ 1,99 triệu đồng
                                        1,990,000 đ 2,390,000 đ
                                        08/10/2016 - 30/11/2016                                    
                                                                Danh Nam Travel đưa du khách đi ngắm hoa tam giác mạch tại Hà Giang 3 ngày 2 đêm với giá trọn gói từ 1,99 triệu đồng.
                                Tour Phú Quốc - Vinpearl Land gồm vé máy bay từ 2,9 triệu đồng
                                        2,999,000 đ 4,160,000 đ
                                        16/11/2016 - 30/12/2016                                    
                                                                Hành trình trọn gói và Free and Easy tới Phú Quốc với nhiều lựa chọn hấp dẫn cùng khuyến mại dịp cuối năm dành cho 
                                Giảm hơn 2 triệu đồng tour Nhật Bản 6 ngày 5 đêm
                                        33,800,000 đ 35,990,000 đ
                                        01/10/2016 - 31/12/2016                                    
                                                                Hongai Tours đưa du khách khám phá xứ Phù Tang mùa lá đỏ theo hành trình Nagoya - Nara - Osaka - Kyoto - núi Phú Sĩ - Tokyo.
                                Tour Hải Nam, Trung Quốc 5 ngày giá từ 7,99 triệu đồng
                                        7,990,000 đ 9,990,000 đ
                                        19/10/2016 - 07/12/2016                                    
                                                                Hành trình 5 ngày Hải Khẩu - Hưng Long - Tam Á khởi hành ngày 1, 8, 15, 22, 29/11 và 6, 13, 20, 27/12, giá từ 7,99 triệu đồng.
                                Tour Nhật Bản đón năm mới giá chỉ 28,9 triệu đồng
                                        28,900,000 đ 35,900,000 đ
                                        17/11/2016 - 14/12/2016                                    
                                                                Hành trình sẽ đưa du khách đến cầu may đầu xuân ở đền Kotohira Shrine, mua sắm hàng hiệu giá rẻ dưới lòng đất, tham 
                                Vietrantour tặng 10 triệu đồng tour Nam Phi 8 ngày
                                        49,900,000 đ 59,900,000 đ
                                        21/10/2016 - 01/12/2016                                    
                                                                Tour 8 ngày Johannesburg - Sun City - Pretoria - Capetown, bay hàng không 5 sao Qatar Airways, giá chỉ 49,99 triệu đồng.
                                Tour Campuchia 4 ngày giá chỉ 8,7 triệu đồng
                                        8,700,000 đ 10,990,000 đ
                                        02/11/2016 - 26/01/2017                                    
                                                                Hành trình Phnom Penh - Siem Reap 4 ngày, bay hãng hàng không quốc gia Cambodia Angkor Air, giá chỉ 8,7 triệu đồng.
        Xem nhiều nhất
    Góc tối của lễ hội phụ nữ khoe ngực trần tại Tây Ban NhaCặp du khách Trung Quốc quan hệ tình dục trong công viênCả công viên 'nín thở' chờ du khách béo trượt mángBí mật đáng sợ bên dưới hệ thống tàu điện ngầm LondonChàng tiên cá có thật giữa đời thường
					Trang chủ
                         Đặt VnExpress làm trang chủ
                         Đặt VnExpress làm trang chủ
                         Về đầu trang
                     
								  Thời sự
								  Góc nhìn
								  Pháp luật
								  Giáo dục
								  Thế giới
								  Gia đình
								  Kinh doanh
							   Hàng hóa
							   Doanh nghiệp
							   Ebank
								  Giải trí
							   Giới sao
							   Thời trang
							   Phim
								  Thể thao
							   Bóng đá
							   Tennis
							   Các môn khác
								  Video
								  Ảnh
								  Infographics
								  Sức khỏe
							   Các bệnh
							   Khỏe đẹp
							   Dinh dưỡng
								  Du lịch
							   Việt Nam
							   Quốc tế
							   Cộng đồng
								  Khoa học
							   Môi trường
							   Công nghệ mới
							   Hỏi - đáp
								  Số hóa
							   Sản phẩm
							   Đánh giá
							   Đời sống số
								  Xe
							   Tư vấn
							   Thị trường
							   Diễn đàn
								  Cộng đồng
								  Tâm sự
								  Cười
								  Rao vặt
                    Trang chủThời sựGóc nhìnThế giớiKinh doanhGiải tríThể thaoPháp luậtGiáo dụcSức khỏeGia đìnhDu lịchKhoa họcSố hóaXeCộng đồngTâm sựVideoCườiRao vặt
                            © Copyright 1997 VnExpress.net,  All rights reserved
                            ® VnExpress giữ bản quyền nội dung trên website này.
                            VnExpress tuyển dụng   Liên hệ quảng cáo  / Liên hệ Tòa soạn
                            Thông tin Tòa soạn.0123.888.0123 (HN) - 0129.233.3555 (TP HCM)
                                     Liên hệ Tòa soạn
                                     Thông tin Tòa soạn
                                    0123.888.0123 (HN) 
                                    0129.233.3555 (TP HCM)
                                © Copyright 1997 VnExpress.net,  All rights reserved
                                ® VnExpress giữ bản quyền nội dung trên website này.
                     
         
