url:http://dulich.vnexpress.net/tin-tuc/anh-video/quan-bar-chi-danh-cho-du-khach-an-choi-qua-da-3488696.html?utm_campaign=boxtracking&utm_medium=box_relatedtop&utm_source=detail
Tittle :Quán bar chỉ dành cho du khách 'ăn chơi quá đà' - VnExpress Du lịch
content : 
                     Trang chủ Thời sự Góc nhìn Thế giới Kinh doanh Giải trí Thể thao Pháp luật Giáo dục Sức khỏe Gia đình Du lịch Khoa học Số hóa Xe Cộng đồng Tâm sự Rao vặt Video Ảnh  Cười 24h qua Liên hệ Tòa soạn Thông tin Tòa soạn
                            © Copyright 1997- VnExpress.net, All rights reserved
                            ® VnExpress giữ bản quyền nội dung trên website này.
                         Hotline:
                            0123.888.0123 (Hà Nội) 
                            0129.233.3555 (TP HCM) 
                                    Thế giớiPháp luậtXã hộiKinh doanhGiải tríÔ tô - Xe máy Thể thaoSố hóaGia đình
                         
                     
                    Thời sựThế giớiKinh doanhGiải tríThể thaoPháp luậtGiáo dụcSức khỏeGia đìnhDu lịchKhoa họcSố hóaXeCộng đồngTâm sựVideoCườiRao vặt
    Việt NamQuốc tếCộng đồngẢnh
		        24h qua
            Du lịch Ảnh 
                                        Du Lịch 
                                        Ảnh 
                                 
                                Việt NamQuốc tếCộng đồngẢnh
						Thứ ba, 25/10/2016 | 08:32 GMT+7
|
						Quán bar chỉ dành cho du khách 'ăn chơi quá đà'												
					Mọi người chỉ được phép vào quán và tận hưởng các dịch vụ sung sướng khi nồng độ cồn trong máu vượt ngưỡng cho phép, có nghĩa là nếu càng say, bạn càng được chào đón.
					Quán bar phủ đầy 20.000 quả bóng ở Nhật Bản  /  Quán cà phê có hầu gái đút thức ăn tận miệng ở Trung Quốc                    
					Hangover Bar là một quán bar ở Amsterdam, mở cửa từ thứ 6 đến chủ nhật hàng tuần. Mục tiêu của quán là chăm sóc sức khỏe cho các du khách ăn chơi quá đà, nhậu nhẹt say xỉn đến mức không thể tự đi về nhà.
					Những du khách chỉ được phép vào quán và tận hưởng các dịch vụ nghỉ ngơi, chăm sóc để hồi phục sức khỏe, khi vượt qua được bài kiểm tra nồng độ rượu. Đến máy đo nồng độ rượu thông báo cơ thể bạn chứa lượng cồn chưa vượt khỏi ngưỡng cho phép, bạn sẽ không được tiếp đón tại đây.
					Quán được trang trí theo phong cách ốc đảo xanh, với màu sắc mát mắt nhằm làm dịu tinh thần của du khách. Tại đây, những vị khách say xỉn vừa đi ra từ một quán bar, hộp đêm sẽ được cung cấp giường để nằm nghỉ ngơi, xem một bộ phim truyền hình yêu thích, được mát xa cho khỏi đau đầu.
					Quán cũng có dịch vụ cung cấp khí ô xy để khách có thể sử dụng, nhằm thúc đẩy việc tỉnh rượu, hoặc cảm thấy dễ chịu hơn sau khi đã quá chén. Du khách cũng được phục vụ thức ăn ngon, nhiều vitamin để bồi bổ cơ thể.
					Joep Verbunt, một trong những người đứng ở quầy bar cho biết hầu hết mọi người đều cảm thấy thích thú với dịch vụ ở đây. Thời gian mở cửa của quán là từ 10h sáng đến 6h chiều. 
	Xem thêm Quán bar nhỏ nhất nước Anh                        
                                    Anh Minh
                                                                              |  
									Gửi bài viết chia sẻ tại đây hoặc về dulich@vnexpress.net
                Các điểm đến ăn chơi về đêm
                    Những câu lạc bộ thoát y nóng bỏng nhất thế giới (19/11)
                                             
                    Cuộc sống ngập trong tiền của giới trẻ nhà giàu Trung Quốc (12/11)
                                             
                    Không khí phố đèn đỏ Thái Lan mùa cao điểm du lịch (2/11)
                                             
                    Cứu tinh của những con bạc ở casino (29/10)
                                             
                    Bên trong sòng bạc khét tiếng nhất thế giới ở Monaco (28/10)
                                             
                Xem thêm
            Xem nhiều nhất
                            Góc tối của lễ hội phụ nữ khoe ngực trần tại Tây Ban Nha
                                                             
                                'Vườn thú người' - vết nhơ trong lịch sử châu Âu
                                                                     
                                Đồi cỏ hồng Đà Lạt biến thành cỏ tuyết sau một đêm
                                                                     
                                Khu ổ chuột đầy rẫy tội phạm một thời ở Hong Kong
                                                                     
                                Vẻ đẹp thơ mộng mùa lá đỏ Nhật Bản
                                                                     
                 
                Ý kiến bạn đọc (0) 
                Mới nhất | Quan tâm nhất
                Mới nhấtQuan tâm nhất
            Xem thêm
                        Ý kiến của bạn
                            20/1000
                                    Tắt chia sẻĐăng xuất
                         
                                Ý kiến của bạn
                                20/1000
                                 
                Tags
                                    Nhà hàng
                                Quán bar
                                Hangover
                                Du khách
                                Du lịch
    Tin Khác
                                                     
                            Diễm My ăn trưa, trồng rau cùng người dân Hội An
                                                             
                                                     
                            Khu ổ chuột đầy rẫy tội phạm một thời ở Hong Kong
                                                             
                                                     
                            Góc tối của lễ hội phụ nữ khoe ngực trần tại Tây Ban Nha
                                                             
                            Những bữa tiệc 'nóng mắt' với bong bóng xà phòng
                                                             
                                    Đồi cỏ hồng Đà Lạt biến thành cỏ tuyết sau một đêm
                                                                             
                                    Vợ chồng Thu Phương nếm 'bún chửi' Hà Nội
                                                                             
                                    'Vườn thú người' - vết nhơ trong lịch sử châu Âu
                                                                             
                                    Vẻ đẹp của thị trấn nơi William và Kate gặp nhau
                                                                             
                                    Khu cắm trại giữa rừng dương cách Sài Gòn 3 giờ chạy xe
                                                                             
                                    Vẻ đẹp thơ mộng mùa lá đỏ Nhật Bản
                                                                             
                                    Bên trong thị trấn ma lớn nhất thế giới ở quê hương Thành Cát Tư Hãn
                                                                             
                                    Cô gái bị fan cuồng sao y bản chính khi đi du lịch
                                                                             
                                    Quang Vinh khám phá hai mặt đối lập của Sài Gòn
                                                                             
                                    Bảo tàng áo dài tư nhân duy nhất ở Sài Gòn
                                                                             
        Khuyến mãi Du lịch
		  prev
		   next
                                Tour Hải Nam, Trung Quốc 5 ngày giá từ 7,99 triệu đồng
                                        7,990,000 đ 9,990,000 đ
                                        19/10/2016 - 07/12/2016                                    
                                                                Hành trình 5 ngày Hải Khẩu - Hưng Long - Tam Á khởi hành ngày 1, 8, 15, 22, 29/11 và 6, 13, 20, 27/12, giá từ 7,99 triệu đồng.
                                Tour Campuchia 4 ngày giá chỉ 8,7 triệu đồng
                                        8,700,000 đ 10,990,000 đ
                                        02/11/2016 - 26/01/2017                                    
                                                                Hành trình Phnom Penh - Siem Reap 4 ngày, bay hãng hàng không quốc gia Cambodia Angkor Air, giá chỉ 8,7 triệu đồng.
                                Tour Phú Quốc - Vinpearl Land gồm vé máy bay từ 2,9 triệu đồng
                                        2,999,000 đ 4,160,000 đ
                                        16/11/2016 - 30/12/2016                                    
                                                                Hành trình trọn gói và Free and Easy tới Phú Quốc với nhiều lựa chọn hấp dẫn cùng khuyến mại dịp cuối năm dành cho 
                                Tour ngắm hoa tam giác mạch từ 1,99 triệu đồng
                                        1,990,000 đ 2,390,000 đ
                                        08/10/2016 - 30/11/2016                                    
                                                                Danh Nam Travel đưa du khách đi ngắm hoa tam giác mạch tại Hà Giang 3 ngày 2 đêm với giá trọn gói từ 1,99 triệu đồng.
                                Vietrantour tặng 10 triệu đồng tour Nam Phi 8 ngày
                                        49,900,000 đ 59,900,000 đ
                                        21/10/2016 - 01/12/2016                                    
                                                                Tour 8 ngày Johannesburg - Sun City - Pretoria - Capetown, bay hàng không 5 sao Qatar Airways, giá chỉ 49,99 triệu đồng.
                                Giảm hơn 2 triệu đồng tour Nhật Bản 6 ngày 5 đêm
                                        33,800,000 đ 35,990,000 đ
                                        01/10/2016 - 31/12/2016                                    
                                                                Hongai Tours đưa du khách khám phá xứ Phù Tang mùa lá đỏ theo hành trình Nagoya - Nara - Osaka - Kyoto - núi Phú Sĩ - Tokyo.
                                Tour Nhật Bản đón năm mới giá chỉ 28,9 triệu đồng
                                        28,900,000 đ 35,900,000 đ
                                        17/11/2016 - 14/12/2016                                    
                                                                Hành trình sẽ đưa du khách đến cầu may đầu xuân ở đền Kotohira Shrine, mua sắm hàng hiệu giá rẻ dưới lòng đất, tham 
        Xem nhiều nhất
    Góc tối của lễ hội phụ nữ khoe ngực trần tại Tây Ban NhaCặp du khách Trung Quốc quan hệ tình dục trong công viênCả công viên 'nín thở' chờ du khách béo trượt mángBí mật đáng sợ bên dưới hệ thống tàu điện ngầm LondonChàng tiên cá có thật giữa đời thường
					Trang chủ
                         Đặt VnExpress làm trang chủ
                         Đặt VnExpress làm trang chủ
                         Về đầu trang
                     
								  Thời sự
								  Góc nhìn
								  Pháp luật
								  Giáo dục
								  Thế giới
								  Gia đình
								  Kinh doanh
							   Hàng hóa
							   Doanh nghiệp
							   Ebank
								  Giải trí
							   Giới sao
							   Thời trang
							   Phim
								  Thể thao
							   Bóng đá
							   Tennis
							   Các môn khác
								  Video
								  Ảnh
								  Infographics
								  Sức khỏe
							   Các bệnh
							   Khỏe đẹp
							   Dinh dưỡng
								  Du lịch
							   Việt Nam
							   Quốc tế
							   Cộng đồng
								  Khoa học
							   Môi trường
							   Công nghệ mới
							   Hỏi - đáp
								  Số hóa
							   Sản phẩm
							   Đánh giá
							   Đời sống số
								  Xe
							   Tư vấn
							   Thị trường
							   Diễn đàn
								  Cộng đồng
								  Tâm sự
								  Cười
								  Rao vặt
                    Trang chủThời sựGóc nhìnThế giớiKinh doanhGiải tríThể thaoPháp luậtGiáo dụcSức khỏeGia đìnhDu lịchKhoa họcSố hóaXeCộng đồngTâm sựVideoCườiRao vặt
                            © Copyright 1997 VnExpress.net,  All rights reserved
                            ® VnExpress giữ bản quyền nội dung trên website này.
                            VnExpress tuyển dụng   Liên hệ quảng cáo  / Liên hệ Tòa soạn
                            Thông tin Tòa soạn.0123.888.0123 (HN) - 0129.233.3555 (TP HCM)
                                     Liên hệ Tòa soạn
                                     Thông tin Tòa soạn
                                    0123.888.0123 (HN) 
                                    0129.233.3555 (TP HCM)
                                © Copyright 1997 VnExpress.net,  All rights reserved
                                ® VnExpress giữ bản quyền nội dung trên website này.
                     
         
