url:http://dulich.vnexpress.net/tin-tuc/viet-nam/
Tittle :Du lịch Việt Nam, khám phá các địa điểm du lịch hấp dẫn Việt Nam  - VnExpress Du Lịch
content : 
                     Trang chủ Thời sự Góc nhìn Thế giới Kinh doanh Giải trí Thể thao Pháp luật Giáo dục Sức khỏe Gia đình Du lịch Khoa học Số hóa Xe Cộng đồng Tâm sự Rao vặt Video Ảnh  Cười 24h qua Liên hệ Tòa soạn Thông tin Tòa soạn
                            © Copyright 1997- VnExpress.net, All rights reserved
                            ® VnExpress giữ bản quyền nội dung trên website này.
                         Hotline:
                            0123.888.0123 (Hà Nội) 
                            0129.233.3555 (TP HCM) 
                                    Thế giớiPháp luậtXã hộiKinh doanhGiải tríÔ tô - Xe máy Thể thaoSố hóaGia đình
                         
                     
                    Thời sựThế giớiKinh doanhGiải tríThể thaoPháp luậtGiáo dụcSức khỏeGia đìnhDu lịchKhoa họcSố hóaXeCộng đồngTâm sựVideoCườiRao vặt
    Việt NamQuốc tếCộng đồngẢnh
                Các địa danh khác
		        24h qua
            Du lịch Việt Nam 
                                        Du Lịch 
                                        Việt Nam 
                                        Các địa danh
                                 
                                Việt NamQuốc tếCộng đồngẢnh
                                 
                     Quán bún măng vịt mỗi ngày chỉ bán một tiếng 
                                             
                Nằm sâu trong con hẻm nhỏ trên đường Lê Văn Sỹ quận Tân Bình, TP HCM, quán bún vịt chỉ phục vụ khách từ 15h30 và đóng hàng sau đó                 
                                        Bắc Trung Bộ hút khách Thái Lan để vực dậy du lịch
                                                                                     
                                    Để khắc phục hậu quả vì ô nhiễm biển, Tổng cục Du lịch dự kiến mở chiến dịch kích cầu du lịch Bắc Trung Bộ và thu hút khách từ                                     
                                        Việt Nam đứng top đầu khách chi tiêu nhiều nhất ở Nhật Bản
                                                                                     
                                    Lượng du khách Việt Nam đến Nhật Bản tăng 150% mỗi năm và đứng hàng đầu trong số những khách du lịch có mức chi tiêu cao nhất.                                    
                                        Không gian điện ảnh đẳng cấp tại Vinpearl Đà Nẵng
                                    Kiến trúc đương đại kết hợp nét cổ điển quyến rũ của Vinpearl Đà Nẵng Resort & Villas ấn tượng giới mộ điệu điệu ảnh tại sự kiện 'Gặp gỡ                                     
        Khách sạn509Nhà hàng63Tham quan365Giải trí82Mua sắm27                
                            Đầm Sen ưu đãi ngày Nhà giáo Việt Nam
                                Công viên văn hóa Đầm Sen dành ưu đãi miễn phí vào cổng cho giáo viên và giảm 50% giá vé cho học sinh - sinh viên trong hai ngày 19 và 20/11.                                
                            Hoàng tử Anh ăn đêm bên Hồ Gươm
                                Công tước xứ Cambridge dùng tôm rang muối tỏi, nem rán hải sản, đậu chiên sả và chiêm ngưỡng toàn cảnh Hồ Gươm, tại một nhà hàng ở trung tâm Thủ đô.                                
                            Những món đồ không thể thiếu khi đi du lịch cuối năm
                                Mắt kính, valy, ba lô, chiếc gối ngủ... không chỉ tiện ích, hữu dụng mà còn mang đến các tín đồ du lịch một vẻ ngoài thời trang và sành điệu.                                
                            'Vua đầu bếp' để khách tự sáng tạo món ăn
                                                             
                                Thay vì chọn tên món, khách đến nhà hàng của Minh Nhật ở Hà Nội được yêu cầu đánh dấu vào những nguyên liệu yêu thích trên thực đơn, để đầu bếp chế biến với thời gian nấu không quá 2 phút.                                
                            Thủ tướng chỉ ra 3 giải pháp để phát triển du lịch
                                                             
                                Xây dựng cộng đồng văn minh làm du lịch, thương hiệu du lịch lớn ở các vùng và thể chế tốt là 3 giải pháp được Thủ tướng Nguyễn Xuân Phúc chỉ ra trong phiên chất vấn sáng nay.                                
                            Anh Tây đi bộ khắp thế giới mê mẩn núi rừng Việt Nam
                                                             
                                Khám phá những rặng núi đá vôi hùng vĩ ở miền tây Quảng Bình, Meigo Mark, chàng trai Estonia đi bộ du lịch qua 19 nước cho hay anh bị mê mẩn với cảnh đẹp nơi đây.                                
                            Vị đậm đà tinh tế trong món gà sốt tiêu tỏi
                                Từng miếng gà tươi quyện cùng vị tiêu cay, tỏi, nước sốt sánh đậm vị thơm ngon mang đến nhiều trải nghiệm mới lạ và thú vị cho thực khách.                                
                            Món ăn đặc trưng trong ngày lễ Tạ ơn
                                Thực khách sẽ thưởng thức các món tôm hùm cỡ lớn, gà tây dùng với nước sốt Việt quất, súp khoai tây, bánh budding... tại khách sạn Lotte Legend Saigon.                                
                            Những quán ăn không biển hiệu vẫn đông khách ở Hà Nội
                                                             
                                Không biển hiệu, thậm chí không bàn, chỉ có vài chiếc ghế nhựa trên vỉa hè chật chội, nhưng xôi xéo Hàng Bài, phở bưng Hàng Trống hay nộm tá lả Phạm Hồng Thái vẫn đông khách mỗi ngày.                                
                            Hội An sẽ có 50 xe điện phục vụ du khách từ năm 2017
                                                             
                                Khách đến Hội An có thể lựa chọn xe 4 bánh chạy bằng năng lượng điện để di chuyển đến phố cổ, biển An Bàng, biển Cửa Đại từ 6h đến 22h mỗi ngày.                                
                            Cơm lam nếp nương, món ăn 'dã chiến' của người Tây Bắc
                                                             
                                Sau khi thu hoạch lúa, người dân Tây Bắc dùng gạo nếp nương chế biến thành món cơm lam ống tre, ăn với vừng, cá suối nướng và có thể mang theo bất cứ đâu.                                
                            Vietravel giảm giá hàng trăm tour trong ngày 19/11
                                Tham gia ngày hội “Khai xuân 2017”, du khách sẽ nhận ngay séc du lịch xuân trị giá 2 triệu đồng, được nhân đôi mức giảm giá séc du lịch khi thanh toán tour...                                
                            Quán xôi cay vỉa hè mỗi ngày hết 40 kg nếp ở Sài Gòn
                                                             
                                                                     
                                Chỉ có thể mua mang đi nhưng nhờ món có thêm vị cay đặc biệt, quán xôi vỉa hè ở quận 5 nườm nượp khách suốt 50 năm qua.                                
                            Cận cảnh sân golf được vinh danh 'tốt nhất thế giới'
                                Tọa lạc trong khung cảnh thơ mộng, Bà Nà Hills Golf Club còn được bố trí đa dạng với năm bệ phát bóng thuận lợi và phù hợp cho golf thủ.                                
                            Cứ 30 phút có một chuyến bay Hà Nội - TP HCM
                                Chặng Hà Nội - TP HCM do Vietnam Airlines khai thác có tần suất bay 34 chuyến một chiều trong ngày.                                
                            5 món ăn dân dã mùa mưa ở Quảng Bình
                                                             
                                Bánh bột lọc, khoai deo hay chắt chắt bánh tráng là những món dân dã của người Quảng Bình thường làm vào mùa mưa, nay trở thành đặc sản được nhiều du khách yêu thích.                                
                            Sơn Đoòng - Vương quốc có thật trong lòng đất
                                                             
                                Trang Brightside ví hang lớn nhất thế giới ở Quảng Bình như một vương quốc dưới lòng đất với một khu rừng, bãi tắm và khí hậu riêng.                                
                            Đường hoa Nguyễn Huệ sẽ mở từ 28 Tết
                                                             
                                Đường hoa Nguyễn Huệ 2017 sẽ mở từ ngày 25 đến 31/1, tức 28 đến mùng 4 Tết Đinh Dậu với nhiều loài hoa độc, lạ nhập từ nước ngoài.                                
                            Khai trương khách sạn 4 sao ÊMM Huế
                                Tọa lạc tại vị trí trung tâm cố đô, khách sạn ÊMM Huế với nhiều tiện ích sẽ mang đến cho du khách những trải nghiệm độc đáo.                                
                            Những món ăn đồng quê dân dã ở Sài Gòn
                                Tép rong xào khế, gỏi bao tử, lẩu riêu... với hương vị mộc mạc nhưng không kém phần độc đáo, quyến rũ thực khách khi lần đầu đến Nhà hàng Khế Ngọt.                                
                            Nhiều hoạt động tôn vinh nhà giáo tại Đầm Sen
                                Du khách đến Đầm Sen, TP HCM sẽ có dịp trải nghiệm nhiều hoạt động thú vị như ấu ăn, trang trí tiểu cảnh, đua thuyền rồng, thời trang học đường.                                
                            Khách Tây khen nhà chờ mới ở sân bay Tân Sơn Nhất
                                                             
                                                                     
                                Ghế ngủ miễn phí, khu vui chơi trẻ em và phòng ngủ mini thu phí là những dịch vụ mới ở khu vực chờ nhà ga quốc tế Tân Sơn Nhất.                                
                            Giới trẻ Hà Nội được miễn phí vé vào cửa festival Ẩm thực Italy
                                                             
                                Ngày 19, 20/11 tại công viên nước Hồ Tây, Hà Nội, khách dưới 20 tuổi sẽ được miễn phí vé vào cửa để tham gia ngày hội ẩm thực Italy, cũng như có cơ hội nhận 2 tấm vé đi châu Âu.                                
                            Khu du lịch sinh thái cá cảnh 150 tỷ đồng ở ngoại ô TP HCM
                                                             
                                Những bể cá koi (cá chép Nhật) với hàng nghìn con cá nhiều màu sắc và không gian miệt vườn nhiều cây trái, chỉ cách trung tâm TP HCM 40 km là một điểm đến mới cho du khách.                                
                            Đầu bếp nổi tiếng châu Âu thích châu chấu rang Việt Nam
                                                             
                                Đến Việt Nam và thưởng thức các món ăn bản địa, đầu bếp chuyên ẩm thực đường phố nổi tiếng châu Âu Don Pasta cho biết, đồ ăn ở đây không chỉ ngon, đa dạng mà còn được gửi gắm cả hồn dân tộc.                                
                                12345 
                Xem tiếp
        Khuyến mãi Du lịch
		  prev
		   next
                                Tour Campuchia 4 ngày giá chỉ 8,7 triệu đồng
                                        8,700,000 đ 10,990,000 đ
                                        02/11/2016 - 26/01/2017                                    
                                                                Hành trình Phnom Penh - Siem Reap 4 ngày, bay hãng hàng không quốc gia Cambodia Angkor Air, giá chỉ 8,7 triệu đồng.
                                Tour Phú Quốc - Vinpearl Land gồm vé máy bay từ 2,9 triệu đồng
                                        2,999,000 đ 4,160,000 đ
                                        16/11/2016 - 30/12/2016                                    
                                                                Hành trình trọn gói và Free and Easy tới Phú Quốc với nhiều lựa chọn hấp dẫn cùng khuyến mại dịp cuối năm dành cho 
                                Tour Hải Nam, Trung Quốc 5 ngày giá từ 7,99 triệu đồng
                                        7,990,000 đ 9,990,000 đ
                                        19/10/2016 - 07/12/2016                                    
                                                                Hành trình 5 ngày Hải Khẩu - Hưng Long - Tam Á khởi hành ngày 1, 8, 15, 22, 29/11 và 6, 13, 20, 27/12, giá từ 7,99 triệu đồng.
                                Vietrantour tặng 10 triệu đồng tour Nam Phi 8 ngày
                                        49,900,000 đ 59,900,000 đ
                                        21/10/2016 - 01/12/2016                                    
                                                                Tour 8 ngày Johannesburg - Sun City - Pretoria - Capetown, bay hàng không 5 sao Qatar Airways, giá chỉ 49,99 triệu đồng.
                                Tour Nhật Bản đón năm mới giá chỉ 28,9 triệu đồng
                                        28,900,000 đ 35,900,000 đ
                                        17/11/2016 - 14/12/2016                                    
                                                                Hành trình sẽ đưa du khách đến cầu may đầu xuân ở đền Kotohira Shrine, mua sắm hàng hiệu giá rẻ dưới lòng đất, tham 
                                Giảm hơn 2 triệu đồng tour Nhật Bản 6 ngày 5 đêm
                                        33,800,000 đ 35,990,000 đ
                                        01/10/2016 - 31/12/2016                                    
                                                                Hongai Tours đưa du khách khám phá xứ Phù Tang mùa lá đỏ theo hành trình Nagoya - Nara - Osaka - Kyoto - núi Phú Sĩ - Tokyo.
                                Tour ngắm hoa tam giác mạch từ 1,99 triệu đồng
                                        1,990,000 đ 2,390,000 đ
                                        08/10/2016 - 30/11/2016                                    
                                                                Danh Nam Travel đưa du khách đi ngắm hoa tam giác mạch tại Hà Giang 3 ngày 2 đêm với giá trọn gói từ 1,99 triệu đồng.
        Quốc tế
         
                Những câu lạc bộ thoát y nóng bỏng nhất thế giới
                        Những cô nàng chân dài với thân hình đồng hồ cát, điệu nhảy khiêu gợi, đồ uống lạnh hảo hạng và điệu nhảy bốc lửa trong các câu lạc bộ thoát y luôn kích thích các giác quan của du khách.
            Bé gái Ấn Độ hồn nhiên tóm cổ rắn hổ mang chúaBí mật đáng sợ bên dưới hệ thống tàu điện ngầm LondonNgã xuống hồ nước nóng, du khách chết mất xác
         Gửi bài viết về tòa soạn
        Ẩm thực
         
            Vợ chồng Thu Phương nếm 'bún chửi' Hà Nội
            Bà chủ quán rất vui vẻ chào đón nhóm của nữ ca sĩ ngay cả khi quán kín chỗ ngồi, dù vừa mở cửa.
                Bánh mì là món ăn đường phố ngon nhất thế giới
                Nơi phụ nữ không biết nấu ăn khó lấy chồng
        Cộng đồng
         
                'Thời gian biểu' du lịch Việt Nam bốn mùa đều đẹp
                        Hãy lên kế hoạch du lịch đúng thời điểm cho năm mới dựa theo lịch trình du lịch khắp miền đất nước.
            Du khách đứng tim vì voi chặn đầu xe5 vùng đất Samurai nổi tiếng của Nhật BảnĐồi cỏ hồng Đà Lạt biến thành cỏ tuyết sau một đêm
        Ảnh
         
                             
            Chùa 've chai' nắm giữ nhiều kỷ lục ở Đà Lạt
            Tên gọi “ve chai” của chùa Linh Phước (Đà Lạt) xuất phát từ việc hầu hết chi tiết trang trí ở đây đều dùng mảnh sành, sứ hay vỏ chai tạo nên.
                                     
                Ngày Tết du ngoạn Thiền viện Trúc Lâm Tây Thiên
                                     
                Những ngôi nhà mái rạ ở 'thủ phủ' gạo tám
        Video
         
            Du khách la hét vì chơi tàu lượn dốc nhất thế giới
            Tàu lượn Takabisha (Nhật Bản) có độ dốc lên tới 121 độ, vận tốc tối đa đạt 160 km/h khiến người chơi như đứng tim khi nhiều đường ray thẳng đứng, tàu như rơi tự do.
                Cả công viên 'nín thở' chờ du khách béo trượt máng
                Cảnh đẹp ngoạn mục trên khắp nẻo đường Na Uy
        Điểm đến yêu thích                
                    Kế hoạch 4 ngày khám phá đảo thiên đường ở Campuchia                
                    Những món ngon nên thử của Phú Quốc                
                    Khách du lịch được mời dùng toilet miễn phí ở Đà Nẵng                
                    Chuyến bay Cần Thơ - Đà Lạt chỉ mất một giờ                
                    Những cây cầu có tên gọi độc đáo ở miền Tây                
		Liên kết du lịch
        Xem nhiều nhất
    Góc tối của lễ hội phụ nữ khoe ngực trần tại Tây Ban NhaCặp du khách Trung Quốc quan hệ tình dục trong công viênCả công viên 'nín thở' chờ du khách béo trượt mángBí mật đáng sợ bên dưới hệ thống tàu điện ngầm LondonChàng tiên cá có thật giữa đời thường'Vườn thú người' - vết nhơ trong lịch sử châu Âu
        Món ngon theo mùa                    
                        Đặc sản xứ công tử Bạc Liêu                            
                                                             
                    Bánh canh tôm nước cốt dừa, dưa chua bồn bồn, bánh củ cải chiên, mắm chua hay xá pấu là những món ngon lạ miệng ở xứ công tử Bạc Liêu, đầy tính địa phương của miền tây Nam bộ. 
                        Gỏi ốc giác - món ăn khó bỏ lỡ ở Phan Thiết                            
                                                             
                    Một đĩa gỏi gồm đu đủ, rau răm, thịt luộc, ốc giác, thêm nước mắm giấm đường và trộn đều, thưởng thức cùng bánh tráng nướng. 
                        Bánh khoái tép - món ngon của xứ Thanh                            
                                                             
                    Bánh khoái tép là món ăn giản dị nhưng cũng thuộc hàng thơm ngon bậc nhất tại Thanh Hóa, rất thích hợp để thưởng thức trong ngày mưa rét.
        Hỏi đáp
                            Bạn có nhận ra các điểm check-in của Sao Việt?                            
                                                             
                            7 câu đố bằng thơ ai mê du lịch Việt cũng đoán ra                            
                                                             
                            Những câu hỏi về bản đồ chứng tỏ bạn là phượt thủ thứ thiệt                            
                                                             
                            8 câu hỏi đúng - sai tiết lộ bạn có phải du khách thông minh                            
                                                             
                            Đi Hàn Quốc nên theo tour hay tự túc?                            
                                                             
                            Bạn đã ăn lầm những gì trước khi lên máy bay                            
                                                             
		 
					Trang chủ
                         Đặt VnExpress làm trang chủ
                         Đặt VnExpress làm trang chủ
                         Về đầu trang
                     
								  Thời sự
								  Góc nhìn
								  Pháp luật
								  Giáo dục
								  Thế giới
								  Gia đình
								  Kinh doanh
							   Hàng hóa
							   Doanh nghiệp
							   Ebank
								  Giải trí
							   Giới sao
							   Thời trang
							   Phim
								  Thể thao
							   Bóng đá
							   Tennis
							   Các môn khác
								  Video
								  Ảnh
								  Infographics
								  Sức khỏe
							   Các bệnh
							   Khỏe đẹp
							   Dinh dưỡng
								  Du lịch
							   Việt Nam
							   Quốc tế
							   Cộng đồng
								  Khoa học
							   Môi trường
							   Công nghệ mới
							   Hỏi - đáp
								  Số hóa
							   Sản phẩm
							   Đánh giá
							   Đời sống số
								  Xe
							   Tư vấn
							   Thị trường
							   Diễn đàn
								  Cộng đồng
								  Tâm sự
								  Cười
								  Rao vặt
                    Trang chủThời sựGóc nhìnThế giớiKinh doanhGiải tríThể thaoPháp luậtGiáo dụcSức khỏeGia đìnhDu lịchKhoa họcSố hóaXeCộng đồngTâm sựVideoCườiRao vặt
                            © Copyright 1997 VnExpress.net,  All rights reserved
                            ® VnExpress giữ bản quyền nội dung trên website này.
                            VnExpress tuyển dụng   Liên hệ quảng cáo  / Liên hệ Tòa soạn
                            Thông tin Tòa soạn.0123.888.0123 (HN) - 0129.233.3555 (TP HCM)
                                     Liên hệ Tòa soạn
                                     Thông tin Tòa soạn
                                    0123.888.0123 (HN) 
                                    0129.233.3555 (TP HCM)
                                © Copyright 1997 VnExpress.net,  All rights reserved
                                ® VnExpress giữ bản quyền nội dung trên website này.
                     
         
