url:http://dulich.vnexpress.net/tin-tuc/chu-de/deal/giam-hon-2-trieu-dong-tour-nhat-ban-6-ngay-5-dem-3482930.html
Tittle :Giảm hơn 2 triệu đồng tour Nhật Bản 6 ngày 5 đêm - VnExpress Du lịch
content : 
                     Trang chủ Thời sự Góc nhìn Thế giới Kinh doanh Giải trí Thể thao Pháp luật Giáo dục Sức khỏe Gia đình Du lịch Khoa học Số hóa Xe Cộng đồng Tâm sự Rao vặt Video Ảnh  Cười 24h qua Liên hệ Tòa soạn Thông tin Tòa soạn
                            © Copyright 1997- VnExpress.net, All rights reserved
                            ® VnExpress giữ bản quyền nội dung trên website này.
                         Hotline:
                            0123.888.0123 (Hà Nội) 
                            0129.233.3555 (TP HCM) 
                                    Thế giớiPháp luậtXã hộiKinh doanhGiải tríÔ tô - Xe máy Thể thaoSố hóaGia đình
                         
                     
                    Thời sựThế giớiKinh doanhGiải tríThể thaoPháp luậtGiáo dụcSức khỏeGia đìnhDu lịchKhoa họcSố hóaXeCộng đồngTâm sựVideoCườiRao vặt
    Việt NamQuốc tếCộng đồngẢnh
		        24h qua
            Du lịch Chủ đề 
                        Deal
                                        Du Lịch 
                                        Deal 
                                 
                                Việt NamQuốc tếCộng đồngẢnh
						Thứ năm, 13/10/2016 | 11:00 GMT+7
|
						Giảm hơn 2 triệu đồng tour Nhật Bản 6 ngày 5 đêm												
					Hongai Tours đưa du khách khám phá xứ Phù Tang mùa lá đỏ theo hành trình Nagoya - Nara - Osaka - Kyoto - núi Phú Sĩ - Tokyo.
	Giá gốc: 35.990.000 đồng
	Giá khuyến mại: 33.800.000 đồng (áp dụng cho 5 khách đăng ký đầu tiên)
	Áp dụng từ ngày 1/10 đến 31/12
	Chương trình hợp tác đặc biệt giữa Hongai Tours, Vietnam Airlines và Tổng cục Du lịch Nhật Bản.
	Nhật Bản có hai mùa đẹp nhất là hoa anh đào và lá đỏ. Mùa lá đỏ bắt đầu khi đất trời vào thu (cuối tháng 9 đến giữa tháng 11) lúc rừng phong chuyển sắc từ xanh sang đỏ. Hành trình thưởng ngoạn mùa lá đỏ cùng Hongai Tours sẽ đưa du khách tới những điểm ngắm lá đỏ đẹp nhất Nhật Bản.
	Đến cố đô Nara - cố đô đầu tiên của Nhật Bản - du khách sẽ chiêm ngưỡng đền Todaiji với đại tượng Phật Daibutsu, công viên Nai (Deer Park). Tại đây, du khách có thể chụp hình hoặc vui đùa cùng những chú hươu nai đã được thuần hóa.
	Du khách sẽ có dịp chiêm ngưỡng lâu đài Osaka - điểm du lịch nổi tiếng của Nhật Bản và là biểu tượng chính của thành phố Osaka, nằm trong khu thành cổ nổi tiếng bậc nhất xứ Phù Tang với những chi tiết mạ vàng, màu ngói xanh ngọc.
	Tại chùa Thanh Thuỷ (Kiyomizu Dera), du khách sẽ có dịp chiêm ngưỡng lối kiến trúc độc đáo toàn bằng gỗ, nằm trên vùng cao ngọn đồi Higashiyama. Toà nhà chính được thiết kế trông giống như một kho báu của quốc gia, được nâng đỡ bởi 139 chiếc cột cao 15m. Ngoài ra, tour còn đưa du khách đến thăm quan những nét độc đáo ở chùa Vàng (Golden Pavilion Temple).
	Tour đưa du khách đến núi Phú Sĩ - biểu tượng của đất nước mặt trời mọc; thung lũng Owakudani; ngắm cảnh hồ Ashi thơ mộng - hồ nước nằm trên miệng núi lửa, thuộc quần thể hồ quanh chân núi Phú Sĩ; ngôi đền cổ Asakusa Kannon, cung điện Hoàng gia - nơi ở và làm việc của gia đình Hoàng gia Nhật Bản; hòn đảo nhân tạo Odaiba...
	Các dịch vụ trong chương trình gồm: vé máy bay, visa du lịch Nhật Bản, khách sạn 3 sao, các bữa ăn, vé thắng cảnh, xe vận chuyển theo chương trình. Hướng dẫn viên tiếng Việt theo đoàn; bảo hiểm du lịch quốc tế.
	Du khách còn được tặng một gối tựa cổ đẹp từ Tổng cục Du lịch Nhật Bản.
	Tour khởi hành ngày 13, 19/10; 8/11. Các lịch khởi hành tiếp theo, liên hệ tại văn phòng.
	Liên hệ Hongai Tours - 308 Trần Khát Chân, quận Hai Bà Trưng, Hà Nội. Tel : 04. 7303 6666 máy lẻ 201. Hotline: 0963 886 288. Website hoặc tại đây.
									Gửi bài viết chia sẻ tại đây hoặc về dulich@vnexpress.net
				Tin liên quan
							Tour Nhật Bản mùa lá đỏ 4 ngày từ 18,8 triệu đồng (23/8/2016)
							10 ngọn núi hùng vỹ nhất Nhật Bản  (16/8/2016)
							Thưởng ngoạn cảnh đẹp Hàn Quốc, Nhật Bản dịp thu sang (16/9/2016)
							Khách sạn băng chỉ dành cho cặp tình nhân ở Nhật Bản  (6/10/2016)
            Xem nhiều nhất
                            Tour thu vàng nước Nga 7 ngày giá 39,9 triệu đồng
                                Góc tối của lễ hội phụ nữ khoe ngực trần tại Tây Ban Nha
                                                                     
                                Cặp du khách Trung Quốc quan hệ tình dục trong công viên
                                                                     
                                Cả công viên 'nín thở' chờ du khách béo trượt máng
                                                                     
                                Bí mật đáng sợ bên dưới hệ thống tàu điện ngầm London
                                                                     
                 
                Tags
                                    Hongai Tours
                                Nhật Bản
                                Xứ Phù Tang
                                Mùa lá đỏ
    Tin Khác
                            Tour Nhật Bản đón năm mới giá chỉ 28,9 triệu đồng
                            Tour Phú Quốc - Vinpearl Land gồm vé máy bay từ 2,9 triệu đồng
                            Nhiều tour nước ngoài giảm giá trong tháng khuyến mãi
                            Tour Campuchia 4 ngày giá chỉ 8,7 triệu đồng
                                    Tour ngắm hoa tam giác mạch từ 1,99 triệu đồng
                                    Vietrantour tặng 10 triệu đồng tour Nam Phi 8 ngày
                                    Tour Hải Nam, Trung Quốc 5 ngày giá từ 7,99 triệu đồng
                                    Giảm 3 triệu đồng tour Cửu Trại Câu mùa đẹp nhất trong năm
                                    Giảm 3 triệu đồng tour du lịch Hong Kong 4 ngày
                                    Tour châu Âu mùa thu tiết kiệm 5 triệu đồng
                                    Giảm một triệu đồng tour Boracay - núi lửa Taal - Manila
                                    Giảm 3 triệu đồng tour Seoul - Nami - Everland 5 ngày
                                    Tour du lịch mùa vàng châu Âu với giá tiết kiệm
                                    Hành hương đất Phật Myanmar 4 ngày từ 9,9 triệu đồng
        Khuyến mãi Du lịch
		  prev
		   next
                                Tour Campuchia 4 ngày giá chỉ 8,7 triệu đồng
                                        8,700,000 đ 10,990,000 đ
                                        02/11/2016 - 26/01/2017                                    
                                                                Hành trình Phnom Penh - Siem Reap 4 ngày, bay hãng hàng không quốc gia Cambodia Angkor Air, giá chỉ 8,7 triệu đồng.
                                Tour Nhật Bản đón năm mới giá chỉ 28,9 triệu đồng
                                        28,900,000 đ 35,900,000 đ
                                        17/11/2016 - 14/12/2016                                    
                                                                Hành trình sẽ đưa du khách đến cầu may đầu xuân ở đền Kotohira Shrine, mua sắm hàng hiệu giá rẻ dưới lòng đất, tham 
                                Giảm hơn 2 triệu đồng tour Nhật Bản 6 ngày 5 đêm
                                        33,800,000 đ 35,990,000 đ
                                        01/10/2016 - 31/12/2016                                    
                                                                Hongai Tours đưa du khách khám phá xứ Phù Tang mùa lá đỏ theo hành trình Nagoya - Nara - Osaka - Kyoto - núi Phú Sĩ - Tokyo.
                                Tour ngắm hoa tam giác mạch từ 1,99 triệu đồng
                                        1,990,000 đ 2,390,000 đ
                                        08/10/2016 - 30/11/2016                                    
                                                                Danh Nam Travel đưa du khách đi ngắm hoa tam giác mạch tại Hà Giang 3 ngày 2 đêm với giá trọn gói từ 1,99 triệu đồng.
                                Vietrantour tặng 10 triệu đồng tour Nam Phi 8 ngày
                                        49,900,000 đ 59,900,000 đ
                                        21/10/2016 - 01/12/2016                                    
                                                                Tour 8 ngày Johannesburg - Sun City - Pretoria - Capetown, bay hàng không 5 sao Qatar Airways, giá chỉ 49,99 triệu đồng.
                                Tour Hải Nam, Trung Quốc 5 ngày giá từ 7,99 triệu đồng
                                        7,990,000 đ 9,990,000 đ
                                        19/10/2016 - 07/12/2016                                    
                                                                Hành trình 5 ngày Hải Khẩu - Hưng Long - Tam Á khởi hành ngày 1, 8, 15, 22, 29/11 và 6, 13, 20, 27/12, giá từ 7,99 triệu đồng.
                                Tour Phú Quốc - Vinpearl Land gồm vé máy bay từ 2,9 triệu đồng
                                        2,999,000 đ 4,160,000 đ
                                        16/11/2016 - 30/12/2016                                    
                                                                Hành trình trọn gói và Free and Easy tới Phú Quốc với nhiều lựa chọn hấp dẫn cùng khuyến mại dịp cuối năm dành cho 
         Gửi bài viết về tòa soạn
        Xem nhiều nhất
    Anh Tây đi bộ khắp thế giới mê mẩn núi rừng Việt NamViệt Nam đứng top đầu khách chi tiêu nhiều nhất ở Nhật BảnThủ tướng chỉ ra 3 giải pháp để phát triển du lịchNhững món đồ không thể thiếu khi đi du lịch cuối nămVị đậm đà tinh tế trong món gà sốt tiêu tỏi
        Có thể bạn quan tâm
         
	     
                    Khách sạn Thùy Vân Vũng Tàu
	Khách sạn Thùy Vân tọa lạc tại giao lộ của Thùy Vân và Hoàng Hoa Thám, dọc theo bãi sau, Thành phố Vũng Tàu. Khách sạn có quy mô 54                 
                    Nhà hàng Crystal Jade Palace - JW Marriott Hà Nội
	Crystal Jade Palace là thương hiệu nhà hàng nổi tiếng được vinh danh với các giải thưởng danh giá, chuyên phục vụ các món ẩm thực Quảng Đông truyền thống.                 
                    Kỳ thú hồ nước phun Australia
	Ghé thành phố Kiama chiêm ngưỡng hồ nước phun Kiama nổi tiếng sẽ là ấn tượng khó quên cho bạn vào Giáng sinh năm nay. Được hình thành từ những                 
                    Du lịch xem Shanghai Rolex Masters 2013
	Dù đã bước sang thu song tháng 9 dường như chưa hề hạ nhiệt bởi sức nóng của các trận tranh hùng trong làng banh nỉ tại giải Shanghai Rolex                 
                    Khách sạn Bảo Thy 1 Vũng Tàu
	Khách sạn Bảo Thy 1 nằm trên số 249 đường Lê Hồng Phong, phường 8, thành phố Vũng Tàu với địa điểm lý tưởng khách sạn là sự lựa chọn                 
                    Bà Ba
	Nằm trên đường Lý Thường Kiệt, quán bánh bèo bì Bà Ba đã khiến nhiều thực khách ghé ăn thử và đâm ra “ghiền” các món bánh ướt, bánh tằm                 
                    Đón Giáng Sinh miền giáo đường Bùi Chu
	Xứ đạo Bùi Chu là giáo xứ có diện tích nhỏ nhưng giáo dân đông trong Giáo hội Việt Nam. Đến đây, du khách ghé thăm một xứ đạo lâu                 
                    Chợ phiên Sapa
		Chợ phiên của Sa Pa họp vào ngày thứ bảy và chủ nhật. Người dân vùng xa thường phải đi từ ngày hôm trước. Vào tối thứ bảy, có nhiều                 
                    Khách sạn Alagon Sài Gòn
	Khách sạn Alagon Sài Gòn tọa lạc ngay trung tâm thành phố Hồ Chí Minh là sự lựa chọn tốt nhất dành cho khách du lịch hay các khách đi                 
                    Nhà hàng Rules
	Nhà hàng Rules phục vụ các món ăn truyền thống của người Anh. Nơi đây có phong cách sang trọng, giá cả khá cao, cung cách phục vụ làm hài                 
                    Du ngoạn Hương Sơn, Trung Quốc
	Công viên Hương Sơn là nơi đầu tiên đón thu ở Trung Quốc, khi đó thông, phong, gỗ thích, hoa khói đồng loạt đổi màu thay lá, trở thành điểm                 
                    Phố cổ Hội An
	Phố cổ Hội An với trục phố chính Trần Phú và các trục phố phụ nằm cắt ngang dọc với hàng chục cửa hàng bán đồ lớn nhỏ. Tại đây                 
                    Khách sạn Pullman Saigon Centre
	Khách sạn Pullman Saigon Centre là khách sạn đẳng cấp 5 sao quốc tế có 306 phòng nghỉ rộng rãi, kết hợp thiết kế tinh tế sang trọng với mọi                 
                    Nhà hàng Lá thông
	Lá Thông là nhà hàng phảng phất một chút phong cách Nhật, một chút phong cách châu Âu nhưng lại rất đậm chất Việt Nam. Trong khuôn viên rộng nhuộm màu                 
                    Đón Giáng sinh trên đất thánh La Vang
	Tòa thánh La Vang được xây dựng gần ba cây đa, nơi họ tin là Đức Mẹ đã hiện ra vào năm 1798. Người ta vẫn ghi nhớ rằng dưới                 
                    Chợ đêm Hội An
	Từ 17giờ đến 23giờ hằng ngày, trên tuyến phố dài gần 300 mét này sẽ có 40 gian hàng trưng bày, mua bán các loại hàng thủ công mỹ nghệ,                 
                    Khách sạn Hà Nội Friendly
	Khách sạn Hà Nội Friendly cung cấp một dịch vụ chất lượng cao với các thiết bị và tiện nghi hiện đại nhắm mang đến một sự hài lòng tuyệt                 
                    Nhà hàng Vườn thiên đàng
	Nhà hàng Vườn Thiên Đàng tọa lạc ở trung tâm thành phố Huế, là một địa điểm lý tưởng để du khách thư giãn, ngắm nhìn Sông Hương, cầu Tràng                 
                    Đón năm mới tại Malta, Địa Trung Hải
	Nằm lọt giữa Địa Trung Hải, quần đảo Malta xinh đẹp mang dáng vẻ thanh thoát, yên bình, với những ngôi đền huyền thoại, những vịnh nước xanh biếc đầy                 
                    Chợ Hội An
	Chợ Hội An là nơi buôn bán các mặt hàng dịch vụ từ đồ ăn thức uống của toàn thành phố Hội An. Chợ được chia thành nhiều khu khác                 
			Liên kết ngân hàng
					Trang chủ
                         Đặt VnExpress làm trang chủ
                         Đặt VnExpress làm trang chủ
                         Về đầu trang
                     
								  Thời sự
								  Góc nhìn
								  Pháp luật
								  Giáo dục
								  Thế giới
								  Gia đình
								  Kinh doanh
							   Hàng hóa
							   Doanh nghiệp
							   Ebank
								  Giải trí
							   Giới sao
							   Thời trang
							   Phim
								  Thể thao
							   Bóng đá
							   Tennis
							   Các môn khác
								  Video
								  Ảnh
								  Infographics
								  Sức khỏe
							   Các bệnh
							   Khỏe đẹp
							   Dinh dưỡng
								  Du lịch
							   Việt Nam
							   Quốc tế
							   Cộng đồng
								  Khoa học
							   Môi trường
							   Công nghệ mới
							   Hỏi - đáp
								  Số hóa
							   Sản phẩm
							   Đánh giá
							   Đời sống số
								  Xe
							   Tư vấn
							   Thị trường
							   Diễn đàn
								  Cộng đồng
								  Tâm sự
								  Cười
								  Rao vặt
                    Trang chủThời sựGóc nhìnThế giớiKinh doanhGiải tríThể thaoPháp luậtGiáo dụcSức khỏeGia đìnhDu lịchKhoa họcSố hóaXeCộng đồngTâm sựVideoCườiRao vặt
                            © Copyright 1997 VnExpress.net,  All rights reserved
                            ® VnExpress giữ bản quyền nội dung trên website này.
                            VnExpress tuyển dụng   Liên hệ quảng cáo  / Liên hệ Tòa soạn
                            Thông tin Tòa soạn.0123.888.0123 (HN) - 0129.233.3555 (TP HCM)
                                     Liên hệ Tòa soạn
                                     Thông tin Tòa soạn
                                    0123.888.0123 (HN) 
                                    0129.233.3555 (TP HCM)
                                © Copyright 1997 VnExpress.net,  All rights reserved
                                ® VnExpress giữ bản quyền nội dung trên website này.
                     
         
