url:http://dulich.vnexpress.net/tin-tuc/lu-khach-viet
Tittle :Du lịch , thông tin địa điểm du lịch  2014 - VnExpress Du lịch
content : 
                     Trang chủ Thời sự Góc nhìn Thế giới Kinh doanh Giải trí Thể thao Pháp luật Giáo dục Sức khỏe Gia đình Du lịch Khoa học Số hóa Xe Cộng đồng Tâm sự Rao vặt Video Ảnh  Cười 24h qua Liên hệ Tòa soạn Thông tin Tòa soạn
                            © Copyright 1997- VnExpress.net, All rights reserved
                            ® VnExpress giữ bản quyền nội dung trên website này.
                         Hotline:
                            0123.888.0123 (Hà Nội) 
                            0129.233.3555 (TP HCM) 
                                    Thế giớiPháp luậtXã hộiKinh doanhGiải tríÔ tô - Xe máy Thể thaoSố hóaGia đình
                         
                     
                    Thời sựThế giớiKinh doanhGiải tríThể thaoPháp luậtGiáo dụcSức khỏeGia đìnhDu lịchKhoa họcSố hóaXeCộng đồngTâm sựVideoCườiRao vặt
    Việt NamQuốc tếCộng đồngẢnh
		        24h qua
            Du lịch Lữ khách Việt 
                                        Du Lịch 
                                        Lữ khách Việt 
                                 
                                Việt NamQuốc tếCộng đồngẢnh
            Vietravel giảm giá hàng trăm tour trong ngày 19/11
            Trải nghiệm Trung Đông bằng du thuyền 5 sao
            Tour du lịch bằng máy bay thuê bao giá ưu đãi
            Vietravel Hà Nội giảm giá 44 tour trong nước và quốc tế
            Vẻ đẹp kỳ bí của công viên quốc gia núi Kulen, Campuchia
            Nhiều hoạt động thú vị trên du thuyền 5 sao mùa Giáng sinh
  Prev
  Next
  .
              Điểm đến cuối tuần
               
                    Sắc màu cổ tích ở xứ sở 'Nghìn lẻ một đêm'
                  16:00 | 13/9/2016
                  Nhiều mái vòm thánh đường Hồi giáo cổ kính ở Tehran; vô số lăng mộ lộng lẫy khu Shiraz... mê hoặc bất kỳ ai khi đặt chân đến Iran.
                            Nét độc đáo ở xứ sở sương mù
                            09:00 | 13/8/2016
                            Thu quyến rũ ở xứ sở cờ hoa
                            09:00 | 27/7/2016
                            Chiêm ngưỡng sắc hoa xuân quyến rũ ở Nam bán cầu
                            11:00 | 14/7/2016
                            Sắc vàng quyến rũ trên rẻo cao phương Bắc
                            09:00 | 14/7/2016
              Tư vấn du lịch
               
                    Vietravel được TTG Asia vinh danh công ty du lịch tốt nhất Việt Nam
                  17:00 | 30/9/2016
                  Đây là lần thứ 5 Vietravel nhận giải thưởng “Best Travel Agency - Vietnam” do báo TTG Asia trao tặng.
                            Những trải nghiệm không thể bỏ lỡ vào mùa đông xứ Hàn
                            17:00 | 27/9/2016
                            Vietravel giới thiệu thắng cảnh Đà Nẵng cho đoàn thể thao
                            16:30 | 22/9/2016
                            Vẻ đẹp trên cung đường lúa vàng vùng Đông - Tây Bắc
                            09:00 | 18/8/2016
                            Du ngoạn châu Âu mùa thu vàng
                            15:00 | 8/8/2016
              Hành trình hạnh phúc
               
                    Những điều thú vị chỉ có ở xứ Phù Tang
                  08:00 | 8/10/2016
                  Ăn thịt cá nóc có độc tính cao, hoa anh đào nở hai lần trong năm, trả lại tiền tip... là những nét độc đáo ở Nhật Bản mà hiếm nơi nào có được.
                            Nét đặc sắc trong ẩm thực ba miền
                            11:00 | 31/8/2016
                            Lễ hội rước kiệu đầy màu sắc ở Nhật Bản
                            09:25 | 26/8/2016
                            Vietravel tặng 100 triệu đồng cho nhà vô địch Olympia 2016
                            15:00 | 24/8/2016
                            Chìm đắm trong ký ức đêm Rằm phố Hội
                            16:00 | 18/8/2016
              Video - Ảnh
               
                   
                    Miu Lê khám phá dọc miền Trung cùng nhóm bạn thân
                  17:02 | 1/7/2016
                  Ngắm động Thiên Đường đẹp như mơ, mặc trang phục cung đình ở Đại Nội Huế, dạo biển Lăng Cô hay vui chơi thỏa thích ở Bà Nà... Miu Lê đã có một màn chào hè không thể xôm hơn với Tấm vé vàng Le Billet D'or.
                            
                            Quyền Linh vui vẻ với gia đình ở Hàn Quốc
                            17:01 | 1/7/2016
      Bán tour giờ chót
       
                  Vietravel giảm 3 triệu đồng tour miền Trung
        3,990,000 đ 6,990,000 đ 
                  Vietravel giảm đến 44% tour Phú Quốc - Vinpearl Resort 5 sao
        5,290,000 đ 9,290,000 đ 
                  Vietravel giảm hơn 5 triệu đồng tour Hà Nội
        7,990,000 đ 13,190,000 đ 
                  Vietravel giảm 20 triệu đồng tour nước Anh
        59,990,000 đ 79,990,000 đ 
                  Vietravel giảm 16-17 triệu đồng tour Mỹ
        42,990,000 đ 59,000,000 đ 
					Trang chủ
                         Đặt VnExpress làm trang chủ
                         Đặt VnExpress làm trang chủ
                         Về đầu trang
                     
								  Thời sự
								  Góc nhìn
								  Pháp luật
								  Giáo dục
								  Thế giới
								  Gia đình
								  Kinh doanh
							   Hàng hóa
							   Doanh nghiệp
							   Ebank
								  Giải trí
							   Giới sao
							   Thời trang
							   Phim
								  Thể thao
							   Bóng đá
							   Tennis
							   Các môn khác
								  Video
								  Ảnh
								  Infographics
								  Sức khỏe
							   Các bệnh
							   Khỏe đẹp
							   Dinh dưỡng
								  Du lịch
							   Việt Nam
							   Quốc tế
							   Cộng đồng
								  Khoa học
							   Môi trường
							   Công nghệ mới
							   Hỏi - đáp
								  Số hóa
							   Sản phẩm
							   Đánh giá
							   Đời sống số
								  Xe
							   Tư vấn
							   Thị trường
							   Diễn đàn
								  Cộng đồng
								  Tâm sự
								  Cười
								  Rao vặt
                    Trang chủThời sựGóc nhìnThế giớiKinh doanhGiải tríThể thaoPháp luậtGiáo dụcSức khỏeGia đìnhDu lịchKhoa họcSố hóaXeCộng đồngTâm sựVideoCườiRao vặt
                            © Copyright 1997 VnExpress.net,  All rights reserved
                            ® VnExpress giữ bản quyền nội dung trên website này.
                            VnExpress tuyển dụng   Liên hệ quảng cáo  / Liên hệ Tòa soạn
                            Thông tin Tòa soạn.0123.888.0123 (HN) - 0129.233.3555 (TP HCM)
                                     Liên hệ Tòa soạn
                                     Thông tin Tòa soạn
                                    0123.888.0123 (HN) 
                                    0129.233.3555 (TP HCM)
                                © Copyright 1997 VnExpress.net,  All rights reserved
                                ® VnExpress giữ bản quyền nội dung trên website này.
                     
         
