url:http://dulich.vnexpress.net/tin-tuc/quoc-te/london/bi-mat-dang-so-ben-duoi-he-thong-tau-dien-ngam-london-3500981.html?utm_campaign=boxtracking&utm_medium=box_mostview&utm_source=detail
Tittle :Bí mật đáng sợ bên dưới hệ thống tàu điện ngầm London - VnExpress Du lịch
content : 
                     Trang chủ Thời sự Góc nhìn Thế giới Kinh doanh Giải trí Thể thao Pháp luật Giáo dục Sức khỏe Gia đình Du lịch Khoa học Số hóa Xe Cộng đồng Tâm sự Rao vặt Video Ảnh  Cười 24h qua Liên hệ Tòa soạn Thông tin Tòa soạn
                            © Copyright 1997- VnExpress.net, All rights reserved
                            ® VnExpress giữ bản quyền nội dung trên website này.
                         Hotline:
                            0123.888.0123 (Hà Nội) 
                            0129.233.3555 (TP HCM) 
                                    Thế giớiPháp luậtXã hộiKinh doanhGiải tríÔ tô - Xe máy Thể thaoSố hóaGia đình
                         
                     
                    Thời sựThế giớiKinh doanhGiải tríThể thaoPháp luậtGiáo dụcSức khỏeGia đìnhDu lịchKhoa họcSố hóaXeCộng đồngTâm sựVideoCườiRao vặt
    Việt NamQuốc tếCộng đồngẢnh
                Các địa danh khác
		        24h qua
            Du lịch Quốc tế 
                        London
                                        Du Lịch 
                                        London 
                                        Các địa danh
                                 
                                Việt NamQuốc tếCộng đồngẢnh
						Thứ bảy, 19/11/2016 | 12:03 GMT+7
|
						Bí mật đáng sợ bên dưới hệ thống tàu điện ngầm London												
					Các tuyến đường ray điện ngầm ở London (Anh) được bẻ cong nhằm tránh những “hố dịch hạch” đáng sợ trong lòng đất. Mặc dù vậy, nhiều nhà ga vẫn được xây dựng trên những ổ bệnh này.
					Bên trong lâu đài của kẻ khát máu Dracula  /  Cô gái mặc bikini bơi trong hầm mộ chứa 6 triệu bộ xương                    
	Năm 1665, nạn dịch hạch tràn tới London và được ghi nhận là trận dịch bệnh tồi tệ nhất trong lịch sử, lấy đi sinh mạng của 100.000 người, tương đương 1/5 dân số. Thời điểm đó, rất nhiều “hố dịch hạch” trở thành ngôi mộ chung của hàng trăm thi thể chôn vội vã, không khâm liệm cũng chẳng có quan tài.
	Gần 200 năm sau, London mở đường tàu điện ngầm đầu tiên trên thế giới vào năm 1863. Nhìn vào tấm bản đồ dưới đây, không khó để nhận ra nhiều tuyến đường đã bị bẻ cong, thay vì đi thẳng, như để tránh một điều gì đó. Dựa trên những tài liệu ghi chép lại, các nhà khảo cổ học đã đưa ra lời giải thích. Khi thiết kế tuyến đường sắt, các kỹ sư đã cố gắng tránh những “hố dịch hạch” vì không muốn làm phiền người quá cố và cũng vì xương người quá dày đặc không thể khoan qua.
					Tuyến tàu điện ngầm năm 1938 đã bị bẻ cong nhiều chỗ. Ảnh: Alamy.
	Tuy nhiên, bên cạnh đó, các chuyên gia cũng chỉ ra rằng đường cong trong tuyến tàu điện ngầm không chỉ để tránh hố dịch hạch mà còn do chi phí. Thời điểm đó, chỉ cần đào sâu 6 mét dưới lòng đất, các công ty đường sắt phải mua lại toàn bộ bất động sản và tài sản phía trên đường nằm trong diện bị ảnh hưởng. Tính riêng trong năm 1860, công ty đường sắt đô thị Metropolitan Railway đã phá huỷ 1.000 ngôi nhà từ ga King’s Cross tới Farringdon. Trước tình hình đó, các nhà thầu quyết định thiết kế làm sao cho đường ray đi qua ít nhà cửa nhất có thể nhằm tiết kiệm chi phí. Vì thế, không ít nhà ga phải xây dựng trên hố dịch hạch như ga Aldgate với hơn 1.000 người từng được chôn tại đây.
					Những hài cốt tìm thấy trong quá trình thi công có DNA trùng với nạn nhân của bệnh dịch hạch năm 1665. Ảnh: Crossrail Ltd.
	Ngày nay, theo đà phát triển của đô thị, các dự án tàu điện ngầm và cao tốc cần đi qua hàng trăm nghĩa địa tập thể ở London, nhưng không hoàn toàn là “hố dịch hạch” như nhiều người nghĩ. Nó có thể đến từ những thảm họa khác như dịch tả hay bệnh đậu mùa. Vì thế, trong quá trình thi công, nếu gặp những bộ hài cốt, họ sẽ được chuyển tới nơi an nghỉ mới. Bên cạnh đó, hệ thống tàu điện ngầm London cũng tồn tại nhiều sự thật thú vị và thu hút được sự quan tâm của du khách khi đến với thành phố cổ kính này.
	Xem thêm: Con số ít được biết về tàu điện ngầm London                        
                                    Hải Thu
                                                                              |  
									Gửi bài viết chia sẻ tại đây hoặc về dulich@vnexpress.net
                                                Khách sạn9Nhà hàng2Tham quan45Giải trí0Mua sắm0                        
                Những điểm đến được bao phủ bởi huyền thoại
                    Người về từ cõi chết ở Bali (4/10)
                                             
                    Bí ẩn tượng đá biết hát bên bờ sông Nile (8/7)
                                             
                    Thành phố của những mụ phù thủy ở Mỹ (12/5)
                                             
                    Những câu chuyện bí ẩn về Vạn Lý Trường Thành (10/5)
                                             
                    Ngôi làng phù thủy bị nguyền rủa hàng trăm năm (1/5)
                                             
                Xem thêm
            Xem nhiều nhất
                            Cây 'đi tiểu' như người tại Đức
                                                             
                                Du khách thoát chết khi ngã ngựa ngay trước mặt sư tử
                                                                     
                                Những câu lạc bộ thoát y nóng bỏng nhất thế giới
                                                                     
                                Ngã xuống hồ nước nóng, du khách chết mất xác
                                                                     
                                Bé gái Ấn Độ hồn nhiên tóm cổ rắn hổ mang chúa
                                                                     
                 
                Ý kiến bạn đọc (0) 
                Mới nhất | Quan tâm nhất
                Mới nhấtQuan tâm nhất
            Xem thêm
                        Ý kiến của bạn
                            20/1000
                                    Tắt chia sẻĐăng xuất
                         
                                Ý kiến của bạn
                                20/1000
                                 
                Tags
                                    London
                                Bí mật
                                Ga tàu điện
                                London underground
                                Bệnh dịch hạch
    Tin Khác
                            Đoán biểu tượng nổi tiếng bị xóa trong các bức ảnh
                                                             
                                                     
                            Những thành phố chuột đông hơn người
                                                             
                            Ga tàu thay hết biển quảng cáo bằng ảnh mèo
                                                             
                            7 nhà hàng Việt tốt nhất ở London
                                                             
                                    Truyền thuyết về loài quạ đen sống trên tháp London
                                                                             
                                    Chỉ cần cúi xuống bạn đã thấy một London khác lạ
                                                                             
                                    Thực khách sốc khi thấy chuột chạy trong nhà hàng gắn sao Michelin
                                                                             
                                    Sân tắm nắng khỏa thân đầu tiên ở London
                                                                             
                                    Ngôi nhà trên phố Baker của thám tử Sherlock Holmes
                                                                             
                                    Quốc vương và thái tử Dubai giản dị trên tàu điện ngầm London
                                                                             
                                    Cảnh London khi không một bóng người
                                                                             
                                    Những sự thật thú vị về dinh Thủ tướng Anh
                                                                             
                                    19 tuổi trở thành phi công trẻ nhất nước Anh
                                                                             
                                    Trải nghiệm ngủ trong vườn thú sư tử ở London
                                                                             
        Khuyến mãi Du lịch
		  prev
		   next
                                Vietrantour tặng 10 triệu đồng tour Nam Phi 8 ngày
                                        49,900,000 đ 59,900,000 đ
                                        21/10/2016 - 01/12/2016                                    
                                                                Tour 8 ngày Johannesburg - Sun City - Pretoria - Capetown, bay hàng không 5 sao Qatar Airways, giá chỉ 49,99 triệu đồng.
                                Giảm hơn 2 triệu đồng tour Nhật Bản 6 ngày 5 đêm
                                        33,800,000 đ 35,990,000 đ
                                        01/10/2016 - 31/12/2016                                    
                                                                Hongai Tours đưa du khách khám phá xứ Phù Tang mùa lá đỏ theo hành trình Nagoya - Nara - Osaka - Kyoto - núi Phú Sĩ - Tokyo.
                                Tour Campuchia 4 ngày giá chỉ 8,7 triệu đồng
                                        8,700,000 đ 10,990,000 đ
                                        02/11/2016 - 26/01/2017                                    
                                                                Hành trình Phnom Penh - Siem Reap 4 ngày, bay hãng hàng không quốc gia Cambodia Angkor Air, giá chỉ 8,7 triệu đồng.
                                Tour ngắm hoa tam giác mạch từ 1,99 triệu đồng
                                        1,990,000 đ 2,390,000 đ
                                        08/10/2016 - 30/11/2016                                    
                                                                Danh Nam Travel đưa du khách đi ngắm hoa tam giác mạch tại Hà Giang 3 ngày 2 đêm với giá trọn gói từ 1,99 triệu đồng.
                                Tour Nhật Bản đón năm mới giá chỉ 28,9 triệu đồng
                                        28,900,000 đ 35,900,000 đ
                                        17/11/2016 - 14/12/2016                                    
                                                                Hành trình sẽ đưa du khách đến cầu may đầu xuân ở đền Kotohira Shrine, mua sắm hàng hiệu giá rẻ dưới lòng đất, tham 
                                Tour Hải Nam, Trung Quốc 5 ngày giá từ 7,99 triệu đồng
                                        7,990,000 đ 9,990,000 đ
                                        19/10/2016 - 07/12/2016                                    
                                                                Hành trình 5 ngày Hải Khẩu - Hưng Long - Tam Á khởi hành ngày 1, 8, 15, 22, 29/11 và 6, 13, 20, 27/12, giá từ 7,99 triệu đồng.
                                Tour Phú Quốc - Vinpearl Land gồm vé máy bay từ 2,9 triệu đồng
                                        2,999,000 đ 4,160,000 đ
                                        16/11/2016 - 30/12/2016                                    
                                                                Hành trình trọn gói và Free and Easy tới Phú Quốc với nhiều lựa chọn hấp dẫn cùng khuyến mại dịp cuối năm dành cho 
        Việt Nam
         
                Quán bún măng vịt mỗi ngày chỉ bán một tiếng
                        Nằm sâu trong con hẻm nhỏ trên đường Lê Văn Sỹ quận Tân Bình, TP HCM, quán bún vịt chỉ phục vụ khách từ 15h30 và đóng hàng sau đó chừng một tiếng.
            Bắc Trung Bộ hút khách Thái Lan để vực dậy du lịchViệt Nam đứng top đầu khách chi tiêu nhiều nhất ở Nhật BảnKhông gian điện ảnh đẳng cấp tại Vinpearl Đà Nẵng
         Gửi bài viết về tòa soạn
        Ẩm thực
         
            Vợ chồng Thu Phương nếm 'bún chửi' Hà Nội
            Bà chủ quán rất vui vẻ chào đón nhóm của nữ ca sĩ ngay cả khi quán kín chỗ ngồi, dù vừa mở cửa.
                'Vua đầu bếp' để khách tự sáng tạo món ăn
                Vị đậm đà tinh tế trong món gà sốt tiêu tỏi
        Cộng đồng
         
                'Thời gian biểu' du lịch Việt Nam bốn mùa đều đẹp
                        Hãy lên kế hoạch du lịch đúng thời điểm cho năm mới dựa theo lịch trình du lịch khắp miền đất nước.
            Du khách đứng tim vì voi chặn đầu xe5 vùng đất Samurai nổi tiếng của Nhật BảnĐồi cỏ hồng Đà Lạt biến thành cỏ tuyết sau một đêm
        Ảnh
         
                             
            Những thành phố chuột đông hơn người
            Nhiều thành phố du lịch nổi tiếng thế giới như Paris, London, Boston, Chicago…. cũng nằm trong danh sách bị nạn chuột hoành hành.
                                     
                Chỉ cần cúi xuống bạn đã thấy một London khác lạ
                                     
                Cảnh London khi không một bóng người
        Video
         
            Bé gái Ấn Độ hồn nhiên tóm cổ rắn hổ mang chúa
            Những đứa trẻ tại làng Gauriganj được làm quen với rắn từ khi lên hai để chúng có thể biểu diễn thuật thôi miên rắn chuyên nghiệp sau 10 năm.
                Du khách la hét vì chơi tàu lượn dốc nhất thế giới
                Cả công viên 'nín thở' chờ du khách béo trượt máng
        Điểm đến yêu thích                
                    Nhật Bản mở dịch vụ tắm mì ramen để cải thiện làn da                
                    Ngôi làng không điện, nước nổi tiếng ở Uruguay                
                    Du khách bị hải cẩu cắn vì mải tạo dáng với cá                
                    Phụ nữ Armenia làm say mê du khách Mỹ                
                    Du khách thoát chết nhờ đấm liên tục vào mặt cá mập                
		Liên kết du lịch
					Trang chủ
                         Đặt VnExpress làm trang chủ
                         Đặt VnExpress làm trang chủ
                         Về đầu trang
                     
								  Thời sự
								  Góc nhìn
								  Pháp luật
								  Giáo dục
								  Thế giới
								  Gia đình
								  Kinh doanh
							   Hàng hóa
							   Doanh nghiệp
							   Ebank
								  Giải trí
							   Giới sao
							   Thời trang
							   Phim
								  Thể thao
							   Bóng đá
							   Tennis
							   Các môn khác
								  Video
								  Ảnh
								  Infographics
								  Sức khỏe
							   Các bệnh
							   Khỏe đẹp
							   Dinh dưỡng
								  Du lịch
							   Việt Nam
							   Quốc tế
							   Cộng đồng
								  Khoa học
							   Môi trường
							   Công nghệ mới
							   Hỏi - đáp
								  Số hóa
							   Sản phẩm
							   Đánh giá
							   Đời sống số
								  Xe
							   Tư vấn
							   Thị trường
							   Diễn đàn
								  Cộng đồng
								  Tâm sự
								  Cười
								  Rao vặt
                    Trang chủThời sựGóc nhìnThế giớiKinh doanhGiải tríThể thaoPháp luậtGiáo dụcSức khỏeGia đìnhDu lịchKhoa họcSố hóaXeCộng đồngTâm sựVideoCườiRao vặt
                            © Copyright 1997 VnExpress.net,  All rights reserved
                            ® VnExpress giữ bản quyền nội dung trên website này.
                            VnExpress tuyển dụng   Liên hệ quảng cáo  / Liên hệ Tòa soạn
                            Thông tin Tòa soạn.0123.888.0123 (HN) - 0129.233.3555 (TP HCM)
                                     Liên hệ Tòa soạn
                                     Thông tin Tòa soạn
                                    0123.888.0123 (HN) 
                                    0129.233.3555 (TP HCM)
                                © Copyright 1997 VnExpress.net,  All rights reserved
                                ® VnExpress giữ bản quyền nội dung trên website này.
                     
         
