url:http://dulich.vnexpress.net/tin-tuc/cong-dong/hoi-dap
Tittle :Hỏi và đáp về du lịch trong nước và quốc tế  - VnExpress Du Lịch
content : 
                     Trang chủ Thời sự Góc nhìn Thế giới Kinh doanh Giải trí Thể thao Pháp luật Giáo dục Sức khỏe Gia đình Du lịch Khoa học Số hóa Xe Cộng đồng Tâm sự Rao vặt Video Ảnh  Cười 24h qua Liên hệ Tòa soạn Thông tin Tòa soạn
                            © Copyright 1997- VnExpress.net, All rights reserved
                            ® VnExpress giữ bản quyền nội dung trên website này.
                         Hotline:
                            0123.888.0123 (Hà Nội) 
                            0129.233.3555 (TP HCM) 
                                    Thế giớiPháp luậtXã hộiKinh doanhGiải tríÔ tô - Xe máy Thể thaoSố hóaGia đình
                         
                     
                    Thời sựThế giớiKinh doanhGiải tríThể thaoPháp luậtGiáo dụcSức khỏeGia đìnhDu lịchKhoa họcSố hóaXeCộng đồngTâm sựVideoCườiRao vặt
    Việt NamQuốc tếCộng đồngẢnh
		        24h qua
            Du lịch Cộng đồng 
                        Dấu chânTư vấnHỏi - Đáp
                                        Du Lịch 
                                        Hỏi - Đáp 
                                 
                                Việt NamQuốc tếCộng đồngẢnh
                            'Thời gian biểu' du lịch Việt Nam bốn mùa đều đẹp
                                                             
                                Hãy lên kế hoạch du lịch đúng thời điểm cho năm mới dựa theo lịch trình du lịch khắp miền đất nước.                            
                            Trắc nghiệm kiểu Nhật 'đọc vị' bạn trong 5 phút
                                                             
                                Bài trắc nghiệm tâm lý của người Nhật Bản sẽ giúp bạn khám phá những cảm xúc thật trong bạn, cách bạn điều tiết cảm xúc và kết nối với những người xung quanh.                            
                            Bạn có phải người sành ngoại tệ?
                                                             
                                10 câu hỏi dưới sẽ giúp bạn kiểm chứng độ hiểu biết về những đơn vị tiền tệ nước ngoài.                            
                            Đoán biểu tượng nổi tiếng bị xóa trong các bức ảnh
                                                             
                                Hãy cùng xem Cairo, Paris, Copenhagen khi bỏ đi các biểu tượng sẽ ra sao?                            
                            Bạn có nhận ra các điểm check-in của Sao Việt?
                                                             
                                Chỉ nhìn vào cảnh nền, bạn có thể nhận ra Sao Việt đã đến đâu không? Hãy thử qua 10 bức ảnh sau:                            
                            7 câu hỏi chứng tỏ bạn là chuyên gia sushi
                                                             
                                Sushi là món ăn đòi hỏi yêu cầu cao trong quá trình chế biến, trình bày và thưởng thức mà không phải ai cũng nắm được các nguyên tắc này.                            
                            Bạn có nhận ra cảnh đẹp Việt Nam hay bị nhầm ở nước ngoài
                                                             
                                Đà Lạt, Sa Pa, Hạ Long tưởng chừng rất quen thuộc nhưng đôi khi bạn sẽ có chút bối rối khi xem những bức ảnh sau.                            
                            Trắc nghiệm: Bạn có nhầm tên phố Hà Nội
                                                             
                                Nhiều người khó phân biệt tên những con phố như Duy Tân với Tống Duy Tân, Yên Lãng hay Lãng Yên.                            
                            Bạn có nhận ra 10 cảnh đẹp hot nhất hè này dọc đất nước
                                                             
                                Nếu bạn nhận ra hết cả 10 cảnh đẹp này thì hẳn bạn rất am hiểu du lịch Việt Nam.                            
                            Đoán địa danh dựa vào món ăn đặc sản
                                                             
                                Mỗi vùng miền lại có một loại đặc sản đặc trưng cho tỉnh thành, khu vực của mình, khiến ai đã thử qua một lần thì nhớ mãi.                            
                            7 câu đố bằng thơ ai mê du lịch Việt cũng đoán ra
                                                             
                                Hãy giải những câu đố bằng thơ sau đây.                            
                            Những câu hỏi về bản đồ chứng tỏ bạn là phượt thủ thứ thiệt
                                                             
                                Nếu là người yêu thích du lịch, hẳn bạn sẽ nhận ra đâu là bản đồ chính xác của các quốc gia dưới đây.                            
                            8 câu hỏi đúng - sai tiết lộ bạn có phải du khách thông minh
                                                             
                                Nếu trả lời đúng cả 8 câu hỏi, bạn thực sự là một du khách hiểu biết về quy định của nhiều nước trên thế giới.                            
                            Đi Hàn Quốc nên theo tour hay tự túc?
                                                             
                                Chúng tôi dự định tuần trăng mật sẽ đi Hàn Quốc nhưng chưa biết nên đi tour hay tự túc? Khoảng 5 ngày 4 đêm. Tiếng Anh thì hai đứa sử dụng thành thạo. Anh/chị nào đi rồi cho tôi xin kinh nghiệm với lời khuyên. Xin cảm ơn                            
                            Thử tài nhớ quốc kỳ các nước
                                                             
                                Bạn có biết con chim đại bàng trên cờ Albania có bao nhiêu đầu? Loại vũ khí nào được in trên quốc kỳ Mozambique?                            
                            Bạn đã ăn lầm những gì trước khi lên máy bay
                                                             
                                Trước khi lên máy bay, bạn cần biết những loại thực phẩm nào sẽ không gây rắc rối cho mình trong chuyến bay dài.                            
                            Đoán tên quốc gia qua trang phục truyền thống
                                                             
                                Hãy nhìn những nhìn ảnh dưới đây và đoán xem những trang phục truyền thống này đến từ quốc gia nào.                            
                            Thử tài nhớ tên ga tàu hỏa ở Việt Nam
                                                             
                                Tàu hỏa là một trong những phương tiện di chuyển dễ dàng khi đi du lịch. Bạn có nắm được hết ga tàu thuộc tỉnh nào hay không?                            
                            Nhận biết các địa danh Việt Nam qua hình ảnh từ trên cao
                                                             
                                Một khung cảnh quen thuộc có thể sẽ trở nên rất khác nếu bạn đổi góc nhìn. Hãy đoán xem những hình ảnh dưới đây được chụp ở đâu.                            
                            Đoán tên top 10 quốc gia có phụ nữ đẹp nhất 2016
                                                             
                                Bạn có nhận ra cô gái đến từ Brazil hay Ấn Độ?                            
                            Đoán món ăn Việt Nam qua hình ảnh
                                                             
                                Hãy thực hiện một chuyến trải nghiệm ẩm thực bằng hình ảnh và đoán xem những món ăn này tên là gì, đến từ đâu.                            
                            Bạn có biết đúng về quy định hành lý trên máy bay
                                                             
                                Bạn có thể chưa nắm hết các quy định hành lý của các hãng bay nội địa Việt Nam dù thường xuyên di chuyển bằng máy bay.                            
                            Bạn có nhớ hết tên sân bay ở Việt Nam
                                                             
                                Bạn có biết Kép là tên một sân bay ở Việt Nam?                            
                            Đoán tên các kỳ quan cổ đại
                                                             
                                Hãy kiểm tra xem bạn có biết hết tên của những kỳ quan cổ đại dưới đây không.                            
                            Thử nhận biết các địa danh từ hình ảnh bị làm mờ
                                                             
                                Những điểm tham quan nổi tiếng dưới đây đã bị bóp méo hình ảnh. Hãy thử xem bạn có phải là người tinh mắt để nhận ra hay không.                            
                            Đoán tên quốc gia từ hình dáng những chiếc mũ
                                                             
                                Có thể là trang phục hàng ngày, cũng có thể chỉ dành cho dịp đặc biệt, nhưng mỗi chiếc mũ dưới đây đều là đặc trưng riêng của một quốc gia. Hãy đoán thử.                            
                            Thử tài nhìn mác chai bia, đoán tên nước
                                                             
                                Nếu là fan của món đồ uống hấp dẫn này, hãy thử xem bạn có đoán được những loại bia sau đây là sản phẩm của nước nào hay không.                            
                            Đoán tên nước qua các món ăn kỳ quặc
                                                             
                                Hãy kiểm tra xem mình có đoán những món ăn “khó nhằn” nhất thế giới là của quốc gia nào.                            
                            Xin kinh nghiệm đi du lịch một mình
                                                             
                                Tôi là phụ nữ và đang có ý định đi đâu đó thư giãn 4-5 ngày. Vậy tôi nên đến đâu du lịch mà có nhiều cảnh đẹp lại an toàn đối với phái nữ.                            
                        12345                     
                    Xem tiếp
         Gửi câu hỏi về tòa soạn
        Khuyến mãi Du lịch
		  prev
		   next
                                Tour ngắm hoa tam giác mạch từ 1,99 triệu đồng
                                        1,990,000 đ 2,390,000 đ
                                        08/10/2016 - 30/11/2016                                    
                                                                Danh Nam Travel đưa du khách đi ngắm hoa tam giác mạch tại Hà Giang 3 ngày 2 đêm với giá trọn gói từ 1,99 triệu đồng.
                                Vietrantour tặng 10 triệu đồng tour Nam Phi 8 ngày
                                        49,900,000 đ 59,900,000 đ
                                        21/10/2016 - 01/12/2016                                    
                                                                Tour 8 ngày Johannesburg - Sun City - Pretoria - Capetown, bay hàng không 5 sao Qatar Airways, giá chỉ 49,99 triệu đồng.
                                Tour Nhật Bản đón năm mới giá chỉ 28,9 triệu đồng
                                        28,900,000 đ 35,900,000 đ
                                        17/11/2016 - 14/12/2016                                    
                                                                Hành trình sẽ đưa du khách đến cầu may đầu xuân ở đền Kotohira Shrine, mua sắm hàng hiệu giá rẻ dưới lòng đất, tham 
                                Tour Campuchia 4 ngày giá chỉ 8,7 triệu đồng
                                        8,700,000 đ 10,990,000 đ
                                        02/11/2016 - 26/01/2017                                    
                                                                Hành trình Phnom Penh - Siem Reap 4 ngày, bay hãng hàng không quốc gia Cambodia Angkor Air, giá chỉ 8,7 triệu đồng.
                                Giảm hơn 2 triệu đồng tour Nhật Bản 6 ngày 5 đêm
                                        33,800,000 đ 35,990,000 đ
                                        01/10/2016 - 31/12/2016                                    
                                                                Hongai Tours đưa du khách khám phá xứ Phù Tang mùa lá đỏ theo hành trình Nagoya - Nara - Osaka - Kyoto - núi Phú Sĩ - Tokyo.
                                Tour Phú Quốc - Vinpearl Land gồm vé máy bay từ 2,9 triệu đồng
                                        2,999,000 đ 4,160,000 đ
                                        16/11/2016 - 30/12/2016                                    
                                                                Hành trình trọn gói và Free and Easy tới Phú Quốc với nhiều lựa chọn hấp dẫn cùng khuyến mại dịp cuối năm dành cho 
                                Tour Hải Nam, Trung Quốc 5 ngày giá từ 7,99 triệu đồng
                                        7,990,000 đ 9,990,000 đ
                                        19/10/2016 - 07/12/2016                                    
                                                                Hành trình 5 ngày Hải Khẩu - Hưng Long - Tam Á khởi hành ngày 1, 8, 15, 22, 29/11 và 6, 13, 20, 27/12, giá từ 7,99 triệu đồng.
        Việt Nam
         
                Quán bún măng vịt mỗi ngày chỉ bán một tiếng
                        Nằm sâu trong con hẻm nhỏ trên đường Lê Văn Sỹ quận Tân Bình, TP HCM, quán bún vịt chỉ phục vụ khách từ 15h30 và đóng hàng sau đó chừng một tiếng.
            Bắc Trung Bộ hút khách Thái Lan để vực dậy du lịchViệt Nam đứng top đầu khách chi tiêu nhiều nhất ở Nhật BảnKhông gian điện ảnh đẳng cấp tại Vinpearl Đà Nẵng
        Quốc tế
         
                Những câu lạc bộ thoát y nóng bỏng nhất thế giới
                        Những cô nàng chân dài với thân hình đồng hồ cát, điệu nhảy khiêu gợi, đồ uống lạnh hảo hạng và điệu nhảy bốc lửa trong các câu lạc bộ thoát y luôn kích thích các giác quan của du khách.
            Bé gái Ấn Độ hồn nhiên tóm cổ rắn hổ mang chúaBí mật đáng sợ bên dưới hệ thống tàu điện ngầm LondonNgã xuống hồ nước nóng, du khách chết mất xác
        Video
         
            Du khách đứng tim vì voi chặn đầu xe
            Đoàn du khách được một phen hú hồn vì gặp đàn voi khi thăm một khu bảo tồn thiên nhiên tại châu Phi.
                Du khách la hét vì chơi tàu lượn dốc nhất thế giới
                Cả công viên 'nín thở' chờ du khách béo trượt máng
         
             
        Dọc ngang đất nước
                        Quán bún măng vịt mỗi ngày chỉ bán một tiếng
            Nằm sâu trong con hẻm nhỏ trên đường Lê Văn Sỹ quận Tân Bình, TP HCM, quán bún vịt chỉ phục vụ khách từ 15h30 và đóng hàng sau đó chừng một tiếng.
            Bắc Trung Bộ hút khách Thái Lan để vực dậy du lịchViệt Nam đứng top đầu khách chi tiêu nhiều nhất ở Nhật BảnKhông gian điện ảnh đẳng cấp tại Vinpearl Đà Nẵng
        Được hợp tác bởi:
        Xem nhiều nhất
    'Thời gian biểu' du lịch Việt Nam bốn mùa đều đẹpGóc tối của lễ hội phụ nữ khoe ngực trần tại Tây Ban NhaCặp du khách Trung Quốc quan hệ tình dục trong công viênCả công viên 'nín thở' chờ du khách béo trượt mángBí mật đáng sợ bên dưới hệ thống tàu điện ngầm LondonChàng tiên cá có thật giữa đời thường
        Hỏi đáp
                            Nên đi phương tiện gì qua đèo Prenn để hạn chế tai nạn                            
                                                             
                            Năm nay nên đi biển nào để an toàn?                            
                                                             
                            Hành lý du lịch tiết lộ điều gì về bạn                            
                                                             
                            Có bao nhiêu chuyến bay qua Bắc Đại Tây Dương mỗi ngày                            
                                                             
		 
					Trang chủ
                         Đặt VnExpress làm trang chủ
                         Đặt VnExpress làm trang chủ
                         Về đầu trang
                     
								  Thời sự
								  Góc nhìn
								  Pháp luật
								  Giáo dục
								  Thế giới
								  Gia đình
								  Kinh doanh
							   Hàng hóa
							   Doanh nghiệp
							   Ebank
								  Giải trí
							   Giới sao
							   Thời trang
							   Phim
								  Thể thao
							   Bóng đá
							   Tennis
							   Các môn khác
								  Video
								  Ảnh
								  Infographics
								  Sức khỏe
							   Các bệnh
							   Khỏe đẹp
							   Dinh dưỡng
								  Du lịch
							   Việt Nam
							   Quốc tế
							   Cộng đồng
								  Khoa học
							   Môi trường
							   Công nghệ mới
							   Hỏi - đáp
								  Số hóa
							   Sản phẩm
							   Đánh giá
							   Đời sống số
								  Xe
							   Tư vấn
							   Thị trường
							   Diễn đàn
								  Cộng đồng
								  Tâm sự
								  Cười
								  Rao vặt
                    Trang chủThời sựGóc nhìnThế giớiKinh doanhGiải tríThể thaoPháp luậtGiáo dụcSức khỏeGia đìnhDu lịchKhoa họcSố hóaXeCộng đồngTâm sựVideoCườiRao vặt
                            © Copyright 1997 VnExpress.net,  All rights reserved
                            ® VnExpress giữ bản quyền nội dung trên website này.
                            VnExpress tuyển dụng   Liên hệ quảng cáo  / Liên hệ Tòa soạn
                            Thông tin Tòa soạn.0123.888.0123 (HN) - 0129.233.3555 (TP HCM)
                                     Liên hệ Tòa soạn
                                     Thông tin Tòa soạn
                                    0123.888.0123 (HN) 
                                    0129.233.3555 (TP HCM)
                                © Copyright 1997 VnExpress.net,  All rights reserved
                                ® VnExpress giữ bản quyền nội dung trên website này.
                     
         
