url:http://dulich.vnexpress.net/photo/anh-video/ngoi-lang-toan-do-gia-o-trung-quoc-3461568.html
Tittle :Ngôi làng toàn đồ giả ở Trung Quốc - VnExpress Du lịch
content : 
                     Trang chủ Thời sự Góc nhìn Thế giới Kinh doanh Giải trí Thể thao Pháp luật Giáo dục Sức khỏe Gia đình Du lịch Khoa học Số hóa Xe Cộng đồng Tâm sự Rao vặt Video Ảnh  Cười 24h qua Liên hệ Tòa soạn Thông tin Tòa soạn
                            © Copyright 1997- VnExpress.net, All rights reserved
                            ® VnExpress giữ bản quyền nội dung trên website này.
                         Hotline:
                            0123.888.0123 (Hà Nội) 
                            0129.233.3555 (TP HCM) 
                                    Thế giớiPháp luậtXã hộiKinh doanhGiải tríÔ tô - Xe máy Thể thaoSố hóaGia đình
                         
                     
                    Thời sựThế giớiKinh doanhGiải tríThể thaoPháp luậtGiáo dụcSức khỏeGia đìnhDu lịchKhoa họcSố hóaXeCộng đồngTâm sựVideoCườiRao vặt
    Việt NamQuốc tếCộng đồngẢnh
		        24h qua
            Du lịch Ảnh 
                                        Du Lịch 
                                        Ảnh 
                                 
                                Việt NamQuốc tếCộng đồngẢnh
                            Thứ năm, 1/9/2016 | 12:03 GMT+7                        
|
                        Ngôi làng toàn đồ giả ở Trung Quốc                                                
                    Nhiều du khách đã vui đùa gọi Đại Phân là làng đại gia, bởi nhà nhà, người người đều sở hữu hàng trăm kiệt tác nghệ thuật của thế giới, tuy nhiên tất cả đều là giả.
                                Trung Quốc mở cửa cầu kính bám dọc vách đá
                                Trung Quốc khai trương lối đi bằng kính ở độ cao 340 m
                                             
	Đại Phân là một ngôi làng nhỏ nằm ở ngoại ô Bố Cát, quận Long Cương, thành phố Thâm Quyến, tỉnh Quảng Đông, Trung Quốc. Du khách phương Tây khi ghé thăm nơi này đều bày tỏ sự thích thú khi được chiêm ngưỡng các tác phẩm nghệ thuật nổi tiếng thế giới bày la liệt ở nhiều cửa hàng, lối đi trong làng.
                                                                                 
                                             
	Tới đây, bạn có thể dễ dàng chiêm ngưỡng các bức họa nổi tiếng thế giới như Mona Lisa, Bữa Tiệc Ly... cùng nhiều tác phẩm của các nghệ sĩ nổi tiếng thời phục hưng, hiện đại và đương đại mà không cần phải chen lấn như trong bảo tàng Louvre, Paris, Pháp.
                                                                                 
                                             
	Tất nhiên, các bức họa ở đây đều là hàng giả, được họa sĩ đương thời sao chép. Ngôi làng được hình thành từ những năm 1990, khi một nhóm khoảng 20 nghệ sĩ tới đây trú ngụ. Công việc chính của họ là ngày đêm sao chép lại các tác phẩm để đời của Van Gogh, Dalí, Leonardo Da Vinci, Rembarndt hoặc Warhol.
                                                                                 
                                             
	Công việc làm ăn của các họa sĩ này nhanh chóng gặp thuận lợi và họ kiếm được rất nhiều tiền. Để đáp ứng nhu cầu mua tranh giả ngày càng tăng, rất nhiều họa sĩ đổ tới đây để sao chép tranh. Vào năm 2006, ngôi làng là nơi trú ngụ của 1.000 họa sĩ.
                                                                                 
                                             
	Ngày nay, Đại Phân có khoảng 5.000 cư dân là họa sĩ, cả chuyên và không chuyên với hơn 600 phòng trưng bày. Mỗi năm, nơi đây sản xuất và tiêu thụ khoảng 5 triệu bức tranh giả.
                                                                                 
                                             
	Trên ảnh là họa sĩ Zhao Xiaoyong. Ông chỉ mất khoảng 30 phút để "sao y bản chính" một tác phẩm nổi tiếng. Ông cũng đã bán được khoảng 70.000 bức vẽ của Van Gogh, với giá từ 200 tệ (khoảng 665.000 đồng) đến 1.500 tệ (gần 5 triệu đồng).
                                                                                 
                                             
	Theo ChinaDaily, khoảng 60% những bức tranh giả được bán trên toàn thế giới có nguồn gốc từ Đại Phân. Trên lối đi vào làng, du khách có thể nhìn thấy khá nhiều họa sĩ đang ngày đêm miệt mài "múa cọ".
                                                                                 
                                             
	Tuy nhiên, điều kiện sống ở đây được nhiều người đánh giá là tồi tàn, nhếch nhác.
                                                                                 
                                             
	Nhiều du khách đã nói đùa rằng, Đại Phân có lẽ là ngôi làng toàn "đại gia", bởi đâu đâu cũng thấy treo các kiệt tác của nhân loại. Thậm chí có người còn hài hước so sánh bảo tàng Louvre của Paris cũng phải thua "bảo tàng Đại Phân" này.
                                                                                 
	Ảnh: Amusing Planet.
                                    Anh Minh
                                                                              |  
                Những điều thú vị về điểm đến
                    Khu ổ chuột đầy rẫy tội phạm một thời ở Hong Kong (19/11)
                                             
                    Kỷ niệm hài hước với toilet trên đường du lịch (18/11)
                                             
                    'Vườn thú người' - vết nhơ trong lịch sử châu Âu (18/11)
                                             
                    Ngôi nhà không thích đàn ông ở Mỹ (17/11)
                                             
                    Cây 'đi tiểu' như người tại Đức (17/11)
                                             
                Xem thêm
                         
                Ý kiến bạn đọc (0) 
                Mới nhất | Quan tâm nhất
                Mới nhấtQuan tâm nhất
            Xem thêm
                        Ý kiến của bạn
                            20/1000
                                    Tắt chia sẻĐăng xuất
                         
                                Ý kiến của bạn
                                20/1000
                                 
                        Tags
                                                    Trung Quốc
                                                    Du khách
                                                    Du lịch
                                                    Dương Quý Phi
                                                    Mona Lisa
                                                    Leonardo Da Vinci
                                                    Dalí
                                                    Van Gogh.
    Tin Khác
                                                     
                            Diễm My ăn trưa, trồng rau cùng người dân Hội An
                                                             
                                                     
                            Khu ổ chuột đầy rẫy tội phạm một thời ở Hong Kong
                                                             
                                                     
                            Góc tối của lễ hội phụ nữ khoe ngực trần tại Tây Ban Nha
                                                             
                            Những bữa tiệc 'nóng mắt' với bong bóng xà phòng
                                                             
                                    Đồi cỏ hồng Đà Lạt biến thành cỏ tuyết sau một đêm
                                                                             
                                    Vợ chồng Thu Phương nếm 'bún chửi' Hà Nội
                                                                             
                                    'Vườn thú người' - vết nhơ trong lịch sử châu Âu
                                                                             
                                    Vẻ đẹp của thị trấn nơi William và Kate gặp nhau
                                                                             
                                    Khu cắm trại giữa rừng dương cách Sài Gòn 3 giờ chạy xe
                                                                             
                                    Vẻ đẹp thơ mộng mùa lá đỏ Nhật Bản
                                                                             
                                    Bên trong thị trấn ma lớn nhất thế giới ở quê hương Thành Cát Tư Hãn
                                                                             
                                    Cô gái bị fan cuồng sao y bản chính khi đi du lịch
                                                                             
                                    Quang Vinh khám phá hai mặt đối lập của Sài Gòn
                                                                             
                                    Bảo tàng áo dài tư nhân duy nhất ở Sài Gòn
                                                                             
        Khuyến mãi Du lịch
		  prev
		   next
                                Vietrantour tặng 10 triệu đồng tour Nam Phi 8 ngày
                                        49,900,000 đ 59,900,000 đ
                                        21/10/2016 - 01/12/2016                                    
                                                                Tour 8 ngày Johannesburg - Sun City - Pretoria - Capetown, bay hàng không 5 sao Qatar Airways, giá chỉ 49,99 triệu đồng.
                                Tour Hải Nam, Trung Quốc 5 ngày giá từ 7,99 triệu đồng
                                        7,990,000 đ 9,990,000 đ
                                        19/10/2016 - 07/12/2016                                    
                                                                Hành trình 5 ngày Hải Khẩu - Hưng Long - Tam Á khởi hành ngày 1, 8, 15, 22, 29/11 và 6, 13, 20, 27/12, giá từ 7,99 triệu đồng.
                                Giảm hơn 2 triệu đồng tour Nhật Bản 6 ngày 5 đêm
                                        33,800,000 đ 35,990,000 đ
                                        01/10/2016 - 31/12/2016                                    
                                                                Hongai Tours đưa du khách khám phá xứ Phù Tang mùa lá đỏ theo hành trình Nagoya - Nara - Osaka - Kyoto - núi Phú Sĩ - Tokyo.
                                Tour Phú Quốc - Vinpearl Land gồm vé máy bay từ 2,9 triệu đồng
                                        2,999,000 đ 4,160,000 đ
                                        16/11/2016 - 30/12/2016                                    
                                                                Hành trình trọn gói và Free and Easy tới Phú Quốc với nhiều lựa chọn hấp dẫn cùng khuyến mại dịp cuối năm dành cho 
                                Tour ngắm hoa tam giác mạch từ 1,99 triệu đồng
                                        1,990,000 đ 2,390,000 đ
                                        08/10/2016 - 30/11/2016                                    
                                                                Danh Nam Travel đưa du khách đi ngắm hoa tam giác mạch tại Hà Giang 3 ngày 2 đêm với giá trọn gói từ 1,99 triệu đồng.
                                Tour Nhật Bản đón năm mới giá chỉ 28,9 triệu đồng
                                        28,900,000 đ 35,900,000 đ
                                        17/11/2016 - 14/12/2016                                    
                                                                Hành trình sẽ đưa du khách đến cầu may đầu xuân ở đền Kotohira Shrine, mua sắm hàng hiệu giá rẻ dưới lòng đất, tham 
                                Tour Campuchia 4 ngày giá chỉ 8,7 triệu đồng
                                        8,700,000 đ 10,990,000 đ
                                        02/11/2016 - 26/01/2017                                    
                                                                Hành trình Phnom Penh - Siem Reap 4 ngày, bay hãng hàng không quốc gia Cambodia Angkor Air, giá chỉ 8,7 triệu đồng.
        Xem nhiều nhất
    Góc tối của lễ hội phụ nữ khoe ngực trần tại Tây Ban NhaCặp du khách Trung Quốc quan hệ tình dục trong công viênCả công viên 'nín thở' chờ du khách béo trượt mángBí mật đáng sợ bên dưới hệ thống tàu điện ngầm LondonChàng tiên cá có thật giữa đời thường
					Trang chủ
                         Đặt VnExpress làm trang chủ
                         Đặt VnExpress làm trang chủ
                         Về đầu trang
                     
								  Thời sự
								  Góc nhìn
								  Pháp luật
								  Giáo dục
								  Thế giới
								  Gia đình
								  Kinh doanh
							   Hàng hóa
							   Doanh nghiệp
							   Ebank
								  Giải trí
							   Giới sao
							   Thời trang
							   Phim
								  Thể thao
							   Bóng đá
							   Tennis
							   Các môn khác
								  Video
								  Ảnh
								  Infographics
								  Sức khỏe
							   Các bệnh
							   Khỏe đẹp
							   Dinh dưỡng
								  Du lịch
							   Việt Nam
							   Quốc tế
							   Cộng đồng
								  Khoa học
							   Môi trường
							   Công nghệ mới
							   Hỏi - đáp
								  Số hóa
							   Sản phẩm
							   Đánh giá
							   Đời sống số
								  Xe
							   Tư vấn
							   Thị trường
							   Diễn đàn
								  Cộng đồng
								  Tâm sự
								  Cười
								  Rao vặt
                    Trang chủThời sựGóc nhìnThế giớiKinh doanhGiải tríThể thaoPháp luậtGiáo dụcSức khỏeGia đìnhDu lịchKhoa họcSố hóaXeCộng đồngTâm sựVideoCườiRao vặt
                            © Copyright 1997 VnExpress.net,  All rights reserved
                            ® VnExpress giữ bản quyền nội dung trên website này.
                            VnExpress tuyển dụng   Liên hệ quảng cáo  / Liên hệ Tòa soạn
                            Thông tin Tòa soạn.0123.888.0123 (HN) - 0129.233.3555 (TP HCM)
                                     Liên hệ Tòa soạn
                                     Thông tin Tòa soạn
                                    0123.888.0123 (HN) 
                                    0129.233.3555 (TP HCM)
                                © Copyright 1997 VnExpress.net,  All rights reserved
                                ® VnExpress giữ bản quyền nội dung trên website này.
                     
         
