url:http://dulich.vnexpress.net/photo/anh-video/10-khach-san-sang-trong-nhat-the-gioi-3469793.html?utm_campaign=boxtracking&utm_medium=box_recommend&utm_source=detail
Tittle :10 khách sạn sang trọng nhất thế giới - VnExpress Du lịch
content : 
                     Trang chủ Thời sự Góc nhìn Thế giới Kinh doanh Giải trí Thể thao Pháp luật Giáo dục Sức khỏe Gia đình Du lịch Khoa học Số hóa Xe Cộng đồng Tâm sự Rao vặt Video Ảnh  Cười 24h qua Liên hệ Tòa soạn Thông tin Tòa soạn
                            © Copyright 1997- VnExpress.net, All rights reserved
                            ® VnExpress giữ bản quyền nội dung trên website này.
                         Hotline:
                            0123.888.0123 (Hà Nội) 
                            0129.233.3555 (TP HCM) 
                                    Thế giớiPháp luậtXã hộiKinh doanhGiải tríÔ tô - Xe máy Thể thaoSố hóaGia đình
                         
                     
                    Thời sựThế giớiKinh doanhGiải tríThể thaoPháp luậtGiáo dụcSức khỏeGia đìnhDu lịchKhoa họcSố hóaXeCộng đồngTâm sựVideoCườiRao vặt
    Việt NamQuốc tếCộng đồngẢnh
		        24h qua
            Du lịch Ảnh 
                                        Du Lịch 
                                        Ảnh 
                                 
                                Việt NamQuốc tếCộng đồngẢnh
                            Chủ nhật, 18/9/2016 | 19:00 GMT+7                        
|
                        10 khách sạn sang trọng nhất thế giới                                                
                    Trang web uy tín Hotels mới đưa ra top 10 khách sạn sang trọng nhất thế giới do 20 triệu du khách bình chọn, dựa trên sự đánh giá về vị trí, mức độ thoải mái và dịch vụ khách sạn.
                                Bên trong khách sạn sang trọng nhất thế giới ở Macau
                                Những khách sạn lộng lẫy bị bỏ hoang
                                             
	Nằm ngay bên cạnh tòa tháp cao thứ 2 thế giới, Taipei 101, khách sạn W ở Đài Bắc, Đài Loan nổi bật với thiết kế tinh tế và sang trọng. Tất cả 405 phòng nghỉ của khách sạn đều được lắp đặt trang thiết bị hiện đại, tạo cảm giác thoải mái. Ngoài ra, W còn cung cấp các lớp học thể dục, trượt băng và tầm nhìn tuyệt đẹp từ cả 31 tầng. 
                                                                                 
                                             
	Nằm ở trung tâm Sydney, khách sạn Four Seasons được ví như điểm đến lý tưởng nhất cho du khách để trải nghiệm Australia xinh đẹp với tầm nhìn hướng ra nhà hát Opera và cầu cảng Sydney, hai công trình mang tính biểu tượng của thành phố. 
                                                                                 
                                             
	Khách sạn Sofitel New York, Mỹ, nằm ở vị trí thứ 3 nhờ vị trí ngay trung tâm thành phố, chỉ cách sân khấu Broadway, Quảng trường Thời đại và Trung tâm Rockefeller vài phút đi bộ.
                                                                                 
                                             
	Nằm dọc theo sông Chao Phraya ở Bangkok, Thái Lan, khách sạn Chatrium có góc nhìn ấn tượng ra thành phố. Ngoài ra, khách sạn còn được trang bị nội thất, tiện nghi sang trọng cùng nhiều dịch vụ như 5 nhà hàng, spa cao cấp, hồ bơi ngoài trời, quầy bar và cả sân chơi cho trẻ em.
                                                                                 
                                             
	Dolce CampoReal Lisbon là điểm nghỉ dưỡng lý tưởng cho chuyến du lịch đến Bồ Đào Nha. Từ đây, du khách có thể ngắm nhìn toàn bộ sân golf bên dưới, cùng 3 nhà hàng độc đáo, quầy bar, hầm rượu… hứa hẹn đem tới những trải nghiệm ẩm thực khó quên.
                                                                                 
                                             
	Khách sạn Playford Adelaide MGallery by Sofitel ở Australia nổi tiếng với dịch vụ hoàn hảo. Đầu bếp tại nhà hàng phục vụ du khách các món ăn đẳng cấp 5 sao. Từ đây du khách có thể dễ dàng đi bộ tới các điểm đến khác, như Trung tâm Lễ hội Adelaide hay Triển lãm Nghệ thuật South Australia. 
                                                                                 
                                             
	Khách sạn Traders ở Kuala Lumpur, Malaysia nổi bật với thiết kế hiện đại và nằm ở vị trí nổi bật nhất thủ đô. Traders cũng mở ra không gian nghỉ dưỡng thoải mái và sang trọng, phục vụ ăn uống với dịch vụ được đánh giá hạng nhất, cùng nhà hàng trên sân thượng cho những bữa tối cao cấp hơn.
                                                                                 
                                             
	Khách sạn Mondrian bên dòng sông Thames của London, Anh, cung cấp những tiện nghi cao cấp nhất với tầm nhìn bao quát khắp thành phố.
                                                                                 
                                             
	Khách sạn Waldorf Astoria Orlando ở Mỹ chỉ cách trung tâm giải trí Disney World vài phút đi bộ. Hơn thế, khách sạn có tới 12 nhà hàng, 2 quầy bar bên bể bơi, 3 hồ bơi ngoài trời, câu lạc bộ cho trẻ em, trung tâm thể dục với đầy đủ tiện nghi và sân golf đẳng cấp…
                                                                                 
                                             
	Venetian Resort Hotel & Casino là điểm đến xa hoa và lộng lẫy bậc nhất Las Vegas, Mỹ. Khu phức hợp có tới 4.000 phòng khách, 20 nhà hàng, 3 quầy bar bên bể bơi, câu lạc bộ đêm và cả sòng bạc khét tiếng.
                                                                                 
	Ảnh: Hotels
                                    Hải Thu
                                                                              |  
                Các khách sạn lạ và đẹp trên thế giới
                    Tiện nghi xa xỉ trong du thuyền vừa ghé Đà Nẵng (12/11)
                                             
                    5 điểm đến cho người yêu - kẻ ghét tổng thống Donald Trump (10/11)
                                             
                    Bên trong du thuyền lớn nhất châu Á vừa cập cảng Việt Nam (10/11)
                                             
                    Lý do Trump không đặt tiệc chúc mừng tại khách sạn của mình (10/11)
                                             
                    Bên trong khách sạn 7 sao 'tự phong' đầu tiên ở Thượng Hải (8/11)
                                             
                Xem thêm
                         
                Ý kiến bạn đọc (0) 
                Mới nhất | Quan tâm nhất
                Mới nhấtQuan tâm nhất
            Xem thêm
                        Ý kiến của bạn
                            20/1000
                                    Tắt chia sẻĐăng xuất
                         
                                Ý kiến của bạn
                                20/1000
                                 
                        Tags
                                                    Khách sạn sang trọng
                                                    Du lịch
                                                    Du khách
                                                    Sòng bạc
                                                    Khu nghỉ dưỡng
    Tin Khác
                                                     
                            Diễm My ăn trưa, trồng rau cùng người dân Hội An
                                                             
                                                     
                            Khu ổ chuột đầy rẫy tội phạm một thời ở Hong Kong
                                                             
                                                     
                            Góc tối của lễ hội phụ nữ khoe ngực trần tại Tây Ban Nha
                                                             
                            Những bữa tiệc 'nóng mắt' với bong bóng xà phòng
                                                             
                                    Đồi cỏ hồng Đà Lạt biến thành cỏ tuyết sau một đêm
                                                                             
                                    Vợ chồng Thu Phương nếm 'bún chửi' Hà Nội
                                                                             
                                    'Vườn thú người' - vết nhơ trong lịch sử châu Âu
                                                                             
                                    Vẻ đẹp của thị trấn nơi William và Kate gặp nhau
                                                                             
                                    Khu cắm trại giữa rừng dương cách Sài Gòn 3 giờ chạy xe
                                                                             
                                    Vẻ đẹp thơ mộng mùa lá đỏ Nhật Bản
                                                                             
                                    Bên trong thị trấn ma lớn nhất thế giới ở quê hương Thành Cát Tư Hãn
                                                                             
                                    Cô gái bị fan cuồng sao y bản chính khi đi du lịch
                                                                             
                                    Quang Vinh khám phá hai mặt đối lập của Sài Gòn
                                                                             
                                    Bảo tàng áo dài tư nhân duy nhất ở Sài Gòn
                                                                             
        Khuyến mãi Du lịch
		  prev
		   next
                                Tour Phú Quốc - Vinpearl Land gồm vé máy bay từ 2,9 triệu đồng
                                        2,999,000 đ 4,160,000 đ
                                        16/11/2016 - 30/12/2016                                    
                                                                Hành trình trọn gói và Free and Easy tới Phú Quốc với nhiều lựa chọn hấp dẫn cùng khuyến mại dịp cuối năm dành cho 
                                Tour Nhật Bản đón năm mới giá chỉ 28,9 triệu đồng
                                        28,900,000 đ 35,900,000 đ
                                        17/11/2016 - 14/12/2016                                    
                                                                Hành trình sẽ đưa du khách đến cầu may đầu xuân ở đền Kotohira Shrine, mua sắm hàng hiệu giá rẻ dưới lòng đất, tham 
                                Tour Hải Nam, Trung Quốc 5 ngày giá từ 7,99 triệu đồng
                                        7,990,000 đ 9,990,000 đ
                                        19/10/2016 - 07/12/2016                                    
                                                                Hành trình 5 ngày Hải Khẩu - Hưng Long - Tam Á khởi hành ngày 1, 8, 15, 22, 29/11 và 6, 13, 20, 27/12, giá từ 7,99 triệu đồng.
                                Vietrantour tặng 10 triệu đồng tour Nam Phi 8 ngày
                                        49,900,000 đ 59,900,000 đ
                                        21/10/2016 - 01/12/2016                                    
                                                                Tour 8 ngày Johannesburg - Sun City - Pretoria - Capetown, bay hàng không 5 sao Qatar Airways, giá chỉ 49,99 triệu đồng.
                                Tour ngắm hoa tam giác mạch từ 1,99 triệu đồng
                                        1,990,000 đ 2,390,000 đ
                                        08/10/2016 - 30/11/2016                                    
                                                                Danh Nam Travel đưa du khách đi ngắm hoa tam giác mạch tại Hà Giang 3 ngày 2 đêm với giá trọn gói từ 1,99 triệu đồng.
                                Tour Campuchia 4 ngày giá chỉ 8,7 triệu đồng
                                        8,700,000 đ 10,990,000 đ
                                        02/11/2016 - 26/01/2017                                    
                                                                Hành trình Phnom Penh - Siem Reap 4 ngày, bay hãng hàng không quốc gia Cambodia Angkor Air, giá chỉ 8,7 triệu đồng.
                                Giảm hơn 2 triệu đồng tour Nhật Bản 6 ngày 5 đêm
                                        33,800,000 đ 35,990,000 đ
                                        01/10/2016 - 31/12/2016                                    
                                                                Hongai Tours đưa du khách khám phá xứ Phù Tang mùa lá đỏ theo hành trình Nagoya - Nara - Osaka - Kyoto - núi Phú Sĩ - Tokyo.
        Xem nhiều nhất
    Góc tối của lễ hội phụ nữ khoe ngực trần tại Tây Ban NhaCặp du khách Trung Quốc quan hệ tình dục trong công viênCả công viên 'nín thở' chờ du khách béo trượt mángBí mật đáng sợ bên dưới hệ thống tàu điện ngầm LondonChàng tiên cá có thật giữa đời thường
					Trang chủ
                         Đặt VnExpress làm trang chủ
                         Đặt VnExpress làm trang chủ
                         Về đầu trang
                     
								  Thời sự
								  Góc nhìn
								  Pháp luật
								  Giáo dục
								  Thế giới
								  Gia đình
								  Kinh doanh
							   Hàng hóa
							   Doanh nghiệp
							   Ebank
								  Giải trí
							   Giới sao
							   Thời trang
							   Phim
								  Thể thao
							   Bóng đá
							   Tennis
							   Các môn khác
								  Video
								  Ảnh
								  Infographics
								  Sức khỏe
							   Các bệnh
							   Khỏe đẹp
							   Dinh dưỡng
								  Du lịch
							   Việt Nam
							   Quốc tế
							   Cộng đồng
								  Khoa học
							   Môi trường
							   Công nghệ mới
							   Hỏi - đáp
								  Số hóa
							   Sản phẩm
							   Đánh giá
							   Đời sống số
								  Xe
							   Tư vấn
							   Thị trường
							   Diễn đàn
								  Cộng đồng
								  Tâm sự
								  Cười
								  Rao vặt
                    Trang chủThời sựGóc nhìnThế giớiKinh doanhGiải tríThể thaoPháp luậtGiáo dụcSức khỏeGia đìnhDu lịchKhoa họcSố hóaXeCộng đồngTâm sựVideoCườiRao vặt
                            © Copyright 1997 VnExpress.net,  All rights reserved
                            ® VnExpress giữ bản quyền nội dung trên website này.
                            VnExpress tuyển dụng   Liên hệ quảng cáo  / Liên hệ Tòa soạn
                            Thông tin Tòa soạn.0123.888.0123 (HN) - 0129.233.3555 (TP HCM)
                                     Liên hệ Tòa soạn
                                     Thông tin Tòa soạn
                                    0123.888.0123 (HN) 
                                    0129.233.3555 (TP HCM)
                                © Copyright 1997 VnExpress.net,  All rights reserved
                                ® VnExpress giữ bản quyền nội dung trên website này.
                     
         
