url:http://dulich.vnexpress.net/photo/tu-van/5-hostel-dep-gia-khong-toi-200-000-dong-mot-nguoi-o-da-lat-3482137.html?utm_campaign=boxtracking&utm_medium=box_topic&utm_source=detail
Tittle :5 hostel đẹp giá không tới 200.000 đồng một người ở Đà Lạt - VnExpress Du lịch
content : 
                     Trang chủ Thời sự Góc nhìn Thế giới Kinh doanh Giải trí Thể thao Pháp luật Giáo dục Sức khỏe Gia đình Du lịch Khoa học Số hóa Xe Cộng đồng Tâm sự Rao vặt Video Ảnh  Cười 24h qua Liên hệ Tòa soạn Thông tin Tòa soạn
                            © Copyright 1997- VnExpress.net, All rights reserved
                            ® VnExpress giữ bản quyền nội dung trên website này.
                         Hotline:
                            0123.888.0123 (Hà Nội) 
                            0129.233.3555 (TP HCM) 
                                    Thế giớiPháp luậtXã hộiKinh doanhGiải tríÔ tô - Xe máy Thể thaoSố hóaGia đình
                         
                     
                    Thời sựThế giớiKinh doanhGiải tríThể thaoPháp luậtGiáo dụcSức khỏeGia đìnhDu lịchKhoa họcSố hóaXeCộng đồngTâm sựVideoCườiRao vặt
    Việt NamQuốc tếCộng đồngẢnh
		        24h qua
            Du lịch Cộng đồng 
                        Dấu chânTư vấnHỏi - Đáp
                                        Du Lịch 
                                        Tư vấn 
                                 
                                Việt NamQuốc tếCộng đồngẢnh
                            Thứ tư, 12/10/2016 | 14:05 GMT+7                        
|
                        5 hostel đẹp giá không tới 200.000 đồng một người ở Đà Lạt                                                
                    Bạn sẽ tốn không tới 200.000 đồng cho một ngày lưu trú với giường dorm, nhà ống, thuê phòng chung hay nhà homestay cùng nhóm bạn.
                                Đi nghỉ 'như ở nhà' tại biệt thự gỗ ở Đà Lạt
                                Những chỗ ăn chơi mới nổi ở Đà Lạt
                                             
	Là Nhà Homestay
	Đây là homestay được nhiều du khách yêu thích bởi phong cách bài trí cổ điển, đậm chất nghệ thuật. Không gian sân vườn cũng tiện lợi để tổ chức tiệc nướng, đàn hát. Những khoảng vườn cây nhỏ, từng giá sách, đồ vật đều tạo nên nét nhẹ nhàng, thoải mái như ở nhà. Ở Là Nhà Homestay có nhiều không gian khác nhau, căn phòng dorm tách biệt, có 10 giường được kê sẵn và bài trí gọn gàng, giá 170.000 đồng một người. Hai phòng nghỉ có tên Tulip và Violet có thể ở được 2-4 người, giá từ 300.000 - 650.000 đồng một phòng. Nếu muốn ở lều, giá 120.000 đồng một lều. Địa chỉ: 77 Hoàng Diệu, Đà Lạt. Ảnh: Là Nhà Homestay.
                                                                                 
                                             
	Le Bleu Đà Lạt
	Căn nhà gỗ 2 tầng giữa thung lũng nhỏ với hồ cá bao quanh là không gian ấm áp và bình yên cho cặp đôi hoặc nhóm bạn. Khoảng sân chung nơi bạn có thể bày biện giăng đèn, nấu ăn, làm tiệc nướng BBQ và ngồi trò chuyện. Mọi trang trí ở Le Bleu từ rèm cửa, bàn ghế hay giường ngủ đều được sắp đặt tinh tế với những gam màu nhẹ nhàng. Bạn có thể thuê nguyên căn với giá 700.000 đồng cho 4 người hoặc thuê phòng đôi giá 400.000 đồng, được sử dụng không gian sinh hoạt chung. Như vậy mỗi người hết khoảng 170.000-200.000 đồng một ngày. Địa chỉ: đường Lý Tự Trọng. Ảnh: Le Bleu.
                                                                                 
                                             
	INDIgo Home
	INDIgo Home chỉ nhận khách lưu trú theo dạng dorm, không có phòng riêng, thích hợp với những du khách một mình hoặc nhóm. Nằm ở dưới con dốc, nép mình bên hàng thông, hostel này là nơi tĩnh lặng, bình yên với hầu hết vật dụng làm từ gỗ, những chậu hoa nhỏ xinh bên cửa sổ, trên bàn. Giá là 120.000 đồng một người. Lưu trú tại đây bạn có thể tự do sử dụng phòng sinh hoạt chung, phòng bếp và khoảng sân vườn phía trước, hoặc ăn cơm chung với giá 20.000 đồng một người, thực phẩm được lấy từ các vườn trồng rau sạch ở Đà Lạt. Địa chỉ: Số 2/1 đường Khởi Nghĩa Bắc Sơn, Phường 10. Ảnh: Quỳnh Thư.
                                                                                 
                                             
	Circle Vietnam
	Circle Vietnam là hostel dạng nhà ống sáng tạo. Mỗi nhà ống có thể dành cho một đến 3 khách ở, nhà vệ sinh và nhà tắm rộng rãi, sạch sẽ. Qua cửa nhà ống bạn có thể ngắm nhìn cánh rừng thông xa xa, đặc trưng của Đà Lạt mộng mơ. Bên cạnh nhà ống, du khách cũng có lựa chọn ở lều ngay tại khoảng sân, với không gian ấm cúng cạnh một bếp lửa. Giá một nhà ống 2 người là 250.000 đồng. Nếu đặt nhóm ở từ 5 nhà trở lên bạn sẽ được miễn phí lửa trại. Địa chỉ: 233 Đặng Thái Thân, Phường 3. Ảnh: Circle Vietnam.
                                                                                 
                                             
	The Hobbit
	Tọa lạc ở lưng chừng thung lũng, sau hai con dốc cao, The Hobbit là biệt thự làm từ gỗ thông và đá khiến nhiều du khách tới Đà Lạt say mê. Biệt thự có một căn nhà chung gồm nhiều phòng và 2 căn bungalow xinh xắn. Điều đặc biệt là trong căn nhà chung hoặc bungalow đều thiết kế nội thất như ở nhà, đầy đủ bếp, bát đũa, thậm chí là quầy bar nho nhỏ để bạn có thể tự mua đồ về nấu nướng theo ý thích. Căn nhà chung có tới 3 phòng ngủ lớn, nhiều khoảng trống để trải thêm nệm, nếu thuê nguyên căn nhà cho nhóm 10-12 người thì giá 2 triệu đồng, như vậy mỗi người hết khoảng 200.000 đồng một ngày. Địa chỉ: số 2/3 đường Tô Hiến Thành. Ảnh: The Hobbit.
                                                                                 
                                    Thanh Tuyết
                                                                              |  
                Khám phá Đà Lạt mộng mơ
                    Đồi cỏ hồng Đà Lạt biến thành cỏ tuyết sau một đêm (18/11)
                                             
                    Du khách trồng cây, cắt cỏ để ở homestay miễn phí tại Đà Lạt (14/11)
                                             
                    3 loài hoa dại khiến phượt thủ lên Đà Lạt tháng 11 (4/11)
                                             
                    Những quán cà phê với tay như chạm được mây (2/11)
                                             
                    Bún bò Huế - món ngon cho bữa sáng ở Đà Lạt (9/10)
                                             
                Xem thêm
                         
                Ý kiến bạn đọc (0) 
                Mới nhất | Quan tâm nhất
                Mới nhấtQuan tâm nhất
            Xem thêm
                        Ý kiến của bạn
                            20/1000
                                    Tắt chia sẻĐăng xuất
                         
                                Ý kiến của bạn
                                20/1000
                                 
                        Tags
                                                    Đà Lạt
                                                    Hostel Đà Lạt
                                                    Homestay Đà Lạt
                                                    Khách sạn giá rẻ
    Tin Khác
                                                     
                            Diễm My ăn trưa, trồng rau cùng người dân Hội An
                                                             
                                                     
                            Khu ổ chuột đầy rẫy tội phạm một thời ở Hong Kong
                                                             
                                                     
                            Góc tối của lễ hội phụ nữ khoe ngực trần tại Tây Ban Nha
                                                             
                            Những bữa tiệc 'nóng mắt' với bong bóng xà phòng
                                                             
                                    Đồi cỏ hồng Đà Lạt biến thành cỏ tuyết sau một đêm
                                                                             
                                    Vợ chồng Thu Phương nếm 'bún chửi' Hà Nội
                                                                             
                                    'Vườn thú người' - vết nhơ trong lịch sử châu Âu
                                                                             
                                    Vẻ đẹp của thị trấn nơi William và Kate gặp nhau
                                                                             
                                    Khu cắm trại giữa rừng dương cách Sài Gòn 3 giờ chạy xe
                                                                             
                                    Vẻ đẹp thơ mộng mùa lá đỏ Nhật Bản
                                                                             
                                    Bên trong thị trấn ma lớn nhất thế giới ở quê hương Thành Cát Tư Hãn
                                                                             
                                    Cô gái bị fan cuồng sao y bản chính khi đi du lịch
                                                                             
                                    Quang Vinh khám phá hai mặt đối lập của Sài Gòn
                                                                             
                                    Bảo tàng áo dài tư nhân duy nhất ở Sài Gòn
                                                                             
        Khuyến mãi Du lịch
		  prev
		   next
                                Tour Nhật Bản đón năm mới giá chỉ 28,9 triệu đồng
                                        28,900,000 đ 35,900,000 đ
                                        17/11/2016 - 14/12/2016                                    
                                                                Hành trình sẽ đưa du khách đến cầu may đầu xuân ở đền Kotohira Shrine, mua sắm hàng hiệu giá rẻ dưới lòng đất, tham 
                                Tour Phú Quốc - Vinpearl Land gồm vé máy bay từ 2,9 triệu đồng
                                        2,999,000 đ 4,160,000 đ
                                        16/11/2016 - 30/12/2016                                    
                                                                Hành trình trọn gói và Free and Easy tới Phú Quốc với nhiều lựa chọn hấp dẫn cùng khuyến mại dịp cuối năm dành cho 
                                Vietrantour tặng 10 triệu đồng tour Nam Phi 8 ngày
                                        49,900,000 đ 59,900,000 đ
                                        21/10/2016 - 01/12/2016                                    
                                                                Tour 8 ngày Johannesburg - Sun City - Pretoria - Capetown, bay hàng không 5 sao Qatar Airways, giá chỉ 49,99 triệu đồng.
                                Tour ngắm hoa tam giác mạch từ 1,99 triệu đồng
                                        1,990,000 đ 2,390,000 đ
                                        08/10/2016 - 30/11/2016                                    
                                                                Danh Nam Travel đưa du khách đi ngắm hoa tam giác mạch tại Hà Giang 3 ngày 2 đêm với giá trọn gói từ 1,99 triệu đồng.
                                Giảm hơn 2 triệu đồng tour Nhật Bản 6 ngày 5 đêm
                                        33,800,000 đ 35,990,000 đ
                                        01/10/2016 - 31/12/2016                                    
                                                                Hongai Tours đưa du khách khám phá xứ Phù Tang mùa lá đỏ theo hành trình Nagoya - Nara - Osaka - Kyoto - núi Phú Sĩ - Tokyo.
                                Tour Campuchia 4 ngày giá chỉ 8,7 triệu đồng
                                        8,700,000 đ 10,990,000 đ
                                        02/11/2016 - 26/01/2017                                    
                                                                Hành trình Phnom Penh - Siem Reap 4 ngày, bay hãng hàng không quốc gia Cambodia Angkor Air, giá chỉ 8,7 triệu đồng.
                                Tour Hải Nam, Trung Quốc 5 ngày giá từ 7,99 triệu đồng
                                        7,990,000 đ 9,990,000 đ
                                        19/10/2016 - 07/12/2016                                    
                                                                Hành trình 5 ngày Hải Khẩu - Hưng Long - Tam Á khởi hành ngày 1, 8, 15, 22, 29/11 và 6, 13, 20, 27/12, giá từ 7,99 triệu đồng.
        Xem nhiều nhất
    Góc tối của lễ hội phụ nữ khoe ngực trần tại Tây Ban NhaCặp du khách Trung Quốc quan hệ tình dục trong công viênCả công viên 'nín thở' chờ du khách béo trượt mángBí mật đáng sợ bên dưới hệ thống tàu điện ngầm LondonChàng tiên cá có thật giữa đời thường
					Trang chủ
                         Đặt VnExpress làm trang chủ
                         Đặt VnExpress làm trang chủ
                         Về đầu trang
                     
								  Thời sự
								  Góc nhìn
								  Pháp luật
								  Giáo dục
								  Thế giới
								  Gia đình
								  Kinh doanh
							   Hàng hóa
							   Doanh nghiệp
							   Ebank
								  Giải trí
							   Giới sao
							   Thời trang
							   Phim
								  Thể thao
							   Bóng đá
							   Tennis
							   Các môn khác
								  Video
								  Ảnh
								  Infographics
								  Sức khỏe
							   Các bệnh
							   Khỏe đẹp
							   Dinh dưỡng
								  Du lịch
							   Việt Nam
							   Quốc tế
							   Cộng đồng
								  Khoa học
							   Môi trường
							   Công nghệ mới
							   Hỏi - đáp
								  Số hóa
							   Sản phẩm
							   Đánh giá
							   Đời sống số
								  Xe
							   Tư vấn
							   Thị trường
							   Diễn đàn
								  Cộng đồng
								  Tâm sự
								  Cười
								  Rao vặt
                    Trang chủThời sựGóc nhìnThế giớiKinh doanhGiải tríThể thaoPháp luậtGiáo dụcSức khỏeGia đìnhDu lịchKhoa họcSố hóaXeCộng đồngTâm sựVideoCườiRao vặt
                            © Copyright 1997 VnExpress.net,  All rights reserved
                            ® VnExpress giữ bản quyền nội dung trên website này.
                            VnExpress tuyển dụng   Liên hệ quảng cáo  / Liên hệ Tòa soạn
                            Thông tin Tòa soạn.0123.888.0123 (HN) - 0129.233.3555 (TP HCM)
                                     Liên hệ Tòa soạn
                                     Thông tin Tòa soạn
                                    0123.888.0123 (HN) 
                                    0129.233.3555 (TP HCM)
                                © Copyright 1997 VnExpress.net,  All rights reserved
                                ® VnExpress giữ bản quyền nội dung trên website này.
                     
         
