url:http://dulich.vnexpress.net/tin-tuc/quoc-te/dubai/nu-du-khach-bi-bo-tu-vi-tu-choi-noi-chuyen-voi-dan-ong-3387400.html
Tittle :Nữ du khách bị bỏ tù vì từ chối nói chuyện với đàn ông - VnExpress Du lịch
content : 
                     Trang chủ Thời sự Góc nhìn Thế giới Kinh doanh Giải trí Thể thao Pháp luật Giáo dục Sức khỏe Gia đình Du lịch Khoa học Số hóa Xe Cộng đồng Tâm sự Rao vặt Video Ảnh  Cười 24h qua Liên hệ Tòa soạn Thông tin Tòa soạn
                            © Copyright 1997- VnExpress.net, All rights reserved
                            ® VnExpress giữ bản quyền nội dung trên website này.
                         Hotline:
                            0123.888.0123 (Hà Nội) 
                            0129.233.3555 (TP HCM) 
                                    Thế giớiPháp luậtXã hộiKinh doanhGiải tríÔ tô - Xe máy Thể thaoSố hóaGia đình
                         
                     
                    Thời sựThế giớiKinh doanhGiải tríThể thaoPháp luậtGiáo dụcSức khỏeGia đìnhDu lịchKhoa họcSố hóaXeCộng đồngTâm sựVideoCườiRao vặt
    Việt NamQuốc tếCộng đồngẢnh
                Các địa danh khác
		        24h qua
            Du lịch Quốc tế 
                        Dubai
                                        Du Lịch 
                                        Dubai 
                                        Các địa danh
                                 
                                Việt NamQuốc tếCộng đồngẢnh
						Thứ sáu, 15/4/2016 | 10:01 GMT+7
|
						Nữ du khách bị bỏ tù vì từ chối nói chuyện với đàn ông												
					Một nữ du khách đã bị giam tại Các tiểu vương quốc Arab thống nhất (UAE) trong hơn 7 tuần chỉ vì một cuộc gặp gỡ vô tình ở sân bay.
					Hãng hàng không bị kiện do phân biệt đối xử với khách  /  Đình chỉ tiếp viên bị tố phân biệt đối xử với người Hồi                    
	Nữ du khách người Mỹ, 25 tuổi xuất hiện tại tòa vào ngày 13/4 để nói về sự cố xảy ra hôm 23/2. Cô bị cáo buộc là có hành động xúc phạm quốc gia UAE nơi công cộng.
					Sân bay Abu Dhabi của United Arab Emirates. Ảnh: News.
	Theo The National, một tờ báo của chính phủ, người phụ nữ nói với Tòa án liên bang tối cao rằng cô đang chờ taxi tại sân bay Abu Dhabi thì có hai người đàn ông đến gần và nói chuyện với cô theo cách mà cô không có thiện cảm. Cô cũng nói với thẩm phán rằng cô không hiểu tại sao lại bị xử như vậy khi hoàn toàn không có chuyện gì xảy ra.
	“Những người đàn ông muốn giúp đỡ tôi, nhưng tôi có chuyến bay để đón lúc 1h29 sáng nên tôi từ chối đi với họ và không có bất kỳ chuyện gì xảy ra”, cô cho biết.
	Hiện chưa rõ có bằng chứng nào chống lại cô trước tòa hay không. Cô được yêu cầu trả tiền tại ngoại. Tuy nhiên, cô sẽ phải chờ phán quyết vào ngày 2/5.
	Đại sứ quán Mỹ ở Abu Dhabi phát biểu với hãng tin AP rằng họ “đã nhận thức được vụ việc và sẽ cung cấp những dịch vụ lãnh sự cần thiết”. Tại UAE, phỉ báng bị xem là tội hình sự. Những người gây ra hành động đó có thể bị ghép vào tội sỉ nhục quốc gia hoặc người lãnh đạo và sẽ bị bỏ tù.
	Nam 2013, một công dân 29 tuổi người Mỹ đã bị buộc tội phỉ báng hình ảnh quốc gia khi cho đăng một đoạn video giả mạo về văn hóa thanh niên ở UAE. Anh đã phải ngồi tù 9 tháng trước khi bị trục xuất về nước kèm theo số tiền phạt 3.555 USD.
	Xem thêm: Những cách 'đốt tiền' nhanh tại Dubai                         
                                    Hải Thu
                                                                              |  
									Gửi bài viết chia sẻ tại đây hoặc về dulich@vnexpress.net
                                                Khách sạn0Nhà hàng0Tham quan9Giải trí1Mua sắm0                        
            Xem nhiều nhất
                            Cây 'đi tiểu' như người tại Đức
                                                             
                                Du khách thoát chết khi ngã ngựa ngay trước mặt sư tử
                                                                     
                                Những câu lạc bộ thoát y nóng bỏng nhất thế giới
                                                                     
                                Ngã xuống hồ nước nóng, du khách chết mất xác
                                                                     
                                Bé gái Ấn Độ hồn nhiên tóm cổ rắn hổ mang chúa
                                                                     
                 
                Ý kiến bạn đọc (0) 
                Mới nhất | Quan tâm nhất
                Mới nhấtQuan tâm nhất
            Xem thêm
                        Ý kiến của bạn
                            20/1000
                                    Tắt chia sẻĐăng xuất
                         
                                Ý kiến của bạn
                                20/1000
                                 
                Tags
                                    Dubai
                                Taxi
                                Abu Dhabi
                                Đại sứ quán Mỹ
                                Mỹ du khách
                                Du khác Mỹ
                                UAE
                                Sân bay
                                Nữ du khách
    Tin Khác
                            Cô gái phải nộp phạt 30.000 USD sau khi bị cưỡng bức
                                                             
                                                     
                            5 điểm đến cho người yêu - kẻ ghét tổng thống Donald Trump
                                                             
                                                     
                            Mặt tối đằng sau sự hào nhoáng của Dubai
                                                             
                            Sự thật về tòa tháp cao nhất thế giới ở Dubai
                                                             
                                    Công viên giải trí lớn nhất thế giới mở cửa tại Dubai
                                                                             
                                    Tiện ích xa xỉ của khách sạn 7 sao duy nhất trên thế giới
                                                                             
                                    Ngày ấy - bây giờ của các thành phố du lịch nổi tiếng thế giới
                                                                             
                                    Đường bay mới Dubai - Hà Nội bắt đầu đón khách
                                                                             
                                    Những điểm đến đắt giá nhất hành tinh
                                                                             
                                    Cuộc sống xa hoa bậc nhất thế giới ở Dubai
                                                                             
                                    Những bức ảnh khiến bạn không thể rời mắt
                                                                             
                                    Du lịch sang chảnh như sao Việt
                                                                             
                                    Sương mù huyền ảo ở Dubai
                                                                             
                                    7 điểm mua sắm lý tưởng mùa lễ hội 2016 ở Dubai
                                                                             
        Khuyến mãi Du lịch
		  prev
		   next
                                Tour Campuchia 4 ngày giá chỉ 8,7 triệu đồng
                                        8,700,000 đ 10,990,000 đ
                                        02/11/2016 - 26/01/2017                                    
                                                                Hành trình Phnom Penh - Siem Reap 4 ngày, bay hãng hàng không quốc gia Cambodia Angkor Air, giá chỉ 8,7 triệu đồng.
                                Tour ngắm hoa tam giác mạch từ 1,99 triệu đồng
                                        1,990,000 đ 2,390,000 đ
                                        08/10/2016 - 30/11/2016                                    
                                                                Danh Nam Travel đưa du khách đi ngắm hoa tam giác mạch tại Hà Giang 3 ngày 2 đêm với giá trọn gói từ 1,99 triệu đồng.
                                Giảm hơn 2 triệu đồng tour Nhật Bản 6 ngày 5 đêm
                                        33,800,000 đ 35,990,000 đ
                                        01/10/2016 - 31/12/2016                                    
                                                                Hongai Tours đưa du khách khám phá xứ Phù Tang mùa lá đỏ theo hành trình Nagoya - Nara - Osaka - Kyoto - núi Phú Sĩ - Tokyo.
                                Tour Hải Nam, Trung Quốc 5 ngày giá từ 7,99 triệu đồng
                                        7,990,000 đ 9,990,000 đ
                                        19/10/2016 - 07/12/2016                                    
                                                                Hành trình 5 ngày Hải Khẩu - Hưng Long - Tam Á khởi hành ngày 1, 8, 15, 22, 29/11 và 6, 13, 20, 27/12, giá từ 7,99 triệu đồng.
                                Vietrantour tặng 10 triệu đồng tour Nam Phi 8 ngày
                                        49,900,000 đ 59,900,000 đ
                                        21/10/2016 - 01/12/2016                                    
                                                                Tour 8 ngày Johannesburg - Sun City - Pretoria - Capetown, bay hàng không 5 sao Qatar Airways, giá chỉ 49,99 triệu đồng.
                                Tour Nhật Bản đón năm mới giá chỉ 28,9 triệu đồng
                                        28,900,000 đ 35,900,000 đ
                                        17/11/2016 - 14/12/2016                                    
                                                                Hành trình sẽ đưa du khách đến cầu may đầu xuân ở đền Kotohira Shrine, mua sắm hàng hiệu giá rẻ dưới lòng đất, tham 
                                Tour Phú Quốc - Vinpearl Land gồm vé máy bay từ 2,9 triệu đồng
                                        2,999,000 đ 4,160,000 đ
                                        16/11/2016 - 30/12/2016                                    
                                                                Hành trình trọn gói và Free and Easy tới Phú Quốc với nhiều lựa chọn hấp dẫn cùng khuyến mại dịp cuối năm dành cho 
        Việt Nam
         
                Quán bún măng vịt mỗi ngày chỉ bán một tiếng
                        Nằm sâu trong con hẻm nhỏ trên đường Lê Văn Sỹ quận Tân Bình, TP HCM, quán bún vịt chỉ phục vụ khách từ 15h30 và đóng hàng sau đó chừng một tiếng.
            Bắc Trung Bộ hút khách Thái Lan để vực dậy du lịchViệt Nam đứng top đầu khách chi tiêu nhiều nhất ở Nhật BảnKhông gian điện ảnh đẳng cấp tại Vinpearl Đà Nẵng
         Gửi bài viết về tòa soạn
        Ẩm thực
         
            Vợ chồng Thu Phương nếm 'bún chửi' Hà Nội
            Bà chủ quán rất vui vẻ chào đón nhóm của nữ ca sĩ ngay cả khi quán kín chỗ ngồi, dù vừa mở cửa.
                'Vua đầu bếp' để khách tự sáng tạo món ăn
                Vị đậm đà tinh tế trong món gà sốt tiêu tỏi
        Cộng đồng
         
                'Thời gian biểu' du lịch Việt Nam bốn mùa đều đẹp
                        Hãy lên kế hoạch du lịch đúng thời điểm cho năm mới dựa theo lịch trình du lịch khắp miền đất nước.
            Du khách đứng tim vì voi chặn đầu xe5 vùng đất Samurai nổi tiếng của Nhật BảnĐồi cỏ hồng Đà Lạt biến thành cỏ tuyết sau một đêm
        Ảnh
         
                             
            5 điểm đến cho người yêu - kẻ ghét tổng thống Donald Trump
            Du khách có thể ghé thăm tháp Trump Tower tại Los Angeles, chuỗi khách sạn Trump ở khắp nước Mỹ hay thử sức trên những sân golf của tổng thống đắc cử nằm ở Washington, Scotland hay Dubai.
                                     
                Mặt tối đằng sau sự hào nhoáng của Dubai
                                     
                Tiện ích xa xỉ của khách sạn 7 sao duy nhất trên thế giới
        Video
         
            Bé gái Ấn Độ hồn nhiên tóm cổ rắn hổ mang chúa
            Những đứa trẻ tại làng Gauriganj được làm quen với rắn từ khi lên hai để chúng có thể biểu diễn thuật thôi miên rắn chuyên nghiệp sau 10 năm.
                Du khách la hét vì chơi tàu lượn dốc nhất thế giới
                Cả công viên 'nín thở' chờ du khách béo trượt máng
        Điểm đến yêu thích                
                    Nhật Bản mở dịch vụ tắm mì ramen để cải thiện làn da                
                    Ngôi làng không điện, nước nổi tiếng ở Uruguay                
                    Du khách bị hải cẩu cắn vì mải tạo dáng với cá                
                    Phụ nữ Armenia làm say mê du khách Mỹ                
                    Du khách thoát chết nhờ đấm liên tục vào mặt cá mập                
		Liên kết du lịch
					Trang chủ
                         Đặt VnExpress làm trang chủ
                         Đặt VnExpress làm trang chủ
                         Về đầu trang
                     
								  Thời sự
								  Góc nhìn
								  Pháp luật
								  Giáo dục
								  Thế giới
								  Gia đình
								  Kinh doanh
							   Hàng hóa
							   Doanh nghiệp
							   Ebank
								  Giải trí
							   Giới sao
							   Thời trang
							   Phim
								  Thể thao
							   Bóng đá
							   Tennis
							   Các môn khác
								  Video
								  Ảnh
								  Infographics
								  Sức khỏe
							   Các bệnh
							   Khỏe đẹp
							   Dinh dưỡng
								  Du lịch
							   Việt Nam
							   Quốc tế
							   Cộng đồng
								  Khoa học
							   Môi trường
							   Công nghệ mới
							   Hỏi - đáp
								  Số hóa
							   Sản phẩm
							   Đánh giá
							   Đời sống số
								  Xe
							   Tư vấn
							   Thị trường
							   Diễn đàn
								  Cộng đồng
								  Tâm sự
								  Cười
								  Rao vặt
                    Trang chủThời sựGóc nhìnThế giớiKinh doanhGiải tríThể thaoPháp luậtGiáo dụcSức khỏeGia đìnhDu lịchKhoa họcSố hóaXeCộng đồngTâm sựVideoCườiRao vặt
                            © Copyright 1997 VnExpress.net,  All rights reserved
                            ® VnExpress giữ bản quyền nội dung trên website này.
                            VnExpress tuyển dụng   Liên hệ quảng cáo  / Liên hệ Tòa soạn
                            Thông tin Tòa soạn.0123.888.0123 (HN) - 0129.233.3555 (TP HCM)
                                     Liên hệ Tòa soạn
                                     Thông tin Tòa soạn
                                    0123.888.0123 (HN) 
                                    0129.233.3555 (TP HCM)
                                © Copyright 1997 VnExpress.net,  All rights reserved
                                ® VnExpress giữ bản quyền nội dung trên website này.
                     
         
