url:http://dulich.vnexpress.net/tham-quan/quoc-te/singapore
Tittle :Tham quan khám phá những địa điểm du lịch Singapore - VnExpress Du lịch
content : 
                     Trang chủ Thời sự Góc nhìn Thế giới Kinh doanh Giải trí Thể thao Pháp luật Giáo dục Sức khỏe Gia đình Du lịch Khoa học Số hóa Xe Cộng đồng Tâm sự Rao vặt Video Ảnh  Cười 24h qua Liên hệ Tòa soạn Thông tin Tòa soạn
                            © Copyright 1997- VnExpress.net, All rights reserved
                            ® VnExpress giữ bản quyền nội dung trên website này.
                         Hotline:
                            0123.888.0123 (Hà Nội) 
                            0129.233.3555 (TP HCM) 
                                    Thế giớiPháp luậtXã hộiKinh doanhGiải tríÔ tô - Xe máy Thể thaoSố hóaGia đình
                         
                     
                    Thời sựThế giớiKinh doanhGiải tríThể thaoPháp luậtGiáo dụcSức khỏeGia đìnhDu lịchKhoa họcSố hóaXeCộng đồngTâm sựVideoCườiRao vặt
    Việt NamQuốc tếCộng đồngẢnh
                Các địa danh khác
		        24h qua
            Du lịch Quốc tế 
                        Singapore
                                        Du Lịch 
                                        Singapore 
                                        Các địa danh
                                 
                                Việt NamQuốc tếCộng đồngẢnh
                    	 Những điểm đến đắt giá nhất hành tinh 
                         Arab Saudi là quốc gia có nhiều công trình đắt nhất thế giới như thánh địa Masjid al-Haram, tháp đồng hồ Abraj Al-Balt, khu nghỉ dưỡng Emirate Palace... 
                                Khách sạn10Nhà hàng10Tham quan20Giải trí4Mua sắm11          		
                                        Điểm ăn chơi sang chảnh ở Singapore                                        
                    					 Tầng thượng tòa nhà Marina Bay Sands có thể coi là điểm ăn chơi 3 trong 1 khi du khách vừa có thể ngắm cảnh, bơi lội và thưởng thức tiệc trà lãng mạn trên cao. 
                                        Vườn nhiệt đới duy nhất là di sản thế giới                                        
                    					 Không chỉ sở hữu khoảng rừng mưa nhiệt đới nguyên sinh hàng triệu năm tuổi, khu vườn bách thảo của Singapore còn có bộ sưu tập hoa lan gồm hơn 450 loài. 
                                        Những đài phun nước lung linh nhất hành tinh                                        
                    					 Thưởng thức màn trình diễn từ các đài phun nước kết hợp với ánh sáng rực rỡ trên nền nhạc đủ mọi tiết tấu là một trong những trải nghiệm khó quên. 
                                        Những phòng chờ sân bay ngoài trời thư giãn trên thế giới                                        
                    					 Chuyến bay bị hoãn có lẽ sẽ không quá tệ nếu bạn được thư giãn trong những phòng chờ ngoài trời với không gian thoáng đãng và tránh xa khỏi sự ồn ã, đông đúc của sân bay. 
                                        Singapore tiến hành ưu đãi lớn nhân dịp Quốc khánh 50 năm                                        
                    					 Giá vé máy bay chỉ từ 3,5 triệu, miễn phí đêm thứ 3 cho phòng nghỉ khách sạn hay mua sắm hàng hóa giảm đến 70%... là những cơ hội lớn cho du khách đến Singapore dịp này.  
                                        Singapore - quá khứ và hiện tại                                        
                    					 Từ một thuộc địa, quốc đảo vốn là một làng chài này đã vươn mình trỗi dậy mạnh mẽ và trở thành điểm đến du lịch hấp dẫn tại châu Á. 
                                        8 điểm tham quan mở cửa năm 2015 làm nức lòng du khách                                        
                    					 Bảo tàng khảo cổ học, công viên sinh thái lớn nhất thế giới… là những điểm du lịch hứa hẹn sẽ "siêu hút khách" trong năm tới. 
                                        8 sân bay hoành tráng sẽ mở cửa trong tương lai                                        
                    					 Ngoài Jewel Changi (Singapore), sân bay quốc tế Mexico City (Mexico) cũng dự tính hoạt động vào năm 2018 và trở thành phi trường chắc chắn nhất thế giới. 
                                        Giáng Sinh lộng lẫy ở 'đảo quốc sư tử'                                        
                    					 Du lịch Singapore vào thời điểm Giáng Sinh và năm mới, ngoài tham quan các điểm đến hay mua sắm du khách còn được đắm mình trong không khí nhộn nhịp của một dịp lễ lớn nhất thế giới. 
                                        Quán cà phê Việt vào top công trình kiến trúc đẹp nhất thế giới                                        
                    					 Quán cà phê Salvaged Ring (Nha Trang, Việt Nam) nằm trong top 20 công trình dự thi được cho là sáng giá nhất Liên hoan kiến trúc thế giới (World Architecture Festival) năm 2014. 
                                        7 điểm đến xa hoa cho năm 2014                                        
                    					 Nếu bạn muốn tìm một kỳ nghỉ ngơi xa hoa và tuyệt đẹp thay vì những điểm đến giá rẻ, có thể tham khảo một số các gợi ý dưới đây từ trang Womanitely. 
                                        Bên trong sân bay tốt nhất thế giới Changi                                        
                    					 Vừa nhận được giải thưởng sân bay tốt nhất thế giới dựa trên kết quả của cuộc bình chọn của Skytrax – tổ chức chuyên nghiên cứu về du lịch và tư vấn, sây bay Changi, Singapore là một điểm lý tưởng để bắt đầu, kết thúc hay quá cảnh trên các hành trình của bạn. 
                                                12 
        Xem nhiều nhất
    Cây 'đi tiểu' như người tại ĐứcDu khách thoát chết khi ngã ngựa ngay trước mặt sư tửNhững câu lạc bộ thoát y nóng bỏng nhất thế giớiNgã xuống hồ nước nóng, du khách chết mất xácBé gái Ấn Độ hồn nhiên tóm cổ rắn hổ mang chúa
        Ảnh
         
                         
                    Thế giới ảo ở Singapore
                         
                    Đầu bếp đường phố Singapore lo thiếu người nối nghiệp khi về hưu
                         
                    Kỳ nghỉ 'nhung lụa' của giới trẻ nhà giàu Singapore
                         
                    Ngày ấy - bây giờ của các thành phố du lịch nổi tiếng thế giới
    Top điểm đến
     
                        Nhật Bản mở dịch vụ tắm mì ramen để cải thiện làn da
                        Ngôi làng không điện, nước nổi tiếng ở Uruguay
                        Du khách bị hải cẩu cắn vì mải tạo dáng với cá
                        Phụ nữ Armenia làm say mê du khách Mỹ
                        Du khách thoát chết nhờ đấm liên tục vào mặt cá mập
                        Những quốc gia có phụ nữ đẹp nhất thế giới
					Trang chủ
                         Đặt VnExpress làm trang chủ
                         Đặt VnExpress làm trang chủ
                         Về đầu trang
                     
								  Thời sự
								  Góc nhìn
								  Pháp luật
								  Giáo dục
								  Thế giới
								  Gia đình
								  Kinh doanh
							   Hàng hóa
							   Doanh nghiệp
							   Ebank
								  Giải trí
							   Giới sao
							   Thời trang
							   Phim
								  Thể thao
							   Bóng đá
							   Tennis
							   Các môn khác
								  Video
								  Ảnh
								  Infographics
								  Sức khỏe
							   Các bệnh
							   Khỏe đẹp
							   Dinh dưỡng
								  Du lịch
							   Việt Nam
							   Quốc tế
							   Cộng đồng
								  Khoa học
							   Môi trường
							   Công nghệ mới
							   Hỏi - đáp
								  Số hóa
							   Sản phẩm
							   Đánh giá
							   Đời sống số
								  Xe
							   Tư vấn
							   Thị trường
							   Diễn đàn
								  Cộng đồng
								  Tâm sự
								  Cười
								  Rao vặt
                    Trang chủThời sựGóc nhìnThế giớiKinh doanhGiải tríThể thaoPháp luậtGiáo dụcSức khỏeGia đìnhDu lịchKhoa họcSố hóaXeCộng đồngTâm sựVideoCườiRao vặt
                            © Copyright 1997 VnExpress.net,  All rights reserved
                            ® VnExpress giữ bản quyền nội dung trên website này.
                            VnExpress tuyển dụng   Liên hệ quảng cáo  / Liên hệ Tòa soạn
                            Thông tin Tòa soạn.0123.888.0123 (HN) - 0129.233.3555 (TP HCM)
                                     Liên hệ Tòa soạn
                                     Thông tin Tòa soạn
                                    0123.888.0123 (HN) 
                                    0129.233.3555 (TP HCM)
                                © Copyright 1997 VnExpress.net,  All rights reserved
                                ® VnExpress giữ bản quyền nội dung trên website này.
                     
         
