url:http://dulich.vnexpress.net/mua-sam/quoc-te
Tittle :Những địa điểm mua sắm khi đi du lịch Quốc tế - VnExpress Du lịch
content : 
                     Trang chủ Thời sự Góc nhìn Thế giới Kinh doanh Giải trí Thể thao Pháp luật Giáo dục Sức khỏe Gia đình Du lịch Khoa học Số hóa Xe Cộng đồng Tâm sự Rao vặt Video Ảnh  Cười 24h qua Liên hệ Tòa soạn Thông tin Tòa soạn
                            © Copyright 1997- VnExpress.net, All rights reserved
                            ® VnExpress giữ bản quyền nội dung trên website này.
                         Hotline:
                            0123.888.0123 (Hà Nội) 
                            0129.233.3555 (TP HCM) 
                                    Thế giớiPháp luậtXã hộiKinh doanhGiải tríÔ tô - Xe máy Thể thaoSố hóaGia đình
                         
                     
                    Thời sựThế giớiKinh doanhGiải tríThể thaoPháp luậtGiáo dụcSức khỏeGia đìnhDu lịchKhoa họcSố hóaXeCộng đồngTâm sựVideoCườiRao vặt
    Việt NamQuốc tếCộng đồngẢnh
                Các địa danh khác
		        24h qua
            Du lịch Quốc tế 
                                Hàn Quốc
                                        Du Lịch 
                                        Quốc tế 
                                        Các địa danh
                                 
                                Việt NamQuốc tếCộng đồngẢnh
                    Du lịch xem Shanghai Rolex Masters 2013
                    Thượng Hải                                        
	Dù đã bước sang thu song tháng 9 dường như chưa hề hạ nhiệt bởi sức nóng của các trận tranh hùng trong làng banh nỉ tại giải Shanghai Rolex Master 2013 đang sắp khởi tranh. Vietravel đã chuẩn bị cho bạn cơ hội được tận mắt chứng kiến những 
            Khách sạn45Nhà hàng29Tham quan459Giải trí34Mua sắm30           
                                                            Trung tâm thương mại Carousel du Louvre
                                99, rue de Rivoli, 75001 Paris                                                                
	Carousel du Louvre là khu trung tâm thương mại lớn nằm dưới hầm với tổng diện tích hơn 10.000 mét vuông, nằm ngay tại khu vực bảo tàng Louvre. 
	Carousel du Louvre mở cửa từ năm 1993 với các thương hiệu thời trang, đồng hồ, mỹ phẩm,... nổi tiếng thế 
                                                            Chợ trang trí nội thất làng Bercy
                                28 rue François Truffaut, Paris                                                                
	Tọa lạc ngay trung tâm thành phố, từ một kho rượu cũ hồi thế kỷ 19, làng Bercy là một chứng tích tuyệt vời của kiến trúc thời Phục Hưng. Hiện nay, ngôi làng này đang trở thành điểm đến mua sắm nổi tiếng, độc đáo nhất của người dân 
                                                            Khu chợ Marche Des Puces, St. Ouen De Clignancourt
                                Avenue de la Porte de Clignancourt 18e Paris                                                                
	Khu chợ rộng lớn này nằm ở ngọai ô thành phố Paris và cũng là một trong những điểm đến thú vị dành cho những tín đồ mua sắm. 
	Tổng cộng khuôn viên chợ có tất cả tới 3.000 gian hàng bày bán đủ mọi chủng loại hàng hóa, đặc 
                                                            Khu chợ Marche Richard Lenoir
                                Boulevard de la Bastille at Breguet-Sabin, 11th arrondissement                                                                
	Khu chợ này là một trong những nơi thu hút nhiều du khách nhất tại thành phố Paris. Chợ được tổ chức với một quy mô khá lớn và chỉ bán vào thứ 5 và Chủ Nhật hàng tuần. Khi mua sắm tại đây, du khách sẽ được thỏa sức 
                                                            Au Printemps Haussmann
                                64, bd Haussmann 75009 Paris                                                                
	Printemps Haussmann tọa lạc trên đại lộ Haussmann, quận 9 của thủ đô Paris, bên cạnh Galeries Lafayette. Nơi đây là cơ sở lớn nhất của hệ thống trung tâm mua sắm chuyên kinh doanh các mặt hàng thời trang Printemps của Pháp.Trung tâm gồm hai tòa nhà lớn chạy 
                                                            Le Forum des Halles
                                101 Porte Berger - Paris 75045                                                                
	Les Halles là một khu phố thuộc quận 1, nằm ngay tại trung tâm thủ đô Paris.Nơi đây bao gồm một công viên lớn cùng trung tâm thương mại Forum des Halles xây ngầm dưới lòng đất với tổng diện tích 60.000 m² cùng 180 cửa hàng, bể bơi và 
                                                            Đại lộ Champs Élysées
                                Rue Jean Goujon, 75008 Paris                                                                
	Nằm ở quận 8 của Paris, đại lộ Champs-Élysées nằm trên trục Axe Historique, với chiều dài gần 2km bắt đầu từ quảng trường Concorde, kết thúc tại quảng trường Étoile. 
	Được biết đến như Milan thứ 2 và là một trong điểm mua sắm nổi tiếng nhất thế giời. 
                                                            Galeries Lafayette
                                40, boulevard Haussmann, 75009 Paris                                                                
	Galeries Lafayette được biết đến là một trong 10 trung tâm mua sắm sang trọng nhất thế giới, là một điểm đến thú vị mà du khách không nên bỏ lỡ. 
	Galleries Lafayette tọa lạc tại đại lộ Haussmann nổi tiếng, gồm ba khu lớn: cửa hàng thời trang nam 
                                                            Trung tâm thương mại điện tử Trung Quan Thôn
                                số 1 đường zhong guan cun, quận Hai Dian, Beijing.                                                                
	Trung tâm thương mại điện tử Trung Quan Thôn thuộc quận Hải Điện, thành phố Bắc Kinh là một cụm các tòa nhà cao tầng chuyên kinh doanh cung cấp tất cả các mặt hàng điện tử vô cùng đa dạng và phong phú bao gồm máy tính, usb, ổ 
                                                            Trung tâm thương mại ChinaWorldMall
                                Số 1 đại lộ Qian Guo Men Wai, quận Chao Yang, Bắc Kinh                                                                
	Trung tâm thương mại ChinaWorldMall là trung tâm thương mại lớn và hiện đại với các thương hiệu cao cấp nổi tiếng hàng đầu thế giới, cũng là một trong những khu vui chơi mua sắm lớn và sang trọng nhất của thủ đô Bắc Kinh.
	Tại đây còn có sân 
                                                            San Li Tun Village
                                Số 19 đường San Li Tun, quận Chao Yang, Beijing.                                                                
	San Li Tun Village là một trong những trung tâm mua sắm, vui chơi giải trí lớn và hiện đại nhất của thủ đô Bắc Kinh. San Li Tun Village gồm hơn 19 tòa nhà lớn được xây dựng với kiến trúc hiện đại mang tính nghệ thuật vô cùng 
                                                            Trung tâm thương mại Solana
                                Số 6 đường Chao Yang Gong Yuan, quận Chao Yang, Beijing.                                                                
	Trung tâm thương mại Solana là một trong những trung tâm mua sắm kết hợp vui chơi giải trí hiện đại và vô cùng tráng lệ của thủ đô Bắc Kinh. Tại đây bao gồm một hệ thống các cửa hàng thời trang với nhiều thương hiệu nổi tiếng thế 
                                123                             
        Xem nhiều nhất
    Cây 'đi tiểu' như người tại ĐứcDu khách thoát chết khi ngã ngựa ngay trước mặt sư tửNhững câu lạc bộ thoát y nóng bỏng nhất thế giớiNgã xuống hồ nước nóng, du khách chết mất xácBé gái Ấn Độ hồn nhiên tóm cổ rắn hổ mang chúa
        Ảnh
         
                         
                    Cô gái bị fan cuồng sao y bản chính khi đi du lịch
                         
                    Hãng hàng không xử lý đồ ăn thế nào khi máy bay trễ chuyến
                         
                    10 sân bay có đồ ăn ngon nhất thế giới
                         
                    Nhà vệ sinh công cộng thời Victoria ở London
    Top điểm đến
     
                        Nhật Bản mở dịch vụ tắm mì ramen để cải thiện làn da
                        Ngôi làng không điện, nước nổi tiếng ở Uruguay
                        Du khách bị hải cẩu cắn vì mải tạo dáng với cá
                        Phụ nữ Armenia làm say mê du khách Mỹ
                        Du khách thoát chết nhờ đấm liên tục vào mặt cá mập
                        Những quốc gia có phụ nữ đẹp nhất thế giới
					Trang chủ
                         Đặt VnExpress làm trang chủ
                         Đặt VnExpress làm trang chủ
                         Về đầu trang
                     
								  Thời sự
								  Góc nhìn
								  Pháp luật
								  Giáo dục
								  Thế giới
								  Gia đình
								  Kinh doanh
							   Hàng hóa
							   Doanh nghiệp
							   Ebank
								  Giải trí
							   Giới sao
							   Thời trang
							   Phim
								  Thể thao
							   Bóng đá
							   Tennis
							   Các môn khác
								  Video
								  Ảnh
								  Infographics
								  Sức khỏe
							   Các bệnh
							   Khỏe đẹp
							   Dinh dưỡng
								  Du lịch
							   Việt Nam
							   Quốc tế
							   Cộng đồng
								  Khoa học
							   Môi trường
							   Công nghệ mới
							   Hỏi - đáp
								  Số hóa
							   Sản phẩm
							   Đánh giá
							   Đời sống số
								  Xe
							   Tư vấn
							   Thị trường
							   Diễn đàn
								  Cộng đồng
								  Tâm sự
								  Cười
								  Rao vặt
                    Trang chủThời sựGóc nhìnThế giớiKinh doanhGiải tríThể thaoPháp luậtGiáo dụcSức khỏeGia đìnhDu lịchKhoa họcSố hóaXeCộng đồngTâm sựVideoCườiRao vặt
                            © Copyright 1997 VnExpress.net,  All rights reserved
                            ® VnExpress giữ bản quyền nội dung trên website này.
                            VnExpress tuyển dụng   Liên hệ quảng cáo  / Liên hệ Tòa soạn
                            Thông tin Tòa soạn.0123.888.0123 (HN) - 0129.233.3555 (TP HCM)
                                     Liên hệ Tòa soạn
                                     Thông tin Tòa soạn
                                    0123.888.0123 (HN) 
                                    0129.233.3555 (TP HCM)
                                © Copyright 1997 VnExpress.net,  All rights reserved
                                ® VnExpress giữ bản quyền nội dung trên website này.
                     
         
