url:http://dulich.vnexpress.net/tin-tuc/lu-khach-viet/ban-tour-gio-chot/vietravel-giam-20-trieu-dong-tour-nuoc-anh-3093941.html
Tittle :Vietravel giảm 20 triệu đồng tour nước Anh - VnExpress Du lịch
content : 
                     Trang chủ Thời sự Góc nhìn Thế giới Kinh doanh Giải trí Thể thao Pháp luật Giáo dục Sức khỏe Gia đình Du lịch Khoa học Số hóa Xe Cộng đồng Tâm sự Rao vặt Video Ảnh  Cười 24h qua Liên hệ Tòa soạn Thông tin Tòa soạn
                            © Copyright 1997- VnExpress.net, All rights reserved
                            ® VnExpress giữ bản quyền nội dung trên website này.
                         Hotline:
                            0123.888.0123 (Hà Nội) 
                            0129.233.3555 (TP HCM) 
                                    Thế giớiPháp luậtXã hộiKinh doanhGiải tríÔ tô - Xe máy Thể thaoSố hóaGia đình
                         
                     
                    Thời sựThế giớiKinh doanhGiải tríThể thaoPháp luậtGiáo dụcSức khỏeGia đìnhDu lịchKhoa họcSố hóaXeCộng đồngTâm sựVideoCườiRao vặt
    Việt NamQuốc tếCộng đồngẢnh
		        24h qua
            Du lịch Lữ khách Việt 
                        Bán tour giờ chót
                                        Du Lịch 
                                        Bán tour giờ chót 
                                 
                                Việt NamQuốc tếCộng đồngẢnh
						Thứ năm, 16/10/2014 | 10:00 GMT+7
|
						Vietravel giảm 20 triệu đồng tour nước Anh												
					Tour Anh - Scotland 9 ngày, khởi hành 29/11, giảm 20 triệu đồng.
	Giá gốc: từ 79.990.000 đồng
	Giá khuyến mãi: 59.990.000 đồng
	Áp dụng từ ngày 15/10 đến 29/11
	Nước Anh đầy ắp những công trình kiến trúc cổ kính cuốn hút du khách. Vào thu, đất nước sương mù dịu dàng với những ngôi nhà nhỏ xinh xắn trong khu vườn tràn ngập hoa hồng, hàng cây phong lá đổi màu cổ tích, những hồ nước trong suốt phản chiếu lấp lánh làm nên vẻ quyến rũ giao mùa.
	Sông Thames êm đềm trôi lững lờ trong lòng London soi bóng cầu tháp London - nơi hải âu sải cánh trên mặt nước. Tháp đồng hồ Big Ben, quảng trường Trafalgar trong màn sương huyền ảo tạo nên bức tranh cổ điển nổi tiếng đất nước này.
	Ở Cotswolds - “Trái tim của nước Anh”, những khu nhà vườn nép mình bên sườn đồi, cầu đá cong bắc qua dòng kênh nhỏ dẫn về những lâu đài cổ kính. Trong công viên quốc gia Lake District lớn nhất nước Anh, những con đường phủ lá vàng chạy quanh thảm cỏ xanh và hồ nước phẳng lặng đẹp như tranh “Mùa thu vàng” của Levitan.
	Scotland xứ sở cổ tích nổi tiếng với những lâu đài và văn hóa whisky. Glasgow tọa lạc bên bờ sông Clyde thơ mộng được gọi là “Lục địa đáng yêu” nhờ không khí ngập tràn hương vị mùa thu. Đứng từ đồi cao Calton, bạn sẽ chiêm ngưỡng cảnh thu dưới sườn đồi lộng lẫy.
	Thời tiết xứ sương mù khá dễ chịu, Vietravel thiết kế lịch trình vừa phải, du khách có nhiều thời gian khám phá và nghỉ ngơi, chất lượng đảm bảo, hướng dẫn viên tiếng Việt am hiểu tâm lý... Tất cả sẽ mang tới cho du khách một chuyến thu vàng châu Âu không thể quên. Xem chi tiết tour tại đây.
	Liên hệ Vietravel:
	190 Pasteur, phường 6, quận 3, TP HCM
	Hotline 0938.301.399
	Email dangthibichnguyet@vietravel.com
	Hoặc các phòng giao dịch trên toàn quốc https://travel.com.vn/lien-he.aspx
									Gửi bài viết chia sẻ tại đây hoặc về dulich@vnexpress.net
            Xem nhiều nhất
                            Lễ hội rước kiệu đầy màu sắc ở Nhật Bản
                                                             
                                Góc tối của lễ hội phụ nữ khoe ngực trần tại Tây Ban Nha
                                                                     
                                Cặp du khách Trung Quốc quan hệ tình dục trong công viên
                                                                     
                                Cả công viên 'nín thở' chờ du khách béo trượt máng
                                                                     
                                Bí mật đáng sợ bên dưới hệ thống tàu điện ngầm London
                                                                     
                 
                Tags
                                    Vietravel
                                Tour nước Anh
                                Nước Anh
    Tin Khác
                            Nhiều ưu đãi cho du khách đăng ký tour mùa thu
                            Vietravel giảm đến 44% tour Phú Quốc - Vinpearl Resort 5 sao
                            Trải nghiệm tour Oman - Dubai giá ưu đãi
                            Vietravel giảm 16-17 triệu đồng tour Mỹ
                                    Vietravel giảm hơn 5 triệu đồng tour Hà Nội
					Trang chủ
                         Đặt VnExpress làm trang chủ
                         Đặt VnExpress làm trang chủ
                         Về đầu trang
                     
								  Thời sự
								  Góc nhìn
								  Pháp luật
								  Giáo dục
								  Thế giới
								  Gia đình
								  Kinh doanh
							   Hàng hóa
							   Doanh nghiệp
							   Ebank
								  Giải trí
							   Giới sao
							   Thời trang
							   Phim
								  Thể thao
							   Bóng đá
							   Tennis
							   Các môn khác
								  Video
								  Ảnh
								  Infographics
								  Sức khỏe
							   Các bệnh
							   Khỏe đẹp
							   Dinh dưỡng
								  Du lịch
							   Việt Nam
							   Quốc tế
							   Cộng đồng
								  Khoa học
							   Môi trường
							   Công nghệ mới
							   Hỏi - đáp
								  Số hóa
							   Sản phẩm
							   Đánh giá
							   Đời sống số
								  Xe
							   Tư vấn
							   Thị trường
							   Diễn đàn
								  Cộng đồng
								  Tâm sự
								  Cười
								  Rao vặt
                    Trang chủThời sựGóc nhìnThế giớiKinh doanhGiải tríThể thaoPháp luậtGiáo dụcSức khỏeGia đìnhDu lịchKhoa họcSố hóaXeCộng đồngTâm sựVideoCườiRao vặt
                            © Copyright 1997 VnExpress.net,  All rights reserved
                            ® VnExpress giữ bản quyền nội dung trên website này.
                            VnExpress tuyển dụng   Liên hệ quảng cáo  / Liên hệ Tòa soạn
                            Thông tin Tòa soạn.0123.888.0123 (HN) - 0129.233.3555 (TP HCM)
                                     Liên hệ Tòa soạn
                                     Thông tin Tòa soạn
                                    0123.888.0123 (HN) 
                                    0129.233.3555 (TP HCM)
                                © Copyright 1997 VnExpress.net,  All rights reserved
                                ® VnExpress giữ bản quyền nội dung trên website này.
                     
         
