url:http://dulich.vnexpress.net/khach-san/viet-nam/ha-noi
Tittle :Thuê khách sạn Hà Nội, khách sạn uy tín du lịch Hà Nội - VnExpress Du lịch
content : 
                     Trang chủ Thời sự Góc nhìn Thế giới Kinh doanh Giải trí Thể thao Pháp luật Giáo dục Sức khỏe Gia đình Du lịch Khoa học Số hóa Xe Cộng đồng Tâm sự Rao vặt Video Ảnh  Cười 24h qua Liên hệ Tòa soạn Thông tin Tòa soạn
                            © Copyright 1997- VnExpress.net, All rights reserved
                            ® VnExpress giữ bản quyền nội dung trên website này.
                         Hotline:
                            0123.888.0123 (Hà Nội) 
                            0129.233.3555 (TP HCM) 
                                    Thế giớiPháp luậtXã hộiKinh doanhGiải tríÔ tô - Xe máy Thể thaoSố hóaGia đình
                         
                     
                    Thời sựThế giớiKinh doanhGiải tríThể thaoPháp luậtGiáo dụcSức khỏeGia đìnhDu lịchKhoa họcSố hóaXeCộng đồngTâm sựVideoCườiRao vặt
    Việt NamQuốc tếCộng đồngẢnh
                Các địa danh khác
		        24h qua
            Du lịch Việt Nam 
                        Hà Nội
                                        Du Lịch 
                                        Hà Nội 
                                        Các địa danh
                                 
                                Việt NamQuốc tếCộng đồngẢnh
                    Lọc khách sạn
                    Số saoTất cả***************
                    Giá tối đa300.000 VND600.000 VND900.000 VND1.200.000 VND1.500.000 VND1.800.000 VND
                                        Lọc khách sạn
                    Gợi ý từ VneGiá phòng thấp đến caoGiá phòng cao đến thấpXếp hạng từ cao đến thấpXếp hạng từ thấp đến cao
                         Khách sạn Hà Nội Friendly 
                    78 Hàng Gà, quận Hoàn Kiếm, Hà Nội. 
                                            Xem bản đồ
	Khách sạn Hà Nội Friendly cung cấp một dịch vụ chất lượng cao với các thiết bị và tiện nghi hiện đại nhắm mang đến một sự hài lòng tuyệt đối cho khách hàng. Khách sạn chúng tôi cung cấp tất cả các dịch vụ cần thiết, từ Concierge, đậu  
                        Giá từ 353,000 đ
                        Khách sạn168Nhà hàng22Tham quan135Giải trí10Mua sắm11            
                                                     Khách sạn Aroma  
                            81 Láng Hạ, quận Ba Đình, Hà Nội                                                        Xem bản đồ
	Khách sạn Aroma tọa lạc tại vị trí lý tưởng ở đường Láng Hạ trung tâm của Hà Nội, là khu vực phát triển về kinh tế, thương mại và dịch vụ của thủ Đô Hà Nội.Khách sạn được trang bị đầy đủ những trang thiết bị cơ bản, hiện  
                                    Giá từ 363,000 đ
                                                     Khách sạn Hoàng Giang  
                            46 Lương Văn Can, quận Hoàn Kiếm, Hà Nội                                                        Xem bản đồ
	Khách sạn Hoàng Giang tọa lạc ngay trung tâm phố cổ Hà Nội, mới được xây dựng với trang thiết bị hiện đại, tiện nghi. Đây chắc chắn sẽ là một địa điểm dừng chân lý tưởng cho kỳ nghỉ thú vị của quý khách tại Hà Nội. Từ khách  
                                    Giá từ 441,000 đ
                                                     Khách sạn Hoàng Ngọc 1 Hà Nội  
                            Số 19 Hàng Cháo, quận Đống Đa, Hà Nội, Việt Nam                                                        Xem bản đồ
	Khách sạn Hoàng Ngọc 1 Hà Nội mang lại cho khách du lịch dịch vụ tuyệt vời với hệ thống phòng rộng, trang bị đầy đủ thiết bị tiện nghi. Khách sạn đưa ra nhiều sự lựa bao gồm giặt ủi, wifi công cộng, phòng dành cho gia đình, phòng  
                                    Giá từ 419,000 đ
                                                     Khách sạn Central Hà Nội  
                            36 phố Đinh Liệt, quận Hoàn Kiếm, Hà Nội, Việt Nam                                                        Xem bản đồ
	Khách sạn Central Hà Nội là khách sạn mới tọa lạc ngay trung tâm phố cổ Hà Nội. Từ khách sạn, rất thuận tiện ghé thăm hồ Hoàn Kiếm, nhà hát múa rối nước, nhà thờ Thánh Joseph, chợ đêm, phố Hàng Ngang, Phố Hàng Đào và chợ Đồng Xuân  
                                    Giá từ 131,000 đ
                                                     Khách sạn Hồng Hà Nội Bài  
                            25 Thạch Lỗi, khu vực sân bay Nội Bài, xã Thanh Xuân, huyện Sóc Sơn, Hà Nội, Việt Nam                                                        Xem bản đồ
	Khách sạn Hồng Hà là khách sạn tư nhân mới thành lập và đi vào hoạt động vào tháng 7/2013 với tổng số phòng là 12. Tất cả các phòng đều được trang bị đầy đủ tiện nghi, khách sạn có 5 tầng với kiến trúc hiện đại, hầu hết  
                                    Giá từ 332,000 đ
                                                     Khách sạn Blue 29 Hotel Giảng Võ  
                            số 3, ngõ 325 Giảng Võ, quận Ba Đình, Hà Nội, Việt Nam                                                        Xem bản đồ
	Khách sạn Blue 29 Giảng Võ đặt tại trung tâm thương mại nhộn nhịp của thành phố Hà Nội. Với quy mô 18 phòng sang trọng, khách sạn sẽ đem đến giây phút thư giãn và hài lòng cho quý vị trong kỳ nghỉ hoặc chuyến đi công tác tại  
                                    Giá từ 570,000 đ
                                                     Khách sạn Hoàng Ngọc 2 Hà Nội  
                            Số 19 Nguyễn Thượng Hiền, quận Hai Bà Trưng, Hà Nội, Việt Nam                                                        Xem bản đồ
	Khách sạn Hoàng Ngọc 2 với dịch vụ chuyên nghiệp và trang thiết bị như wifi, khu vực sảnh chung, trông trẻ, nhà hàng,...Khách có thể chọn 21 phòng, trong không gian thanh bình và yên hòa. Bên cạnh đó, dịch vụ giải trí của khách sạn đảm bảo du  
                                    Giá từ 794,000 đ
                                                     Khách sạn Zen Hà Nội  
                            35 Quán Thánh, Quận Ba Đình, Hà Nội, Việt Nam                                                        Xem bản đồ
	Nằm ở trung tâm thủ đô, khách sạn Zen mới được xây dựng là khách sạn tiêu biểu cho phong cách nhà ống điển hình. Khách sạn được thiết kế nghệ thuật, theo phong cách cổ điển được hiện đại hóa. Bên trong khách sạn, là sự hòa hợp mang  
                                    Giá từ 552,000 đ
                                                     Khách sạn New Hà Nội  
                            Số 9 Hàng Mắm, Quận Hoàn Kiếm, Hà Nội, Việt Nam                                                        Xem bản đồ
	Khách sạn New Hà Nội là một khách sạn tuyệt vời với chất lượng dịch vụ hàng đầu. Khách sạn tọa lạc gần ngân hàng của hồ Hoàn Kiếm nơi có những thắng cảnh và địa danh lịch sử nổi tiếng nhất ở Hà Nội như Nhà hát múa rối  
                                    Giá từ 275,000 đ
                                                     Khách sạn Lotus Inn Hà Nội  
                            43 Quán Thánh, quận Ba Đình, Hà Nội, Việt Nam                                                        Xem bản đồ
	Khách sạn Lotus Inn Hà Nội nằm gần trong khu vực phố cổ Hà Nội và ở trung tâm của thành phố. Khách sạn lý tưởng để tận hưởng một Hà Nội sôi động với sự quyến rũ của các đường phố cũ và nhà ở có niên đại từ  
                                    Giá từ 485,000 đ
                                                     Khách sạn Sunny Hà Nội III  
                            10/168 Hào Nam, Hà Nội, Việt Nam                                                        Xem bản đồ
	Khách sạn Sunny Hotel Hà Nội III tọa lạc tại trung tâm quận Đống Đa, chỉ mất 15 phút để đi đến con đường nhộn nhịp của phố cổ Hà Nội và hồ Hoàn Kiếm tuyệt đẹp.Khách sạn Sunny Hotel Hà Nội có qui mô 50 phòng, mỗi phòng có  
                                    Giá từ 1,042,000 đ
                                                     Khách sạn Riverside Hà Nội  
                            118 Đường Ven Sông, Hoàng Quốc Việt, Cầu Giấy, Hà Nội, Việt Nam                                                        Xem bản đồ
	Tọa lạc tại một trong những khu vực kinh doanh phát triển nhất của Hà Nội, khách sạn Riverside Hà Nội là một điểm đến hấp dẫn cho các doanh nhân và khách du lịch trên toàn thế giới. Cung cấp tiện nghi sang trọng 4 sao bên cạnh dòng  
                                    Giá từ 1,022,000 đ
                                12345                             
        Xem nhiều nhất
    Anh Tây đi bộ khắp thế giới mê mẩn núi rừng Việt NamViệt Nam đứng top đầu khách chi tiêu nhiều nhất ở Nhật BảnThủ tướng chỉ ra 3 giải pháp để phát triển du lịchNhững món đồ không thể thiếu khi đi du lịch cuối nămVị đậm đà tinh tế trong món gà sốt tiêu tỏi
    Top điểm đến
     
                        Kế hoạch 4 ngày khám phá đảo thiên đường ở Campuchia
                        Những món ngon nên thử của Phú Quốc
                        Khách du lịch được mời dùng toilet miễn phí ở Đà Nẵng
                        Chuyến bay Cần Thơ - Đà Lạt chỉ mất một giờ
                        Những cây cầu có tên gọi độc đáo ở miền Tây
                        Lá sấu dệt thảm vàng trên đường phố Hà Nội
      Tìm nhanh khách sạn
            Tìm
            	Hà Nội
                TP.HCM
                Vũng tàu
            Xem chi tiết
                        	Khách sạn Hà Nội Friendly
                            Giá từ: 353,000 đ
                        	Khách sạn Aroma
                            Giá từ: 363,000 đ
                        	Khách sạn Alagon Sài Gòn
                            Giá từ: 1,311,000 đ
                        	Khách sạn Pullman Saigon Centre
                            Giá từ: 2,721,000 đ
                        	Khách sạn Thùy Vân Vũng Tàu
                            Giá từ: 934,000 đ
                        	Khách sạn Bảo Thy 1 Vũng Tàu
                            Giá từ: 415,000 đ
					Trang chủ
                         Đặt VnExpress làm trang chủ
                         Đặt VnExpress làm trang chủ
                         Về đầu trang
                     
								  Thời sự
								  Góc nhìn
								  Pháp luật
								  Giáo dục
								  Thế giới
								  Gia đình
								  Kinh doanh
							   Hàng hóa
							   Doanh nghiệp
							   Ebank
								  Giải trí
							   Giới sao
							   Thời trang
							   Phim
								  Thể thao
							   Bóng đá
							   Tennis
							   Các môn khác
								  Video
								  Ảnh
								  Infographics
								  Sức khỏe
							   Các bệnh
							   Khỏe đẹp
							   Dinh dưỡng
								  Du lịch
							   Việt Nam
							   Quốc tế
							   Cộng đồng
								  Khoa học
							   Môi trường
							   Công nghệ mới
							   Hỏi - đáp
								  Số hóa
							   Sản phẩm
							   Đánh giá
							   Đời sống số
								  Xe
							   Tư vấn
							   Thị trường
							   Diễn đàn
								  Cộng đồng
								  Tâm sự
								  Cười
								  Rao vặt
                    Trang chủThời sựGóc nhìnThế giớiKinh doanhGiải tríThể thaoPháp luậtGiáo dụcSức khỏeGia đìnhDu lịchKhoa họcSố hóaXeCộng đồngTâm sựVideoCườiRao vặt
                            © Copyright 1997 VnExpress.net,  All rights reserved
                            ® VnExpress giữ bản quyền nội dung trên website này.
                            VnExpress tuyển dụng   Liên hệ quảng cáo  / Liên hệ Tòa soạn
                            Thông tin Tòa soạn.0123.888.0123 (HN) - 0129.233.3555 (TP HCM)
                                     Liên hệ Tòa soạn
                                     Thông tin Tòa soạn
                                    0123.888.0123 (HN) 
                                    0129.233.3555 (TP HCM)
                                © Copyright 1997 VnExpress.net,  All rights reserved
                                ® VnExpress giữ bản quyền nội dung trên website này.
                     
         
