url:http://dulich.vnexpress.net/tin-tuc/cong-dong/trac-nghiem-ban-co-nham-ten-pho-ha-noi-3489203.html
Tittle :Trắc nghiệm: Bạn có nhầm tên phố Hà Nội - VnExpress Du lịch
content : 
                     Trang chủ Thời sự Góc nhìn Thế giới Kinh doanh Giải trí Thể thao Pháp luật Giáo dục Sức khỏe Gia đình Du lịch Khoa học Số hóa Xe Cộng đồng Tâm sự Rao vặt Video Ảnh  Cười 24h qua Liên hệ Tòa soạn Thông tin Tòa soạn
                            © Copyright 1997- VnExpress.net, All rights reserved
                            ® VnExpress giữ bản quyền nội dung trên website này.
                         Hotline:
                            0123.888.0123 (Hà Nội) 
                            0129.233.3555 (TP HCM) 
                                    Thế giớiPháp luậtXã hộiKinh doanhGiải tríÔ tô - Xe máy Thể thaoSố hóaGia đình
                         
                     
                    Thời sựThế giớiKinh doanhGiải tríThể thaoPháp luậtGiáo dụcSức khỏeGia đìnhDu lịchKhoa họcSố hóaXeCộng đồngTâm sựVideoCườiRao vặt
    Việt NamQuốc tếCộng đồngẢnh
		        24h qua
            Du lịch Cộng đồng 
                        Dấu chânTư vấnHỏi - Đáp
                                        Du Lịch 
                                        Cộng đồng 
                                 
                                Việt NamQuốc tếCộng đồngẢnh
						Thứ bảy, 29/10/2016 | 14:05 GMT+7
|
						Trắc nghiệm: Bạn có nhầm tên phố Hà Nội												
					Nhiều người khó phân biệt tên những con phố như Duy Tân với Tống Duy Tân, Yên Lãng hay Lãng Yên.
					Trắc nghiệm bạn có nhầm thủ đô các nước                    
	Câu 1. Theo bạn, Hồ Đắc Di là tên của:
				Ảnh: @timdat.
                                    Phạm Huyền
                                                                              |  
									Gửi bài viết chia sẻ tại đây hoặc về dulich@vnexpress.net
                Quiz vui du lịch
                    'Thời gian biểu' du lịch Việt Nam bốn mùa đều đẹp (19/11)
                                             
                    Trắc nghiệm kiểu Nhật 'đọc vị' bạn trong 5 phút (14/11)
                                             
                    Bạn có phải người sành ngoại tệ? (13/11)
                                             
                    Đoán biểu tượng nổi tiếng bị xóa trong các bức ảnh (12/11)
                                             
                    Bạn có nhận ra các điểm check-in của Sao Việt? (6/11)
                                             
                Xem thêm
            Xem nhiều nhất
                            'Thời gian biểu' du lịch Việt Nam bốn mùa đều đẹp
                                                             
                                Góc tối của lễ hội phụ nữ khoe ngực trần tại Tây Ban Nha
                                                                     
                                Cặp du khách Trung Quốc quan hệ tình dục trong công viên
                                                                     
                                Cả công viên 'nín thở' chờ du khách béo trượt máng
                                                                     
                                Bí mật đáng sợ bên dưới hệ thống tàu điện ngầm London
                                                                     
                 
                Ý kiến bạn đọc (0) 
                Mới nhất | Quan tâm nhất
                Mới nhấtQuan tâm nhất
            Xem thêm
                        Ý kiến của bạn
                            20/1000
                                    Tắt chia sẻĐăng xuất
                         
                                Ý kiến của bạn
                                20/1000
                                 
                Tags
                                    Quiz
                                Trắc nghiệm
                                Phố cổ
                                Hà Nội
                                Hồ Đắc Di
                                Duy Tân
                                Tống Duy Tân
                                Yên Lãng
    Tin Khác
                            'Thời gian biểu' du lịch Việt Nam bốn mùa đều đẹp
                                                             
                            Du khách đứng tim vì voi chặn đầu xe
                                                             
                            5 vùng đất Samurai nổi tiếng của Nhật Bản
                                                             
                                                     
                            Đồi cỏ hồng Đà Lạt biến thành cỏ tuyết sau một đêm
                                                             
                                    Kỷ niệm hài hước với toilet trên đường du lịch
                                                                             
                                    Hành khách phát hiện gián trong bữa ăn chay trên máy bay
                                                                             
                                    Vợ chồng Thu Phương nếm 'bún chửi' Hà Nội
                                                                             
                                    Du khách mỏi tay câu cá khổng lồ tại Thái Lan
                                                                             
                                    Cả công viên 'nín thở' chờ du khách béo trượt máng
                                                                             
                                    Cặp du khách Trung Quốc quan hệ tình dục trong công viên
                                                                             
                                    Khu cắm trại giữa rừng dương cách Sài Gòn 3 giờ chạy xe
                                                                             
                                    5 tuyệt chiêu hẹn hò với người lạ trên đường du lịch
                                                                             
                                    Khách Tây nói người Việt bấm còi xe như chơi nhạc
                                                                             
                                    Khách Tây truyền nhau bí kíp mua bia ở Việt Nam
                                                                             
        Khuyến mãi Du lịch
		  prev
		   next
                                Tour Nhật Bản đón năm mới giá chỉ 28,9 triệu đồng
                                        28,900,000 đ 35,900,000 đ
                                        17/11/2016 - 14/12/2016                                    
                                                                Hành trình sẽ đưa du khách đến cầu may đầu xuân ở đền Kotohira Shrine, mua sắm hàng hiệu giá rẻ dưới lòng đất, tham 
                                Tour Hải Nam, Trung Quốc 5 ngày giá từ 7,99 triệu đồng
                                        7,990,000 đ 9,990,000 đ
                                        19/10/2016 - 07/12/2016                                    
                                                                Hành trình 5 ngày Hải Khẩu - Hưng Long - Tam Á khởi hành ngày 1, 8, 15, 22, 29/11 và 6, 13, 20, 27/12, giá từ 7,99 triệu đồng.
                                Tour Phú Quốc - Vinpearl Land gồm vé máy bay từ 2,9 triệu đồng
                                        2,999,000 đ 4,160,000 đ
                                        16/11/2016 - 30/12/2016                                    
                                                                Hành trình trọn gói và Free and Easy tới Phú Quốc với nhiều lựa chọn hấp dẫn cùng khuyến mại dịp cuối năm dành cho 
                                Vietrantour tặng 10 triệu đồng tour Nam Phi 8 ngày
                                        49,900,000 đ 59,900,000 đ
                                        21/10/2016 - 01/12/2016                                    
                                                                Tour 8 ngày Johannesburg - Sun City - Pretoria - Capetown, bay hàng không 5 sao Qatar Airways, giá chỉ 49,99 triệu đồng.
                                Giảm hơn 2 triệu đồng tour Nhật Bản 6 ngày 5 đêm
                                        33,800,000 đ 35,990,000 đ
                                        01/10/2016 - 31/12/2016                                    
                                                                Hongai Tours đưa du khách khám phá xứ Phù Tang mùa lá đỏ theo hành trình Nagoya - Nara - Osaka - Kyoto - núi Phú Sĩ - Tokyo.
                                Tour Campuchia 4 ngày giá chỉ 8,7 triệu đồng
                                        8,700,000 đ 10,990,000 đ
                                        02/11/2016 - 26/01/2017                                    
                                                                Hành trình Phnom Penh - Siem Reap 4 ngày, bay hãng hàng không quốc gia Cambodia Angkor Air, giá chỉ 8,7 triệu đồng.
                                Tour ngắm hoa tam giác mạch từ 1,99 triệu đồng
                                        1,990,000 đ 2,390,000 đ
                                        08/10/2016 - 30/11/2016                                    
                                                                Danh Nam Travel đưa du khách đi ngắm hoa tam giác mạch tại Hà Giang 3 ngày 2 đêm với giá trọn gói từ 1,99 triệu đồng.
        Việt Nam
         
                Quán bún măng vịt mỗi ngày chỉ bán một tiếng
                        Nằm sâu trong con hẻm nhỏ trên đường Lê Văn Sỹ quận Tân Bình, TP HCM, quán bún vịt chỉ phục vụ khách từ 15h30 và đóng hàng sau đó chừng một tiếng.
            Bắc Trung Bộ hút khách Thái Lan để vực dậy du lịchViệt Nam đứng top đầu khách chi tiêu nhiều nhất ở Nhật BảnKhông gian điện ảnh đẳng cấp tại Vinpearl Đà Nẵng
         Gửi bài viết về tòa soạn
        Quốc tế
         
                Những câu lạc bộ thoát y nóng bỏng nhất thế giới
                        Những cô nàng chân dài với thân hình đồng hồ cát, điệu nhảy khiêu gợi, đồ uống lạnh hảo hạng và điệu nhảy bốc lửa trong các câu lạc bộ thoát y luôn kích thích các giác quan của du khách.
            Bé gái Ấn Độ hồn nhiên tóm cổ rắn hổ mang chúaBí mật đáng sợ bên dưới hệ thống tàu điện ngầm LondonNgã xuống hồ nước nóng, du khách chết mất xác
        Ảnh
         
                             
            Đồi cỏ hồng Đà Lạt biến thành cỏ tuyết sau một đêm
            Tháng 11, những đồi cỏ hồng đẹp như tranh vẽ ở Đà Lạt là điểm đến hút khách. Bạn có thể khám phá nơi đây bằng cách cắm trại, ngủ lều trên cây và sáng thức giấc thấy đồi cỏ hồng trông như cỏ tuyết trắng xóa.
                                     
                Homestay nằm giữa hồ sen ở Ninh Bình
                                     
                Cặp đôi nắm tay nhau chụp ảnh ở 30 nước
        Video
         
            Du khách đứng tim vì voi chặn đầu xe
            Đoàn du khách được một phen hú hồn vì gặp đàn voi khi thăm một khu bảo tồn thiên nhiên tại châu Phi.
                Du khách la hét vì chơi tàu lượn dốc nhất thế giới
                Cả công viên 'nín thở' chờ du khách béo trượt máng
        Bình luận hay
					Trang chủ
                         Đặt VnExpress làm trang chủ
                         Đặt VnExpress làm trang chủ
                         Về đầu trang
                     
								  Thời sự
								  Góc nhìn
								  Pháp luật
								  Giáo dục
								  Thế giới
								  Gia đình
								  Kinh doanh
							   Hàng hóa
							   Doanh nghiệp
							   Ebank
								  Giải trí
							   Giới sao
							   Thời trang
							   Phim
								  Thể thao
							   Bóng đá
							   Tennis
							   Các môn khác
								  Video
								  Ảnh
								  Infographics
								  Sức khỏe
							   Các bệnh
							   Khỏe đẹp
							   Dinh dưỡng
								  Du lịch
							   Việt Nam
							   Quốc tế
							   Cộng đồng
								  Khoa học
							   Môi trường
							   Công nghệ mới
							   Hỏi - đáp
								  Số hóa
							   Sản phẩm
							   Đánh giá
							   Đời sống số
								  Xe
							   Tư vấn
							   Thị trường
							   Diễn đàn
								  Cộng đồng
								  Tâm sự
								  Cười
								  Rao vặt
                    Trang chủThời sựGóc nhìnThế giớiKinh doanhGiải tríThể thaoPháp luậtGiáo dụcSức khỏeGia đìnhDu lịchKhoa họcSố hóaXeCộng đồngTâm sựVideoCườiRao vặt
                            © Copyright 1997 VnExpress.net,  All rights reserved
                            ® VnExpress giữ bản quyền nội dung trên website này.
                            VnExpress tuyển dụng   Liên hệ quảng cáo  / Liên hệ Tòa soạn
                            Thông tin Tòa soạn.0123.888.0123 (HN) - 0129.233.3555 (TP HCM)
                                     Liên hệ Tòa soạn
                                     Thông tin Tòa soạn
                                    0123.888.0123 (HN) 
                                    0129.233.3555 (TP HCM)
                                © Copyright 1997 VnExpress.net,  All rights reserved
                                ® VnExpress giữ bản quyền nội dung trên website này.
                     
         
