url:http://dulich.vnexpress.net/photo/anh-video/mon-an-duong-pho-hut-khach-o-singapore-3476264.html?utm_campaign=boxtracking&utm_medium=box_topic&utm_source=detail
Tittle :Món ăn đường phố hút khách ở Singapore - VnExpress Du lịch
content : 
                     Trang chủ Thời sự Góc nhìn Thế giới Kinh doanh Giải trí Thể thao Pháp luật Giáo dục Sức khỏe Gia đình Du lịch Khoa học Số hóa Xe Cộng đồng Tâm sự Rao vặt Video Ảnh  Cười 24h qua Liên hệ Tòa soạn Thông tin Tòa soạn
                            © Copyright 1997- VnExpress.net, All rights reserved
                            ® VnExpress giữ bản quyền nội dung trên website này.
                         Hotline:
                            0123.888.0123 (Hà Nội) 
                            0129.233.3555 (TP HCM) 
                                    Thế giớiPháp luậtXã hộiKinh doanhGiải tríÔ tô - Xe máy Thể thaoSố hóaGia đình
                         
                     
                    Thời sựThế giớiKinh doanhGiải tríThể thaoPháp luậtGiáo dụcSức khỏeGia đìnhDu lịchKhoa họcSố hóaXeCộng đồngTâm sựVideoCườiRao vặt
    Việt NamQuốc tếCộng đồngẢnh
		        24h qua
            Du lịch Ảnh 
                                        Du Lịch 
                                        Ảnh 
                                 
                                Việt NamQuốc tếCộng đồngẢnh
                            Thứ ba, 4/10/2016 | 07:37 GMT+7                        
|
                        Món ăn đường phố hút khách ở Singapore                                                
                    Cua sốt ớt, cơm gà, gà quay phết sốt đậu nành hay bánh nướng kaya kèm trứng lòng đào và cà phê sáng là những món mà du khách có thể dễ dàng tìm ăn trong các khu phố, chợ ẩm thực tại đảo quốc sư tử.
                                Đầu bếp đường phố Singapore lo thiếu người nối nghiệp khi về hưu
                                Ba nhà hàng Peranakan nổi tiếng nhất Singapore
                                             
	Món gà quay phết sốt đậu tương có nguồn gốc từ miền bắc Trung Quốc. Lớp da gà màu đậm và bóng, miếng thịt được cắt vừa ăn và luôn đi kèm đĩa tương ớt cho khách thưởng thức.
                                                                                 
                                             
	Cơm gà là món nổi tiếng của Singapore. Đầu tiên, gà được luộc trong nước sôi đã có nêm gia vị. Sau đó, cơm nấu từ nước luộc gà. Hương vị của món ăn đơn giản mà vẫn đậm đà, cuốn hút. 
                                                                                 
                                             
	Laksa là một món nổi bật khác của Singapore. Món súp cá này làm từ mì gạo cùng nhiều loại hải sản khác nhau, nước dùng từ dừa và các hương liệu có vị cay.
                                                                                 
                                             
	Mì trộn không có nước dùng. Món ăn này làm từ mì gạo hoặc mì trứng nấu trong nước dùng hải sản, thêm tôm, mực, thịt heo và mỡ. Người Singapore thường cho thêm sốt ớt để kích thích vị giác khi thưởng thức món ăn. 
                                                                                 
                                             
	Nasi lemak là món cơm Malay, nấu cùng nước cốt dừa và lá dứa thơm. Món nasi lemak thường được ăn kèm với cá cơm, lạc, ớt, thịt hay cà ri. 
                                                                                 
                                             
	Rojak là salad rau quả làm từ dứa, dưa chuột, bột chiên với sốt cá, thêm chút lạc xay rắc lên trên. Món ăn này hòa trộn các vị như ngọt, cay.
                                                                                 
                                             
	Mì cá viên là món ăn phục vụ nóng hổi và không thể thiếu đĩa mắm ớt cay nồng, kích thích vị giác của thực khách. 
                                                                                 
                                             
	Cua sốt ớt là một trong những món nổi tiếng nhất Singapore. Cua được bao bọc bởi lớp nước sốt ớt, cà chua đậm đà hương vị. Khi ăn, thực khách phải dùng tay tách thịt cua trực tiếp nên khá tốn giấy ăn, nhưng bù lại đây là món rất đáng thử.
                                                                                 
                                             
	Bánh nướng kaya là món dùng vào bữa sáng của người Singapore, được nướng trong lò than, sau đó ăn kèm với kaya (mứt dừa làm từ dừa, sữa và đường). Món này thường đi cùng một tách cà phê và trứng luộc lòng đào. Bạn phải cho thêm tương, tiêu vào trứng rồi chấm miếng bánh nướng vào đó và thưởng thức. 
                                                                                 
                                             
	Murtabak làm từ bột, tương tự như roti prata (loại pancake của người Ấn Độ), nhưng bên trong có thêm nhân là thịt cừu xay, trứng và hành. Món này thường đi kèm một tô cà ri để thực khách lấy từng miếng bánh chấm vào ăn.
                                                                                 
                                             
	Món cá đuối nướng sốt ớt sambal cũng rất đặc trưng cho ẩm thực Singapore. Cá đuối được phết bên ngoài một lớp nước sốt ớt, bọc bằng lá chuối và nướng đến thơm phức. 
                                                                                 
                                             
	Đây là món tráng miệng vừa sền sệt vừa ngọt mát làm từ đá bào, siro và thạch với nhiều màu khác nhau.
                                                                                 
	Hương Chi (theo Business Insider)
                Khám phá Singapore
                    Pokemon khổng lồ xuất hiện ở sân bay Changi (19/11)
                                             
                    Thế giới ảo ở Singapore (19/10)
                                             
                    Đầu bếp tiệm đường phố đầu tiên đạt sao Michelin (7/10)
                                             
                    Đầu bếp đường phố Singapore lo thiếu người nối nghiệp khi về hưu (28/9)
                                             
                    Kỳ nghỉ 'nhung lụa' của giới trẻ nhà giàu Singapore (23/9)
                                             
                Xem thêm
                         
                Ý kiến bạn đọc (0) 
                Mới nhất | Quan tâm nhất
                Mới nhấtQuan tâm nhất
            Xem thêm
                        Ý kiến của bạn
                            20/1000
                                    Tắt chia sẻĐăng xuất
                         
                                Ý kiến của bạn
                                20/1000
                                 
                        Tags
                                                    Cua sốt ớt
                                                    Singapore
                                                    Ẩm thực đường phố
                                                    Gà quay
                                                    Cơm gà
                                                    Bữa sáng
    Tin Khác
                                                     
                            Diễm My ăn trưa, trồng rau cùng người dân Hội An
                                                             
                                                     
                            Khu ổ chuột đầy rẫy tội phạm một thời ở Hong Kong
                                                             
                                                     
                            Góc tối của lễ hội phụ nữ khoe ngực trần tại Tây Ban Nha
                                                             
                            Những bữa tiệc 'nóng mắt' với bong bóng xà phòng
                                                             
                                    Đồi cỏ hồng Đà Lạt biến thành cỏ tuyết sau một đêm
                                                                             
                                    Vợ chồng Thu Phương nếm 'bún chửi' Hà Nội
                                                                             
                                    'Vườn thú người' - vết nhơ trong lịch sử châu Âu
                                                                             
                                    Vẻ đẹp của thị trấn nơi William và Kate gặp nhau
                                                                             
                                    Khu cắm trại giữa rừng dương cách Sài Gòn 3 giờ chạy xe
                                                                             
                                    Vẻ đẹp thơ mộng mùa lá đỏ Nhật Bản
                                                                             
                                    Bên trong thị trấn ma lớn nhất thế giới ở quê hương Thành Cát Tư Hãn
                                                                             
                                    Cô gái bị fan cuồng sao y bản chính khi đi du lịch
                                                                             
                                    Quang Vinh khám phá hai mặt đối lập của Sài Gòn
                                                                             
                                    Bảo tàng áo dài tư nhân duy nhất ở Sài Gòn
                                                                             
        Khuyến mãi Du lịch
		  prev
		   next
                                Vietrantour tặng 10 triệu đồng tour Nam Phi 8 ngày
                                        49,900,000 đ 59,900,000 đ
                                        21/10/2016 - 01/12/2016                                    
                                                                Tour 8 ngày Johannesburg - Sun City - Pretoria - Capetown, bay hàng không 5 sao Qatar Airways, giá chỉ 49,99 triệu đồng.
                                Tour Hải Nam, Trung Quốc 5 ngày giá từ 7,99 triệu đồng
                                        7,990,000 đ 9,990,000 đ
                                        19/10/2016 - 07/12/2016                                    
                                                                Hành trình 5 ngày Hải Khẩu - Hưng Long - Tam Á khởi hành ngày 1, 8, 15, 22, 29/11 và 6, 13, 20, 27/12, giá từ 7,99 triệu đồng.
                                Tour Phú Quốc - Vinpearl Land gồm vé máy bay từ 2,9 triệu đồng
                                        2,999,000 đ 4,160,000 đ
                                        16/11/2016 - 30/12/2016                                    
                                                                Hành trình trọn gói và Free and Easy tới Phú Quốc với nhiều lựa chọn hấp dẫn cùng khuyến mại dịp cuối năm dành cho 
                                Tour ngắm hoa tam giác mạch từ 1,99 triệu đồng
                                        1,990,000 đ 2,390,000 đ
                                        08/10/2016 - 30/11/2016                                    
                                                                Danh Nam Travel đưa du khách đi ngắm hoa tam giác mạch tại Hà Giang 3 ngày 2 đêm với giá trọn gói từ 1,99 triệu đồng.
                                Tour Campuchia 4 ngày giá chỉ 8,7 triệu đồng
                                        8,700,000 đ 10,990,000 đ
                                        02/11/2016 - 26/01/2017                                    
                                                                Hành trình Phnom Penh - Siem Reap 4 ngày, bay hãng hàng không quốc gia Cambodia Angkor Air, giá chỉ 8,7 triệu đồng.
                                Giảm hơn 2 triệu đồng tour Nhật Bản 6 ngày 5 đêm
                                        33,800,000 đ 35,990,000 đ
                                        01/10/2016 - 31/12/2016                                    
                                                                Hongai Tours đưa du khách khám phá xứ Phù Tang mùa lá đỏ theo hành trình Nagoya - Nara - Osaka - Kyoto - núi Phú Sĩ - Tokyo.
                                Tour Nhật Bản đón năm mới giá chỉ 28,9 triệu đồng
                                        28,900,000 đ 35,900,000 đ
                                        17/11/2016 - 14/12/2016                                    
                                                                Hành trình sẽ đưa du khách đến cầu may đầu xuân ở đền Kotohira Shrine, mua sắm hàng hiệu giá rẻ dưới lòng đất, tham 
        Xem nhiều nhất
    Góc tối của lễ hội phụ nữ khoe ngực trần tại Tây Ban NhaCặp du khách Trung Quốc quan hệ tình dục trong công viênCả công viên 'nín thở' chờ du khách béo trượt mángBí mật đáng sợ bên dưới hệ thống tàu điện ngầm LondonChàng tiên cá có thật giữa đời thường
					Trang chủ
                         Đặt VnExpress làm trang chủ
                         Đặt VnExpress làm trang chủ
                         Về đầu trang
                     
								  Thời sự
								  Góc nhìn
								  Pháp luật
								  Giáo dục
								  Thế giới
								  Gia đình
								  Kinh doanh
							   Hàng hóa
							   Doanh nghiệp
							   Ebank
								  Giải trí
							   Giới sao
							   Thời trang
							   Phim
								  Thể thao
							   Bóng đá
							   Tennis
							   Các môn khác
								  Video
								  Ảnh
								  Infographics
								  Sức khỏe
							   Các bệnh
							   Khỏe đẹp
							   Dinh dưỡng
								  Du lịch
							   Việt Nam
							   Quốc tế
							   Cộng đồng
								  Khoa học
							   Môi trường
							   Công nghệ mới
							   Hỏi - đáp
								  Số hóa
							   Sản phẩm
							   Đánh giá
							   Đời sống số
								  Xe
							   Tư vấn
							   Thị trường
							   Diễn đàn
								  Cộng đồng
								  Tâm sự
								  Cười
								  Rao vặt
                    Trang chủThời sựGóc nhìnThế giớiKinh doanhGiải tríThể thaoPháp luậtGiáo dụcSức khỏeGia đìnhDu lịchKhoa họcSố hóaXeCộng đồngTâm sựVideoCườiRao vặt
                            © Copyright 1997 VnExpress.net,  All rights reserved
                            ® VnExpress giữ bản quyền nội dung trên website này.
                            VnExpress tuyển dụng   Liên hệ quảng cáo  / Liên hệ Tòa soạn
                            Thông tin Tòa soạn.0123.888.0123 (HN) - 0129.233.3555 (TP HCM)
                                     Liên hệ Tòa soạn
                                     Thông tin Tòa soạn
                                    0123.888.0123 (HN) 
                                    0129.233.3555 (TP HCM)
                                © Copyright 1997 VnExpress.net,  All rights reserved
                                ® VnExpress giữ bản quyền nội dung trên website này.
                     
         
