url:http://dulich.vnexpress.net/page/5.html
Tittle :Tin du lịch : thông tin, hình ảnh các địa điểm du lịch Việt Nam và thế giới - VnExpress Du Lịch
content : 
                     Trang chủ Thời sự Góc nhìn Thế giới Kinh doanh Giải trí Thể thao Pháp luật Giáo dục Sức khỏe Gia đình Du lịch Khoa học Số hóa Xe Cộng đồng Tâm sự Rao vặt Video Ảnh  Cười 24h qua Liên hệ Tòa soạn Thông tin Tòa soạn
                            © Copyright 1997- VnExpress.net, All rights reserved
                            ® VnExpress giữ bản quyền nội dung trên website này.
                         Hotline:
                            0123.888.0123 (Hà Nội) 
                            0129.233.3555 (TP HCM) 
                                    Thế giớiPháp luậtXã hộiKinh doanhGiải tríÔ tô - Xe máy Thể thaoSố hóaGia đình
                         
                     
                    Thời sựThế giớiKinh doanhGiải tríThể thaoPháp luậtGiáo dụcSức khỏeGia đìnhDu lịchKhoa họcSố hóaXeCộng đồngTâm sựVideoCườiRao vặt
    Việt NamQuốc tếCộng đồngẢnh
                24h qua
            Du lịch 
                                        Du Lịch 
                                 
                                Việt NamQuốc tếCộng đồngẢnh
                Sóng hồ Baikal không ngừng vỗ vào bờ dù bị đóng băng
                                     
               Vào mùa đông, nước hồ Baikal (Nga) sẽ đóng băng song du khách có thể chứng kiến cảnh tượng ngoạn mục của những con sóng không ngừng xô vào bờ.            
                Nỗi sợ hãi của người mẫu sushi khoả thân ở New York
                                     
               Nằm bất động trong thời gian dài, chịu đựng cảm giác bị cô lập và sợ hãi khi những đôi đũa nhảy múa trên cơ thể là những nỗi khổ “không nói thành lời” của người mẫu sushi khoả thân.            
                Bán đảo Sơn Trà sẽ là khu du lịch quốc gia
                                     
               Theo Quy hoạch được Chính phủ phê duyệt, bán đảo Sơn Trà (Đà Nẵng) sẽ là trung tâm du lịch sinh thái, nghỉ dưỡng cao cấp của vùng duyên hải Nam Trung Bộ và cả nước.            
                Hồ Cốc - nơi lý tưởng cho khách Tây muốn thay đổi cuộc sống
                                     
                             
               Bãi biển hoang sơ như Hồ Cốc ở Vũng Tàu (Việt Nam) là một trong những địa điểm lý tưởng mà trang Bright Side gợi ý cho khách nước ngoài muốn bắt đầu một cuộc sống mới.            
                Nữ du khách bị cưỡng bức và sát hại ở Mozambique
                                     
               Sau khi bị cưỡng bức và sát hại, thi thể nữ du khách Australia bị bỏ lại trong một nhà vệ sinh hẻo lánh ở khu nghỉ mát ven biển của Mozambique.            
                Món cánh gà đắt nhất thế giới ở Hong Kong
                                     
               Là món ăn bình dân, giá rẻ nhưng chiếc cánh gà qua bàn tay chế biến của đầu bếp người Australia có giá lên tới 45 USD.            
                Chợ đêm Phú Quốc có nhà vệ sinh miễn phí
                                     
               Chợ đêm Phú Quốc mới được đổi tên từ chợ đêm Bạch Đằng, thay thế cho chợ đêm Dinh Cậu, có hệ thống thu gom và xử lý nước thải đồng bộ, nhà vệ sinh miễn phí cho du khách.            
                Nơi khách nữ dù xấu cũng trở nên hấp dẫn với đàn ông
                                     
               Ở Mỹ, Marie Horace chỉ là cô nàng gầy gò và các chàng trai thích con gái phải nóng bỏng như Kim Kardashian. Nhưng đàn ông Thụy Điển lại coi cô như báu vật, họ tán tỉnh và gọi Marie là "người đẹp" không biết bao lần.            
                Bảo tàng tình dục ở Pháp bán đấu giá các tác phẩm nhạy cảm
                                     
               Phiên đấu giá các tác phẩm ở bảo tàng tình dục duy nhất tại Paris (Pháp) thu về gần nửa triệu euro chỉ trong một buổi sáng, cao gấp 3 lần ước tính ban đầu.            
                Những món đường phố nức tiếng của Đà Nẵng
                                     
               Bánh ướt, bánh bèo, bánh tráng cuốn thịt heo... là những món ăn cuốn hút du khách trong và ngoài nước đến Đà Nẵng để thưởng thức.            
                Du khách Trung Quốc tiêu nhiều tiền nhất thế giới
                                     
               Du khách Trung Quốc là những người tiêu nhiều tiền nhất thế giới khi dành phần lớn thời gian và tiền bạc cho việc mua sắm.            
                Cửu Trại Câu - Thiên đường có thật
                                     
               Phong cảnh Cửu Trại Câu (Trung Quốc) vào tháng 10, 11 toát lên vẻ đẹp cuốn hút mọi du khách.            
                5 điểm đến cho người yêu - kẻ ghét tổng thống Donald Trump
                                     
                             
               Du khách có thể ghé thăm tháp Trump Tower tại Los Angeles, chuỗi khách sạn Trump ở khắp nước Mỹ hay thử sức trên những sân golf của tổng thống đắc cử nằm ở Washington, Scotland hay Dubai.            
                Thực hư cây cầu gỗ dài nhất Việt Nam bị 'xóa sổ' sau lũ
                                     
               Nhiều người tiếc nuối khi nghe tin cây cầu gỗ Ông Cọp ở Phú Yên bị lũ cuốn không còn, nhưng người dân địa phương cho biết cầu vẫn thường được sửa chữa sau mưa lũ.            
                Nơi người dân không đủ tiền mua vé xe đi bầu tổng thống Mỹ
                                     
               Sống tại thị trấn nghèo nhất nước Mỹ, người dân Beattyville (Kentucky) chật vật với những khoản kiếm sống qua ngày.            
                Trump đắc cử, lượt tìm vé máy bay một chiều rời Mỹ tăng vọt
                                     
               Lượt tìm vé một chiều từ Mỹ đi Canada có lúc tăng tới 1000% trên Cheapflight khi kết quả bầu tổng thống Mỹ 2016 được công bố hôm 8/10.            
                Khách Tây vui chơi hết mình trong lễ hội âm nhạc ở Ba Vì
                                     
               Suốt 3 ngày diễn ra Quest Festival tại Sơn Tinh Camp (Ba Vì, Hà Nội), hàng nghìn tín đồ âm nhạc trong và ngoài nước đổ về đây để sống trong bầu không khí sôi động của âm nhạc và lễ hội.            
                Bên trong du thuyền lớn nhất châu Á vừa cập cảng Việt Nam
                                     
                             
               Genting Dream - một trong những du thuyền lớn nhất châu Á vừa cập cảng Cái Mép, Vũng Tàu hôm 8/11. Với phương châm biến giấc mơ thành sự thật, Genting Dream hứa hẹn sẽ đem đến cho du khách những trải nghiệm khó quên.            
                40 xe ôtô du lịch tự lái đầu tiên qua cửa khẩu Móng Cái
                                     
               Xe ô tô du lịch tự lái qua cửa khẩu quốc tế Móng Cái là loại xe từ 9 chỗ trở xuống, thời gian nhập cảnh không quá 3 ngày một lần cấp phép.            
                Rừng tràm Trà Sư vào mùa nước nổi
                                     
                             
               Đi đò máy, xuồng chèo tay rẽ nước vào trong rừng tràm, thưởng thức đặc sản lẩu cá linh bông điên điển là những trải nghiệm khó quên đối với bất cứ ai tới rừng tràm Trà Sư, An Giang dịp này.            
                Malaysia bước vào mùa mua sắm lớn nhất cuối năm
               Nhiều tour có mức giá từ 4,29 triệu đồng, hàng giảm giá tới 70% hứa hẹn đem đến trải nghiệm du lịch mua sắm đáng nhớ tại Malaysia.            
                Bún cá thố và bánh canh cốt dừa miền Tây ở Sài Gòn
                                     
               Cá lóc tươi vừa chín tới, sợi bún trắng, đựng trong thố nhỏ còn sôi sùng sục, ăn kèm rau sống và mắm me là món ăn miền Tây hút khách.            
                Lý do Trump không đặt tiệc chúc mừng tại khách sạn của mình
                                     
               Có ý kiến nhận định rằng hội trường của chuỗi khách sạn Trump không đủ sức chứa lượng khách mời lớn của tổng thống đắc cử.            
                Hồ bơi lớn nhất thế giới ở Chile
                                     
               Hồ bơi lớn nhất thế giới là Crystal Lagoon tại San Alfonso del Mar, một khu nghỉ mát cách thủ đô Santiago của Chile 100 km.            
                16 điều bạn nên tránh khi du lịch Nhật Bản
                                     
               Không tip cho người Nhật dù cho bạn là tỉ phú, không đi bên phải đường hay muộn giờ hẹn là một số quy tắc ứng xử tại đất nước mặt trời mọc.            
                Hai tàu du lịch bị đình chỉ hoạt động 20 ngày
                                     
               Để khách ngồi lên lan can hai bên mạn tàu gây mất an toàn khi tham quan vịnh Hạ Long, hai tàu du lịch bị đình chỉ hoạt động.            
                Việt Nam là điểm đến hấp dẫn cho du khách nói tiếng Anh
                                     
               Với tỷ lệ gần 54% người dân biết nói tiếng Anh, Việt Nam là một trong những điểm đến hấp dẫn cho du khách nước ngoài.            
                Chàng trai kiếm tiền nhờ selfie cùng động vật
                                     
               Allan Dixon không chỉ tạo ra xu hướng mới khi đăng tải chùm selfie cùng động vật, anh còn kiếm tiền nhờ những bức ảnh này.            
                Khách Tây 'quậy' hết mình trong lễ hội âm nhạc ở Hà Nội
                                     
                             
               Suốt 3 ngày diễn ra Quest Festival tại Sơn Tinh Camp (Ba Vì, Hà Nội), hàng nghìn tín đồ âm nhạc trong và ngoài nước đổ về đây để sống trong bầu không khí sôi động của âm nhạc và lễ hội.            
         34567     
Xem tiếp        
        Khuyến mãi Du lịch
		  prev
		   next
                                Tour Phú Quốc - Vinpearl Land gồm vé máy bay từ 2,9 triệu đồng
                                        2,999,000 đ 4,160,000 đ
                                        16/11/2016 - 30/12/2016                                    
                                                                Hành trình trọn gói và Free and Easy tới Phú Quốc với nhiều lựa chọn hấp dẫn cùng khuyến mại dịp cuối năm dành cho 
                                Vietrantour tặng 10 triệu đồng tour Nam Phi 8 ngày
                                        49,900,000 đ 59,900,000 đ
                                        21/10/2016 - 01/12/2016                                    
                                                                Tour 8 ngày Johannesburg - Sun City - Pretoria - Capetown, bay hàng không 5 sao Qatar Airways, giá chỉ 49,99 triệu đồng.
                                Tour Nhật Bản đón năm mới giá chỉ 28,9 triệu đồng
                                        28,900,000 đ 35,900,000 đ
                                        17/11/2016 - 14/12/2016                                    
                                                                Hành trình sẽ đưa du khách đến cầu may đầu xuân ở đền Kotohira Shrine, mua sắm hàng hiệu giá rẻ dưới lòng đất, tham 
                                Giảm hơn 2 triệu đồng tour Nhật Bản 6 ngày 5 đêm
                                        33,800,000 đ 35,990,000 đ
                                        01/10/2016 - 31/12/2016                                    
                                                                Hongai Tours đưa du khách khám phá xứ Phù Tang mùa lá đỏ theo hành trình Nagoya - Nara - Osaka - Kyoto - núi Phú Sĩ - Tokyo.
                                Tour Campuchia 4 ngày giá chỉ 8,7 triệu đồng
                                        8,700,000 đ 10,990,000 đ
                                        02/11/2016 - 26/01/2017                                    
                                                                Hành trình Phnom Penh - Siem Reap 4 ngày, bay hãng hàng không quốc gia Cambodia Angkor Air, giá chỉ 8,7 triệu đồng.
                                Tour ngắm hoa tam giác mạch từ 1,99 triệu đồng
                                        1,990,000 đ 2,390,000 đ
                                        08/10/2016 - 30/11/2016                                    
                                                                Danh Nam Travel đưa du khách đi ngắm hoa tam giác mạch tại Hà Giang 3 ngày 2 đêm với giá trọn gói từ 1,99 triệu đồng.
                                Tour Hải Nam, Trung Quốc 5 ngày giá từ 7,99 triệu đồng
                                        7,990,000 đ 9,990,000 đ
                                        19/10/2016 - 07/12/2016                                    
                                                                Hành trình 5 ngày Hải Khẩu - Hưng Long - Tam Á khởi hành ngày 1, 8, 15, 22, 29/11 và 6, 13, 20, 27/12, giá từ 7,99 triệu đồng.
        Việt Nam
         
                Quán bún măng vịt mỗi ngày chỉ bán một tiếng
                        Nằm sâu trong con hẻm nhỏ trên đường Lê Văn Sỹ quận Tân Bình, TP HCM, quán bún vịt chỉ phục vụ khách từ 15h30 và đóng hàng sau đó chừng một tiếng.
            Bắc Trung Bộ hút khách Thái Lan để vực dậy du lịchViệt Nam đứng top đầu khách chi tiêu nhiều nhất ở Nhật BảnKhông gian điện ảnh đẳng cấp tại Vinpearl Đà Nẵng
         Gửi bài viết về tòa soạn
        Quốc tế
         
                Những câu lạc bộ thoát y nóng bỏng nhất thế giới
                        Những cô nàng chân dài với thân hình đồng hồ cát, điệu nhảy khiêu gợi, đồ uống lạnh hảo hạng và điệu nhảy bốc lửa trong các câu lạc bộ thoát y luôn kích thích các giác quan của du khách.
            Bé gái Ấn Độ hồn nhiên tóm cổ rắn hổ mang chúaBí mật đáng sợ bên dưới hệ thống tàu điện ngầm LondonNgã xuống hồ nước nóng, du khách chết mất xác
        Cộng đồng
         
                'Thời gian biểu' du lịch Việt Nam bốn mùa đều đẹp
                        Hãy lên kế hoạch du lịch đúng thời điểm cho năm mới dựa theo lịch trình du lịch khắp miền đất nước.
            Du khách đứng tim vì voi chặn đầu xe5 vùng đất Samurai nổi tiếng của Nhật BảnĐồi cỏ hồng Đà Lạt biến thành cỏ tuyết sau một đêm
        Ảnh - Video
         
                             
            Diễm My ăn trưa, trồng rau cùng người dân Hội An
            Diễn viên Diễm My đã có dịp dùng bữa cùng một cặp vợ chồng ở làng Trà Quế, Hội An, trước khi thực hiện bộ ảnh "Vẻ đẹp không tuổi" cùng nhiếp ảnh gia Pháp.
                                     
                Khu ổ chuột đầy rẫy tội phạm một thời ở Hong Kong
                                     
                Những món nóng hổi trên đường phố Đà Lạt
		Liên kết du lịch
            Đọc du lịch từ Email
                Hoàn tất
        Top điểm đến
                                        Bên trong ngôi chùa đẹp bậc nhất thế giới ở Hà Nội
                    Chùa Trấn Quốc nằm trên hòn đảo phía đông Hồ Tây, vừa được trang Thrillist đưa vào danh sách những ngôi chùa đẹp nhất thế giới.
                                        Bên trong dinh thự 100 triệu USD của Donald Trump ở New York
                    Dinh thự được trang trí chủ yếu từ vàng và cẩm thạch, lấy cảm hứng từ Louis XIV, vị vua nổi tiếng nhất nước Pháp với phong cách nghệ thuật sang trọng và quyền quý.
                                        Giây phút kinh hoàng của chàng trai thoát chết trong lễ hội 'bò đuổi'
                    Chase Boehringer không biết thần chết ở gần anh thế nào khi tới lễ hội truyền thống San Fermin tại thành phố Pamplona, Tây Ban Nha.
        Hỏi đáp
                            Bạn có nhận ra các điểm check-in của Sao Việt?                            
                                                             
                            7 câu đố bằng thơ ai mê du lịch Việt cũng đoán ra                            
                                                             
                            Những câu hỏi về bản đồ chứng tỏ bạn là phượt thủ thứ thiệt                            
                                                             
                            8 câu hỏi đúng - sai tiết lộ bạn có phải du khách thông minh                            
                                                             
                            Đi Hàn Quốc nên theo tour hay tự túc?                            
                                                             
                            Bạn đã ăn lầm những gì trước khi lên máy bay                            
                                                             
		 
					Trang chủ
                         Đặt VnExpress làm trang chủ
                         Đặt VnExpress làm trang chủ
                         Về đầu trang
                     
								  Thời sự
								  Góc nhìn
								  Pháp luật
								  Giáo dục
								  Thế giới
								  Gia đình
								  Kinh doanh
							   Hàng hóa
							   Doanh nghiệp
							   Ebank
								  Giải trí
							   Giới sao
							   Thời trang
							   Phim
								  Thể thao
							   Bóng đá
							   Tennis
							   Các môn khác
								  Video
								  Ảnh
								  Infographics
								  Sức khỏe
							   Các bệnh
							   Khỏe đẹp
							   Dinh dưỡng
								  Du lịch
							   Việt Nam
							   Quốc tế
							   Cộng đồng
								  Khoa học
							   Môi trường
							   Công nghệ mới
							   Hỏi - đáp
								  Số hóa
							   Sản phẩm
							   Đánh giá
							   Đời sống số
								  Xe
							   Tư vấn
							   Thị trường
							   Diễn đàn
								  Cộng đồng
								  Tâm sự
								  Cười
								  Rao vặt
                    Trang chủThời sựGóc nhìnThế giớiKinh doanhGiải tríThể thaoPháp luậtGiáo dụcSức khỏeGia đìnhDu lịchKhoa họcSố hóaXeCộng đồngTâm sựVideoCườiRao vặt
                            © Copyright 1997 VnExpress.net,  All rights reserved
                            ® VnExpress giữ bản quyền nội dung trên website này.
                            VnExpress tuyển dụng   Liên hệ quảng cáo  / Liên hệ Tòa soạn
                            Thông tin Tòa soạn.0123.888.0123 (HN) - 0129.233.3555 (TP HCM)
                                     Liên hệ Tòa soạn
                                     Thông tin Tòa soạn
                                    0123.888.0123 (HN) 
                                    0129.233.3555 (TP HCM)
                                © Copyright 1997 VnExpress.net,  All rights reserved
                                ® VnExpress giữ bản quyền nội dung trên website này.
                     
         
