url:http://dulich.vnexpress.net/tin-tuc/cong-dong/page/3.html
Tittle :Du lịch Cộng đồng, thông tin địa điểm du lịch Cộng đồng 2013 - VnExpress Du lịch
content : 
                     Trang chủ Thời sự Góc nhìn Thế giới Kinh doanh Giải trí Thể thao Pháp luật Giáo dục Sức khỏe Gia đình Du lịch Khoa học Số hóa Xe Cộng đồng Tâm sự Rao vặt Video Ảnh  Cười 24h qua Liên hệ Tòa soạn Thông tin Tòa soạn
                            © Copyright 1997- VnExpress.net, All rights reserved
                            ® VnExpress giữ bản quyền nội dung trên website này.
                         Hotline:
                            0123.888.0123 (Hà Nội) 
                            0129.233.3555 (TP HCM) 
                                    Thế giớiPháp luậtXã hộiKinh doanhGiải tríÔ tô - Xe máy Thể thaoSố hóaGia đình
                         
                     
                    Thời sựThế giớiKinh doanhGiải tríThể thaoPháp luậtGiáo dụcSức khỏeGia đìnhDu lịchKhoa họcSố hóaXeCộng đồngTâm sựVideoCườiRao vặt
    Việt NamQuốc tếCộng đồngẢnh
		        24h qua
            Du lịch Cộng đồng 
                        Dấu chânTư vấnHỏi - Đáp
                                        Du Lịch 
                                        Cộng đồng 
                                 
                                Việt NamQuốc tếCộng đồngẢnh
                            Hành khách bị thu thư tình để đảm bảo an toàn bay
                                                             
                                "Lý do duy nhất tôi có thể nghĩ được cho việc bị tịch thu các bức thư mà bạn gái viết, là họ lo sợ tình yêu nồng cháy của chúng tôi trở thành mối đe dọa tới an ninh quốc gia Mỹ", du khách bị thu thư tình cho biết.                                
                            Cú nhảy móc dây vào da lưng từ độ cao 20 mét
                                                             
                                Một nhóm người Mỹ liều lĩnh đã nhảy xuống từ độ cao gần 20 m với dây kéo móc trực tiếp qua da lưng khiến nhiều người xem rùng mình. Nhưng người trong cuộc cho biết rất thú vị và không đau. Bạn nên cân nhắc trước khi xem.                                
                            Suýt bị hãm hiếp và cướp, cô gái không từ bỏ đam mê du lịch
                                                             
                                Trong thời gian tới châu Mỹ và châu Phi, Natasha suýt bị một lái thuyền hãm hiếp và gặp cướp tới 2 lần, song cô cho biết không từ bỏ việc chơi tối và mặc váy ra đường.                                
                            Du khách Trung Quốc tè bậy trong vườn thực vật ở Sydney
                                                             
                                Cảnh sát Sydney rượt đuổi hai du khách Trung Quốc sau khi bắt gặp họ tè bậy tại Vườn thực vật Hoàng gia (Royal Botanic Garden), chỉ cách nhà vệ sinh công cộng 3 phút đi bộ.                                
                            Những quán cà phê với tay như chạm được mây
                                                             
                                Thưởng thức ly cà phê ở không gian mở, ngắm nhìn cảnh núi rừng và mây giăng là trải nghiệm không thể bỏ lỡ ở Sa Pa, Tam Đảo hay Đà Lạt.                                
                            Nhân viên dọn phòng bị đối xử như gái bán dâm
                                                             
                                Coi nhân viên dọn phòng khách sạn như gái bán dâm, người trông trẻ, đổ lỗi cho họ ăn cắp vì quên đồ là những điều khiến người làm công việc này khó chịu.                                
                            Khách trườn, bò qua cầu kính Trung Quốc
                                                             
                                Trang Mirror vừa tổng hợp lại các pha sợ hãi, khóc thét của du khách khi trải nghiệm cầu kính "Vác đá Rồng cuộn" ở công viên quốc gia Trương Gia Giới, tỉnh Hồ Nam.                                
                            Khách Tây dùng một từ để nói về Hà Nội
                                                             
                                Điên có kiểm soát, nhộn nhịp, ồn ào còi xe, bình yên, nhiều cây xanh,... là những điều du khách nhận xét về Hà Nội.                                
                            Thăm chợ cá ngừ Tsukiji Tokyo không được sờ vào cá
                                                             
                                Đến chợ cá Tsukiji du khách không được hút thuốc, chụp ảnh có đèn flash, sờ vào cá hay mang theo trẻ em.                                
                            Quán 'bún chửi' Hà Nội: người chê, kẻ bênh
                                                             
                                Phần đông người xem clip chủ quán bún ở Ngô Sĩ Liên nặng lời với khách đều tỏ thái độ bức xúc, nhưng không ít khách quen ở đây cho rằng "phải có lửa mới có khói".                                
                            10 cử chỉ thô lỗ khi giao tiếp ở nước ngoài
                                                             
                                Mỗi quốc gia lại có một ngôn ngữ hình thể khác biệt, du khách nên tìm hiểu trước để tránh việc vô tình trở thành kẻ khiếm nhã trước người khác.                                 
                            Khách tát nhân viên sân bay vì không được mang hành lý quá khổ
                                                             
                                Sau cái tát thô bạo của nữ hành khách, nhân viên sân bay bị điếc tạm thời và phải nhập viện kiểm tra.                                 
                            Mũi Yến - điểm đến mới cho dân ưa khám phá
                                                             
                                Hành trình băng qua sa mạc cát trắng để được ngủ trên đồi, đón gió biển tại vùng đất hoang sơ Bình Thuận sẽ khiến các phượt thủ thích mê.                                
                            Ranh giới sống chết trên đỉnh Everest
                                                             
                                Hàng trăm người leo lên đỉnh Everest với ham muốn tạo ra những cái nhất, cái đầu tiên, và không ít người đã trả giá bằng chính mạng sống của mình.                                
                            Bạn có nhận ra cảnh đẹp Việt Nam hay bị nhầm ở nước ngoài
                                                             
                                Đà Lạt, Sa Pa, Hạ Long tưởng chừng rất quen thuộc nhưng đôi khi bạn sẽ có chút bối rối khi xem những bức ảnh sau.                                
                            Du khách học được gì từ nhà vệ sinh công cộng ở Nhật Bản
                                                             
                                Sự cẩn thận, chu đáo của người Nhật được thể hiện rất rõ trong những nhà vệ sinh công cộng. Theo Andrew, nếu xét về khía cạnh chăm sóc khách hàng thì Nhật chính là quốc gia tuyệt vời nhất thế giới.                                
                            Du khách rủ nhau nhảy lầu từ tầng 108
                                                             
                                Tại tháp Stratosphere, Las Vegas, Mỹ, mỗi cú nhảy từ độ cao 253 m mang đến cảm giác rơi tự do cho du khách.                                
                            Trắc nghiệm: Bạn có nhầm tên phố Hà Nội
                                                             
                                Nhiều người khó phân biệt tên những con phố như Duy Tân với Tống Duy Tân, Yên Lãng hay Lãng Yên.                                
                            1 USD mua được những gì trên đường du lịch
                                                             
                                Với 1 USD (hơn 22.000 đồng), bạn mua được 1 bát phở tại Việt Nam hoặc 10 quả trứng tại Malaysia, nhưng bạn chỉ có thể đổi được 3 chiếc kẹo cao su tại Thụy Sỹ.                                
                            Kiểu cười của người dân trên khắp thế giới
                                                             
                                Khi thể hiện mình đang cười, người Nhật sẽ viết là WWW qua tin nhắn, còn người Thái sẽ là 55555.                                
                            Nhóm phượt nhảy giữa đường Tây Nguyên gây tranh cãi
                                                             
                                Một số cho rằng hành động dừng xe máy và nhảy theo nhạc trên đường để thư giãn, không nên khắt khe, số khác không ủng hộ vì ảnh hưởng giao thông.                                
                            Gợi ý một ngày sống chậm ở Singapore
                                                             
                                                                     
                                Đảo quốc sư tử nổi tiếng với sự hiện đại nhưng vẫn còn đó những địa điểm để du khách thả mình ngắm nhìn cuộc sống.                                
                            Cô gái Việt chỉ ra 8 định kiến sai lầm khi đến Cửu Trại Câu
                                                             
                                Đi Cửu Trại Câu tốn kém, người Trung Quốc thô lỗ, nhà vệ sinh cáu bẩn là những định kiến đã được hóa giải sau khi Huyền trở về từ chuyến du lịch Tứ Xuyên.                                
                            Những cú ngã hài hước của bé khi đi tắm biển
                                                             
                                Video ghi lại những kỷ niệm vui nhộn và đáng nhớ của các gia đình cùng bé du lịch biển.                                
                            Trung Quốc bị xếp hạng kém hào phóng nhất thế giới
                                                             
                                Trung Quốc đứng chót danh sách 140 quốc gia hào phóng nhất thế giới, theo khảo sát của Tổ chức World Giving Index năm 2016.                                
                            Chàng Tây du lịch Việt Nam 10 ngày hết 200 USD
                                                             
                                Marc Baybe (Australia) muốn thử thách bản thân với 200 USD xem mình có thể trải nghiệm được gì ở một đất nước xinh đẹp như Việt Nam.                                
                            4 điểm đến lý tưởng để ngắm mùa thu ở Osaka
                                                             
                                Từ giữa tháng 10 đến cuối tháng 11 hàng năm, du khách đến Osaka, Nhật Bản sẽ được tận hưởng sắc thu rực rỡ khi những cây phong, rẻ quạt đồng loạt chuyển màu lá đỏ, vàng.                                 
                            Mai Chi lạc bước ở Phượng Hoàng cổ trấn
                                                             
                                Không chỉ tư vấn cách đi, cô nàng Lala trong phim "Bộ tứ 10A8" còn ghi lại hành trình 5 ngày bằng nhật ký sinh động và lôi cuốn.                                
                            Những điểm săn hoa dã quỳ dọc đất nước
                                                             
                                Từ cuối tháng 10 đầu tháng 11, loài hoa dại trổ bông vàng tạo nên cảnh đẹp mộng mơ ở nhiều nơi như Ba Vì, Đà Lạt, Gia Lai.                                
                                 12345 
                Xem tiếp
        Khuyến mãi Du lịch
		  prev
		   next
                                Tour Campuchia 4 ngày giá chỉ 8,7 triệu đồng
                                        8,700,000 đ 10,990,000 đ
                                        02/11/2016 - 26/01/2017                                    
                                                                Hành trình Phnom Penh - Siem Reap 4 ngày, bay hãng hàng không quốc gia Cambodia Angkor Air, giá chỉ 8,7 triệu đồng.
                                Tour ngắm hoa tam giác mạch từ 1,99 triệu đồng
                                        1,990,000 đ 2,390,000 đ
                                        08/10/2016 - 30/11/2016                                    
                                                                Danh Nam Travel đưa du khách đi ngắm hoa tam giác mạch tại Hà Giang 3 ngày 2 đêm với giá trọn gói từ 1,99 triệu đồng.
                                Tour Nhật Bản đón năm mới giá chỉ 28,9 triệu đồng
                                        28,900,000 đ 35,900,000 đ
                                        17/11/2016 - 14/12/2016                                    
                                                                Hành trình sẽ đưa du khách đến cầu may đầu xuân ở đền Kotohira Shrine, mua sắm hàng hiệu giá rẻ dưới lòng đất, tham 
                                Giảm hơn 2 triệu đồng tour Nhật Bản 6 ngày 5 đêm
                                        33,800,000 đ 35,990,000 đ
                                        01/10/2016 - 31/12/2016                                    
                                                                Hongai Tours đưa du khách khám phá xứ Phù Tang mùa lá đỏ theo hành trình Nagoya - Nara - Osaka - Kyoto - núi Phú Sĩ - Tokyo.
                                Tour Phú Quốc - Vinpearl Land gồm vé máy bay từ 2,9 triệu đồng
                                        2,999,000 đ 4,160,000 đ
                                        16/11/2016 - 30/12/2016                                    
                                                                Hành trình trọn gói và Free and Easy tới Phú Quốc với nhiều lựa chọn hấp dẫn cùng khuyến mại dịp cuối năm dành cho 
                                Vietrantour tặng 10 triệu đồng tour Nam Phi 8 ngày
                                        49,900,000 đ 59,900,000 đ
                                        21/10/2016 - 01/12/2016                                    
                                                                Tour 8 ngày Johannesburg - Sun City - Pretoria - Capetown, bay hàng không 5 sao Qatar Airways, giá chỉ 49,99 triệu đồng.
                                Tour Hải Nam, Trung Quốc 5 ngày giá từ 7,99 triệu đồng
                                        7,990,000 đ 9,990,000 đ
                                        19/10/2016 - 07/12/2016                                    
                                                                Hành trình 5 ngày Hải Khẩu - Hưng Long - Tam Á khởi hành ngày 1, 8, 15, 22, 29/11 và 6, 13, 20, 27/12, giá từ 7,99 triệu đồng.
        Việt Nam
         
                Quán bún măng vịt mỗi ngày chỉ bán một tiếng
                        Nằm sâu trong con hẻm nhỏ trên đường Lê Văn Sỹ quận Tân Bình, TP HCM, quán bún vịt chỉ phục vụ khách từ 15h30 và đóng hàng sau đó chừng một tiếng.
            Bắc Trung Bộ hút khách Thái Lan để vực dậy du lịchViệt Nam đứng top đầu khách chi tiêu nhiều nhất ở Nhật BảnKhông gian điện ảnh đẳng cấp tại Vinpearl Đà Nẵng
         Gửi bài viết về tòa soạn
        Quốc tế
         
                Những câu lạc bộ thoát y nóng bỏng nhất thế giới
                        Những cô nàng chân dài với thân hình đồng hồ cát, điệu nhảy khiêu gợi, đồ uống lạnh hảo hạng và điệu nhảy bốc lửa trong các câu lạc bộ thoát y luôn kích thích các giác quan của du khách.
            Bé gái Ấn Độ hồn nhiên tóm cổ rắn hổ mang chúaBí mật đáng sợ bên dưới hệ thống tàu điện ngầm LondonNgã xuống hồ nước nóng, du khách chết mất xác
        Ảnh
         
                             
            Đồi cỏ hồng Đà Lạt biến thành cỏ tuyết sau một đêm
            Tháng 11, những đồi cỏ hồng đẹp như tranh vẽ ở Đà Lạt là điểm đến hút khách. Bạn có thể khám phá nơi đây bằng cách cắm trại, ngủ lều trên cây và sáng thức giấc thấy đồi cỏ hồng trông như cỏ tuyết trắng xóa.
                                     
                Homestay nằm giữa hồ sen ở Ninh Bình
                                     
                Cặp đôi nắm tay nhau chụp ảnh ở 30 nước
        Video
         
            Du khách đứng tim vì voi chặn đầu xe
            Đoàn du khách được một phen hú hồn vì gặp đàn voi khi thăm một khu bảo tồn thiên nhiên tại châu Phi.
                Du khách la hét vì chơi tàu lượn dốc nhất thế giới
                Cả công viên 'nín thở' chờ du khách béo trượt máng
        Bình luận hay
        Xem nhiều nhất
    'Thời gian biểu' du lịch Việt Nam bốn mùa đều đẹpGóc tối của lễ hội phụ nữ khoe ngực trần tại Tây Ban NhaCặp du khách Trung Quốc quan hệ tình dục trong công viênCả công viên 'nín thở' chờ du khách béo trượt mángBí mật đáng sợ bên dưới hệ thống tàu điện ngầm LondonChàng tiên cá có thật giữa đời thường
		 
					Trang chủ
                         Đặt VnExpress làm trang chủ
                         Đặt VnExpress làm trang chủ
                         Về đầu trang
                     
								  Thời sự
								  Góc nhìn
								  Pháp luật
								  Giáo dục
								  Thế giới
								  Gia đình
								  Kinh doanh
							   Hàng hóa
							   Doanh nghiệp
							   Ebank
								  Giải trí
							   Giới sao
							   Thời trang
							   Phim
								  Thể thao
							   Bóng đá
							   Tennis
							   Các môn khác
								  Video
								  Ảnh
								  Infographics
								  Sức khỏe
							   Các bệnh
							   Khỏe đẹp
							   Dinh dưỡng
								  Du lịch
							   Việt Nam
							   Quốc tế
							   Cộng đồng
								  Khoa học
							   Môi trường
							   Công nghệ mới
							   Hỏi - đáp
								  Số hóa
							   Sản phẩm
							   Đánh giá
							   Đời sống số
								  Xe
							   Tư vấn
							   Thị trường
							   Diễn đàn
								  Cộng đồng
								  Tâm sự
								  Cười
								  Rao vặt
                    Trang chủThời sựGóc nhìnThế giớiKinh doanhGiải tríThể thaoPháp luậtGiáo dụcSức khỏeGia đìnhDu lịchKhoa họcSố hóaXeCộng đồngTâm sựVideoCườiRao vặt
                            © Copyright 1997 VnExpress.net,  All rights reserved
                            ® VnExpress giữ bản quyền nội dung trên website này.
                            VnExpress tuyển dụng   Liên hệ quảng cáo  / Liên hệ Tòa soạn
                            Thông tin Tòa soạn.0123.888.0123 (HN) - 0129.233.3555 (TP HCM)
                                     Liên hệ Tòa soạn
                                     Thông tin Tòa soạn
                                    0123.888.0123 (HN) 
                                    0129.233.3555 (TP HCM)
                                © Copyright 1997 VnExpress.net,  All rights reserved
                                ® VnExpress giữ bản quyền nội dung trên website này.
                     
         
