url:http://dulich.vnexpress.net/tin-tuc/viet-nam/vietravel-gioi-thieu-thang-canh-da-nang-cho-doan-the-thao-3472277.html
Tittle :Vietravel giới thiệu thắng cảnh Đà Nẵng cho đoàn thể thao - VnExpress Du lịch
content : 
                     Trang chủ Thời sự Góc nhìn Thế giới Kinh doanh Giải trí Thể thao Pháp luật Giáo dục Sức khỏe Gia đình Du lịch Khoa học Số hóa Xe Cộng đồng Tâm sự Rao vặt Video Ảnh  Cười 24h qua Liên hệ Tòa soạn Thông tin Tòa soạn
                            © Copyright 1997- VnExpress.net, All rights reserved
                            ® VnExpress giữ bản quyền nội dung trên website này.
                         Hotline:
                            0123.888.0123 (Hà Nội) 
                            0129.233.3555 (TP HCM) 
                                    Thế giớiPháp luậtXã hộiKinh doanhGiải tríÔ tô - Xe máy Thể thaoSố hóaGia đình
                         
                     
                    Thời sựThế giớiKinh doanhGiải tríThể thaoPháp luậtGiáo dụcSức khỏeGia đìnhDu lịchKhoa họcSố hóaXeCộng đồngTâm sựVideoCườiRao vặt
    Việt NamQuốc tếCộng đồngẢnh
                Các địa danh khác
		        24h qua
            Du lịch Việt Nam 
                                        Du Lịch 
                                        Việt Nam 
                                        Các địa danh
                                 
                                Việt NamQuốc tếCộng đồngẢnh
						Thứ năm, 22/9/2016 | 16:30 GMT+7
|
						Vietravel giới thiệu thắng cảnh Đà Nẵng cho đoàn thể thao												
					Địa điểm phục vụ lưu trú đã kiểm tra chất lượng, đồng thời thành phố còn tổ chức nhiều hoạt động văn hóa - ẩm thực để các đoàn thể thao tìm hiểu về sông Hàn.
	Từ 24/9 đến 3/10, Đại hội Thể thao Bãi biển châu Á lần V năm 2016 (Asia Beach Games - ABG 5) sẽ diễn ra tại thành phố Đà Nẵng. Sự kiện là dịp phát triển các môn thể thao bãi biển và cơ hội để quảng bá hình ảnh du lịch Đà Nẵng. Vietravel là công ty du lịch duy nhất đảm nhận dịch vụ vận chuyển cho đại hội.
	Hiện thành phố Đà Nẵng sẵn sàng cho ABG 5 diễn ra thuận lợi và thành công. Cơ sở vật chất phục vụ cho đại hội đã hoàn thành đúng tiến độ, sẽ có một lễ khai mạc hoành tráng diễn ra tại đây. Các địa điểm phục vụ lưu trú đã kiểm tra chất lượng, đồng thời thành phố còn tổ chức nhiều hoạt động văn hóa - ẩm thực nhằm tạo điều kiện cho các đoàn thể thao tìm hiểu thành phố sông Hàn. 1.530 tình nguyện viên giỏi ngoại ngữ, am hiểu văn hóa đã sẵn sàng chào đón các đoàn thể thao.
					Thành phố Đà Nẵng sẽ là nơi diễn ra Đại hội Thể thao Bãi biển châu Á lần V.
					Công ty Du lịch Vietravel: 190 Pasteur, phường 6, quận 3, TP HCM. Tel: (08) 3822 8898; Vietravel - chi nhánh Hà Nội - số 3 Hai Bà Trưng, quận Hoàn Kiếm. Tel: 04. 3933 1978. Website.
	Nhiều tháng trước khi ABG 5 khai mạc, Vietravel đã chuẩn bị đầy đủ mọi công tác vận chuyển cho đại hội, từ việc điều động xe đến công tác điều hành, quản lý và theo dõi sát sao lộ trình để kịp thời thay đổi tùy theo tình hình thực tế. Với kinh nghiệm tổ chức thành công tại nhiều sự kiện lớn cùng lượng xe lớn, đa dạng và cùng đội ngũ nhân viên tận tâm, giàu kinh nghiệm, Vietravel tin tưởng sẽ đáp ứng một cách tốt nhất mọi nhu cầu vận chuyển tại đại hội lần này.
	Asia Beach Game - ABG tổ chức hai năm một lần theo sáng kiến của hội đồng Olympic châu Á (OCA). Dự kiến, đại hội sẽ đón khoảng 4.600 huấn luyện viên, vận động viên từ 45 đoàn thể thao quốc gia và vùng lãnh thổ tham gia tranh tài trong 14 môn thi đấu.
	Mai Thương                        
									Gửi bài viết chia sẻ tại đây hoặc về dulich@vnexpress.net
                                                Khách sạn509Nhà hàng63Tham quan365Giải trí82Mua sắm27                        
				Tin liên quan
							Đà Nẵng chấp nhận giảm lượng khách vì môi trường du lịch  (11/8/2016)
							Vietravel tặng 100 triệu đồng cho nhà vô địch Olympia 2016 (24/8/2016)
							Đà Nẵng được phép lập cảnh sát du lịch  (29/8/2016)
							Vietravel khai thác thành công 7 chuyến bay Vinh - Bangkok (29/7/2016)
            Xem nhiều nhất
                            Anh Tây đi bộ khắp thế giới mê mẩn núi rừng Việt Nam
                                                             
                                Việt Nam đứng top đầu khách chi tiêu nhiều nhất ở Nhật Bản
                                                                     
                                Thủ tướng chỉ ra 3 giải pháp để phát triển du lịch
                                                                     
                                Những món đồ không thể thiếu khi đi du lịch cuối năm
                                Vị đậm đà tinh tế trong món gà sốt tiêu tỏi
                 
                Tags
                                    Vietravel
                                Công ty Du lịch Vietravel
                                Asia Beach Games - ABG 5
                                Đại hội thể thao
    Tin Khác
                                                     
                            Quán bún măng vịt mỗi ngày chỉ bán một tiếng
                                                             
                            Bắc Trung Bộ hút khách Thái Lan để vực dậy du lịch
                                                             
                            Việt Nam đứng top đầu khách chi tiêu nhiều nhất ở Nhật Bản
                                                             
                            Không gian điện ảnh đẳng cấp tại Vinpearl Đà Nẵng
                                    Đầm Sen ưu đãi ngày Nhà giáo Việt Nam
                                    Đồi cỏ hồng Đà Lạt biến thành cỏ tuyết sau một đêm
                                                                             
                                    Hoàng tử Anh ăn đêm bên Hồ Gươm
                                    Những món đồ không thể thiếu khi đi du lịch cuối năm
                                    Khu cắm trại giữa rừng dương cách Sài Gòn 3 giờ chạy xe
                                                                             
                                    'Vua đầu bếp' để khách tự sáng tạo món ăn
                                                                             
                                    Thủ tướng chỉ ra 3 giải pháp để phát triển du lịch
                                                                             
                                    Anh Tây đi bộ khắp thế giới mê mẩn núi rừng Việt Nam
                                                                             
                                    Vị đậm đà tinh tế trong món gà sốt tiêu tỏi
                                    Món ăn đặc trưng trong ngày lễ Tạ ơn
        Khuyến mãi Du lịch
		  prev
		   next
                                Tour ngắm hoa tam giác mạch từ 1,99 triệu đồng
                                        1,990,000 đ 2,390,000 đ
                                        08/10/2016 - 30/11/2016                                    
                                                                Danh Nam Travel đưa du khách đi ngắm hoa tam giác mạch tại Hà Giang 3 ngày 2 đêm với giá trọn gói từ 1,99 triệu đồng.
                                Vietrantour tặng 10 triệu đồng tour Nam Phi 8 ngày
                                        49,900,000 đ 59,900,000 đ
                                        21/10/2016 - 01/12/2016                                    
                                                                Tour 8 ngày Johannesburg - Sun City - Pretoria - Capetown, bay hàng không 5 sao Qatar Airways, giá chỉ 49,99 triệu đồng.
                                Tour Hải Nam, Trung Quốc 5 ngày giá từ 7,99 triệu đồng
                                        7,990,000 đ 9,990,000 đ
                                        19/10/2016 - 07/12/2016                                    
                                                                Hành trình 5 ngày Hải Khẩu - Hưng Long - Tam Á khởi hành ngày 1, 8, 15, 22, 29/11 và 6, 13, 20, 27/12, giá từ 7,99 triệu đồng.
                                Tour Phú Quốc - Vinpearl Land gồm vé máy bay từ 2,9 triệu đồng
                                        2,999,000 đ 4,160,000 đ
                                        16/11/2016 - 30/12/2016                                    
                                                                Hành trình trọn gói và Free and Easy tới Phú Quốc với nhiều lựa chọn hấp dẫn cùng khuyến mại dịp cuối năm dành cho 
                                Tour Campuchia 4 ngày giá chỉ 8,7 triệu đồng
                                        8,700,000 đ 10,990,000 đ
                                        02/11/2016 - 26/01/2017                                    
                                                                Hành trình Phnom Penh - Siem Reap 4 ngày, bay hãng hàng không quốc gia Cambodia Angkor Air, giá chỉ 8,7 triệu đồng.
                                Giảm hơn 2 triệu đồng tour Nhật Bản 6 ngày 5 đêm
                                        33,800,000 đ 35,990,000 đ
                                        01/10/2016 - 31/12/2016                                    
                                                                Hongai Tours đưa du khách khám phá xứ Phù Tang mùa lá đỏ theo hành trình Nagoya - Nara - Osaka - Kyoto - núi Phú Sĩ - Tokyo.
                                Tour Nhật Bản đón năm mới giá chỉ 28,9 triệu đồng
                                        28,900,000 đ 35,900,000 đ
                                        17/11/2016 - 14/12/2016                                    
                                                                Hành trình sẽ đưa du khách đến cầu may đầu xuân ở đền Kotohira Shrine, mua sắm hàng hiệu giá rẻ dưới lòng đất, tham 
        Quốc tế
         
                Những câu lạc bộ thoát y nóng bỏng nhất thế giới
                        Những cô nàng chân dài với thân hình đồng hồ cát, điệu nhảy khiêu gợi, đồ uống lạnh hảo hạng và điệu nhảy bốc lửa trong các câu lạc bộ thoát y luôn kích thích các giác quan của du khách.
            Bé gái Ấn Độ hồn nhiên tóm cổ rắn hổ mang chúaBí mật đáng sợ bên dưới hệ thống tàu điện ngầm LondonNgã xuống hồ nước nóng, du khách chết mất xác
         Gửi bài viết về tòa soạn
        Ẩm thực
         
                             
            Quán bún măng vịt mỗi ngày chỉ bán một tiếng
            Nằm sâu trong con hẻm nhỏ trên đường Lê Văn Sỹ quận Tân Bình, TP HCM, quán bún vịt chỉ phục vụ khách từ 15h30 và đóng hàng sau đó chừng một tiếng.
                Vợ chồng Thu Phương nếm 'bún chửi' Hà Nội
                'Vua đầu bếp' để khách tự sáng tạo món ăn
        Cộng đồng
         
                'Thời gian biểu' du lịch Việt Nam bốn mùa đều đẹp
                        Hãy lên kế hoạch du lịch đúng thời điểm cho năm mới dựa theo lịch trình du lịch khắp miền đất nước.
            Du khách đứng tim vì voi chặn đầu xe5 vùng đất Samurai nổi tiếng của Nhật BảnĐồi cỏ hồng Đà Lạt biến thành cỏ tuyết sau một đêm
        Ảnh
         
                             
            Chùa 've chai' nắm giữ nhiều kỷ lục ở Đà Lạt
            Tên gọi “ve chai” của chùa Linh Phước (Đà Lạt) xuất phát từ việc hầu hết chi tiết trang trí ở đây đều dùng mảnh sành, sứ hay vỏ chai tạo nên.
                                     
                Ngày Tết du ngoạn Thiền viện Trúc Lâm Tây Thiên
                                     
                Những ngôi nhà mái rạ ở 'thủ phủ' gạo tám
        Video
         
            Du khách la hét vì chơi tàu lượn dốc nhất thế giới
            Tàu lượn Takabisha (Nhật Bản) có độ dốc lên tới 121 độ, vận tốc tối đa đạt 160 km/h khiến người chơi như đứng tim khi nhiều đường ray thẳng đứng, tàu như rơi tự do.
                Cả công viên 'nín thở' chờ du khách béo trượt máng
                Cảnh đẹp ngoạn mục trên khắp nẻo đường Na Uy
        Điểm đến yêu thích                
                    Kế hoạch 4 ngày khám phá đảo thiên đường ở Campuchia                
                    Những món ngon nên thử của Phú Quốc                
                    Khách du lịch được mời dùng toilet miễn phí ở Đà Nẵng                
                    Chuyến bay Cần Thơ - Đà Lạt chỉ mất một giờ                
                    Những cây cầu có tên gọi độc đáo ở miền Tây                
		Liên kết du lịch
					Trang chủ
                         Đặt VnExpress làm trang chủ
                         Đặt VnExpress làm trang chủ
                         Về đầu trang
                     
								  Thời sự
								  Góc nhìn
								  Pháp luật
								  Giáo dục
								  Thế giới
								  Gia đình
								  Kinh doanh
							   Hàng hóa
							   Doanh nghiệp
							   Ebank
								  Giải trí
							   Giới sao
							   Thời trang
							   Phim
								  Thể thao
							   Bóng đá
							   Tennis
							   Các môn khác
								  Video
								  Ảnh
								  Infographics
								  Sức khỏe
							   Các bệnh
							   Khỏe đẹp
							   Dinh dưỡng
								  Du lịch
							   Việt Nam
							   Quốc tế
							   Cộng đồng
								  Khoa học
							   Môi trường
							   Công nghệ mới
							   Hỏi - đáp
								  Số hóa
							   Sản phẩm
							   Đánh giá
							   Đời sống số
								  Xe
							   Tư vấn
							   Thị trường
							   Diễn đàn
								  Cộng đồng
								  Tâm sự
								  Cười
								  Rao vặt
                    Trang chủThời sựGóc nhìnThế giớiKinh doanhGiải tríThể thaoPháp luậtGiáo dụcSức khỏeGia đìnhDu lịchKhoa họcSố hóaXeCộng đồngTâm sựVideoCườiRao vặt
                            © Copyright 1997 VnExpress.net,  All rights reserved
                            ® VnExpress giữ bản quyền nội dung trên website này.
                            VnExpress tuyển dụng   Liên hệ quảng cáo  / Liên hệ Tòa soạn
                            Thông tin Tòa soạn.0123.888.0123 (HN) - 0129.233.3555 (TP HCM)
                                     Liên hệ Tòa soạn
                                     Thông tin Tòa soạn
                                    0123.888.0123 (HN) 
                                    0129.233.3555 (TP HCM)
                                © Copyright 1997 VnExpress.net,  All rights reserved
                                ® VnExpress giữ bản quyền nội dung trên website này.
                     
         
