url:http://dulich.vnexpress.net/photo/anh-video/du-khach-trong-cay-cat-co-de-o-homestay-mien-phi-tai-da-lat-3498080.html?utm_campaign=boxtracking&utm_medium=box_relatedtop&utm_source=detail
Tittle :Du khách trồng cây, cắt cỏ để ở homestay miễn phí tại Đà Lạt - VnExpress Du lịch
content : 
                     Trang chủ Thời sự Góc nhìn Thế giới Kinh doanh Giải trí Thể thao Pháp luật Giáo dục Sức khỏe Gia đình Du lịch Khoa học Số hóa Xe Cộng đồng Tâm sự Rao vặt Video Ảnh  Cười 24h qua Liên hệ Tòa soạn Thông tin Tòa soạn
                            © Copyright 1997- VnExpress.net, All rights reserved
                            ® VnExpress giữ bản quyền nội dung trên website này.
                         Hotline:
                            0123.888.0123 (Hà Nội) 
                            0129.233.3555 (TP HCM) 
                                    Thế giớiPháp luậtXã hộiKinh doanhGiải tríÔ tô - Xe máy Thể thaoSố hóaGia đình
                         
                     
                    Thời sựThế giớiKinh doanhGiải tríThể thaoPháp luậtGiáo dụcSức khỏeGia đìnhDu lịchKhoa họcSố hóaXeCộng đồngTâm sựVideoCườiRao vặt
    Việt NamQuốc tếCộng đồngẢnh
		        24h qua
            Du lịch Ảnh 
                                        Du Lịch 
                                        Ảnh 
                                 
                                Việt NamQuốc tếCộng đồngẢnh
                            Thứ hai, 14/11/2016 | 08:38 GMT+7                        
|
                        Du khách trồng cây, cắt cỏ để ở homestay miễn phí tại Đà Lạt                                                
                    Căn nhà gỗ giữa đồi thông cho khách ở miễn phí. Đổi lại, bạn cần trồng cây hoặc cắt cỏ, tự nấu ăn và dọn dẹp.
                                5 hostel đẹp giá không tới 200.000 đồng một người ở Đà Lạt
                                Những chỗ ăn chơi mới nổi ở Đà Lạt
                                             
	Homestay cho khách ở miễn phí là ngôi nhà gỗ nằm trên ngọn đồi nhỏ, xung quanh là cây cối, đồi thông, cách Đà Lạt hơn 10 km. Chủ nhà là một chàng trai Sài Gòn mê xê dịch, vừa kết thúc chuyến vi vu châu Phi, mở căn nhà để giao lưu, kết nối những người yêu du lịch và gần gũi thiên nhiên chứ không kinh doanh.
                                                                                 
                                             
	Tầng một là phòng dorm có 6 giường tầng, nội thất đơn giản nhưng luôn đủ chăn, đệm để cho khách lưu lại. Tầng gác mái có thể ở tập thể.
                                                                                 
                                             
	Khách được ở miễn phí, chọn một trong hai việc để đóng góp vào không gian nơi đây: trồng một cây xanh hoặc cắt cỏ trong 30 phút. Khi trả phòng cũng cần đem tấm ga giường giặt sạch và lau nhà để người đến sau ở.
                                                                                 
                                             
	Cách bài trí của căn nhà khá mộc mạc. Những bình hoa dại, hoa dã quỳ là điểm nhấn.
                                                                                 
                                             
	Khách ở tại đây sẽ nấu nướng, ăn chung, rau sạch được trồng ở vườn, và  mua nguyên liệu ở Đà Lạt trước khi vào khu homestay để chuẩn bị bữa BBQ ấm cúng.
                                                                                 
                                             
	Vì là ngôi nhà chung nên du khách được yêu cầu có ý thức, giữ yên lặng vừa đủ, không gian sạch sẽ. Khách đến đây thường dành nhiều thời gian cho việc gần gũi thiên nhiên, trồng rau làm vườn cùng chủ nhà.
                                                                                 
                                             
	Khi căn nhà đã kín chỗ, bạn có thể được sắp xếp ngủ lều trên cây, khá hoang dã và thú vị.
                                                                                 
                                             
	Lưu ý, đây là căn nhà tách biệt trong rừng, nên bạn cần đến đây trước khi trời tối, mua đủ đồ ăn, nước uống. Đường vào hơi khó, nên xem kỹ bản đồ hoặc gọi chủ nhà chỉ đường.
                                                                                 
	Ảnh: Trung Phạm
                                    Má Lúm
                                                                              |  
                Khám phá Đà Lạt mộng mơ
                    Đồi cỏ hồng Đà Lạt biến thành cỏ tuyết sau một đêm (18/11)
                                             
                    3 loài hoa dại khiến phượt thủ lên Đà Lạt tháng 11 (4/11)
                                             
                    Những quán cà phê với tay như chạm được mây (2/11)
                                             
                    5 hostel đẹp giá không tới 200.000 đồng một người ở Đà Lạt (12/10)
                                             
                    Bún bò Huế - món ngon cho bữa sáng ở Đà Lạt (9/10)
                                             
                Xem thêm
                         
                Ý kiến bạn đọc (0) 
                Mới nhất | Quan tâm nhất
                Mới nhấtQuan tâm nhất
            Xem thêm
                        Ý kiến của bạn
                            20/1000
                                    Tắt chia sẻĐăng xuất
                         
                                Ý kiến của bạn
                                20/1000
                                 
                        Tags
                                                    Homestay
                                                    Đà Lạt
                                                    Miễn phí
                                                    Du lịch Đà Lạt
                                                    Phòng dorm
                                                    Khách sạn đà lạt
    Tin Khác
                                                     
                            Diễm My ăn trưa, trồng rau cùng người dân Hội An
                                                             
                                                     
                            Khu ổ chuột đầy rẫy tội phạm một thời ở Hong Kong
                                                             
                                                     
                            Góc tối của lễ hội phụ nữ khoe ngực trần tại Tây Ban Nha
                                                             
                            Những bữa tiệc 'nóng mắt' với bong bóng xà phòng
                                                             
                                    Đồi cỏ hồng Đà Lạt biến thành cỏ tuyết sau một đêm
                                                                             
                                    Vợ chồng Thu Phương nếm 'bún chửi' Hà Nội
                                                                             
                                    'Vườn thú người' - vết nhơ trong lịch sử châu Âu
                                                                             
                                    Vẻ đẹp của thị trấn nơi William và Kate gặp nhau
                                                                             
                                    Khu cắm trại giữa rừng dương cách Sài Gòn 3 giờ chạy xe
                                                                             
                                    Vẻ đẹp thơ mộng mùa lá đỏ Nhật Bản
                                                                             
                                    Bên trong thị trấn ma lớn nhất thế giới ở quê hương Thành Cát Tư Hãn
                                                                             
                                    Cô gái bị fan cuồng sao y bản chính khi đi du lịch
                                                                             
                                    Quang Vinh khám phá hai mặt đối lập của Sài Gòn
                                                                             
                                    Bảo tàng áo dài tư nhân duy nhất ở Sài Gòn
                                                                             
        Khuyến mãi Du lịch
		  prev
		   next
                                Tour Nhật Bản đón năm mới giá chỉ 28,9 triệu đồng
                                        28,900,000 đ 35,900,000 đ
                                        17/11/2016 - 14/12/2016                                    
                                                                Hành trình sẽ đưa du khách đến cầu may đầu xuân ở đền Kotohira Shrine, mua sắm hàng hiệu giá rẻ dưới lòng đất, tham 
                                Tour Phú Quốc - Vinpearl Land gồm vé máy bay từ 2,9 triệu đồng
                                        2,999,000 đ 4,160,000 đ
                                        16/11/2016 - 30/12/2016                                    
                                                                Hành trình trọn gói và Free and Easy tới Phú Quốc với nhiều lựa chọn hấp dẫn cùng khuyến mại dịp cuối năm dành cho 
                                Tour Hải Nam, Trung Quốc 5 ngày giá từ 7,99 triệu đồng
                                        7,990,000 đ 9,990,000 đ
                                        19/10/2016 - 07/12/2016                                    
                                                                Hành trình 5 ngày Hải Khẩu - Hưng Long - Tam Á khởi hành ngày 1, 8, 15, 22, 29/11 và 6, 13, 20, 27/12, giá từ 7,99 triệu đồng.
                                Tour ngắm hoa tam giác mạch từ 1,99 triệu đồng
                                        1,990,000 đ 2,390,000 đ
                                        08/10/2016 - 30/11/2016                                    
                                                                Danh Nam Travel đưa du khách đi ngắm hoa tam giác mạch tại Hà Giang 3 ngày 2 đêm với giá trọn gói từ 1,99 triệu đồng.
                                Vietrantour tặng 10 triệu đồng tour Nam Phi 8 ngày
                                        49,900,000 đ 59,900,000 đ
                                        21/10/2016 - 01/12/2016                                    
                                                                Tour 8 ngày Johannesburg - Sun City - Pretoria - Capetown, bay hàng không 5 sao Qatar Airways, giá chỉ 49,99 triệu đồng.
                                Giảm hơn 2 triệu đồng tour Nhật Bản 6 ngày 5 đêm
                                        33,800,000 đ 35,990,000 đ
                                        01/10/2016 - 31/12/2016                                    
                                                                Hongai Tours đưa du khách khám phá xứ Phù Tang mùa lá đỏ theo hành trình Nagoya - Nara - Osaka - Kyoto - núi Phú Sĩ - Tokyo.
                                Tour Campuchia 4 ngày giá chỉ 8,7 triệu đồng
                                        8,700,000 đ 10,990,000 đ
                                        02/11/2016 - 26/01/2017                                    
                                                                Hành trình Phnom Penh - Siem Reap 4 ngày, bay hãng hàng không quốc gia Cambodia Angkor Air, giá chỉ 8,7 triệu đồng.
        Xem nhiều nhất
    Góc tối của lễ hội phụ nữ khoe ngực trần tại Tây Ban NhaCặp du khách Trung Quốc quan hệ tình dục trong công viênCả công viên 'nín thở' chờ du khách béo trượt mángBí mật đáng sợ bên dưới hệ thống tàu điện ngầm LondonChàng tiên cá có thật giữa đời thường
					Trang chủ
                         Đặt VnExpress làm trang chủ
                         Đặt VnExpress làm trang chủ
                         Về đầu trang
                     
								  Thời sự
								  Góc nhìn
								  Pháp luật
								  Giáo dục
								  Thế giới
								  Gia đình
								  Kinh doanh
							   Hàng hóa
							   Doanh nghiệp
							   Ebank
								  Giải trí
							   Giới sao
							   Thời trang
							   Phim
								  Thể thao
							   Bóng đá
							   Tennis
							   Các môn khác
								  Video
								  Ảnh
								  Infographics
								  Sức khỏe
							   Các bệnh
							   Khỏe đẹp
							   Dinh dưỡng
								  Du lịch
							   Việt Nam
							   Quốc tế
							   Cộng đồng
								  Khoa học
							   Môi trường
							   Công nghệ mới
							   Hỏi - đáp
								  Số hóa
							   Sản phẩm
							   Đánh giá
							   Đời sống số
								  Xe
							   Tư vấn
							   Thị trường
							   Diễn đàn
								  Cộng đồng
								  Tâm sự
								  Cười
								  Rao vặt
                    Trang chủThời sựGóc nhìnThế giớiKinh doanhGiải tríThể thaoPháp luậtGiáo dụcSức khỏeGia đìnhDu lịchKhoa họcSố hóaXeCộng đồngTâm sựVideoCườiRao vặt
                            © Copyright 1997 VnExpress.net,  All rights reserved
                            ® VnExpress giữ bản quyền nội dung trên website này.
                            VnExpress tuyển dụng   Liên hệ quảng cáo  / Liên hệ Tòa soạn
                            Thông tin Tòa soạn.0123.888.0123 (HN) - 0129.233.3555 (TP HCM)
                                     Liên hệ Tòa soạn
                                     Thông tin Tòa soạn
                                    0123.888.0123 (HN) 
                                    0129.233.3555 (TP HCM)
                                © Copyright 1997 VnExpress.net,  All rights reserved
                                ® VnExpress giữ bản quyền nội dung trên website này.
                     
         
