url:http://dulich.vnexpress.net/tin-tuc/quoc-te/doi-nuoc-lau-vao-nguoi-khach-nhan-vien-nha-hang-chiu-an-tu-3495251.html?utm_campaign=boxtracking&utm_medium=box_topic&utm_source=detail
Tittle :Dội nước lẩu vào người khách, nhân viên nhà hàng chịu án tù - VnExpress Du lịch
content : 
                     Trang chủ Thời sự Góc nhìn Thế giới Kinh doanh Giải trí Thể thao Pháp luật Giáo dục Sức khỏe Gia đình Du lịch Khoa học Số hóa Xe Cộng đồng Tâm sự Rao vặt Video Ảnh  Cười 24h qua Liên hệ Tòa soạn Thông tin Tòa soạn
                            © Copyright 1997- VnExpress.net, All rights reserved
                            ® VnExpress giữ bản quyền nội dung trên website này.
                         Hotline:
                            0123.888.0123 (Hà Nội) 
                            0129.233.3555 (TP HCM) 
                                    Thế giớiPháp luậtXã hộiKinh doanhGiải tríÔ tô - Xe máy Thể thaoSố hóaGia đình
                         
                     
                    Thời sựThế giớiKinh doanhGiải tríThể thaoPháp luậtGiáo dụcSức khỏeGia đìnhDu lịchKhoa họcSố hóaXeCộng đồngTâm sựVideoCườiRao vặt
    Việt NamQuốc tếCộng đồngẢnh
                Các địa danh khác
		        24h qua
            Du lịch Quốc tế 
                                        Du Lịch 
                                        Quốc tế 
                                        Các địa danh
                                 
                                Việt NamQuốc tếCộng đồngẢnh
						Thứ hai, 7/11/2016 | 14:26 GMT+7
|
						Dội nước lẩu vào người khách, nhân viên nhà hàng chịu án tù												
					Lin bị nhân viên nhà hàng ở Trung Quốc dội nguyên nồi nước nóng vào người sau khi viết lời phàn nàn phục vụ kém lên trang cá nhân vì xin thêm nước lẩu nhưng không được.
					Khách 'ăn bao nhiêu, trả tiền tùy ý', nhà hàng lỗ nặng  /  Chờ phục vụ quá lâu, đôi vợ chồng vẫn boa 100 USD                    
	Toà án thành phố Ôn Châu, tỉnh Chiết Giang, Trung Quốc mới đây đã ra phán quyết cho một sự cố gây sốc xảy ra hồi cuối tháng 8/2015. Một phụ nữ tên Lin cùng mẹ và cô con gái 7 tuổi tới ăn tối tại một nhà hàng lẩu trong thành phố. Suốt bữa ăn, Lin đã nảy sinh mâu thuẫn với một nhân viên phục vụ tên Zhu khi xin thêm nước dùng cho nồi lẩu nhưng không được đáp ứng.
					Cô Lin trong tình trạng bỏng 42%. Ảnh: Shanghailist.
	Quá bức xúc, cô than phiền trên trang blog cá nhân về chất lượng dịch vụ quá kém của nhà hàng. Zhu giận dữ yêu cầu Lin xoá bài viết nhưng cô không đồng ý. Để đáp trả, Zhu vào bếp lấy một hộp nước lẩu nóng và dội thẳng lên đầu Lin, sau đó kéo cô xuống đất và đánh đập liên tiếp. Lin ngay lập tức được đưa tới bệnh viện trong tình trạng bỏng nặng lên tới 42% cơ thể.
	Sự việc được đưa ra xét xử lần đầu vào tháng 1/2016. Toà án quận Lucheng kết án Zhu 22 tháng tù. Đây là mức án đã hưởng khoan hồng do vào thời điểm xảy ra sự việc, Zhu mới 17 tuổi. Không hài lòng với phán quyết, cô Lin kháng cáo lên toà án thành phố Ôn Châu đòi bồi thường 577.500 nhân dân tệ (1,9 tỷ đồng) cho những tổn thương cô phải chịu đựng suốt thời gian qua. Ngày 3/11, toà ra phán quyết cuối cùng, yêu cầu nhà hàng bồi thường 237.000 nhân dân tệ (778 triệu đồng) vì trước đó đã chi trả toàn bộ viện phí cho Lin, theo Sina News.
	Đoạn clip ghi lại cảnh Lin bị tấn công:
		 Xem thêm: Khách ăn đỉa sống trong nhà hàng Trung Quốc
                                    Hải Thu
                                                                              |  
									Gửi bài viết chia sẻ tại đây hoặc về dulich@vnexpress.net
                                                Khách sạn45Nhà hàng29Tham quan459Giải trí34Mua sắm30                        
                Những câu chuyện xoay quanh nhà hàng
                    Nhà hàng cấm cửa thực khách vì bình luận không tốt (18/11)
                                             
                    Trăn khổng lồ rơi xuống từ trần xốp, nhà hàng náo loạn (15/11)
                                             
                    Nỗi sợ hãi của người mẫu sushi khoả thân ở New York (11/11)
                                             
                    Nhà hàng bị phạt 1,3 triệu USD vì dùng bàn chải rẻ tiền (4/11)
                                             
                    Ngón chân người giá 2.500 USD trong ly cocktail (1/11)
                                             
                Xem thêm
            Xem nhiều nhất
                            Cây 'đi tiểu' như người tại Đức
                                                             
                                Du khách thoát chết khi ngã ngựa ngay trước mặt sư tử
                                                                     
                                Những câu lạc bộ thoát y nóng bỏng nhất thế giới
                                                                     
                                Ngã xuống hồ nước nóng, du khách chết mất xác
                                                                     
                                Bé gái Ấn Độ hồn nhiên tóm cổ rắn hổ mang chúa
                                                                     
                 
                Ý kiến bạn đọc (0) 
                Mới nhất | Quan tâm nhất
                Mới nhấtQuan tâm nhất
            Xem thêm
                        Ý kiến của bạn
                            20/1000
                                    Tắt chia sẻĐăng xuất
                         
                                Ý kiến của bạn
                                20/1000
                                 
                Tags
                                    Nhà hàng
                                Nồi lẩu
                                Đánh khách
                                Nước lẩu
                                Nóng bỏng
                                Bỏng nặng
                                Khách trung quốc
    Tin Khác
                            Những câu lạc bộ thoát y nóng bỏng nhất thế giới
                                                             
                            Bé gái Ấn Độ hồn nhiên tóm cổ rắn hổ mang chúa
                                                             
                            Bí mật đáng sợ bên dưới hệ thống tàu điện ngầm London
                                                             
                            Ngã xuống hồ nước nóng, du khách chết mất xác
                                                             
                                    Pokemon khổng lồ xuất hiện ở sân bay Changi
                                                                             
                                    Những bữa tiệc 'nóng mắt' với bong bóng xà phòng
                                                                             
                                    Du khách giết vợ để cặp kè gái bán hoa ở Thái Lan bị bỏ tù
                                                                             
                                    Cô gái phải nộp phạt 30.000 USD sau khi bị cưỡng bức
                                                                             
                                    Du khách la hét vì chơi tàu lượn dốc nhất thế giới
                                                                             
                                    Nhà hàng cấm cửa thực khách vì bình luận không tốt
                                                                             
                                    Ngôi nhà không thích đàn ông ở Mỹ
                                                                             
                                    Cây 'đi tiểu' như người tại Đức
                                                                             
                                    Du khách thoát chết khi ngã ngựa ngay trước mặt sư tử
                                                                             
                                    Du khách trộm 2.500 bông hoa ở Disneyland Trung Quốc để bán
                                                                             
        Khuyến mãi Du lịch
		  prev
		   next
                                Tour Hải Nam, Trung Quốc 5 ngày giá từ 7,99 triệu đồng
                                        7,990,000 đ 9,990,000 đ
                                        19/10/2016 - 07/12/2016                                    
                                                                Hành trình 5 ngày Hải Khẩu - Hưng Long - Tam Á khởi hành ngày 1, 8, 15, 22, 29/11 và 6, 13, 20, 27/12, giá từ 7,99 triệu đồng.
                                Tour Phú Quốc - Vinpearl Land gồm vé máy bay từ 2,9 triệu đồng
                                        2,999,000 đ 4,160,000 đ
                                        16/11/2016 - 30/12/2016                                    
                                                                Hành trình trọn gói và Free and Easy tới Phú Quốc với nhiều lựa chọn hấp dẫn cùng khuyến mại dịp cuối năm dành cho 
                                Tour ngắm hoa tam giác mạch từ 1,99 triệu đồng
                                        1,990,000 đ 2,390,000 đ
                                        08/10/2016 - 30/11/2016                                    
                                                                Danh Nam Travel đưa du khách đi ngắm hoa tam giác mạch tại Hà Giang 3 ngày 2 đêm với giá trọn gói từ 1,99 triệu đồng.
                                Tour Nhật Bản đón năm mới giá chỉ 28,9 triệu đồng
                                        28,900,000 đ 35,900,000 đ
                                        17/11/2016 - 14/12/2016                                    
                                                                Hành trình sẽ đưa du khách đến cầu may đầu xuân ở đền Kotohira Shrine, mua sắm hàng hiệu giá rẻ dưới lòng đất, tham 
                                Giảm hơn 2 triệu đồng tour Nhật Bản 6 ngày 5 đêm
                                        33,800,000 đ 35,990,000 đ
                                        01/10/2016 - 31/12/2016                                    
                                                                Hongai Tours đưa du khách khám phá xứ Phù Tang mùa lá đỏ theo hành trình Nagoya - Nara - Osaka - Kyoto - núi Phú Sĩ - Tokyo.
                                Tour Campuchia 4 ngày giá chỉ 8,7 triệu đồng
                                        8,700,000 đ 10,990,000 đ
                                        02/11/2016 - 26/01/2017                                    
                                                                Hành trình Phnom Penh - Siem Reap 4 ngày, bay hãng hàng không quốc gia Cambodia Angkor Air, giá chỉ 8,7 triệu đồng.
                                Vietrantour tặng 10 triệu đồng tour Nam Phi 8 ngày
                                        49,900,000 đ 59,900,000 đ
                                        21/10/2016 - 01/12/2016                                    
                                                                Tour 8 ngày Johannesburg - Sun City - Pretoria - Capetown, bay hàng không 5 sao Qatar Airways, giá chỉ 49,99 triệu đồng.
        Việt Nam
         
                Quán bún măng vịt mỗi ngày chỉ bán một tiếng
                        Nằm sâu trong con hẻm nhỏ trên đường Lê Văn Sỹ quận Tân Bình, TP HCM, quán bún vịt chỉ phục vụ khách từ 15h30 và đóng hàng sau đó chừng một tiếng.
            Bắc Trung Bộ hút khách Thái Lan để vực dậy du lịchViệt Nam đứng top đầu khách chi tiêu nhiều nhất ở Nhật BảnKhông gian điện ảnh đẳng cấp tại Vinpearl Đà Nẵng
         Gửi bài viết về tòa soạn
        Ẩm thực
         
            Vợ chồng Thu Phương nếm 'bún chửi' Hà Nội
            Bà chủ quán rất vui vẻ chào đón nhóm của nữ ca sĩ ngay cả khi quán kín chỗ ngồi, dù vừa mở cửa.
                'Vua đầu bếp' để khách tự sáng tạo món ăn
                Vị đậm đà tinh tế trong món gà sốt tiêu tỏi
        Cộng đồng
         
                'Thời gian biểu' du lịch Việt Nam bốn mùa đều đẹp
                        Hãy lên kế hoạch du lịch đúng thời điểm cho năm mới dựa theo lịch trình du lịch khắp miền đất nước.
            Du khách đứng tim vì voi chặn đầu xe5 vùng đất Samurai nổi tiếng của Nhật BảnĐồi cỏ hồng Đà Lạt biến thành cỏ tuyết sau một đêm
        Ảnh
         
                             
            Cô gái bị fan cuồng sao y bản chính khi đi du lịch
            Hai blogger du lịch nổi tiếng trên Instagram Jack Morris và Lauren Bullen đã rất sốc khi phát hiện ra được một "fan cuồng" bắt chước mọi hành động của họ ở những nơi từng đến du lịch.
                                     
                Hãng hàng không xử lý đồ ăn thế nào khi máy bay trễ chuyến
                                     
                10 sân bay có đồ ăn ngon nhất thế giới
        Video
         
            Bé gái Ấn Độ hồn nhiên tóm cổ rắn hổ mang chúa
            Những đứa trẻ tại làng Gauriganj được làm quen với rắn từ khi lên hai để chúng có thể biểu diễn thuật thôi miên rắn chuyên nghiệp sau 10 năm.
                Du khách la hét vì chơi tàu lượn dốc nhất thế giới
                Cả công viên 'nín thở' chờ du khách béo trượt máng
        Điểm đến yêu thích                
                    Nhật Bản mở dịch vụ tắm mì ramen để cải thiện làn da                
                    Ngôi làng không điện, nước nổi tiếng ở Uruguay                
                    Du khách bị hải cẩu cắn vì mải tạo dáng với cá                
                    Phụ nữ Armenia làm say mê du khách Mỹ                
                    Du khách thoát chết nhờ đấm liên tục vào mặt cá mập                
		Liên kết du lịch
					Trang chủ
                         Đặt VnExpress làm trang chủ
                         Đặt VnExpress làm trang chủ
                         Về đầu trang
                     
								  Thời sự
								  Góc nhìn
								  Pháp luật
								  Giáo dục
								  Thế giới
								  Gia đình
								  Kinh doanh
							   Hàng hóa
							   Doanh nghiệp
							   Ebank
								  Giải trí
							   Giới sao
							   Thời trang
							   Phim
								  Thể thao
							   Bóng đá
							   Tennis
							   Các môn khác
								  Video
								  Ảnh
								  Infographics
								  Sức khỏe
							   Các bệnh
							   Khỏe đẹp
							   Dinh dưỡng
								  Du lịch
							   Việt Nam
							   Quốc tế
							   Cộng đồng
								  Khoa học
							   Môi trường
							   Công nghệ mới
							   Hỏi - đáp
								  Số hóa
							   Sản phẩm
							   Đánh giá
							   Đời sống số
								  Xe
							   Tư vấn
							   Thị trường
							   Diễn đàn
								  Cộng đồng
								  Tâm sự
								  Cười
								  Rao vặt
                    Trang chủThời sựGóc nhìnThế giớiKinh doanhGiải tríThể thaoPháp luậtGiáo dụcSức khỏeGia đìnhDu lịchKhoa họcSố hóaXeCộng đồngTâm sựVideoCườiRao vặt
                            © Copyright 1997 VnExpress.net,  All rights reserved
                            ® VnExpress giữ bản quyền nội dung trên website này.
                            VnExpress tuyển dụng   Liên hệ quảng cáo  / Liên hệ Tòa soạn
                            Thông tin Tòa soạn.0123.888.0123 (HN) - 0129.233.3555 (TP HCM)
                                     Liên hệ Tòa soạn
                                     Thông tin Tòa soạn
                                    0123.888.0123 (HN) 
                                    0129.233.3555 (TP HCM)
                                © Copyright 1997 VnExpress.net,  All rights reserved
                                ® VnExpress giữ bản quyền nội dung trên website này.
                     
         
