url:http://dulich.vnexpress.net/nha-hang/quoc-te/london
Tittle :Nhà hàng London, địa điểm ăn uống du lịch London - VnExpress Du lịch
content : 
                     Trang chủ Thời sự Góc nhìn Thế giới Kinh doanh Giải trí Thể thao Pháp luật Giáo dục Sức khỏe Gia đình Du lịch Khoa học Số hóa Xe Cộng đồng Tâm sự Rao vặt Video Ảnh  Cười 24h qua Liên hệ Tòa soạn Thông tin Tòa soạn
                            © Copyright 1997- VnExpress.net, All rights reserved
                            ® VnExpress giữ bản quyền nội dung trên website này.
                         Hotline:
                            0123.888.0123 (Hà Nội) 
                            0129.233.3555 (TP HCM) 
                                    Thế giớiPháp luậtXã hộiKinh doanhGiải tríÔ tô - Xe máy Thể thaoSố hóaGia đình
                         
                     
                    Thời sựThế giớiKinh doanhGiải tríThể thaoPháp luậtGiáo dụcSức khỏeGia đìnhDu lịchKhoa họcSố hóaXeCộng đồngTâm sựVideoCườiRao vặt
    Việt NamQuốc tếCộng đồngẢnh
                Các địa danh khác
		        24h qua
            Du lịch Quốc tế 
                        London
                                        Du Lịch 
                                        London 
                                        Các địa danh
                                 
                                Việt NamQuốc tếCộng đồngẢnh
                    Nhà hàng L'Atelier  de Joël Robuchon
                    13-15 phố West WC2H 9NE                                        
	L'Atelier de Joël Robuchon chuyên phục vụ giới thượng lưu. Nếu muốn thưởng thức món ăn ở đây, bạn phải đặt bàn từ một tuần trước đó. Phong cách khá sang trọng với các món ăn tuyệt vời qua bàn tay điêu luyện của các đầu bếp nổi tiếng, thực đơn 
            Khách sạn9Nhà hàng2Tham quan50Giải trí0Mua sắm0           
                                                            Nhà hàng Rules
                                35 Maiden Lane London WC2E 7LB                                                                
	Nhà hàng Rules phục vụ các món ăn truyền thống của người Anh. Nơi đây có phong cách sang trọng, giá cả khá cao, cung cách phục vụ làm hài lòng cả những thực khách khó tính nhất. Đây là một trong những nhà hàng xếp vào loại lâu đời 
        Xem nhiều nhất
    Cây 'đi tiểu' như người tại ĐứcDu khách thoát chết khi ngã ngựa ngay trước mặt sư tửNhững câu lạc bộ thoát y nóng bỏng nhất thế giớiNgã xuống hồ nước nóng, du khách chết mất xácBé gái Ấn Độ hồn nhiên tóm cổ rắn hổ mang chúa
        Ảnh
         
                         
                    Những thành phố chuột đông hơn người
                         
                    Chỉ cần cúi xuống bạn đã thấy một London khác lạ
                         
                    Cảnh London khi không một bóng người
                         
                    Những nơi trẻ em nên đặt chân tới trước khi trưởng thành
    Top điểm đến
     
                        Nhật Bản mở dịch vụ tắm mì ramen để cải thiện làn da
                        Ngôi làng không điện, nước nổi tiếng ở Uruguay
                        Du khách bị hải cẩu cắn vì mải tạo dáng với cá
                        Phụ nữ Armenia làm say mê du khách Mỹ
                        Du khách thoát chết nhờ đấm liên tục vào mặt cá mập
                        Những quốc gia có phụ nữ đẹp nhất thế giới
					Trang chủ
                         Đặt VnExpress làm trang chủ
                         Đặt VnExpress làm trang chủ
                         Về đầu trang
                     
								  Thời sự
								  Góc nhìn
								  Pháp luật
								  Giáo dục
								  Thế giới
								  Gia đình
								  Kinh doanh
							   Hàng hóa
							   Doanh nghiệp
							   Ebank
								  Giải trí
							   Giới sao
							   Thời trang
							   Phim
								  Thể thao
							   Bóng đá
							   Tennis
							   Các môn khác
								  Video
								  Ảnh
								  Infographics
								  Sức khỏe
							   Các bệnh
							   Khỏe đẹp
							   Dinh dưỡng
								  Du lịch
							   Việt Nam
							   Quốc tế
							   Cộng đồng
								  Khoa học
							   Môi trường
							   Công nghệ mới
							   Hỏi - đáp
								  Số hóa
							   Sản phẩm
							   Đánh giá
							   Đời sống số
								  Xe
							   Tư vấn
							   Thị trường
							   Diễn đàn
								  Cộng đồng
								  Tâm sự
								  Cười
								  Rao vặt
                    Trang chủThời sựGóc nhìnThế giớiKinh doanhGiải tríThể thaoPháp luậtGiáo dụcSức khỏeGia đìnhDu lịchKhoa họcSố hóaXeCộng đồngTâm sựVideoCườiRao vặt
                            © Copyright 1997 VnExpress.net,  All rights reserved
                            ® VnExpress giữ bản quyền nội dung trên website này.
                            VnExpress tuyển dụng   Liên hệ quảng cáo  / Liên hệ Tòa soạn
                            Thông tin Tòa soạn.0123.888.0123 (HN) - 0129.233.3555 (TP HCM)
                                     Liên hệ Tòa soạn
                                     Thông tin Tòa soạn
                                    0123.888.0123 (HN) 
                                    0129.233.3555 (TP HCM)
                                © Copyright 1997 VnExpress.net,  All rights reserved
                                ® VnExpress giữ bản quyền nội dung trên website này.
                     
         
