url:http://dulich.vnexpress.net/page/4.html
Tittle :Tin du lịch : thông tin, hình ảnh các địa điểm du lịch Việt Nam và thế giới - VnExpress Du Lịch
content : 
                     Trang chủ Thời sự Góc nhìn Thế giới Kinh doanh Giải trí Thể thao Pháp luật Giáo dục Sức khỏe Gia đình Du lịch Khoa học Số hóa Xe Cộng đồng Tâm sự Rao vặt Video Ảnh  Cười 24h qua Liên hệ Tòa soạn Thông tin Tòa soạn
                            © Copyright 1997- VnExpress.net, All rights reserved
                            ® VnExpress giữ bản quyền nội dung trên website này.
                         Hotline:
                            0123.888.0123 (Hà Nội) 
                            0129.233.3555 (TP HCM) 
                                    Thế giớiPháp luậtXã hộiKinh doanhGiải tríÔ tô - Xe máy Thể thaoSố hóaGia đình
                         
                     
                    Thời sựThế giớiKinh doanhGiải tríThể thaoPháp luậtGiáo dụcSức khỏeGia đìnhDu lịchKhoa họcSố hóaXeCộng đồngTâm sựVideoCườiRao vặt
    Việt NamQuốc tếCộng đồngẢnh
                24h qua
            Du lịch 
                                        Du Lịch 
                                 
                                Việt NamQuốc tếCộng đồngẢnh
                Những món ăn đồng quê dân dã ở Sài Gòn
               Tép rong xào khế, gỏi bao tử, lẩu riêu... với hương vị mộc mạc nhưng không kém phần độc đáo, quyến rũ thực khách khi lần đầu đến Nhà hàng Khế Ngọt.            
                Nhiều hoạt động tôn vinh nhà giáo tại Đầm Sen
               Du khách đến Đầm Sen, TP HCM sẽ có dịp trải nghiệm nhiều hoạt động thú vị như ấu ăn, trang trí tiểu cảnh, đua thuyền rồng, thời trang học đường.            
                Cuộc sống của những người 'từ chối thiên đường'
                                     
               Bộ lạc Badui ở Indonesia cảm thấy thoải mái khi không tiếp xúc với cuộc sống hiện đại, trong khi các du khách thì đánh giá rằng, họ thực sự đang "chối bỏ thiên đường" nếu vẫn giữ vững quan điểm này.            
                Vẻ đẹp cổ tích của mùa thu nước Mỹ nhìn từ trên cao
                                     
               Với thiết bị bay không người lái, nhiếp ảnh gia Michael Matti đã ghi lại được trọn vẹn vẻ đẹp của mùa thu trong thời điểm rừng cây thay lá.            
                Lên núi lửa ở Gia Lai ngắm hoa dã quỳ
                                     
                             
               Là ngọn núi lửa đã tắt từ hàng triệu năm, Chư Đăng Ya (huyện Chư Pah, Gia Lai) đang trở thành điểm đến mới lạ với du khách thích khám phá mùa hoa dã quỳ.            
                Bên trong dinh thự 100 triệu USD của Donald Trump ở New York
                                     
                             
               Dinh thự được trang trí chủ yếu từ vàng và cẩm thạch, lấy cảm hứng từ Louis XIV, vị vua nổi tiếng nhất nước Pháp với phong cách nghệ thuật sang trọng và quyền quý.            
                Hồ có khả năng biến phụ nữ xấu thành đẹp ở Thổ Nhĩ Kỳ
                                     
               Từ một người con gái xấu xí không lấy được chồng, sau khi trẫm mình xuống hồ Pamukkale, cô trở nên xinh đẹp và lấy được đế vương.            
                Khách Tây khen nhà chờ mới ở sân bay Tân Sơn Nhất
                                     
                             
               Ghế ngủ miễn phí, khu vui chơi trẻ em và phòng ngủ mini thu phí là những dịch vụ mới ở khu vực chờ nhà ga quốc tế Tân Sơn Nhất.            
                Hươu vươn cổ xin đồ ăn tại bàn trong khách sạn
                                     
               Tại khách sạn Giraffe Manor (Kenya), du khách có thể thưởng thức bữa sáng với những con hươu vươn cổ vào tận bàn ăn để vòi vĩnh.            
                Giới trẻ Hà Nội được miễn phí vé vào cửa festival Ẩm thực Italy
                                     
               Ngày 19, 20/11 tại công viên nước Hồ Tây, Hà Nội, khách dưới 20 tuổi sẽ được miễn phí vé vào cửa để tham gia ngày hội ẩm thực Italy, cũng như có cơ hội nhận 2 tấm vé đi châu Âu.            
                Quán phở ngon và những tên gọi 'xấu xí'
                                     
               Phở ngon thì thường tên quán không mỹ miều như nhà hàng hay các quán bán đồ ăn khác.             
                Bạn có phải người sành ngoại tệ?
                                     
               10 câu hỏi dưới sẽ giúp bạn kiểm chứng độ hiểu biết về những đơn vị tiền tệ nước ngoài.            
                Cô gái được trả tiền để ăn hàng 2 lần mỗi tuần
                                     
               Sophie Hardy sẽ đi khắp nước Anh, thử những nhà hàng được yêu thích nhất hàng tuần, tìm ra các thực đơn đảm bảo hai yếu tố ngon và khỏe.            
                Du khách ngạc nhiên trước nghệ thuật làm thức ăn giả của Nhật
                                     
               Được làm từ sáp, nhựa hoặc silicon, thức ăn mô hình tại các nhà hàng Nhật Bản đánh lừa thị giác của không ít người.             
                Thợ săn châu Phi dùng chân trần làm mồi bắt trăn
                                     
               Một người săn trăn châu Phi dùng vải quấn chân rồi đưa xuống lòng đất để nhử trăn. Khi con trăn ngoạm trọn chân anh, người đàn ông nhanh chóng dùng dao xẻ thân con vật để bảo toàn "mồi".            
                Cuộc sống ngập trong tiền của giới trẻ nhà giàu Trung Quốc
                                     
               Những kỳ nghỉ sang trọng bằng du thuyền, phi cơ riêng hay thoả sức mua sắm thương hiệu đắt tiền là cuộc sống trong mơ của giới trẻ nhà giàu Trung Quốc.            
                Khu du lịch sinh thái cá cảnh 150 tỷ đồng ở ngoại ô TP HCM
                                     
               Những bể cá koi (cá chép Nhật) với hàng nghìn con cá nhiều màu sắc và không gian miệt vườn nhiều cây trái, chỉ cách trung tâm TP HCM 40 km là một điểm đến mới cho du khách.            
                Ăn ở vỉa hè Hà Nội, khách Tây thấy mình như người khổng lồ
                                     
               Những chiếc bàn ghế nhựa bày trên vỉa hè nhỏ xíu ở Hà Nội khiến Jeff và Lindsay trông như những người khổng lồ đang ngồi ở quán ăn ven đường.            
                Cây cầu không dành cho du khách yếu tim
                                     
               Điểm cao nhất của cầu Ponte Tibetano Cesana Claviere (Italy) là gần 91,5 m tương đương với chiều dài cầu. Mỗi bước chân đều khiến du khách phải khiếp sợ vì cầu không đáy.             
                Ấn tượng lần đầu đi tàu cao tốc 'viên đạn' ở Nhật Bản
                                     
               Chỗ duỗi chân rộng rãi, góc ngả ghế lớn, vận tốc trung bình hơn 280 km/h nhưng ít rung lắc là những ấn tượng mạnh nhất của tôi khi đi tàu cao tốc Shinkansen, niềm tự hào công nghệ của người Nhật trong nửa thế kỷ.            
                Đầu bếp nổi tiếng châu Âu thích châu chấu rang Việt Nam
                                     
               Đến Việt Nam và thưởng thức các món ăn bản địa, đầu bếp chuyên ẩm thực đường phố nổi tiếng châu Âu Don Pasta cho biết, đồ ăn ở đây không chỉ ngon, đa dạng mà còn được gửi gắm cả hồn dân tộc.            
                Kiệt tác toàn vỏ chai của 'người hùng quán bar' ở Canada
                                     
               Người dân và du khách đến Keno City, Canada thường nhắc gọi Geordie Dobson là "anh hùng quán bar" sau khi nhìn ngắm kiệt tác được làm từ vỏ chai rượu bỏ đi của ông.            
                Tam giác mạch khoe sắc bên bờ hồ Hà Nội
                                     
               Hàng trăm chậu hoa tam giác mạch được bày trong khu vực vườn hoa Lý Thái Tổ, bên bờ hồ Hoàn Kiếm, Hà Nội từ nay đến ngày 13/11.            
                Tiện nghi xa xỉ trong du thuyền vừa ghé Đà Nẵng
                                     
                             
               Genting Dream là một trong những du thuyền lớn nhất và nhiều chỗ chứa nhất châu Á, vừa chở hàng nghìn khách du lịch đến Đà Nẵng.            
                Khoả thân gây rối trên máy bay, hành khách đối mặt 20 năm tù
                                     
               Tấn công tiếp viên, cởi hết quần áo để tiểu ra cabin, doạ giết chết hành khách và nhục mạ một đứa trẻ 3 tuổi khiến người đàn ông phải đối mặt 20 năm tù.            
                Đoán biểu tượng nổi tiếng bị xóa trong các bức ảnh
                                     
               Hãy cùng xem Cairo, Paris, Copenhagen khi bỏ đi các biểu tượng sẽ ra sao?            
                Thói quen ăn uống bình dân của Donald Trump
                                     
               Ông Trump thích ăn đồ nấu kỹ, bít tết, trứng ốp la hay thịt hun khói đều phải chín già. Tân tổng thống Mỹ còn khá thích đồ ăn nhanh.            
                Du khách liều mình ngủ gần miệng núi lửa
                                     
                             
               Một nhóm du khách liều mạng thực hiện chuyến đi đến thềm miệng núi lửa Ambrym, Vanuata, dành một đêm ở đó để quay, chụp cận cảnh các hố dung nham nóng đỏ.            
                Sargasso - biển duy nhất không có bờ
                                     
               Sargasso là biển duy nhất trên trái đất không có bờ biển, trước đây tàu thuyền rất sợ lọt vào vùng "biển quỷ" này vì sẽ phải đứng im và khó có thể ra khỏi.            
         23456     
Xem tiếp        
        Khuyến mãi Du lịch
		  prev
		   next
                                Tour Hải Nam, Trung Quốc 5 ngày giá từ 7,99 triệu đồng
                                        7,990,000 đ 9,990,000 đ
                                        19/10/2016 - 07/12/2016                                    
                                                                Hành trình 5 ngày Hải Khẩu - Hưng Long - Tam Á khởi hành ngày 1, 8, 15, 22, 29/11 và 6, 13, 20, 27/12, giá từ 7,99 triệu đồng.
                                Vietrantour tặng 10 triệu đồng tour Nam Phi 8 ngày
                                        49,900,000 đ 59,900,000 đ
                                        21/10/2016 - 01/12/2016                                    
                                                                Tour 8 ngày Johannesburg - Sun City - Pretoria - Capetown, bay hàng không 5 sao Qatar Airways, giá chỉ 49,99 triệu đồng.
                                Tour Campuchia 4 ngày giá chỉ 8,7 triệu đồng
                                        8,700,000 đ 10,990,000 đ
                                        02/11/2016 - 26/01/2017                                    
                                                                Hành trình Phnom Penh - Siem Reap 4 ngày, bay hãng hàng không quốc gia Cambodia Angkor Air, giá chỉ 8,7 triệu đồng.
                                Giảm hơn 2 triệu đồng tour Nhật Bản 6 ngày 5 đêm
                                        33,800,000 đ 35,990,000 đ
                                        01/10/2016 - 31/12/2016                                    
                                                                Hongai Tours đưa du khách khám phá xứ Phù Tang mùa lá đỏ theo hành trình Nagoya - Nara - Osaka - Kyoto - núi Phú Sĩ - Tokyo.
                                Tour ngắm hoa tam giác mạch từ 1,99 triệu đồng
                                        1,990,000 đ 2,390,000 đ
                                        08/10/2016 - 30/11/2016                                    
                                                                Danh Nam Travel đưa du khách đi ngắm hoa tam giác mạch tại Hà Giang 3 ngày 2 đêm với giá trọn gói từ 1,99 triệu đồng.
                                Tour Nhật Bản đón năm mới giá chỉ 28,9 triệu đồng
                                        28,900,000 đ 35,900,000 đ
                                        17/11/2016 - 14/12/2016                                    
                                                                Hành trình sẽ đưa du khách đến cầu may đầu xuân ở đền Kotohira Shrine, mua sắm hàng hiệu giá rẻ dưới lòng đất, tham 
                                Tour Phú Quốc - Vinpearl Land gồm vé máy bay từ 2,9 triệu đồng
                                        2,999,000 đ 4,160,000 đ
                                        16/11/2016 - 30/12/2016                                    
                                                                Hành trình trọn gói và Free and Easy tới Phú Quốc với nhiều lựa chọn hấp dẫn cùng khuyến mại dịp cuối năm dành cho 
        Việt Nam
         
                Quán bún măng vịt mỗi ngày chỉ bán một tiếng
                        Nằm sâu trong con hẻm nhỏ trên đường Lê Văn Sỹ quận Tân Bình, TP HCM, quán bún vịt chỉ phục vụ khách từ 15h30 và đóng hàng sau đó chừng một tiếng.
            Bắc Trung Bộ hút khách Thái Lan để vực dậy du lịchViệt Nam đứng top đầu khách chi tiêu nhiều nhất ở Nhật BảnKhông gian điện ảnh đẳng cấp tại Vinpearl Đà Nẵng
         Gửi bài viết về tòa soạn
        Quốc tế
         
                Những câu lạc bộ thoát y nóng bỏng nhất thế giới
                        Những cô nàng chân dài với thân hình đồng hồ cát, điệu nhảy khiêu gợi, đồ uống lạnh hảo hạng và điệu nhảy bốc lửa trong các câu lạc bộ thoát y luôn kích thích các giác quan của du khách.
            Bé gái Ấn Độ hồn nhiên tóm cổ rắn hổ mang chúaBí mật đáng sợ bên dưới hệ thống tàu điện ngầm LondonNgã xuống hồ nước nóng, du khách chết mất xác
        Cộng đồng
         
                'Thời gian biểu' du lịch Việt Nam bốn mùa đều đẹp
                        Hãy lên kế hoạch du lịch đúng thời điểm cho năm mới dựa theo lịch trình du lịch khắp miền đất nước.
            Du khách đứng tim vì voi chặn đầu xe5 vùng đất Samurai nổi tiếng của Nhật BảnĐồi cỏ hồng Đà Lạt biến thành cỏ tuyết sau một đêm
        Ảnh - Video
         
                             
            Diễm My ăn trưa, trồng rau cùng người dân Hội An
            Diễn viên Diễm My đã có dịp dùng bữa cùng một cặp vợ chồng ở làng Trà Quế, Hội An, trước khi thực hiện bộ ảnh "Vẻ đẹp không tuổi" cùng nhiếp ảnh gia Pháp.
                                     
                Khu ổ chuột đầy rẫy tội phạm một thời ở Hong Kong
                                     
                Những món nóng hổi trên đường phố Đà Lạt
		Liên kết du lịch
            Đọc du lịch từ Email
                Hoàn tất
        Top điểm đến
                                        Bên trong ngôi chùa đẹp bậc nhất thế giới ở Hà Nội
                    Chùa Trấn Quốc nằm trên hòn đảo phía đông Hồ Tây, vừa được trang Thrillist đưa vào danh sách những ngôi chùa đẹp nhất thế giới.
                                        Bên trong dinh thự 100 triệu USD của Donald Trump ở New York
                    Dinh thự được trang trí chủ yếu từ vàng và cẩm thạch, lấy cảm hứng từ Louis XIV, vị vua nổi tiếng nhất nước Pháp với phong cách nghệ thuật sang trọng và quyền quý.
                                        Giây phút kinh hoàng của chàng trai thoát chết trong lễ hội 'bò đuổi'
                    Chase Boehringer không biết thần chết ở gần anh thế nào khi tới lễ hội truyền thống San Fermin tại thành phố Pamplona, Tây Ban Nha.
        Hỏi đáp
                            Bạn có nhận ra các điểm check-in của Sao Việt?                            
                                                             
                            7 câu đố bằng thơ ai mê du lịch Việt cũng đoán ra                            
                                                             
                            Những câu hỏi về bản đồ chứng tỏ bạn là phượt thủ thứ thiệt                            
                                                             
                            8 câu hỏi đúng - sai tiết lộ bạn có phải du khách thông minh                            
                                                             
                            Đi Hàn Quốc nên theo tour hay tự túc?                            
                                                             
                            Bạn đã ăn lầm những gì trước khi lên máy bay                            
                                                             
		 
					Trang chủ
                         Đặt VnExpress làm trang chủ
                         Đặt VnExpress làm trang chủ
                         Về đầu trang
                     
								  Thời sự
								  Góc nhìn
								  Pháp luật
								  Giáo dục
								  Thế giới
								  Gia đình
								  Kinh doanh
							   Hàng hóa
							   Doanh nghiệp
							   Ebank
								  Giải trí
							   Giới sao
							   Thời trang
							   Phim
								  Thể thao
							   Bóng đá
							   Tennis
							   Các môn khác
								  Video
								  Ảnh
								  Infographics
								  Sức khỏe
							   Các bệnh
							   Khỏe đẹp
							   Dinh dưỡng
								  Du lịch
							   Việt Nam
							   Quốc tế
							   Cộng đồng
								  Khoa học
							   Môi trường
							   Công nghệ mới
							   Hỏi - đáp
								  Số hóa
							   Sản phẩm
							   Đánh giá
							   Đời sống số
								  Xe
							   Tư vấn
							   Thị trường
							   Diễn đàn
								  Cộng đồng
								  Tâm sự
								  Cười
								  Rao vặt
                    Trang chủThời sựGóc nhìnThế giớiKinh doanhGiải tríThể thaoPháp luậtGiáo dụcSức khỏeGia đìnhDu lịchKhoa họcSố hóaXeCộng đồngTâm sựVideoCườiRao vặt
                            © Copyright 1997 VnExpress.net,  All rights reserved
                            ® VnExpress giữ bản quyền nội dung trên website này.
                            VnExpress tuyển dụng   Liên hệ quảng cáo  / Liên hệ Tòa soạn
                            Thông tin Tòa soạn.0123.888.0123 (HN) - 0129.233.3555 (TP HCM)
                                     Liên hệ Tòa soạn
                                     Thông tin Tòa soạn
                                    0123.888.0123 (HN) 
                                    0129.233.3555 (TP HCM)
                                © Copyright 1997 VnExpress.net,  All rights reserved
                                ® VnExpress giữ bản quyền nội dung trên website này.
                     
         
