url:http://dulich.vnexpress.net/tin-tuc/viet-nam/lao-cai/com-lam-nep-nuong-mon-an-da-chien-cua-nguoi-tay-bac-3496120.html
Tittle :Cơm lam nếp nương, món ăn 'dã chiến' của người Tây Bắc - VnExpress Du lịch
content : 
                     Trang chủ Thời sự Góc nhìn Thế giới Kinh doanh Giải trí Thể thao Pháp luật Giáo dục Sức khỏe Gia đình Du lịch Khoa học Số hóa Xe Cộng đồng Tâm sự Rao vặt Video Ảnh  Cười 24h qua Liên hệ Tòa soạn Thông tin Tòa soạn
                            © Copyright 1997- VnExpress.net, All rights reserved
                            ® VnExpress giữ bản quyền nội dung trên website này.
                         Hotline:
                            0123.888.0123 (Hà Nội) 
                            0129.233.3555 (TP HCM) 
                                    Thế giớiPháp luậtXã hộiKinh doanhGiải tríÔ tô - Xe máy Thể thaoSố hóaGia đình
                         
                     
                    Thời sựThế giớiKinh doanhGiải tríThể thaoPháp luậtGiáo dụcSức khỏeGia đìnhDu lịchKhoa họcSố hóaXeCộng đồngTâm sựVideoCườiRao vặt
    Việt NamQuốc tếCộng đồngẢnh
                Các địa danh khác
		        24h qua
            Du lịch Việt Nam 
                        Lào Cai
                                        Du Lịch 
                                        Lào Cai 
                                        Các địa danh
                                 
                                Việt NamQuốc tếCộng đồngẢnh
						Thứ tư, 16/11/2016 | 07:37 GMT+7
|
						Cơm lam nếp nương, món ăn 'dã chiến' của người Tây Bắc												
					Sau khi thu hoạch lúa, người dân Tây Bắc dùng gạo nếp nương chế biến thành món cơm lam ống tre, ăn với vừng, cá suối nướng và có thể mang theo bất cứ đâu.
					5 món ăn chưa thử chưa biết Sa Pa  /  Những quán cà phê với tay như chạm được mây                    
	Lên Tây Bắc những ngày đầu đông, bạn hãy tìm cho được món cơm lam nếp mới, món ăn vốn được người dân chế biến kiểu “dã chiến” trên nương rẫy mà không cần mang theo xoong nồi. Họ chặt ống tre để nướng cơm, bắt cá suối nướng trên bếp lửa, vậy là có bữa cơm.
					Cơm lam và các món nướng khác được bán nhiều ở các điểm du lịch phía bắc. Ảnh: dulichSaPa.
	Gạo nếp mới có thể trộn ít gạo nếp cẩm (màu tím), cho thêm chút muối và gừng, ngâm qua đêm, rồi cho vào ống tre, thêm chút nước và nút đầu lại bằng lá chuối. Ống tre, ống nứa hoặc ống vầu (một cây thuộc họ tre) đều có thể làm cơm lam, quan trọng là có đủ độ tươi và độ dày. Theo những người có kinh nghiệm, ống dài 25 - 30 cm là phù hợp nhất để làm cơm lam.
	Ống cơm được nướng trên than hồng hoặc vùi trong bếp lửa, liên tục quay để gạo chín đều hoặc không bị cháy. Cơm lam chín ngon là khi ăn bóc lớp vỏ cứng bên ngoài vẫn còn một lớp vỏ lụa của ống tre dính vào phần cơm, cơm chín đều, có độ dẻo và thơm mùi nếp mới pha chút ngai ngái của ống tre tươi.
					Cơm lam nướng chín đều nhờ người nướng khéo léo. Ảnh: Huấn Phan.
	Người Tây Bắc thường ăn cơm lam nóng với muối vừng, cá suối nướng hoặc thịt heo rừng nướng bày trong lá chuối. Người dân tộc Thái chấm cơm lam với chẳm chéo (chẩm chéo), thứ gia vị đặc biệt làm từ muối, ớt, tỏi và hạt mắc khén. Các quán ăn phục vụ cơm lam cho du khách có thêm gà đồi nướng mật ong, bò nướng ống tre và rượu cần. Quây quần bên bếp lửa và thưởng thức những sản vật của núi rừng tạo nên món ăn dân dã sẽ là kỷ niệm khó quên trong hành trình khám phá Tây Bắc.
					Cơm lam ăn cùng thịt nướng và chẩm chéo đúng điệu Tây Bắc. Ảnh: Vndulich.
	Các tỉnh như Yên Bái, Sơn La, Lào Cai… đều bán cơm lam, gà nướng ở các nhà hàng, quán ăn ở khu vực trung tâm và đông du khách như Sa Pa, Mù Cang Chải, Tú Lệ. Gần Hà Nội nhất là khu vực Bản Lác ở Mai Châu (Hòa Bình) cũng bán nhiều cơm lam. Bạn có thể ăn trong bữa cơm hoặc mua mang về với giá khoảng 10.000 đồng một ống.
	Xem thêm: Sẽ có chuỗi lễ hội bốn mùa tại Năm du lịch quốc gia 2017                        
                                    Má Lúm
                                                                              |  
									Gửi bài viết chia sẻ tại đây hoặc về dulich@vnexpress.net
                Địa chỉ gợi ý cho du khách thích khám phá ẩm thực
                    Quán bún măng vịt mỗi ngày chỉ bán một tiếng (19/11)
                                             
                    Vợ chồng Thu Phương nếm 'bún chửi' Hà Nội (18/11)
                                             
                    'Vua đầu bếp' để khách tự sáng tạo món ăn (17/11)
                                             
                    Những quán ăn không biển hiệu vẫn đông khách ở Hà Nội (16/11)
                                             
                    Quán xôi cay vỉa hè mỗi ngày hết 40 kg nếp ở Sài Gòn (15/11)
                                             
                Xem thêm
            Xem nhiều nhất
                            Anh Tây đi bộ khắp thế giới mê mẩn núi rừng Việt Nam
                                                             
                                Việt Nam đứng top đầu khách chi tiêu nhiều nhất ở Nhật Bản
                                                                     
                                Thủ tướng chỉ ra 3 giải pháp để phát triển du lịch
                                                                     
                                Những món đồ không thể thiếu khi đi du lịch cuối năm
                                Vị đậm đà tinh tế trong món gà sốt tiêu tỏi
                 
                Ý kiến bạn đọc (0) 
                Mới nhất | Quan tâm nhất
                Mới nhấtQuan tâm nhất
            Xem thêm
                        Ý kiến của bạn
                            20/1000
                                    Tắt chia sẻĐăng xuất
                         
                                Ý kiến của bạn
                                20/1000
                                 
                Tags
                                    Cơm lam Tây Bắc
                                Cơm lam
                                Tú Lệ
                                Sa pa
                                Gà nướng
    Tin Khác
                            'Thời gian biểu' du lịch Việt Nam bốn mùa đều đẹp
                                                             
                            Sẽ có chuỗi lễ hội bốn mùa tại Năm du lịch quốc gia 2017
                                                             
                            5 món ăn chưa thử chưa biết Sa Pa
                                                             
                            Những vườn hoa đẹp được check-in nhiều nhất tháng 10
                                                             
                                    5 trải nghiệm không nên bỏ lỡ khi tới Sa Pa
                                                                             
                                    10 đặc sản không nên bỏ lỡ ở Sa Pa
                                                                             
                                    Thi thể du khách Anh được đưa xuống bằng cáp treo công vụ
                                                                             
                                    Cộng đồng thương tiếc du khách Anh tử nạn ở Fansipan
                                                                             
                                    Tìm thấy thi thể du khách Anh trên Fansipan
                                                                             
                                    Du khách Anh mất tích khi leo Fansipan
                                                                             
                                    Rác ngổn ngang tại các điểm du lịch sau dịp lễ
                                                                             
                                    Nhặt rác trên nóc nhà Đông Dương
                                    Những điểm phượt mới ở Tây Bắc nên đến năm 2016
                                                                             
                                    Du xuân miền Tây Bắc
        Khuyến mãi Du lịch
		  prev
		   next
                                Tour Hải Nam, Trung Quốc 5 ngày giá từ 7,99 triệu đồng
                                        7,990,000 đ 9,990,000 đ
                                        19/10/2016 - 07/12/2016                                    
                                                                Hành trình 5 ngày Hải Khẩu - Hưng Long - Tam Á khởi hành ngày 1, 8, 15, 22, 29/11 và 6, 13, 20, 27/12, giá từ 7,99 triệu đồng.
                                Tour Phú Quốc - Vinpearl Land gồm vé máy bay từ 2,9 triệu đồng
                                        2,999,000 đ 4,160,000 đ
                                        16/11/2016 - 30/12/2016                                    
                                                                Hành trình trọn gói và Free and Easy tới Phú Quốc với nhiều lựa chọn hấp dẫn cùng khuyến mại dịp cuối năm dành cho 
                                Vietrantour tặng 10 triệu đồng tour Nam Phi 8 ngày
                                        49,900,000 đ 59,900,000 đ
                                        21/10/2016 - 01/12/2016                                    
                                                                Tour 8 ngày Johannesburg - Sun City - Pretoria - Capetown, bay hàng không 5 sao Qatar Airways, giá chỉ 49,99 triệu đồng.
                                Tour Nhật Bản đón năm mới giá chỉ 28,9 triệu đồng
                                        28,900,000 đ 35,900,000 đ
                                        17/11/2016 - 14/12/2016                                    
                                                                Hành trình sẽ đưa du khách đến cầu may đầu xuân ở đền Kotohira Shrine, mua sắm hàng hiệu giá rẻ dưới lòng đất, tham 
                                Tour Campuchia 4 ngày giá chỉ 8,7 triệu đồng
                                        8,700,000 đ 10,990,000 đ
                                        02/11/2016 - 26/01/2017                                    
                                                                Hành trình Phnom Penh - Siem Reap 4 ngày, bay hãng hàng không quốc gia Cambodia Angkor Air, giá chỉ 8,7 triệu đồng.
                                Tour ngắm hoa tam giác mạch từ 1,99 triệu đồng
                                        1,990,000 đ 2,390,000 đ
                                        08/10/2016 - 30/11/2016                                    
                                                                Danh Nam Travel đưa du khách đi ngắm hoa tam giác mạch tại Hà Giang 3 ngày 2 đêm với giá trọn gói từ 1,99 triệu đồng.
                                Giảm hơn 2 triệu đồng tour Nhật Bản 6 ngày 5 đêm
                                        33,800,000 đ 35,990,000 đ
                                        01/10/2016 - 31/12/2016                                    
                                                                Hongai Tours đưa du khách khám phá xứ Phù Tang mùa lá đỏ theo hành trình Nagoya - Nara - Osaka - Kyoto - núi Phú Sĩ - Tokyo.
        Quốc tế
         
                Những câu lạc bộ thoát y nóng bỏng nhất thế giới
                        Những cô nàng chân dài với thân hình đồng hồ cát, điệu nhảy khiêu gợi, đồ uống lạnh hảo hạng và điệu nhảy bốc lửa trong các câu lạc bộ thoát y luôn kích thích các giác quan của du khách.
            Bé gái Ấn Độ hồn nhiên tóm cổ rắn hổ mang chúaBí mật đáng sợ bên dưới hệ thống tàu điện ngầm LondonNgã xuống hồ nước nóng, du khách chết mất xác
         Gửi bài viết về tòa soạn
        Ẩm thực
         
                             
            Quán bún măng vịt mỗi ngày chỉ bán một tiếng
            Nằm sâu trong con hẻm nhỏ trên đường Lê Văn Sỹ quận Tân Bình, TP HCM, quán bún vịt chỉ phục vụ khách từ 15h30 và đóng hàng sau đó chừng một tiếng.
                Vợ chồng Thu Phương nếm 'bún chửi' Hà Nội
                'Vua đầu bếp' để khách tự sáng tạo món ăn
        Cộng đồng
         
                'Thời gian biểu' du lịch Việt Nam bốn mùa đều đẹp
                        Hãy lên kế hoạch du lịch đúng thời điểm cho năm mới dựa theo lịch trình du lịch khắp miền đất nước.
            Du khách đứng tim vì voi chặn đầu xe5 vùng đất Samurai nổi tiếng của Nhật BảnĐồi cỏ hồng Đà Lạt biến thành cỏ tuyết sau một đêm
        Ảnh
         
                             
            Ngải Thầu - điểm phượt yêu thích mùa xuân
            Những biển mây trắng bồng bềnh trong nắng sớm trên cung đường lên Ngải Thầu (Bát Xát, Lào Cai) là nơi thích hợp để bạn đi phượt những ngày xuân.
                                     
                Thiên nhiên tươi đẹp trên các nẻo đường Tây Bắc
                                     
                Sắc màu vùng cao Y Tý mùa lúa chín
        Video
         
            Du khách la hét vì chơi tàu lượn dốc nhất thế giới
            Tàu lượn Takabisha (Nhật Bản) có độ dốc lên tới 121 độ, vận tốc tối đa đạt 160 km/h khiến người chơi như đứng tim khi nhiều đường ray thẳng đứng, tàu như rơi tự do.
                Cả công viên 'nín thở' chờ du khách béo trượt máng
                Cảnh đẹp ngoạn mục trên khắp nẻo đường Na Uy
        Điểm đến yêu thích                
                    Kế hoạch 4 ngày khám phá đảo thiên đường ở Campuchia                
                    Những món ngon nên thử của Phú Quốc                
                    Khách du lịch được mời dùng toilet miễn phí ở Đà Nẵng                
                    Chuyến bay Cần Thơ - Đà Lạt chỉ mất một giờ                
                    Những cây cầu có tên gọi độc đáo ở miền Tây                
		Liên kết du lịch
					Trang chủ
                         Đặt VnExpress làm trang chủ
                         Đặt VnExpress làm trang chủ
                         Về đầu trang
                     
								  Thời sự
								  Góc nhìn
								  Pháp luật
								  Giáo dục
								  Thế giới
								  Gia đình
								  Kinh doanh
							   Hàng hóa
							   Doanh nghiệp
							   Ebank
								  Giải trí
							   Giới sao
							   Thời trang
							   Phim
								  Thể thao
							   Bóng đá
							   Tennis
							   Các môn khác
								  Video
								  Ảnh
								  Infographics
								  Sức khỏe
							   Các bệnh
							   Khỏe đẹp
							   Dinh dưỡng
								  Du lịch
							   Việt Nam
							   Quốc tế
							   Cộng đồng
								  Khoa học
							   Môi trường
							   Công nghệ mới
							   Hỏi - đáp
								  Số hóa
							   Sản phẩm
							   Đánh giá
							   Đời sống số
								  Xe
							   Tư vấn
							   Thị trường
							   Diễn đàn
								  Cộng đồng
								  Tâm sự
								  Cười
								  Rao vặt
                    Trang chủThời sựGóc nhìnThế giớiKinh doanhGiải tríThể thaoPháp luậtGiáo dụcSức khỏeGia đìnhDu lịchKhoa họcSố hóaXeCộng đồngTâm sựVideoCườiRao vặt
                            © Copyright 1997 VnExpress.net,  All rights reserved
                            ® VnExpress giữ bản quyền nội dung trên website này.
                            VnExpress tuyển dụng   Liên hệ quảng cáo  / Liên hệ Tòa soạn
                            Thông tin Tòa soạn.0123.888.0123 (HN) - 0129.233.3555 (TP HCM)
                                     Liên hệ Tòa soạn
                                     Thông tin Tòa soạn
                                    0123.888.0123 (HN) 
                                    0129.233.3555 (TP HCM)
                                © Copyright 1997 VnExpress.net,  All rights reserved
                                ® VnExpress giữ bản quyền nội dung trên website này.
                     
         
