url:http://dulich.vnexpress.net/tin-tuc/quoc-te/dubai/co-gai-phai-nop-phat-30-000-usd-sau-khi-bi-cuong-buc-3500560.html?utm_campaign=boxtracking&utm_medium=box_tinkhac&utm_source=detail
Tittle :Cô gái phải nộp phạt 30.000 USD sau khi bị cưỡng bức - VnExpress Du lịch
content : 
                     Trang chủ Thời sự Góc nhìn Thế giới Kinh doanh Giải trí Thể thao Pháp luật Giáo dục Sức khỏe Gia đình Du lịch Khoa học Số hóa Xe Cộng đồng Tâm sự Rao vặt Video Ảnh  Cười 24h qua Liên hệ Tòa soạn Thông tin Tòa soạn
                            © Copyright 1997- VnExpress.net, All rights reserved
                            ® VnExpress giữ bản quyền nội dung trên website này.
                         Hotline:
                            0123.888.0123 (Hà Nội) 
                            0129.233.3555 (TP HCM) 
                                    Thế giớiPháp luậtXã hộiKinh doanhGiải tríÔ tô - Xe máy Thể thaoSố hóaGia đình
                         
                     
                    Thời sựThế giớiKinh doanhGiải tríThể thaoPháp luậtGiáo dụcSức khỏeGia đìnhDu lịchKhoa họcSố hóaXeCộng đồngTâm sựVideoCườiRao vặt
    Việt NamQuốc tếCộng đồngẢnh
                Các địa danh khác
		        24h qua
            Du lịch Quốc tế 
                        Dubai
                                        Du Lịch 
                                        Dubai 
                                        Các địa danh
                                 
                                Việt NamQuốc tếCộng đồngẢnh
						Thứ sáu, 18/11/2016 | 08:18 GMT+7
|
						Cô gái phải nộp phạt 30.000 USD sau khi bị cưỡng bức												
					Một du khách Anh đang phải đối mặt với án tù tại Dubai vì tội “quan hệ tình dục ngoài hôn nhân” sau khi bị hai người đồng hương hãm hiếp.
					Du khách phản đối vì kẻ định cưỡng bức mình bị phạt nhẹ  /  Nữ du khách bị cưỡng bức và sát hại ở Mozambique                    
	Sự việc xảy ra trong tháng 10, nạn nhân bị hãm hiếp là một nữ chuyên viên IT giấu tên, 25 tuổi, đến từ Cheshire, Anh, có kỳ nghỉ 5 ngày ở Dubai. Cô đến trình báo sự việc cho cảnh sát nhưng lại bị buộc tội “quan hệ tình dục ngoài hôn nhân” và bị cấm rời khỏi Dubai, Telegraph đưa tin.
	Theo báo cáo, nữ du khách đã gặp hai người đàn ông ở khách sạn trước khi cùng nhau vào một căn phòng. Người thân của cô cho biết hai người đàn ông đã quay lại toàn bộ quá trình hãm hiếp, lấy hộ chiếu của cô rồi bay về Birmingham, Anh chỉ vài giờ sau đó. Cô hiện ở nhờ nhà một người Anh tại Dubai và đang cố gắng giữ bình tĩnh.
					Các tiểu vương quốc Ả Rập Thống nhất có quy định chặt chẽ về rượu và tình dục, trong đó, việc ngoại tình hoặc quan hệ tình dục khi chưa lập gia đình có thể sẽ phải ngồi tù. Ảnh: Chris Ratcliffe.
	Một người bạn của nữ du khách này nói: “Cô ấy đã đến đồn cảnh sát để trình báo mình là nạn nhân của một vụ hiếp dâm, nhưng lại bị đối xử như một tội phạm”.
	Nạn nhân phải nộp gần 30.000 USD chi phí pháp lý, và đang lo sợ sẽ bị phạt tù sau khi bị cáo buộc phạm tội liên quan đến tình dục, thường bị phạt rất nặng theo luật Hồi giáo.
	Bộ Ngoại giao Anh đã nhận được báo cáo của vụ án và đang tìm cách giúp đỡ du khách này.
	Xem thêm: Du khách bị tấn công tình dục ở Rome                         
                                    Minh Khang
                                                                              |  
									Gửi bài viết chia sẻ tại đây hoặc về dulich@vnexpress.net
                                                Khách sạn0Nhà hàng0Tham quan9Giải trí1Mua sắm0                        
                Những sự cố gặp phải trên đường du lịch
                    Ngã xuống hồ nước nóng, du khách chết mất xác (19/11)
                                             
                    Du khách giết vợ để cặp kè gái bán hoa ở Thái Lan bị bỏ tù (18/11)
                                             
                    Du khách sống sót sau 17 giờ lênh đênh trong vùng có cá mập (15/11)
                                             
                    1.000 du khách mắc kẹt ở New Zealand vì động đất (15/11)
                                             
                    Trăn khổng lồ rơi xuống từ trần xốp, nhà hàng náo loạn (15/11)
                                             
                Xem thêm
            Xem nhiều nhất
                            Cây 'đi tiểu' như người tại Đức
                                                             
                                Du khách thoát chết khi ngã ngựa ngay trước mặt sư tử
                                                                     
                                Những câu lạc bộ thoát y nóng bỏng nhất thế giới
                                                                     
                                Ngã xuống hồ nước nóng, du khách chết mất xác
                                                                     
                                Bé gái Ấn Độ hồn nhiên tóm cổ rắn hổ mang chúa
                                                                     
                 
                Ý kiến bạn đọc (0) 
                Mới nhất | Quan tâm nhất
                Mới nhấtQuan tâm nhất
            Xem thêm
                        Ý kiến của bạn
                            20/1000
                                    Tắt chia sẻĐăng xuất
                         
                                Ý kiến của bạn
                                20/1000
                                 
                Tags
                                    Du khách
                                Cưỡng bức
                                Dubai
                                Tội phạm tình dục
    Tin Khác
                                                     
                            5 điểm đến cho người yêu - kẻ ghét tổng thống Donald Trump
                                                             
                                                     
                            Mặt tối đằng sau sự hào nhoáng của Dubai
                                                             
                            Sự thật về tòa tháp cao nhất thế giới ở Dubai
                                                             
                            Công viên giải trí lớn nhất thế giới mở cửa tại Dubai
                                                             
                                    Tiện ích xa xỉ của khách sạn 7 sao duy nhất trên thế giới
                                                                             
                                    Ngày ấy - bây giờ của các thành phố du lịch nổi tiếng thế giới
                                                                             
                                    Đường bay mới Dubai - Hà Nội bắt đầu đón khách
                                                                             
                                    Những điểm đến đắt giá nhất hành tinh
                                                                             
                                    Cuộc sống xa hoa bậc nhất thế giới ở Dubai
                                                                             
                                    Nữ du khách bị bỏ tù vì từ chối nói chuyện với đàn ông
                                                                             
                                    Những bức ảnh khiến bạn không thể rời mắt
                                                                             
                                    Du lịch sang chảnh như sao Việt
                                                                             
                                    Sương mù huyền ảo ở Dubai
                                                                             
                                    7 điểm mua sắm lý tưởng mùa lễ hội 2016 ở Dubai
                                                                             
        Khuyến mãi Du lịch
		  prev
		   next
                                Giảm hơn 2 triệu đồng tour Nhật Bản 6 ngày 5 đêm
                                        33,800,000 đ 35,990,000 đ
                                        01/10/2016 - 31/12/2016                                    
                                                                Hongai Tours đưa du khách khám phá xứ Phù Tang mùa lá đỏ theo hành trình Nagoya - Nara - Osaka - Kyoto - núi Phú Sĩ - Tokyo.
                                Tour Campuchia 4 ngày giá chỉ 8,7 triệu đồng
                                        8,700,000 đ 10,990,000 đ
                                        02/11/2016 - 26/01/2017                                    
                                                                Hành trình Phnom Penh - Siem Reap 4 ngày, bay hãng hàng không quốc gia Cambodia Angkor Air, giá chỉ 8,7 triệu đồng.
                                Tour Hải Nam, Trung Quốc 5 ngày giá từ 7,99 triệu đồng
                                        7,990,000 đ 9,990,000 đ
                                        19/10/2016 - 07/12/2016                                    
                                                                Hành trình 5 ngày Hải Khẩu - Hưng Long - Tam Á khởi hành ngày 1, 8, 15, 22, 29/11 và 6, 13, 20, 27/12, giá từ 7,99 triệu đồng.
                                Tour Nhật Bản đón năm mới giá chỉ 28,9 triệu đồng
                                        28,900,000 đ 35,900,000 đ
                                        17/11/2016 - 14/12/2016                                    
                                                                Hành trình sẽ đưa du khách đến cầu may đầu xuân ở đền Kotohira Shrine, mua sắm hàng hiệu giá rẻ dưới lòng đất, tham 
                                Vietrantour tặng 10 triệu đồng tour Nam Phi 8 ngày
                                        49,900,000 đ 59,900,000 đ
                                        21/10/2016 - 01/12/2016                                    
                                                                Tour 8 ngày Johannesburg - Sun City - Pretoria - Capetown, bay hàng không 5 sao Qatar Airways, giá chỉ 49,99 triệu đồng.
                                Tour Phú Quốc - Vinpearl Land gồm vé máy bay từ 2,9 triệu đồng
                                        2,999,000 đ 4,160,000 đ
                                        16/11/2016 - 30/12/2016                                    
                                                                Hành trình trọn gói và Free and Easy tới Phú Quốc với nhiều lựa chọn hấp dẫn cùng khuyến mại dịp cuối năm dành cho 
                                Tour ngắm hoa tam giác mạch từ 1,99 triệu đồng
                                        1,990,000 đ 2,390,000 đ
                                        08/10/2016 - 30/11/2016                                    
                                                                Danh Nam Travel đưa du khách đi ngắm hoa tam giác mạch tại Hà Giang 3 ngày 2 đêm với giá trọn gói từ 1,99 triệu đồng.
        Việt Nam
         
                Quán bún măng vịt mỗi ngày chỉ bán một tiếng
                        Nằm sâu trong con hẻm nhỏ trên đường Lê Văn Sỹ quận Tân Bình, TP HCM, quán bún vịt chỉ phục vụ khách từ 15h30 và đóng hàng sau đó chừng một tiếng.
            Bắc Trung Bộ hút khách Thái Lan để vực dậy du lịchViệt Nam đứng top đầu khách chi tiêu nhiều nhất ở Nhật BảnKhông gian điện ảnh đẳng cấp tại Vinpearl Đà Nẵng
         Gửi bài viết về tòa soạn
        Ẩm thực
         
            Vợ chồng Thu Phương nếm 'bún chửi' Hà Nội
            Bà chủ quán rất vui vẻ chào đón nhóm của nữ ca sĩ ngay cả khi quán kín chỗ ngồi, dù vừa mở cửa.
                'Vua đầu bếp' để khách tự sáng tạo món ăn
                Vị đậm đà tinh tế trong món gà sốt tiêu tỏi
        Cộng đồng
         
                'Thời gian biểu' du lịch Việt Nam bốn mùa đều đẹp
                        Hãy lên kế hoạch du lịch đúng thời điểm cho năm mới dựa theo lịch trình du lịch khắp miền đất nước.
            Du khách đứng tim vì voi chặn đầu xe5 vùng đất Samurai nổi tiếng của Nhật BảnĐồi cỏ hồng Đà Lạt biến thành cỏ tuyết sau một đêm
        Ảnh
         
                             
            5 điểm đến cho người yêu - kẻ ghét tổng thống Donald Trump
            Du khách có thể ghé thăm tháp Trump Tower tại Los Angeles, chuỗi khách sạn Trump ở khắp nước Mỹ hay thử sức trên những sân golf của tổng thống đắc cử nằm ở Washington, Scotland hay Dubai.
                                     
                Mặt tối đằng sau sự hào nhoáng của Dubai
                                     
                Tiện ích xa xỉ của khách sạn 7 sao duy nhất trên thế giới
        Video
         
            Bé gái Ấn Độ hồn nhiên tóm cổ rắn hổ mang chúa
            Những đứa trẻ tại làng Gauriganj được làm quen với rắn từ khi lên hai để chúng có thể biểu diễn thuật thôi miên rắn chuyên nghiệp sau 10 năm.
                Du khách la hét vì chơi tàu lượn dốc nhất thế giới
                Cả công viên 'nín thở' chờ du khách béo trượt máng
        Điểm đến yêu thích                
                    Nhật Bản mở dịch vụ tắm mì ramen để cải thiện làn da                
                    Ngôi làng không điện, nước nổi tiếng ở Uruguay                
                    Du khách bị hải cẩu cắn vì mải tạo dáng với cá                
                    Phụ nữ Armenia làm say mê du khách Mỹ                
                    Du khách thoát chết nhờ đấm liên tục vào mặt cá mập                
		Liên kết du lịch
					Trang chủ
                         Đặt VnExpress làm trang chủ
                         Đặt VnExpress làm trang chủ
                         Về đầu trang
                     
								  Thời sự
								  Góc nhìn
								  Pháp luật
								  Giáo dục
								  Thế giới
								  Gia đình
								  Kinh doanh
							   Hàng hóa
							   Doanh nghiệp
							   Ebank
								  Giải trí
							   Giới sao
							   Thời trang
							   Phim
								  Thể thao
							   Bóng đá
							   Tennis
							   Các môn khác
								  Video
								  Ảnh
								  Infographics
								  Sức khỏe
							   Các bệnh
							   Khỏe đẹp
							   Dinh dưỡng
								  Du lịch
							   Việt Nam
							   Quốc tế
							   Cộng đồng
								  Khoa học
							   Môi trường
							   Công nghệ mới
							   Hỏi - đáp
								  Số hóa
							   Sản phẩm
							   Đánh giá
							   Đời sống số
								  Xe
							   Tư vấn
							   Thị trường
							   Diễn đàn
								  Cộng đồng
								  Tâm sự
								  Cười
								  Rao vặt
                    Trang chủThời sựGóc nhìnThế giớiKinh doanhGiải tríThể thaoPháp luậtGiáo dụcSức khỏeGia đìnhDu lịchKhoa họcSố hóaXeCộng đồngTâm sựVideoCườiRao vặt
                            © Copyright 1997 VnExpress.net,  All rights reserved
                            ® VnExpress giữ bản quyền nội dung trên website này.
                            VnExpress tuyển dụng   Liên hệ quảng cáo  / Liên hệ Tòa soạn
                            Thông tin Tòa soạn.0123.888.0123 (HN) - 0129.233.3555 (TP HCM)
                                     Liên hệ Tòa soạn
                                     Thông tin Tòa soạn
                                    0123.888.0123 (HN) 
                                    0129.233.3555 (TP HCM)
                                © Copyright 1997 VnExpress.net,  All rights reserved
                                ® VnExpress giữ bản quyền nội dung trên website này.
                     
         
