url:http://dulich.vnexpress.net/photo/anh-video/du-khach-lieu-minh-ngu-gan-mieng-nui-lua-3492800.html
Tittle :Du khách liều mình ngủ gần miệng núi lửa - VnExpress Du lịch
content : 
                     Trang chủ Thời sự Góc nhìn Thế giới Kinh doanh Giải trí Thể thao Pháp luật Giáo dục Sức khỏe Gia đình Du lịch Khoa học Số hóa Xe Cộng đồng Tâm sự Rao vặt Video Ảnh  Cười 24h qua Liên hệ Tòa soạn Thông tin Tòa soạn
                            © Copyright 1997- VnExpress.net, All rights reserved
                            ® VnExpress giữ bản quyền nội dung trên website này.
                         Hotline:
                            0123.888.0123 (Hà Nội) 
                            0129.233.3555 (TP HCM) 
                                    Thế giớiPháp luậtXã hộiKinh doanhGiải tríÔ tô - Xe máy Thể thaoSố hóaGia đình
                         
                     
                    Thời sựThế giớiKinh doanhGiải tríThể thaoPháp luậtGiáo dụcSức khỏeGia đìnhDu lịchKhoa họcSố hóaXeCộng đồngTâm sựVideoCườiRao vặt
    Việt NamQuốc tếCộng đồngẢnh
		        24h qua
            Du lịch Ảnh 
                                        Du Lịch 
                                        Ảnh 
                                 
                                Việt NamQuốc tếCộng đồngẢnh
                            Thứ bảy, 12/11/2016 | 02:08 GMT+7                        
|
                        Du khách liều mình ngủ gần miệng núi lửa                                                
                    Một nhóm du khách liều mạng thực hiện chuyến đi đến thềm miệng núi lửa Ambrym, Vanuata, dành một đêm ở đó để quay, chụp cận cảnh các hố dung nham nóng đỏ.
                                Hàng trăm du khách mất tích vì núi lửa phun trào ở Indonesia
                                'Nụ hôn nóng bỏng nhất thế giới' trên đỉnh núi lửa Hawaii
                                             
	Đối với hầu hết du khách, cảnh một miệng núi lửa đang hừng hực dung nham đỏ và bụi khói có thể làm họ hoảng sợ và bỏ chạy, nhưng một nhóm du khách mạo hiểm lại luôn muốn có cơ hội để chụp được hiện tượng này.
                                                                                 
                                             
	Christopher Horsley, 24 tuổi, người Ormskirk, Lancashire, Anh, mới có chuyến đi tới hố dung nham Marum ở núi lửa Ambrym, thuộc đảo quốc Vanuatu. Anh đi cùng người sáng lập tour mạo hiểm Geoff Mackley và một số du khách khác. 
	 
                                                                                 
                                             
	Horsley vừa là hướng dẫn viên vừa là nhiếp ảnh gia, sử dụng máy bay thu nhỏ (drone) để ghi hình trong suốt chuyến đi. Đoàn du khách này tới được thềm miệng núi lửa và nghỉ lại một đêm ở đó. Sau đó Horsley sử dụng drone quay lại các hình ảnh này. 
                                                                                 
                                             
	Hòn đảo này thực ra có hai ngọn núi lửa hình nón là Benbow và Marum.  
                                                                                 
                                             
	Bức hình chụp khi tới gần hồ nham thạch nóng đỏ sôi sùng sục ở miệng núi khiến người xem tưởng như nhân vật trong ảnh đang trên sao Hỏa.
                                                                                 
                                             
	Anh cho biết: "Là người làm phim, ảnh và khám phá chuyến đi các hành trình tới núi lửa, mục đích của tôi là tiến tới miệng núi lửa và ngủ lại một đêm, sau đó chụp hình và sử dụng drone để thu thập tư liệu". 
	 
                                                                                 
                                             
	Để tới được miệng núi Marum, Horsley mất khoảng 2 - 2,5 giờ đồng hồ.
                                                                                 
                                             
	"Cắm trại ở mội nơi khắc nghiệt như thế này thật sự khó tin, bao quanh là 450 m đá núi khiến bạn nhụt chí, và cạnh đó là những hồ nham thạch rộng 70 m. Ngủ bên thềm miệng núi lửa quả thực là trải nghiệm không phải du khách nào cũng được thử trên thế giới", Horsley cho hay. Trong hình là Horsley đang ngồi ăn tối ở thềm miệng núi lửa. 
                                                                                 
                                             
	Tới núi lửa Ambrym lần này là lần thứ 3 Horsley đi trong vòng 4 tháng qua, và 14 lần bước xuống Marum. Mỗi lần leo xuống và leo lên mất khoảng 4-5 giờ di chuyển.
                                                                                 
                                             
	Horsley cảnh báo: "Mọi thứ có thể thay đổi rất nhanh ở một nơi khắc nghiệt như thế này, một sự cố cũng có thể biến đổi nhanh chóng".
                                                                                 
	Hương Chi
	Ảnh: Christopher Horsley
                Những trải nghiệm mạo hiểm hút khách
                    Bé gái Ấn Độ hồn nhiên tóm cổ rắn hổ mang chúa (19/11)
                                             
                    Cả công viên 'nín thở' chờ du khách béo trượt máng (18/11)
                                             
                    Du khách la hét vì chơi tàu lượn dốc nhất thế giới (18/11)
                                             
                    Giây phút kinh hoàng của chàng trai thoát chết trong lễ hội 'bò đuổi' (14/11)
                                             
                    Thợ săn châu Phi dùng chân trần làm mồi bắt trăn (12/11)
                                             
                Xem thêm
                         
                Ý kiến bạn đọc (0) 
                Mới nhất | Quan tâm nhất
                Mới nhấtQuan tâm nhất
            Xem thêm
                        Ý kiến của bạn
                            20/1000
                                    Tắt chia sẻĐăng xuất
                         
                                Ý kiến của bạn
                                20/1000
                                 
                        Tags
                                                    Núi lửa
                                                    Dung nham
                                                    Du lịch mạo hiểm
                                                    Nhiếp ảnh gia
                                                    Vanuata
                                                    Cắm trại
    Tin Khác
                                                     
                            Diễm My ăn trưa, trồng rau cùng người dân Hội An
                                                             
                                                     
                            Khu ổ chuột đầy rẫy tội phạm một thời ở Hong Kong
                                                             
                                                     
                            Góc tối của lễ hội phụ nữ khoe ngực trần tại Tây Ban Nha
                                                             
                            Những bữa tiệc 'nóng mắt' với bong bóng xà phòng
                                                             
                                    Đồi cỏ hồng Đà Lạt biến thành cỏ tuyết sau một đêm
                                                                             
                                    Vợ chồng Thu Phương nếm 'bún chửi' Hà Nội
                                                                             
                                    'Vườn thú người' - vết nhơ trong lịch sử châu Âu
                                                                             
                                    Vẻ đẹp của thị trấn nơi William và Kate gặp nhau
                                                                             
                                    Khu cắm trại giữa rừng dương cách Sài Gòn 3 giờ chạy xe
                                                                             
                                    Vẻ đẹp thơ mộng mùa lá đỏ Nhật Bản
                                                                             
                                    Bên trong thị trấn ma lớn nhất thế giới ở quê hương Thành Cát Tư Hãn
                                                                             
                                    Cô gái bị fan cuồng sao y bản chính khi đi du lịch
                                                                             
                                    Quang Vinh khám phá hai mặt đối lập của Sài Gòn
                                                                             
                                    Bảo tàng áo dài tư nhân duy nhất ở Sài Gòn
                                                                             
        Khuyến mãi Du lịch
		  prev
		   next
                                Tour Hải Nam, Trung Quốc 5 ngày giá từ 7,99 triệu đồng
                                        7,990,000 đ 9,990,000 đ
                                        19/10/2016 - 07/12/2016                                    
                                                                Hành trình 5 ngày Hải Khẩu - Hưng Long - Tam Á khởi hành ngày 1, 8, 15, 22, 29/11 và 6, 13, 20, 27/12, giá từ 7,99 triệu đồng.
                                Vietrantour tặng 10 triệu đồng tour Nam Phi 8 ngày
                                        49,900,000 đ 59,900,000 đ
                                        21/10/2016 - 01/12/2016                                    
                                                                Tour 8 ngày Johannesburg - Sun City - Pretoria - Capetown, bay hàng không 5 sao Qatar Airways, giá chỉ 49,99 triệu đồng.
                                Tour Nhật Bản đón năm mới giá chỉ 28,9 triệu đồng
                                        28,900,000 đ 35,900,000 đ
                                        17/11/2016 - 14/12/2016                                    
                                                                Hành trình sẽ đưa du khách đến cầu may đầu xuân ở đền Kotohira Shrine, mua sắm hàng hiệu giá rẻ dưới lòng đất, tham 
                                Tour ngắm hoa tam giác mạch từ 1,99 triệu đồng
                                        1,990,000 đ 2,390,000 đ
                                        08/10/2016 - 30/11/2016                                    
                                                                Danh Nam Travel đưa du khách đi ngắm hoa tam giác mạch tại Hà Giang 3 ngày 2 đêm với giá trọn gói từ 1,99 triệu đồng.
                                Tour Phú Quốc - Vinpearl Land gồm vé máy bay từ 2,9 triệu đồng
                                        2,999,000 đ 4,160,000 đ
                                        16/11/2016 - 30/12/2016                                    
                                                                Hành trình trọn gói và Free and Easy tới Phú Quốc với nhiều lựa chọn hấp dẫn cùng khuyến mại dịp cuối năm dành cho 
                                Tour Campuchia 4 ngày giá chỉ 8,7 triệu đồng
                                        8,700,000 đ 10,990,000 đ
                                        02/11/2016 - 26/01/2017                                    
                                                                Hành trình Phnom Penh - Siem Reap 4 ngày, bay hãng hàng không quốc gia Cambodia Angkor Air, giá chỉ 8,7 triệu đồng.
                                Giảm hơn 2 triệu đồng tour Nhật Bản 6 ngày 5 đêm
                                        33,800,000 đ 35,990,000 đ
                                        01/10/2016 - 31/12/2016                                    
                                                                Hongai Tours đưa du khách khám phá xứ Phù Tang mùa lá đỏ theo hành trình Nagoya - Nara - Osaka - Kyoto - núi Phú Sĩ - Tokyo.
        Xem nhiều nhất
    Góc tối của lễ hội phụ nữ khoe ngực trần tại Tây Ban NhaCặp du khách Trung Quốc quan hệ tình dục trong công viênCả công viên 'nín thở' chờ du khách béo trượt mángBí mật đáng sợ bên dưới hệ thống tàu điện ngầm LondonChàng tiên cá có thật giữa đời thường
					Trang chủ
                         Đặt VnExpress làm trang chủ
                         Đặt VnExpress làm trang chủ
                         Về đầu trang
                     
								  Thời sự
								  Góc nhìn
								  Pháp luật
								  Giáo dục
								  Thế giới
								  Gia đình
								  Kinh doanh
							   Hàng hóa
							   Doanh nghiệp
							   Ebank
								  Giải trí
							   Giới sao
							   Thời trang
							   Phim
								  Thể thao
							   Bóng đá
							   Tennis
							   Các môn khác
								  Video
								  Ảnh
								  Infographics
								  Sức khỏe
							   Các bệnh
							   Khỏe đẹp
							   Dinh dưỡng
								  Du lịch
							   Việt Nam
							   Quốc tế
							   Cộng đồng
								  Khoa học
							   Môi trường
							   Công nghệ mới
							   Hỏi - đáp
								  Số hóa
							   Sản phẩm
							   Đánh giá
							   Đời sống số
								  Xe
							   Tư vấn
							   Thị trường
							   Diễn đàn
								  Cộng đồng
								  Tâm sự
								  Cười
								  Rao vặt
                    Trang chủThời sựGóc nhìnThế giớiKinh doanhGiải tríThể thaoPháp luậtGiáo dụcSức khỏeGia đìnhDu lịchKhoa họcSố hóaXeCộng đồngTâm sựVideoCườiRao vặt
                            © Copyright 1997 VnExpress.net,  All rights reserved
                            ® VnExpress giữ bản quyền nội dung trên website này.
                            VnExpress tuyển dụng   Liên hệ quảng cáo  / Liên hệ Tòa soạn
                            Thông tin Tòa soạn.0123.888.0123 (HN) - 0129.233.3555 (TP HCM)
                                     Liên hệ Tòa soạn
                                     Thông tin Tòa soạn
                                    0123.888.0123 (HN) 
                                    0129.233.3555 (TP HCM)
                                © Copyright 1997 VnExpress.net,  All rights reserved
                                ® VnExpress giữ bản quyền nội dung trên website này.
                     
         
