url:http://dulich.vnexpress.net/tin-tuc/cong-dong/dau-chan/an-o-via-he-ha-noi-khach-tay-thay-minh-nhu-nguoi-khong-lo-3497518.html
Tittle :Ăn ở vỉa hè Hà Nội, khách Tây thấy mình như người khổng lồ - VnExpress Du lịch
content : 
                     Trang chủ Thời sự Góc nhìn Thế giới Kinh doanh Giải trí Thể thao Pháp luật Giáo dục Sức khỏe Gia đình Du lịch Khoa học Số hóa Xe Cộng đồng Tâm sự Rao vặt Video Ảnh  Cười 24h qua Liên hệ Tòa soạn Thông tin Tòa soạn
                            © Copyright 1997- VnExpress.net, All rights reserved
                            ® VnExpress giữ bản quyền nội dung trên website này.
                         Hotline:
                            0123.888.0123 (Hà Nội) 
                            0129.233.3555 (TP HCM) 
                                    Thế giớiPháp luậtXã hộiKinh doanhGiải tríÔ tô - Xe máy Thể thaoSố hóaGia đình
                         
                     
                    Thời sựThế giớiKinh doanhGiải tríThể thaoPháp luậtGiáo dụcSức khỏeGia đìnhDu lịchKhoa họcSố hóaXeCộng đồngTâm sựVideoCườiRao vặt
    Việt NamQuốc tếCộng đồngẢnh
		        24h qua
            Du lịch Cộng đồng 
                        Dấu chânTư vấnHỏi - Đáp
                                        Du Lịch 
                                        Dấu chân 
                                 
                                Việt NamQuốc tếCộng đồngẢnh
						Thứ bảy, 12/11/2016 | 10:11 GMT+7
|
						Ăn ở vỉa hè Hà Nội, khách Tây thấy mình như người khổng lồ												
					Những chiếc bàn ghế nhựa bày trên vỉa hè nhỏ xíu ở Hà Nội khiến Jeff và Lindsay trông như những người khổng lồ đang ngồi ở quán ăn ven đường.
					Rút tiền ở Việt Nam, khách Tây ngỡ mình là triệu phú  /  Khách Tây căng bụng sau bữa nhậu tại Việt Nam                    
					Vợ chồng Jeff và Lindsay là những cây bút của No Apprroval Needed, họ có dịp ghé thăm Việt Nam vào năm 2015. Jeff cùng Lindsay lỡ tour nghỉ trên du thuyền tại Hạ Long nên họ quyết định dạo chơi quanh Hà Nội trong 2 ngày. Lịch trình bất ngờ này hóa ra lại khá thú vị với cả hai. 
					Ẩm thực chính là điều hấp dẫn nhất ở Hà Nội đối với Jeff. Anh yêu phở Việt Nam, bánh mì cũng dần trở nên phổ biến với người dân khu Wicker Park (Chicago, bang Illinois, Mỹ) nơi anh sinh sống. Jeff vô cùng háo hức thưởng thức những món ăn này ngay tại Việt Nam. Ảnh: Isolation.
					Jeff, Lindsay và 4 du khách nước ngoài khác cùng đi tour khám phá ẩm thực đường phố Hà Nội. Đầu tiên, họ dừng chân tại một quán bún riêu cua gia truyền. Jeff không nghĩ anh sẽ tìm ăn món này khi đến Việt Nam, song vị của nó rất ngon.
					Sau bữa sáng với bún riêu, họ tìm đến hàng nộm nổi tiếng nằm ngay trên phố Hồ Hoàn Kiếm. Theo Jeff, du khách đến Hà Nội khó lòng đi bộ trên vỉa hè, vì 90% diện tích vỉa hè được dùng làm bãi đỗ xe máy, trong khi 10% còn lại được dùng làm nơi bán hàng. Họ ngồi ăn ngay trên vỉa hè, bàn ghế nhựa thực sự nhỏ so với những vị khách nước ngoài khiến Jeff và Lindsay cảm thấy mình như những người khổng lồ. Cũng vì bàn ghế nhỏ, chủ quán có thể dễ dàng bê tất cả vào trong cửa hàng khi có người tới kiểm tra. 
					Điểm dừng tiếp theo của cả nhóm là một hàng bánh cuốn. Jeff và Lindsay đầy ngạc nhiên khi thấy những người bán hàng thoăn thoắt làm từng công đoạn từ tráng tới cuốn bánh. Một người đổ một muỗng bột bánh, đợi 5 giây rồi nhanh chóng dùng một chiếc đũa nhỏ hớt bánh lên và chuyển cho người cuốn nhân phía sau. Họ làm luôn tay trong suốt thời gian những du khách đứng xem. 
					Lindsay và Jeff cũng thử tráng bánh bằng chiếc đũa của cô bán hàng, tác phẩm của họ khác nhau một trời một vực. 
					Món bánh mì rất hợp khẩu vị của Jeff khi bánh được nướng mới giòn tan. Điều đáng buồn là khi anh cùng Lindsay quay trở lại tiệm bánh để thưởng thức hương vị ngon lành ấy thêm lần nữa, chủ hàng lại bán những chiếc bánh cũ trong ngày và họ chỉ hâm nóng lại. Điều này phá tan cảm giác kỳ diệu khi ăn bánh mì của hai du khách lúc trước. 
	Xem thêm: Du khách Tây: 'Tôi uống bia rồi ngủ sớm, chẳng có gì chơi'
	Ảnh: No Apprroval Needed.                        
                                    Phạm Huyền
                                                                              |  
									Gửi bài viết chia sẻ tại đây hoặc về dulich@vnexpress.net
                Việt Nam qua con mắt du khách nước ngoài
                    Diễm My ăn trưa, trồng rau cùng người dân Hội An (19/11)
                                             
                    Khách Tây nói người Việt bấm còi xe như chơi nhạc (15/11)
                                             
                    Khỉ Cát Bà trộm nước ngọt của du khách lên báo Mỹ (15/11)
                                             
                    Việt Nam trong mắt giới trẻ Thái Lan (15/11)
                                             
                    Khách Tây khen nhà chờ mới ở sân bay Tân Sơn Nhất (13/11)
                                             
                Xem thêm
            Xem nhiều nhất
                            'Thời gian biểu' du lịch Việt Nam bốn mùa đều đẹp
                                                             
                                Góc tối của lễ hội phụ nữ khoe ngực trần tại Tây Ban Nha
                                                                     
                                Cặp du khách Trung Quốc quan hệ tình dục trong công viên
                                                                     
                                Cả công viên 'nín thở' chờ du khách béo trượt máng
                                                                     
                                Bí mật đáng sợ bên dưới hệ thống tàu điện ngầm London
                                                                     
                 
                Ý kiến bạn đọc (0) 
                Mới nhất | Quan tâm nhất
                Mới nhấtQuan tâm nhất
            Xem thêm
                        Ý kiến của bạn
                            20/1000
                                    Tắt chia sẻĐăng xuất
                         
                                Ý kiến của bạn
                                20/1000
                                 
                Tags
                                    Khách tây
                                Du khách nước ngoài
                                Khách tây ăn bánh mì
                                Khách tây ăn phở
                                Nộm bờ hồ
                                Hồ hoàn kiếm
                                Bánh cuốn
                                Bánh mì
                                Ghế nhựa
                                Quán ăn vỉa hè
                                Ăn vặt vỉa hè
                                Bún riêu cua
                                Bún riêu
                                Phở
    Tin Khác
                                                     
                            Diễm My ăn trưa, trồng rau cùng người dân Hội An
                                                             
                            Du khách đứng tim vì voi chặn đầu xe
                                                             
                                                     
                            Đồi cỏ hồng Đà Lạt biến thành cỏ tuyết sau một đêm
                                                             
                            Kỷ niệm hài hước với toilet trên đường du lịch
                                                             
                                    Hành khách phát hiện gián trong bữa ăn chay trên máy bay
                                                                             
                                    Vợ chồng Thu Phương nếm 'bún chửi' Hà Nội
                                                                             
                                    Du khách mỏi tay câu cá khổng lồ tại Thái Lan
                                                                             
                                    Cả công viên 'nín thở' chờ du khách béo trượt máng
                                                                             
                                    Cặp du khách Trung Quốc quan hệ tình dục trong công viên
                                                                             
                                    Quang Vinh khám phá hai mặt đối lập của Sài Gòn
                                                                             
                                    Khách Tây nói người Việt bấm còi xe như chơi nhạc
                                                                             
                                    Giây phút kinh hoàng của chàng trai thoát chết trong lễ hội 'bò đuổi'
                                                                             
                                    Cách tiêu tiền của khách Trung Quốc và sự khác biệt về đẳng cấp
                                                                             
                                    Hòn đảo chỉ phục vụ khách VIP ở Philippines
                                                                             
        Khuyến mãi Du lịch
		  prev
		   next
                                Tour Phú Quốc - Vinpearl Land gồm vé máy bay từ 2,9 triệu đồng
                                        2,999,000 đ 4,160,000 đ
                                        16/11/2016 - 30/12/2016                                    
                                                                Hành trình trọn gói và Free and Easy tới Phú Quốc với nhiều lựa chọn hấp dẫn cùng khuyến mại dịp cuối năm dành cho 
                                Giảm hơn 2 triệu đồng tour Nhật Bản 6 ngày 5 đêm
                                        33,800,000 đ 35,990,000 đ
                                        01/10/2016 - 31/12/2016                                    
                                                                Hongai Tours đưa du khách khám phá xứ Phù Tang mùa lá đỏ theo hành trình Nagoya - Nara - Osaka - Kyoto - núi Phú Sĩ - Tokyo.
                                Vietrantour tặng 10 triệu đồng tour Nam Phi 8 ngày
                                        49,900,000 đ 59,900,000 đ
                                        21/10/2016 - 01/12/2016                                    
                                                                Tour 8 ngày Johannesburg - Sun City - Pretoria - Capetown, bay hàng không 5 sao Qatar Airways, giá chỉ 49,99 triệu đồng.
                                Tour Hải Nam, Trung Quốc 5 ngày giá từ 7,99 triệu đồng
                                        7,990,000 đ 9,990,000 đ
                                        19/10/2016 - 07/12/2016                                    
                                                                Hành trình 5 ngày Hải Khẩu - Hưng Long - Tam Á khởi hành ngày 1, 8, 15, 22, 29/11 và 6, 13, 20, 27/12, giá từ 7,99 triệu đồng.
                                Tour Nhật Bản đón năm mới giá chỉ 28,9 triệu đồng
                                        28,900,000 đ 35,900,000 đ
                                        17/11/2016 - 14/12/2016                                    
                                                                Hành trình sẽ đưa du khách đến cầu may đầu xuân ở đền Kotohira Shrine, mua sắm hàng hiệu giá rẻ dưới lòng đất, tham 
                                Tour Campuchia 4 ngày giá chỉ 8,7 triệu đồng
                                        8,700,000 đ 10,990,000 đ
                                        02/11/2016 - 26/01/2017                                    
                                                                Hành trình Phnom Penh - Siem Reap 4 ngày, bay hãng hàng không quốc gia Cambodia Angkor Air, giá chỉ 8,7 triệu đồng.
                                Tour ngắm hoa tam giác mạch từ 1,99 triệu đồng
                                        1,990,000 đ 2,390,000 đ
                                        08/10/2016 - 30/11/2016                                    
                                                                Danh Nam Travel đưa du khách đi ngắm hoa tam giác mạch tại Hà Giang 3 ngày 2 đêm với giá trọn gói từ 1,99 triệu đồng.
        Việt Nam
         
                Quán bún măng vịt mỗi ngày chỉ bán một tiếng
                        Nằm sâu trong con hẻm nhỏ trên đường Lê Văn Sỹ quận Tân Bình, TP HCM, quán bún vịt chỉ phục vụ khách từ 15h30 và đóng hàng sau đó chừng một tiếng.
            Bắc Trung Bộ hút khách Thái Lan để vực dậy du lịchViệt Nam đứng top đầu khách chi tiêu nhiều nhất ở Nhật BảnKhông gian điện ảnh đẳng cấp tại Vinpearl Đà Nẵng
         Gửi bài viết về tòa soạn
        Quốc tế
         
                Những câu lạc bộ thoát y nóng bỏng nhất thế giới
                        Những cô nàng chân dài với thân hình đồng hồ cát, điệu nhảy khiêu gợi, đồ uống lạnh hảo hạng và điệu nhảy bốc lửa trong các câu lạc bộ thoát y luôn kích thích các giác quan của du khách.
            Bé gái Ấn Độ hồn nhiên tóm cổ rắn hổ mang chúaBí mật đáng sợ bên dưới hệ thống tàu điện ngầm LondonNgã xuống hồ nước nóng, du khách chết mất xác
        Ảnh
         
                             
            Diễm My ăn trưa, trồng rau cùng người dân Hội An
            Diễn viên Diễm My đã có dịp dùng bữa cùng một cặp vợ chồng ở làng Trà Quế, Hội An, trước khi thực hiện bộ ảnh "Vẻ đẹp không tuổi" cùng nhiếp ảnh gia Pháp.
                                     
                Đồi cỏ hồng Đà Lạt biến thành cỏ tuyết sau một đêm
                                     
                Quang Vinh khám phá hai mặt đối lập của Sài Gòn
        Video
         
            Du khách đứng tim vì voi chặn đầu xe
            Đoàn du khách được một phen hú hồn vì gặp đàn voi khi thăm một khu bảo tồn thiên nhiên tại châu Phi.
                Du khách la hét vì chơi tàu lượn dốc nhất thế giới
                Cả công viên 'nín thở' chờ du khách béo trượt máng
        Bình luận hay
					Trang chủ
                         Đặt VnExpress làm trang chủ
                         Đặt VnExpress làm trang chủ
                         Về đầu trang
                     
								  Thời sự
								  Góc nhìn
								  Pháp luật
								  Giáo dục
								  Thế giới
								  Gia đình
								  Kinh doanh
							   Hàng hóa
							   Doanh nghiệp
							   Ebank
								  Giải trí
							   Giới sao
							   Thời trang
							   Phim
								  Thể thao
							   Bóng đá
							   Tennis
							   Các môn khác
								  Video
								  Ảnh
								  Infographics
								  Sức khỏe
							   Các bệnh
							   Khỏe đẹp
							   Dinh dưỡng
								  Du lịch
							   Việt Nam
							   Quốc tế
							   Cộng đồng
								  Khoa học
							   Môi trường
							   Công nghệ mới
							   Hỏi - đáp
								  Số hóa
							   Sản phẩm
							   Đánh giá
							   Đời sống số
								  Xe
							   Tư vấn
							   Thị trường
							   Diễn đàn
								  Cộng đồng
								  Tâm sự
								  Cười
								  Rao vặt
                    Trang chủThời sựGóc nhìnThế giớiKinh doanhGiải tríThể thaoPháp luậtGiáo dụcSức khỏeGia đìnhDu lịchKhoa họcSố hóaXeCộng đồngTâm sựVideoCườiRao vặt
                            © Copyright 1997 VnExpress.net,  All rights reserved
                            ® VnExpress giữ bản quyền nội dung trên website này.
                            VnExpress tuyển dụng   Liên hệ quảng cáo  / Liên hệ Tòa soạn
                            Thông tin Tòa soạn.0123.888.0123 (HN) - 0129.233.3555 (TP HCM)
                                     Liên hệ Tòa soạn
                                     Thông tin Tòa soạn
                                    0123.888.0123 (HN) 
                                    0129.233.3555 (TP HCM)
                                © Copyright 1997 VnExpress.net,  All rights reserved
                                ® VnExpress giữ bản quyền nội dung trên website này.
                     
         
