url:http://dulich.vnexpress.net/photo/anh-video/canh-london-khi-khong-mot-bong-nguoi-3436691.html
Tittle :Cảnh London khi không một bóng người - VnExpress Du lịch
content : 
                     Trang chủ Thời sự Góc nhìn Thế giới Kinh doanh Giải trí Thể thao Pháp luật Giáo dục Sức khỏe Gia đình Du lịch Khoa học Số hóa Xe Cộng đồng Tâm sự Rao vặt Video Ảnh  Cười 24h qua Liên hệ Tòa soạn Thông tin Tòa soạn
                            © Copyright 1997- VnExpress.net, All rights reserved
                            ® VnExpress giữ bản quyền nội dung trên website này.
                         Hotline:
                            0123.888.0123 (Hà Nội) 
                            0129.233.3555 (TP HCM) 
                                    Thế giớiPháp luậtXã hộiKinh doanhGiải tríÔ tô - Xe máy Thể thaoSố hóaGia đình
                         
                     
                    Thời sựThế giớiKinh doanhGiải tríThể thaoPháp luậtGiáo dụcSức khỏeGia đìnhDu lịchKhoa họcSố hóaXeCộng đồngTâm sựVideoCườiRao vặt
    Việt NamQuốc tếCộng đồngẢnh
		        24h qua
            Du lịch Ảnh 
                                        Du Lịch 
                                        Ảnh 
                                 
                                Việt NamQuốc tếCộng đồngẢnh
                            Chủ nhật, 17/7/2016 | 19:00 GMT+7                        
|
                        Cảnh London khi không một bóng người                                                
                    Trong từng bức ảnh, London náo nhiệt bỗng hiện im ắng, vắng vẻ không một bóng người khiến du khách liên tưởng tới khung cảnh về ngày tận thế thường xuất hiện trong phim Hollywood.
                                Vẻ đẹp khác biệt giữa ngày và đêm ở London
                                Nhà vệ sinh công cộng thời Victoria ở London
                                             
	Benjamin Graham là nhiếp ảnh gia đến từ West Sussex, Anh. Anh đã dành nhiều giờ đồng hồ để chụp cảnh đường phố London trước khi bình minh lên.
                                                                                 
                                             
	Để có được những bức ảnh London vắng lặng không một bóng người này, nhiếp ảnh gia đã phải dành nhiều ngày liền, thức dậy từ 2h30 sáng và bắt xe bus vào thành phố trước 4h30 sáng để chụp ảnh.
                                                                                 
                                             
	Những địa danh chính mà Benjamin chọn để chụp ảnh là nhà thờ St Paul, Cầu Tháp và sông Thames.
                                                                                 
                                             
	Nhiều du khách khi nhìn thấy những bức ảnh cho biết, họ có cảm giác như nước Anh đang ở trong giai đoạn "hậu khải huyền" - những ngày sau ngày tận thế vì khung cảnh quá im lìm, không một bóng người.
                                                                                 
                                             
	Nhiếp ảnh gia 56 tuổi cho biết, chụp London trước bình minh là một sở thích và anh cũng không muốn nhìn ngắm thủ đô vào ban đêm - khi ngoài đường phố có quá nhiều ánh đèn rực rỡ.
                                                                                 
                                             
	Khi chụp, Benjamin hy vọng sẽ có những bức ảnh đón bình minh huy hoàng.
                                                                                 
                                             
	Tuy nhiên thời tiết có vẻ không chiều lòng người, nên bầu trời khá xám xịt.
                                                                                 
                                             
	"Tôi chọn London vì nó có sự pha trộn tuyệt vời giữa các tòa nhà hiện đại và lịch sử".
	 
                                                                                 
                                             
	Để có được những bức ảnh thú vị này, Benjamin đã phải thức dậy từ 2h30. Đây là thời điểm thật "đau khổ" khi phải chui ra khỏi chăn ấm. Tuy nhiên, khung cảnh đường phố vắng bóng người lại quá đẹp, khiến nhà nhiếp ảnh quên đi nỗi khó khăn của việc dậy sớm.
                                                                                 
                                             
	Benjamin cho biết, chỉ vài tiếng sau bình minh thôi là những nơi này sẽ chật cứng người đi lại.
                                                                                 
                                    Anh Minh
                                                                              |  
                Theo chân người chụp ảnh
                    Hội An nhìn từ trên cao (14/11)
                                             
                    Vẻ đẹp cổ tích của mùa thu nước Mỹ nhìn từ trên cao (13/11)
                                             
                    Làng ươm tơ bằng tay nổi tiếng nhất Việt Nam (27/10)
                                             
                    Khác biệt trời - vực giữa ảnh chụp chuyên nghiệp và amateur (16/10)
                                             
                    Ruộng bậc thang đầy màu sắc lạ ở Vân Nam (29/9)
                                             
                Xem thêm
                         
                Ý kiến bạn đọc (0) 
                Mới nhất | Quan tâm nhất
                Mới nhấtQuan tâm nhất
            Xem thêm
                        Ý kiến của bạn
                            20/1000
                                    Tắt chia sẻĐăng xuất
                         
                                Ý kiến của bạn
                                20/1000
                                 
                        Tags
                                                    London
                                                    Anh quốc
                                                    Ngày tận thế
                                                    Du khách
                                                    Du lịch
                                                    Cầu tháp
    Tin Khác
                                                     
                            Diễm My ăn trưa, trồng rau cùng người dân Hội An
                                                             
                                                     
                            Khu ổ chuột đầy rẫy tội phạm một thời ở Hong Kong
                                                             
                                                     
                            Góc tối của lễ hội phụ nữ khoe ngực trần tại Tây Ban Nha
                                                             
                            Những bữa tiệc 'nóng mắt' với bong bóng xà phòng
                                                             
                                    Đồi cỏ hồng Đà Lạt biến thành cỏ tuyết sau một đêm
                                                                             
                                    Vợ chồng Thu Phương nếm 'bún chửi' Hà Nội
                                                                             
                                    'Vườn thú người' - vết nhơ trong lịch sử châu Âu
                                                                             
                                    Vẻ đẹp của thị trấn nơi William và Kate gặp nhau
                                                                             
                                    Khu cắm trại giữa rừng dương cách Sài Gòn 3 giờ chạy xe
                                                                             
                                    Vẻ đẹp thơ mộng mùa lá đỏ Nhật Bản
                                                                             
                                    Bên trong thị trấn ma lớn nhất thế giới ở quê hương Thành Cát Tư Hãn
                                                                             
                                    Cô gái bị fan cuồng sao y bản chính khi đi du lịch
                                                                             
                                    Quang Vinh khám phá hai mặt đối lập của Sài Gòn
                                                                             
                                    Bảo tàng áo dài tư nhân duy nhất ở Sài Gòn
                                                                             
        Khuyến mãi Du lịch
		  prev
		   next
                                Tour Campuchia 4 ngày giá chỉ 8,7 triệu đồng
                                        8,700,000 đ 10,990,000 đ
                                        02/11/2016 - 26/01/2017                                    
                                                                Hành trình Phnom Penh - Siem Reap 4 ngày, bay hãng hàng không quốc gia Cambodia Angkor Air, giá chỉ 8,7 triệu đồng.
                                Tour Nhật Bản đón năm mới giá chỉ 28,9 triệu đồng
                                        28,900,000 đ 35,900,000 đ
                                        17/11/2016 - 14/12/2016                                    
                                                                Hành trình sẽ đưa du khách đến cầu may đầu xuân ở đền Kotohira Shrine, mua sắm hàng hiệu giá rẻ dưới lòng đất, tham 
                                Tour ngắm hoa tam giác mạch từ 1,99 triệu đồng
                                        1,990,000 đ 2,390,000 đ
                                        08/10/2016 - 30/11/2016                                    
                                                                Danh Nam Travel đưa du khách đi ngắm hoa tam giác mạch tại Hà Giang 3 ngày 2 đêm với giá trọn gói từ 1,99 triệu đồng.
                                Vietrantour tặng 10 triệu đồng tour Nam Phi 8 ngày
                                        49,900,000 đ 59,900,000 đ
                                        21/10/2016 - 01/12/2016                                    
                                                                Tour 8 ngày Johannesburg - Sun City - Pretoria - Capetown, bay hàng không 5 sao Qatar Airways, giá chỉ 49,99 triệu đồng.
                                Tour Hải Nam, Trung Quốc 5 ngày giá từ 7,99 triệu đồng
                                        7,990,000 đ 9,990,000 đ
                                        19/10/2016 - 07/12/2016                                    
                                                                Hành trình 5 ngày Hải Khẩu - Hưng Long - Tam Á khởi hành ngày 1, 8, 15, 22, 29/11 và 6, 13, 20, 27/12, giá từ 7,99 triệu đồng.
                                Giảm hơn 2 triệu đồng tour Nhật Bản 6 ngày 5 đêm
                                        33,800,000 đ 35,990,000 đ
                                        01/10/2016 - 31/12/2016                                    
                                                                Hongai Tours đưa du khách khám phá xứ Phù Tang mùa lá đỏ theo hành trình Nagoya - Nara - Osaka - Kyoto - núi Phú Sĩ - Tokyo.
                                Tour Phú Quốc - Vinpearl Land gồm vé máy bay từ 2,9 triệu đồng
                                        2,999,000 đ 4,160,000 đ
                                        16/11/2016 - 30/12/2016                                    
                                                                Hành trình trọn gói và Free and Easy tới Phú Quốc với nhiều lựa chọn hấp dẫn cùng khuyến mại dịp cuối năm dành cho 
        Xem nhiều nhất
    Góc tối của lễ hội phụ nữ khoe ngực trần tại Tây Ban NhaCặp du khách Trung Quốc quan hệ tình dục trong công viênCả công viên 'nín thở' chờ du khách béo trượt mángBí mật đáng sợ bên dưới hệ thống tàu điện ngầm LondonChàng tiên cá có thật giữa đời thường
					Trang chủ
                         Đặt VnExpress làm trang chủ
                         Đặt VnExpress làm trang chủ
                         Về đầu trang
                     
								  Thời sự
								  Góc nhìn
								  Pháp luật
								  Giáo dục
								  Thế giới
								  Gia đình
								  Kinh doanh
							   Hàng hóa
							   Doanh nghiệp
							   Ebank
								  Giải trí
							   Giới sao
							   Thời trang
							   Phim
								  Thể thao
							   Bóng đá
							   Tennis
							   Các môn khác
								  Video
								  Ảnh
								  Infographics
								  Sức khỏe
							   Các bệnh
							   Khỏe đẹp
							   Dinh dưỡng
								  Du lịch
							   Việt Nam
							   Quốc tế
							   Cộng đồng
								  Khoa học
							   Môi trường
							   Công nghệ mới
							   Hỏi - đáp
								  Số hóa
							   Sản phẩm
							   Đánh giá
							   Đời sống số
								  Xe
							   Tư vấn
							   Thị trường
							   Diễn đàn
								  Cộng đồng
								  Tâm sự
								  Cười
								  Rao vặt
                    Trang chủThời sựGóc nhìnThế giớiKinh doanhGiải tríThể thaoPháp luậtGiáo dụcSức khỏeGia đìnhDu lịchKhoa họcSố hóaXeCộng đồngTâm sựVideoCườiRao vặt
                            © Copyright 1997 VnExpress.net,  All rights reserved
                            ® VnExpress giữ bản quyền nội dung trên website này.
                            VnExpress tuyển dụng   Liên hệ quảng cáo  / Liên hệ Tòa soạn
                            Thông tin Tòa soạn.0123.888.0123 (HN) - 0129.233.3555 (TP HCM)
                                     Liên hệ Tòa soạn
                                     Thông tin Tòa soạn
                                    0123.888.0123 (HN) 
                                    0129.233.3555 (TP HCM)
                                © Copyright 1997 VnExpress.net,  All rights reserved
                                ® VnExpress giữ bản quyền nội dung trên website này.
                     
         
