url:http://dulich.vnexpress.net/photo/anh-video/diem-my-an-trua-trong-rau-cung-nguoi-dan-hoi-an-3500675.html?utm_campaign=boxtracking&utm_medium=box_topic&utm_source=detail
Tittle :Diễm My ăn trưa, trồng rau cùng người dân Hội An - VnExpress Du lịch
content : 
                     Trang chủ Thời sự Góc nhìn Thế giới Kinh doanh Giải trí Thể thao Pháp luật Giáo dục Sức khỏe Gia đình Du lịch Khoa học Số hóa Xe Cộng đồng Tâm sự Rao vặt Video Ảnh  Cười 24h qua Liên hệ Tòa soạn Thông tin Tòa soạn
                            © Copyright 1997- VnExpress.net, All rights reserved
                            ® VnExpress giữ bản quyền nội dung trên website này.
                         Hotline:
                            0123.888.0123 (Hà Nội) 
                            0129.233.3555 (TP HCM) 
                                    Thế giớiPháp luậtXã hộiKinh doanhGiải tríÔ tô - Xe máy Thể thaoSố hóaGia đình
                         
                     
                    Thời sựThế giớiKinh doanhGiải tríThể thaoPháp luậtGiáo dụcSức khỏeGia đìnhDu lịchKhoa họcSố hóaXeCộng đồngTâm sựVideoCườiRao vặt
    Việt NamQuốc tếCộng đồngẢnh
		        24h qua
            Du lịch Ảnh 
                                        Du Lịch 
                                        Ảnh 
                                 
                                Việt NamQuốc tếCộng đồngẢnh
                            Thứ bảy, 19/11/2016 | 14:05 GMT+7                        
|
                        Diễm My ăn trưa, trồng rau cùng người dân Hội An                                                
                    Diễn viên Diễm My đã có dịp dùng bữa cùng một cặp vợ chồng ở làng Trà Quế, Hội An, trước khi thực hiện bộ ảnh "Vẻ đẹp không tuổi" cùng nhiếp ảnh gia Pháp.
                                Vẻ đẹp phụ nữ Việt Nam trong mắt nhiếp ảnh gia Pháp
                                Vẻ đẹp du lịch Việt qua ống kính nhiếp ảnh gia
                                             
	Sống tại Việt Nam 9 năm, Rehahn đam mê rong ruổi mọi miền của đất nước để chụp lại vẻ đẹp tự nhiên nhất của phụ nữ Việt. Mới đây, anh đã có dịp ghi lại những khoảnh khắc vui vẻ của diễn viên Diễm My 9x và thế hệ người lớn tuổi ở Hội An, trong đó có cụ Bùi Thị Xong, được mệnh danh là cụ bà đẹp nhất thế giới.
                                                                                 
                                             
	Diễm My ăn cơm trưa tại nhà một cặp vợ chồng ở làng rau Trà Quế. Theo nhiếp ảnh gia Pháp, không có cách nào để hiểu nhau tốt hơn là cùng nhau thưởng thức đồ ăn Việt.
                                                                                 
                                             
	Cô cũng không ngại nắng ra vườn trồng rau, nhổ cỏ với những người phụ nữ ở đây. Diễm My cho biết đây là một trong những khoảnh khắc tuyệt vời nhất trong cuộc đời cô.
                                                                                 
                                             
	"Vẻ đẹp không tuổi" là dự án mới của nhiếp ảnh gia Pháp Rehahn sau nhiều năm gắn bó với Việt Nam, nhằm quảng bá nét đẹp của phụ nữ Việt qua các thế hệ. Diễm My là nghệ sĩ mới nhất tham gia dự án này. Cô chụp ảnh cùng cụ Bùi Thị Xong và theo Rehahn khó có thể biết ai đẹp hơn trong bức ảnh trên.
                                                                                 
                                             
	"Tôi muốn cho mọi người thấy rằng, vẻ đẹp không tuổi được phản ánh qua tình yêu dành cho người lớn tuổi và tình yêu thương giữa các thế hệ với nhau, vốn là một phần rất quan trọng trong văn hóa Việt", tác giả bộ ảnh chia sẻ. 
                                                                                 
                                             
	Trước Diễm My, ca sĩ Văn Mai Hương cũng tham gia dự án này và cô tạo dáng chụp ảnh giống bức hình nổi tiếng về cụ Xong. Hương cho biết: "Mỗi khi nói chuyện về Việt Nam, tôi nhận ra anh dành rất nhiều tình cảm cho nơi này và coi đó như ngôi nhà thứ hai của mình".
                                                                                 
                                             
	Đây cũng là lần đầu Văn Mai Hương ngồi thuyền ở Hội An và tận hưởng bầu không khí trong lành, yên tĩnh và lãng mạn ở hai bên bờ sông Thu Bồn.
                                                                                 
                                             
	Hiện bộ ảnh Vẻ đẹp không tuổi được triển lãm tại Bảo tàng Phụ nữ Việt Nam, Hà Nội.
                                                                                 
                                             
	Bức ảnh cụ Bùi Thị Xong lấy tay che mặt khi nhiếp ảnh gia giơ máy lên chụp, được ra mắt lần đầu năm 2014 đã tạo được tiếng vang lớn. Báo chí Mỹ đánh giá đây là "Cụ bà đẹp nhất thế giới" với đôi mắt biết cười.
                                                                                 
	Ảnh: Rehahn
                                    Vy An
                                                                              |  
                Việt Nam qua con mắt du khách nước ngoài
                    Khách Tây nói người Việt bấm còi xe như chơi nhạc (15/11)
                                             
                    Khỉ Cát Bà trộm nước ngọt của du khách lên báo Mỹ (15/11)
                                             
                    Việt Nam trong mắt giới trẻ Thái Lan (15/11)
                                             
                    Khách Tây khen nhà chờ mới ở sân bay Tân Sơn Nhất (13/11)
                                             
                    Ăn ở vỉa hè Hà Nội, khách Tây thấy mình như người khổng lồ (12/11)
                                             
                Xem thêm
                         
                Ý kiến bạn đọc (0) 
                Mới nhất | Quan tâm nhất
                Mới nhấtQuan tâm nhất
            Xem thêm
                        Ý kiến của bạn
                            20/1000
                                    Tắt chia sẻĐăng xuất
                         
                                Ý kiến của bạn
                                20/1000
                                 
                        Tags
                                                    Rehahn
                                                    Vẻ đẹp không tuổi
                                                    Diễm my
                                                    Văn mai hương
                                                    Nhiếp ảnh gia
                                                    Ngày Phụ nữ Việt Nam
    Tin Khác
                                                     
                            Khu ổ chuột đầy rẫy tội phạm một thời ở Hong Kong
                                                             
                                                     
                            Góc tối của lễ hội phụ nữ khoe ngực trần tại Tây Ban Nha
                                                             
                            Những bữa tiệc 'nóng mắt' với bong bóng xà phòng
                                                             
                                                     
                            Đồi cỏ hồng Đà Lạt biến thành cỏ tuyết sau một đêm
                                                             
                                    Vợ chồng Thu Phương nếm 'bún chửi' Hà Nội
                                                                             
                                    'Vườn thú người' - vết nhơ trong lịch sử châu Âu
                                                                             
                                    Vẻ đẹp của thị trấn nơi William và Kate gặp nhau
                                                                             
                                    Khu cắm trại giữa rừng dương cách Sài Gòn 3 giờ chạy xe
                                                                             
                                    Vẻ đẹp thơ mộng mùa lá đỏ Nhật Bản
                                                                             
                                    Bên trong thị trấn ma lớn nhất thế giới ở quê hương Thành Cát Tư Hãn
                                                                             
                                    Cô gái bị fan cuồng sao y bản chính khi đi du lịch
                                                                             
                                    Quang Vinh khám phá hai mặt đối lập của Sài Gòn
                                                                             
                                    Bảo tàng áo dài tư nhân duy nhất ở Sài Gòn
                                                                             
                                    Chim trĩ nổi tiếng nhờ 'mái tóc' giống Donald Trump
                                                                             
        Khuyến mãi Du lịch
		  prev
		   next
                                Tour Hải Nam, Trung Quốc 5 ngày giá từ 7,99 triệu đồng
                                        7,990,000 đ 9,990,000 đ
                                        19/10/2016 - 07/12/2016                                    
                                                                Hành trình 5 ngày Hải Khẩu - Hưng Long - Tam Á khởi hành ngày 1, 8, 15, 22, 29/11 và 6, 13, 20, 27/12, giá từ 7,99 triệu đồng.
                                Giảm hơn 2 triệu đồng tour Nhật Bản 6 ngày 5 đêm
                                        33,800,000 đ 35,990,000 đ
                                        01/10/2016 - 31/12/2016                                    
                                                                Hongai Tours đưa du khách khám phá xứ Phù Tang mùa lá đỏ theo hành trình Nagoya - Nara - Osaka - Kyoto - núi Phú Sĩ - Tokyo.
                                Tour Campuchia 4 ngày giá chỉ 8,7 triệu đồng
                                        8,700,000 đ 10,990,000 đ
                                        02/11/2016 - 26/01/2017                                    
                                                                Hành trình Phnom Penh - Siem Reap 4 ngày, bay hãng hàng không quốc gia Cambodia Angkor Air, giá chỉ 8,7 triệu đồng.
                                Vietrantour tặng 10 triệu đồng tour Nam Phi 8 ngày
                                        49,900,000 đ 59,900,000 đ
                                        21/10/2016 - 01/12/2016                                    
                                                                Tour 8 ngày Johannesburg - Sun City - Pretoria - Capetown, bay hàng không 5 sao Qatar Airways, giá chỉ 49,99 triệu đồng.
                                Tour Phú Quốc - Vinpearl Land gồm vé máy bay từ 2,9 triệu đồng
                                        2,999,000 đ 4,160,000 đ
                                        16/11/2016 - 30/12/2016                                    
                                                                Hành trình trọn gói và Free and Easy tới Phú Quốc với nhiều lựa chọn hấp dẫn cùng khuyến mại dịp cuối năm dành cho 
                                Tour Nhật Bản đón năm mới giá chỉ 28,9 triệu đồng
                                        28,900,000 đ 35,900,000 đ
                                        17/11/2016 - 14/12/2016                                    
                                                                Hành trình sẽ đưa du khách đến cầu may đầu xuân ở đền Kotohira Shrine, mua sắm hàng hiệu giá rẻ dưới lòng đất, tham 
                                Tour ngắm hoa tam giác mạch từ 1,99 triệu đồng
                                        1,990,000 đ 2,390,000 đ
                                        08/10/2016 - 30/11/2016                                    
                                                                Danh Nam Travel đưa du khách đi ngắm hoa tam giác mạch tại Hà Giang 3 ngày 2 đêm với giá trọn gói từ 1,99 triệu đồng.
        Xem nhiều nhất
    Góc tối của lễ hội phụ nữ khoe ngực trần tại Tây Ban NhaCặp du khách Trung Quốc quan hệ tình dục trong công viênCả công viên 'nín thở' chờ du khách béo trượt mángBí mật đáng sợ bên dưới hệ thống tàu điện ngầm LondonChàng tiên cá có thật giữa đời thường
					Trang chủ
                         Đặt VnExpress làm trang chủ
                         Đặt VnExpress làm trang chủ
                         Về đầu trang
                     
								  Thời sự
								  Góc nhìn
								  Pháp luật
								  Giáo dục
								  Thế giới
								  Gia đình
								  Kinh doanh
							   Hàng hóa
							   Doanh nghiệp
							   Ebank
								  Giải trí
							   Giới sao
							   Thời trang
							   Phim
								  Thể thao
							   Bóng đá
							   Tennis
							   Các môn khác
								  Video
								  Ảnh
								  Infographics
								  Sức khỏe
							   Các bệnh
							   Khỏe đẹp
							   Dinh dưỡng
								  Du lịch
							   Việt Nam
							   Quốc tế
							   Cộng đồng
								  Khoa học
							   Môi trường
							   Công nghệ mới
							   Hỏi - đáp
								  Số hóa
							   Sản phẩm
							   Đánh giá
							   Đời sống số
								  Xe
							   Tư vấn
							   Thị trường
							   Diễn đàn
								  Cộng đồng
								  Tâm sự
								  Cười
								  Rao vặt
                    Trang chủThời sựGóc nhìnThế giớiKinh doanhGiải tríThể thaoPháp luậtGiáo dụcSức khỏeGia đìnhDu lịchKhoa họcSố hóaXeCộng đồngTâm sựVideoCườiRao vặt
                            © Copyright 1997 VnExpress.net,  All rights reserved
                            ® VnExpress giữ bản quyền nội dung trên website này.
                            VnExpress tuyển dụng   Liên hệ quảng cáo  / Liên hệ Tòa soạn
                            Thông tin Tòa soạn.0123.888.0123 (HN) - 0129.233.3555 (TP HCM)
                                     Liên hệ Tòa soạn
                                     Thông tin Tòa soạn
                                    0123.888.0123 (HN) 
                                    0129.233.3555 (TP HCM)
                                © Copyright 1997 VnExpress.net,  All rights reserved
                                ® VnExpress giữ bản quyền nội dung trên website này.
                     
         
