url:http://dulich.vnexpress.net/tin-tuc/cong-dong/dau-chan/vat-bat-ly-than-cua-sao-hollywood-tren-duong-du-lich-3482269.html
Tittle :Vật bất ly thân của sao Hollywood trên đường du lịch - VnExpress Du lịch
content : 
                     Trang chủ Thời sự Góc nhìn Thế giới Kinh doanh Giải trí Thể thao Pháp luật Giáo dục Sức khỏe Gia đình Du lịch Khoa học Số hóa Xe Cộng đồng Tâm sự Rao vặt Video Ảnh  Cười 24h qua Liên hệ Tòa soạn Thông tin Tòa soạn
                            © Copyright 1997- VnExpress.net, All rights reserved
                            ® VnExpress giữ bản quyền nội dung trên website này.
                         Hotline:
                            0123.888.0123 (Hà Nội) 
                            0129.233.3555 (TP HCM) 
                                    Thế giớiPháp luậtXã hộiKinh doanhGiải tríÔ tô - Xe máy Thể thaoSố hóaGia đình
                         
                     
                    Thời sựThế giớiKinh doanhGiải tríThể thaoPháp luậtGiáo dụcSức khỏeGia đìnhDu lịchKhoa họcSố hóaXeCộng đồngTâm sựVideoCườiRao vặt
    Việt NamQuốc tếCộng đồngẢnh
		        24h qua
            Du lịch Cộng đồng 
                        Dấu chânTư vấnHỏi - Đáp
                                        Du Lịch 
                                        Dấu chân 
                                 
                                Việt NamQuốc tếCộng đồngẢnh
						Thứ tư, 12/10/2016 | 19:00 GMT+7
|
						Vật bất ly thân của sao Hollywood trên đường du lịch												
					Trong các chuyến bay để đi nghỉ dưỡng của mình, siêu vòng 3 Kim Kardashian thường mang theo gối ôm, còn Gwyneth Paltrow lại thích mang theo keo bạc để diệt khuẩn khắp nơi.
					Những khu nghỉ xa hoa, đẳng cấp của sao Hollywood  /  Những chuyến du lịch đáng nhớ của Angelina Jolie và Brad Pitt                    
					Người mẫu Chrissy Teigen thường mang theo mặt nạ, đồ trang điểm khi lên máy bay.
					Cựu thiên thần Victoria's Secret thường mang theo nước hoa hồng, kem làm mềm da và khăn lụa mỏng khi di chuyển bằng máy bay.
					Chiếc gối ngủ tối màu là vật mà Kim Kardashian thường mang lên máy bay mỗi lần di chuyển.
					Ngoài việc chuộng kính mát khi ra sân bay, ngôi sao của Iron Man Gwyneth Paltrow thường mang theo keo bạc mỗi khi lên máy bay. Cô thường xịt keo bạc lên chỗ ngồi của mình và xung quanh để diệt khuẩn.
					Cô nàng "quái tính" Cara Delevingne là một fan cuồng của gối đà điểu. Nữ người mẫu thường mang theo gối mỗi khi lên máy bay để ngủ. Ngoài ra, nước hoa hồng, các loại dầu dưỡng da cũng được Cara mang bên mình.
					Trong chuyến bay tới Nhật Bản, nữ ca sĩ Taylor Swift thừa nhận cô dùng bút Sharpie, một loại bút dạ màu đen để kẻ viền mắt khi cô quên không mang theo bút kẻ eyeliner và phát hiện ra điều đó khi đang trên máy bay.
					Nữ diễn viên Jennifer Aniston thường ăn salad và uống nhiều nước khi ngồi máy bay. Cô tin rằng điều đó sẽ đem lại cho mình gương mặt rạng rỡ.
					Nữ diễn viên Cate Blanchett thường dùng các liệu pháp dưỡng da trước khi lên máy bay để bảo vệ da mặt hoàn hảo của mình.
	Xem thêm Chuyến du lịch lừa đảo tại Hollywood                        
                                    Anh Minh
                                                                              |  
									Gửi bài viết chia sẻ tại đây hoặc về dulich@vnexpress.net
                Theo Sao đi du lịch
                    Vẻ đẹp của thị trấn nơi William và Kate gặp nhau (17/11)
                                             
                    Bạn có nhận ra các điểm check-in của Sao Việt? (6/11)
                                             
                    Mai Chi lạc bước ở Phượng Hoàng cổ trấn (27/10)
                                             
                    Bên trong khách sạn Kim 'siêu vòng 3' bị cướp (4/10)
                                             
                    Mariah Carey du lịch Hy Lạp cùng người tình tỷ phú (25/9)
                                             
                Xem thêm
            Xem nhiều nhất
                            'Thời gian biểu' du lịch Việt Nam bốn mùa đều đẹp
                                                             
                                Góc tối của lễ hội phụ nữ khoe ngực trần tại Tây Ban Nha
                                                                     
                                Cặp du khách Trung Quốc quan hệ tình dục trong công viên
                                                                     
                                Cả công viên 'nín thở' chờ du khách béo trượt máng
                                                                     
                                Bí mật đáng sợ bên dưới hệ thống tàu điện ngầm London
                                                                     
                 
                Ý kiến bạn đọc (0) 
                Mới nhất | Quan tâm nhất
                Mới nhấtQuan tâm nhất
            Xem thêm
                        Ý kiến của bạn
                            20/1000
                                    Tắt chia sẻĐăng xuất
                         
                                Ý kiến của bạn
                                20/1000
                                 
                Tags
                                    Kim Kardashian
                                Tayl
                                Sao Hollywood
                                Du khách
                                Du lịch
    Tin Khác
                                                     
                            Diễm My ăn trưa, trồng rau cùng người dân Hội An
                                                             
                            Du khách đứng tim vì voi chặn đầu xe
                                                             
                                                     
                            Đồi cỏ hồng Đà Lạt biến thành cỏ tuyết sau một đêm
                                                             
                            Kỷ niệm hài hước với toilet trên đường du lịch
                                                             
                                    Hành khách phát hiện gián trong bữa ăn chay trên máy bay
                                                                             
                                    Vợ chồng Thu Phương nếm 'bún chửi' Hà Nội
                                                                             
                                    Du khách mỏi tay câu cá khổng lồ tại Thái Lan
                                                                             
                                    Cả công viên 'nín thở' chờ du khách béo trượt máng
                                                                             
                                    Cặp du khách Trung Quốc quan hệ tình dục trong công viên
                                                                             
                                    Quang Vinh khám phá hai mặt đối lập của Sài Gòn
                                                                             
                                    Khách Tây nói người Việt bấm còi xe như chơi nhạc
                                                                             
                                    Giây phút kinh hoàng của chàng trai thoát chết trong lễ hội 'bò đuổi'
                                                                             
                                    Cách tiêu tiền của khách Trung Quốc và sự khác biệt về đẳng cấp
                                                                             
                                    Hòn đảo chỉ phục vụ khách VIP ở Philippines
                                                                             
        Khuyến mãi Du lịch
		  prev
		   next
                                Vietrantour tặng 10 triệu đồng tour Nam Phi 8 ngày
                                        49,900,000 đ 59,900,000 đ
                                        21/10/2016 - 01/12/2016                                    
                                                                Tour 8 ngày Johannesburg - Sun City - Pretoria - Capetown, bay hàng không 5 sao Qatar Airways, giá chỉ 49,99 triệu đồng.
                                Tour Campuchia 4 ngày giá chỉ 8,7 triệu đồng
                                        8,700,000 đ 10,990,000 đ
                                        02/11/2016 - 26/01/2017                                    
                                                                Hành trình Phnom Penh - Siem Reap 4 ngày, bay hãng hàng không quốc gia Cambodia Angkor Air, giá chỉ 8,7 triệu đồng.
                                Tour Phú Quốc - Vinpearl Land gồm vé máy bay từ 2,9 triệu đồng
                                        2,999,000 đ 4,160,000 đ
                                        16/11/2016 - 30/12/2016                                    
                                                                Hành trình trọn gói và Free and Easy tới Phú Quốc với nhiều lựa chọn hấp dẫn cùng khuyến mại dịp cuối năm dành cho 
                                Tour ngắm hoa tam giác mạch từ 1,99 triệu đồng
                                        1,990,000 đ 2,390,000 đ
                                        08/10/2016 - 30/11/2016                                    
                                                                Danh Nam Travel đưa du khách đi ngắm hoa tam giác mạch tại Hà Giang 3 ngày 2 đêm với giá trọn gói từ 1,99 triệu đồng.
                                Tour Hải Nam, Trung Quốc 5 ngày giá từ 7,99 triệu đồng
                                        7,990,000 đ 9,990,000 đ
                                        19/10/2016 - 07/12/2016                                    
                                                                Hành trình 5 ngày Hải Khẩu - Hưng Long - Tam Á khởi hành ngày 1, 8, 15, 22, 29/11 và 6, 13, 20, 27/12, giá từ 7,99 triệu đồng.
                                Giảm hơn 2 triệu đồng tour Nhật Bản 6 ngày 5 đêm
                                        33,800,000 đ 35,990,000 đ
                                        01/10/2016 - 31/12/2016                                    
                                                                Hongai Tours đưa du khách khám phá xứ Phù Tang mùa lá đỏ theo hành trình Nagoya - Nara - Osaka - Kyoto - núi Phú Sĩ - Tokyo.
                                Tour Nhật Bản đón năm mới giá chỉ 28,9 triệu đồng
                                        28,900,000 đ 35,900,000 đ
                                        17/11/2016 - 14/12/2016                                    
                                                                Hành trình sẽ đưa du khách đến cầu may đầu xuân ở đền Kotohira Shrine, mua sắm hàng hiệu giá rẻ dưới lòng đất, tham 
        Việt Nam
         
                Quán bún măng vịt mỗi ngày chỉ bán một tiếng
                        Nằm sâu trong con hẻm nhỏ trên đường Lê Văn Sỹ quận Tân Bình, TP HCM, quán bún vịt chỉ phục vụ khách từ 15h30 và đóng hàng sau đó chừng một tiếng.
            Bắc Trung Bộ hút khách Thái Lan để vực dậy du lịchViệt Nam đứng top đầu khách chi tiêu nhiều nhất ở Nhật BảnKhông gian điện ảnh đẳng cấp tại Vinpearl Đà Nẵng
         Gửi bài viết về tòa soạn
        Quốc tế
         
                Những câu lạc bộ thoát y nóng bỏng nhất thế giới
                        Những cô nàng chân dài với thân hình đồng hồ cát, điệu nhảy khiêu gợi, đồ uống lạnh hảo hạng và điệu nhảy bốc lửa trong các câu lạc bộ thoát y luôn kích thích các giác quan của du khách.
            Bé gái Ấn Độ hồn nhiên tóm cổ rắn hổ mang chúaBí mật đáng sợ bên dưới hệ thống tàu điện ngầm LondonNgã xuống hồ nước nóng, du khách chết mất xác
        Ảnh
         
                             
            Diễm My ăn trưa, trồng rau cùng người dân Hội An
            Diễn viên Diễm My đã có dịp dùng bữa cùng một cặp vợ chồng ở làng Trà Quế, Hội An, trước khi thực hiện bộ ảnh "Vẻ đẹp không tuổi" cùng nhiếp ảnh gia Pháp.
                                     
                Đồi cỏ hồng Đà Lạt biến thành cỏ tuyết sau một đêm
                                     
                Quang Vinh khám phá hai mặt đối lập của Sài Gòn
        Video
         
            Du khách đứng tim vì voi chặn đầu xe
            Đoàn du khách được một phen hú hồn vì gặp đàn voi khi thăm một khu bảo tồn thiên nhiên tại châu Phi.
                Du khách la hét vì chơi tàu lượn dốc nhất thế giới
                Cả công viên 'nín thở' chờ du khách béo trượt máng
        Bình luận hay
					Trang chủ
                         Đặt VnExpress làm trang chủ
                         Đặt VnExpress làm trang chủ
                         Về đầu trang
                     
								  Thời sự
								  Góc nhìn
								  Pháp luật
								  Giáo dục
								  Thế giới
								  Gia đình
								  Kinh doanh
							   Hàng hóa
							   Doanh nghiệp
							   Ebank
								  Giải trí
							   Giới sao
							   Thời trang
							   Phim
								  Thể thao
							   Bóng đá
							   Tennis
							   Các môn khác
								  Video
								  Ảnh
								  Infographics
								  Sức khỏe
							   Các bệnh
							   Khỏe đẹp
							   Dinh dưỡng
								  Du lịch
							   Việt Nam
							   Quốc tế
							   Cộng đồng
								  Khoa học
							   Môi trường
							   Công nghệ mới
							   Hỏi - đáp
								  Số hóa
							   Sản phẩm
							   Đánh giá
							   Đời sống số
								  Xe
							   Tư vấn
							   Thị trường
							   Diễn đàn
								  Cộng đồng
								  Tâm sự
								  Cười
								  Rao vặt
                    Trang chủThời sựGóc nhìnThế giớiKinh doanhGiải tríThể thaoPháp luậtGiáo dụcSức khỏeGia đìnhDu lịchKhoa họcSố hóaXeCộng đồngTâm sựVideoCườiRao vặt
                            © Copyright 1997 VnExpress.net,  All rights reserved
                            ® VnExpress giữ bản quyền nội dung trên website này.
                            VnExpress tuyển dụng   Liên hệ quảng cáo  / Liên hệ Tòa soạn
                            Thông tin Tòa soạn.0123.888.0123 (HN) - 0129.233.3555 (TP HCM)
                                     Liên hệ Tòa soạn
                                     Thông tin Tòa soạn
                                    0123.888.0123 (HN) 
                                    0129.233.3555 (TP HCM)
                                © Copyright 1997 VnExpress.net,  All rights reserved
                                ® VnExpress giữ bản quyền nội dung trên website này.
                     
         
