url:http://dulich.vnexpress.net/photo/anh-video/nhung-lau-dai-dep-nhat-the-gioi-3475397.html
Tittle :Những lâu đài đẹp nhất thế giới - VnExpress Du lịch
content : 
                     Trang chủ Thời sự Góc nhìn Thế giới Kinh doanh Giải trí Thể thao Pháp luật Giáo dục Sức khỏe Gia đình Du lịch Khoa học Số hóa Xe Cộng đồng Tâm sự Rao vặt Video Ảnh  Cười 24h qua Liên hệ Tòa soạn Thông tin Tòa soạn
                            © Copyright 1997- VnExpress.net, All rights reserved
                            ® VnExpress giữ bản quyền nội dung trên website này.
                         Hotline:
                            0123.888.0123 (Hà Nội) 
                            0129.233.3555 (TP HCM) 
                                    Thế giớiPháp luậtXã hộiKinh doanhGiải tríÔ tô - Xe máy Thể thaoSố hóaGia đình
                         
                     
                    Thời sựThế giớiKinh doanhGiải tríThể thaoPháp luậtGiáo dụcSức khỏeGia đìnhDu lịchKhoa họcSố hóaXeCộng đồngTâm sựVideoCườiRao vặt
    Việt NamQuốc tếCộng đồngẢnh
		        24h qua
            Du lịch Ảnh 
                                        Du Lịch 
                                        Ảnh 
                                 
                                Việt NamQuốc tếCộng đồngẢnh
                            Thứ hai, 3/10/2016 | 02:08 GMT+7                        
|
                        Những lâu đài đẹp nhất thế giới                                                
                    Đa số những tòa lâu đài được trang Brightside đánh giá là đẹp nhất thế giới nằm ở Đức và có nơi còn trở thành bối cảnh, niềm cảm hứng làm nên các bộ phim.
                                Những điểm đến làm du khách thót tim
                                Những khách sạn lộng lẫy bị bỏ hoang
                                             
	Hohenzollern, Đức
	Lâu đài nằm trên đỉnh núi Hohenzollern, cao 2.800 m so với mực nước biển. Nơi đây từng là chỗ nghỉ của các vua Phổ.
                                                                                 
                                             
	Reichsburg Cochem, Đức
	Lâu đài có tuổi đời lên đến hàng nghìn năm này từng là nơi trú ngụ của vua Konrad III. Năm 1689, nó bị người Pháp phóng hỏa đốt nhưng tới 1868, lâu đài được một doanh nhân Đức mua lại và trùng tu.
                                                                                 
                                             
	Neuschwanstein, Đức
	Giữa thế kỷ 19, vua Ludwig II ra lệnh cho xây dựng tòa lâu đài có tên Neuschawanstein. Kiệt tác này của nước Đức đã tạo cảm hứng để Disneyland thiết kế ra lâu đài cho nàng công chúa ngủ trong rừng (Sleeping Beauty) của mình.
                                                                                 
                                             
	Mont Saint-Michel, Pháp
	Pháo đài bất khả xâm phạm Mont Saint-Michel là một trong những điểm đông khách nhất ở Pháp, sau Paris. Lâu đài được xây dựng vào năm 709 và đến nay, theo đánh giá của nhiều du khách, nó vẫn còn rất đẹp, lộng lẫy.
                                                                                 
                                             
	Hochosterwitz, Áo
	Tòa lâu đài được xây ở độ cao 160 m. Vào những ngày quang đãng, không mây, du khách có thể chiêm ngưỡng vẻ đẹp của công trình có từ thời trung cổ này từ khoảng cách 30 km.
                                                                                 
                                             
	Castillo de San Servando, Tây Ban Nha
	Lâu đài Castillo de San Servando nằm ở tỉnh Toledo, Tây Ban Nha và được một quý tộc địa phương xây dựng vào thế kỷ 15. Các lâu đài ở Tây Ban Nha được xây dựng với mục đích phòng thủ. Ngày nay,  khoảng 2.500 lâu đài ở quốc gia này có hình dáng giống pháo đài.
	 
                                                                                 
                                             
	Eilean Donan, Scotland
	Lâu đài nằm trên một hòn đảo ở Loch Duich, là một trong những điểm đến lãng mạn nhất Scotland. Nơi đây nổi tiếng với các huyền thoại, là điểm đến cho nhiều nhà làm phim.
	 
                                                                                 
                                             
	Kilchurn, Scotland
	Di tích tuyệt đẹp và có phần hơi kỳ quái nằm bên bờ của Lock Awe. Kilchum từng có quá khứ dữ dội khi bị sét đánh vào năm 1769. Ngày nay, nó là điểm đến yêu thích của các du khách mê mẩn với những tòa lâu đài và truyện cổ tích.
                                                                                 
                                             
	The Rock of Cashel, Ireland
	Khung cảnh tuyệt đẹp xung quanh The Rock of Cashel khiến không ít du khách cho biết họ có cảm tưởng như mình đang lạc vào Ireland của những ngày xa xưa, với không gian thật yên bình. Nơi đây từng là chỗ ở của các vị vua Ireland và là điểm giảng đạo của thánh Patrick vào thế kỷ thứ 5.
                                                                                 
                                             
	Vyborg, Nga
	Lâu đài Vyborg được xây dựng bởi những người Thụy Điển năm 1293, sau một cuộc thập tự chinh của họ vào Karelia. Ngày nay, lâu đài là một bảo tàng.
                                                                                 
	Ảnh: Brightside
                                    Anh Minh
                                                                              |  
                Những bộ ảnh du lịch đẹp
                    Cô gái bị fan cuồng sao y bản chính khi đi du lịch (16/11)
                                             
                    Hội An nhìn từ trên cao (14/11)
                                             
                    Vẻ đẹp cổ tích của mùa thu nước Mỹ nhìn từ trên cao (13/11)
                                             
                    Người đàn ông đi khắp nơi để 'cầm cả thế giới' (6/11)
                                             
                    Cảnh đan lưới ở làng chài Việt đạt giải ảnh quốc tế (1/11)
                                             
                Xem thêm
                         
                Ý kiến bạn đọc (0) 
                Mới nhất | Quan tâm nhất
                Mới nhấtQuan tâm nhất
            Xem thêm
                        Ý kiến của bạn
                            20/1000
                                    Tắt chia sẻĐăng xuất
                         
                                Ý kiến của bạn
                                20/1000
                                 
                        Tags
                                                    Lâu đài
                                                    Du khách
                                                    Du lịch
                                                    Nhật Bản
                                                    Cổ tích
                                                    Hohenzollern
                                                    Đức
                                                    Áo
                                                    Pháp
    Tin Khác
                                                     
                            Diễm My ăn trưa, trồng rau cùng người dân Hội An
                                                             
                                                     
                            Khu ổ chuột đầy rẫy tội phạm một thời ở Hong Kong
                                                             
                                                     
                            Góc tối của lễ hội phụ nữ khoe ngực trần tại Tây Ban Nha
                                                             
                            Những bữa tiệc 'nóng mắt' với bong bóng xà phòng
                                                             
                                    Đồi cỏ hồng Đà Lạt biến thành cỏ tuyết sau một đêm
                                                                             
                                    Vợ chồng Thu Phương nếm 'bún chửi' Hà Nội
                                                                             
                                    'Vườn thú người' - vết nhơ trong lịch sử châu Âu
                                                                             
                                    Vẻ đẹp của thị trấn nơi William và Kate gặp nhau
                                                                             
                                    Khu cắm trại giữa rừng dương cách Sài Gòn 3 giờ chạy xe
                                                                             
                                    Vẻ đẹp thơ mộng mùa lá đỏ Nhật Bản
                                                                             
                                    Bên trong thị trấn ma lớn nhất thế giới ở quê hương Thành Cát Tư Hãn
                                                                             
                                    Cô gái bị fan cuồng sao y bản chính khi đi du lịch
                                                                             
                                    Quang Vinh khám phá hai mặt đối lập của Sài Gòn
                                                                             
                                    Bảo tàng áo dài tư nhân duy nhất ở Sài Gòn
                                                                             
        Khuyến mãi Du lịch
		  prev
		   next
                                Tour Phú Quốc - Vinpearl Land gồm vé máy bay từ 2,9 triệu đồng
                                        2,999,000 đ 4,160,000 đ
                                        16/11/2016 - 30/12/2016                                    
                                                                Hành trình trọn gói và Free and Easy tới Phú Quốc với nhiều lựa chọn hấp dẫn cùng khuyến mại dịp cuối năm dành cho 
                                Tour Hải Nam, Trung Quốc 5 ngày giá từ 7,99 triệu đồng
                                        7,990,000 đ 9,990,000 đ
                                        19/10/2016 - 07/12/2016                                    
                                                                Hành trình 5 ngày Hải Khẩu - Hưng Long - Tam Á khởi hành ngày 1, 8, 15, 22, 29/11 và 6, 13, 20, 27/12, giá từ 7,99 triệu đồng.
                                Tour Nhật Bản đón năm mới giá chỉ 28,9 triệu đồng
                                        28,900,000 đ 35,900,000 đ
                                        17/11/2016 - 14/12/2016                                    
                                                                Hành trình sẽ đưa du khách đến cầu may đầu xuân ở đền Kotohira Shrine, mua sắm hàng hiệu giá rẻ dưới lòng đất, tham 
                                Giảm hơn 2 triệu đồng tour Nhật Bản 6 ngày 5 đêm
                                        33,800,000 đ 35,990,000 đ
                                        01/10/2016 - 31/12/2016                                    
                                                                Hongai Tours đưa du khách khám phá xứ Phù Tang mùa lá đỏ theo hành trình Nagoya - Nara - Osaka - Kyoto - núi Phú Sĩ - Tokyo.
                                Vietrantour tặng 10 triệu đồng tour Nam Phi 8 ngày
                                        49,900,000 đ 59,900,000 đ
                                        21/10/2016 - 01/12/2016                                    
                                                                Tour 8 ngày Johannesburg - Sun City - Pretoria - Capetown, bay hàng không 5 sao Qatar Airways, giá chỉ 49,99 triệu đồng.
                                Tour Campuchia 4 ngày giá chỉ 8,7 triệu đồng
                                        8,700,000 đ 10,990,000 đ
                                        02/11/2016 - 26/01/2017                                    
                                                                Hành trình Phnom Penh - Siem Reap 4 ngày, bay hãng hàng không quốc gia Cambodia Angkor Air, giá chỉ 8,7 triệu đồng.
                                Tour ngắm hoa tam giác mạch từ 1,99 triệu đồng
                                        1,990,000 đ 2,390,000 đ
                                        08/10/2016 - 30/11/2016                                    
                                                                Danh Nam Travel đưa du khách đi ngắm hoa tam giác mạch tại Hà Giang 3 ngày 2 đêm với giá trọn gói từ 1,99 triệu đồng.
        Xem nhiều nhất
    Góc tối của lễ hội phụ nữ khoe ngực trần tại Tây Ban NhaCặp du khách Trung Quốc quan hệ tình dục trong công viênCả công viên 'nín thở' chờ du khách béo trượt mángBí mật đáng sợ bên dưới hệ thống tàu điện ngầm LondonChàng tiên cá có thật giữa đời thường
					Trang chủ
                         Đặt VnExpress làm trang chủ
                         Đặt VnExpress làm trang chủ
                         Về đầu trang
                     
								  Thời sự
								  Góc nhìn
								  Pháp luật
								  Giáo dục
								  Thế giới
								  Gia đình
								  Kinh doanh
							   Hàng hóa
							   Doanh nghiệp
							   Ebank
								  Giải trí
							   Giới sao
							   Thời trang
							   Phim
								  Thể thao
							   Bóng đá
							   Tennis
							   Các môn khác
								  Video
								  Ảnh
								  Infographics
								  Sức khỏe
							   Các bệnh
							   Khỏe đẹp
							   Dinh dưỡng
								  Du lịch
							   Việt Nam
							   Quốc tế
							   Cộng đồng
								  Khoa học
							   Môi trường
							   Công nghệ mới
							   Hỏi - đáp
								  Số hóa
							   Sản phẩm
							   Đánh giá
							   Đời sống số
								  Xe
							   Tư vấn
							   Thị trường
							   Diễn đàn
								  Cộng đồng
								  Tâm sự
								  Cười
								  Rao vặt
                    Trang chủThời sựGóc nhìnThế giớiKinh doanhGiải tríThể thaoPháp luậtGiáo dụcSức khỏeGia đìnhDu lịchKhoa họcSố hóaXeCộng đồngTâm sựVideoCườiRao vặt
                            © Copyright 1997 VnExpress.net,  All rights reserved
                            ® VnExpress giữ bản quyền nội dung trên website này.
                            VnExpress tuyển dụng   Liên hệ quảng cáo  / Liên hệ Tòa soạn
                            Thông tin Tòa soạn.0123.888.0123 (HN) - 0129.233.3555 (TP HCM)
                                     Liên hệ Tòa soạn
                                     Thông tin Tòa soạn
                                    0123.888.0123 (HN) 
                                    0129.233.3555 (TP HCM)
                                © Copyright 1997 VnExpress.net,  All rights reserved
                                ® VnExpress giữ bản quyền nội dung trên website này.
                     
         
