url:http://dulich.vnexpress.net/tin-tuc/viet-nam/goi-oc-giac-mon-an-kho-bo-lo-o-phan-thiet-3218186.html
Tittle :Gỏi ốc giác - món ăn khó bỏ lỡ ở Phan Thiết - VnExpress Du lịch
content : 
                     Trang chủ Thời sự Góc nhìn Thế giới Kinh doanh Giải trí Thể thao Pháp luật Giáo dục Sức khỏe Gia đình Du lịch Khoa học Số hóa Xe Cộng đồng Tâm sự Rao vặt Video Ảnh  Cười 24h qua Liên hệ Tòa soạn Thông tin Tòa soạn
                            © Copyright 1997- VnExpress.net, All rights reserved
                            ® VnExpress giữ bản quyền nội dung trên website này.
                         Hotline:
                            0123.888.0123 (Hà Nội) 
                            0129.233.3555 (TP HCM) 
                                    Thế giớiPháp luậtXã hộiKinh doanhGiải tríÔ tô - Xe máy Thể thaoSố hóaGia đình
                         
                     
                    Thời sựThế giớiKinh doanhGiải tríThể thaoPháp luậtGiáo dụcSức khỏeGia đìnhDu lịchKhoa họcSố hóaXeCộng đồngTâm sựVideoCườiRao vặt
    Việt NamQuốc tếCộng đồngẢnh
                Các địa danh khác
		        24h qua
            Du lịch Việt Nam 
                                        Du Lịch 
                                        Việt Nam 
                                        Các địa danh
                                 
                                Việt NamQuốc tếCộng đồngẢnh
						Thứ bảy, 16/5/2015 | 11:03 GMT+7
|
						Gỏi ốc giác - món ăn khó bỏ lỡ ở Phan Thiết												
					Một đĩa gỏi gồm đu đủ, rau răm, thịt luộc, ốc giác, thêm nước mắm giấm đường và trộn đều, thưởng thức cùng bánh tráng nướng. 
					Lẩu thả - đặc sản của dân miền biển Phan Thiết  /  Những điểm tham quan níu chân du khách ở Phan Thiết                    
	Ốc giác là loại hải sản quen thuộc của người dân miền biển Phan Thiết, thường chế biến thành nhiều món khác nhau phục vụ thực khách. Ngoài các cách đơn giản như luộc, hấp, nướng, xào với mì..., ốc giác còn nổi tiếng với món gỏi.
					Những con ốc giác có thể nặng tới 2 kg. Ảnh: ranbien.
	Mỗi con ốc giác thường có trọng lượng rất lớn, đôi lúc nặng tới 2 kg và có khả năng sống hàng tuần trong nước mặn sau khi đánh bắt. Tuy nhiên, loại làm món gỏi phải mới đánh bắt lên bờ, thịt còn tươi, tiết chất nhờn để bảo đảm độ ngọt.
	Thịt ốc giác có hai phần, cùi và ruột đều ăn được. Phần cùi có màu trắng trong, cứng nhưng ăn giòn sần sật. Còn ruột màu nâu nhạt, vị béo, bùi.
	Có hai cách để lấy thịt ốc, phổ biến nhất là luộc cả con, sau đó dùng đũa xăm vào. Khi chín, phần thịt bên trong rất dễ kéo ra. Cách thứ hai là ốc còn sống, gỡ thịt ra khỏi vỏ, sau đó mới đem luộc.
	Thịt ốc giác luộc chín được sắt thành sợi nhỏ, trộn cùng thịt ba chỉ, đu đủ thái mỏng, rau răm, lạc và hành phi... Ngoài ra, đầu bếp cũng có thể chế biến thành gỏi ốc giác hoa chuối hay xoài xanh với vị khác lạ.
					Ngoài việc hấp ốc giác, chấm cùng nước mắm, nhiều người còn làm gỏi ốc giác xoài xanh với cách chế biến công phu. Ảnh: Hà Lâm
	Để làm gỏi ốc giác ngon, phần quan trọng nhất là gia giảm đường, giấm sao cho đậm vị, không ngọt gắt cũng không chua quá. Hành rắc lên trên phải là loại tía, phi thơm, vàng óng.
	Nước mắm pha chế chấm gỏi rất công phu, có đủ vị ngọt, chua, thanh và ăn kèm bánh đa (bánh tráng nướng). Món này có mặt trong nhiều quán, nhà hàng ở Phan Thiết, phổ biến nhất là gần ga mỗi buổi chiều, tối. 
	Anh Phương                        
									Gửi bài viết chia sẻ tại đây hoặc về dulich@vnexpress.net
                                                Khách sạn509Nhà hàng63Tham quan365Giải trí82Mua sắm27                        
                Khám phá thành phố biển Phan Thiết
                    Chợ đêm đầu tiên phục vụ du khách ở Phan Thiết (9/6)
                                             
                    Du khách Nga kêu biển ngập rác, Bình Thuận vào cuộc xác minh (2/6)
                                             
                    Điểm cắm trại dễ thương trên bãi biển Kê Gà (14/5)
                                             
                    Ba khu chợ nổi tiếng ở thành phố biển Phan Thiết (12/5)
                                             
                    Một ngày khám phá Cổ Thạch hoang sơ (19/1)
                                             
                Xem thêm
            Xem nhiều nhất
                            Anh Tây đi bộ khắp thế giới mê mẩn núi rừng Việt Nam
                                                             
                                Việt Nam đứng top đầu khách chi tiêu nhiều nhất ở Nhật Bản
                                                                     
                                Thủ tướng chỉ ra 3 giải pháp để phát triển du lịch
                                                                     
                                Những món đồ không thể thiếu khi đi du lịch cuối năm
                                Vị đậm đà tinh tế trong món gà sốt tiêu tỏi
                 
                Ý kiến bạn đọc (0) 
                Mới nhất | Quan tâm nhất
                Mới nhấtQuan tâm nhất
            Xem thêm
                        Ý kiến của bạn
                            20/1000
                                    Tắt chia sẻĐăng xuất
                         
                                Ý kiến của bạn
                                20/1000
                                 
                Tags
                                    Ốc giác
                                Đặc sản Phan Thiết
                                Gỏi ốc
    Tin Khác
                                                     
                            Quán bún măng vịt mỗi ngày chỉ bán một tiếng
                                                             
                            Bắc Trung Bộ hút khách Thái Lan để vực dậy du lịch
                                                             
                            Việt Nam đứng top đầu khách chi tiêu nhiều nhất ở Nhật Bản
                                                             
                            Không gian điện ảnh đẳng cấp tại Vinpearl Đà Nẵng
                                    Đầm Sen ưu đãi ngày Nhà giáo Việt Nam
                                    Đồi cỏ hồng Đà Lạt biến thành cỏ tuyết sau một đêm
                                                                             
                                    Hoàng tử Anh ăn đêm bên Hồ Gươm
                                    Những món đồ không thể thiếu khi đi du lịch cuối năm
                                    Khu cắm trại giữa rừng dương cách Sài Gòn 3 giờ chạy xe
                                                                             
                                    'Vua đầu bếp' để khách tự sáng tạo món ăn
                                                                             
                                    Thủ tướng chỉ ra 3 giải pháp để phát triển du lịch
                                                                             
                                    Anh Tây đi bộ khắp thế giới mê mẩn núi rừng Việt Nam
                                                                             
                                    Vị đậm đà tinh tế trong món gà sốt tiêu tỏi
                                    Món ăn đặc trưng trong ngày lễ Tạ ơn
        Khuyến mãi Du lịch
		  prev
		   next
                                Tour ngắm hoa tam giác mạch từ 1,99 triệu đồng
                                        1,990,000 đ 2,390,000 đ
                                        08/10/2016 - 30/11/2016                                    
                                                                Danh Nam Travel đưa du khách đi ngắm hoa tam giác mạch tại Hà Giang 3 ngày 2 đêm với giá trọn gói từ 1,99 triệu đồng.
                                Tour Nhật Bản đón năm mới giá chỉ 28,9 triệu đồng
                                        28,900,000 đ 35,900,000 đ
                                        17/11/2016 - 14/12/2016                                    
                                                                Hành trình sẽ đưa du khách đến cầu may đầu xuân ở đền Kotohira Shrine, mua sắm hàng hiệu giá rẻ dưới lòng đất, tham 
                                Vietrantour tặng 10 triệu đồng tour Nam Phi 8 ngày
                                        49,900,000 đ 59,900,000 đ
                                        21/10/2016 - 01/12/2016                                    
                                                                Tour 8 ngày Johannesburg - Sun City - Pretoria - Capetown, bay hàng không 5 sao Qatar Airways, giá chỉ 49,99 triệu đồng.
                                Giảm hơn 2 triệu đồng tour Nhật Bản 6 ngày 5 đêm
                                        33,800,000 đ 35,990,000 đ
                                        01/10/2016 - 31/12/2016                                    
                                                                Hongai Tours đưa du khách khám phá xứ Phù Tang mùa lá đỏ theo hành trình Nagoya - Nara - Osaka - Kyoto - núi Phú Sĩ - Tokyo.
                                Tour Hải Nam, Trung Quốc 5 ngày giá từ 7,99 triệu đồng
                                        7,990,000 đ 9,990,000 đ
                                        19/10/2016 - 07/12/2016                                    
                                                                Hành trình 5 ngày Hải Khẩu - Hưng Long - Tam Á khởi hành ngày 1, 8, 15, 22, 29/11 và 6, 13, 20, 27/12, giá từ 7,99 triệu đồng.
                                Tour Campuchia 4 ngày giá chỉ 8,7 triệu đồng
                                        8,700,000 đ 10,990,000 đ
                                        02/11/2016 - 26/01/2017                                    
                                                                Hành trình Phnom Penh - Siem Reap 4 ngày, bay hãng hàng không quốc gia Cambodia Angkor Air, giá chỉ 8,7 triệu đồng.
                                Tour Phú Quốc - Vinpearl Land gồm vé máy bay từ 2,9 triệu đồng
                                        2,999,000 đ 4,160,000 đ
                                        16/11/2016 - 30/12/2016                                    
                                                                Hành trình trọn gói và Free and Easy tới Phú Quốc với nhiều lựa chọn hấp dẫn cùng khuyến mại dịp cuối năm dành cho 
        Quốc tế
         
                Những câu lạc bộ thoát y nóng bỏng nhất thế giới
                        Những cô nàng chân dài với thân hình đồng hồ cát, điệu nhảy khiêu gợi, đồ uống lạnh hảo hạng và điệu nhảy bốc lửa trong các câu lạc bộ thoát y luôn kích thích các giác quan của du khách.
            Bé gái Ấn Độ hồn nhiên tóm cổ rắn hổ mang chúaBí mật đáng sợ bên dưới hệ thống tàu điện ngầm LondonNgã xuống hồ nước nóng, du khách chết mất xác
         Gửi bài viết về tòa soạn
        Ẩm thực
         
                             
            Quán bún măng vịt mỗi ngày chỉ bán một tiếng
            Nằm sâu trong con hẻm nhỏ trên đường Lê Văn Sỹ quận Tân Bình, TP HCM, quán bún vịt chỉ phục vụ khách từ 15h30 và đóng hàng sau đó chừng một tiếng.
                Vợ chồng Thu Phương nếm 'bún chửi' Hà Nội
                'Vua đầu bếp' để khách tự sáng tạo món ăn
        Cộng đồng
         
                'Thời gian biểu' du lịch Việt Nam bốn mùa đều đẹp
                        Hãy lên kế hoạch du lịch đúng thời điểm cho năm mới dựa theo lịch trình du lịch khắp miền đất nước.
            Du khách đứng tim vì voi chặn đầu xe5 vùng đất Samurai nổi tiếng của Nhật BảnĐồi cỏ hồng Đà Lạt biến thành cỏ tuyết sau một đêm
        Ảnh
         
                             
            Chùa 've chai' nắm giữ nhiều kỷ lục ở Đà Lạt
            Tên gọi “ve chai” của chùa Linh Phước (Đà Lạt) xuất phát từ việc hầu hết chi tiết trang trí ở đây đều dùng mảnh sành, sứ hay vỏ chai tạo nên.
                                     
                Ngày Tết du ngoạn Thiền viện Trúc Lâm Tây Thiên
                                     
                Những ngôi nhà mái rạ ở 'thủ phủ' gạo tám
        Video
         
            Du khách la hét vì chơi tàu lượn dốc nhất thế giới
            Tàu lượn Takabisha (Nhật Bản) có độ dốc lên tới 121 độ, vận tốc tối đa đạt 160 km/h khiến người chơi như đứng tim khi nhiều đường ray thẳng đứng, tàu như rơi tự do.
                Cả công viên 'nín thở' chờ du khách béo trượt máng
                Cảnh đẹp ngoạn mục trên khắp nẻo đường Na Uy
        Điểm đến yêu thích                
                    Kế hoạch 4 ngày khám phá đảo thiên đường ở Campuchia                
                    Những món ngon nên thử của Phú Quốc                
                    Khách du lịch được mời dùng toilet miễn phí ở Đà Nẵng                
                    Chuyến bay Cần Thơ - Đà Lạt chỉ mất một giờ                
                    Những cây cầu có tên gọi độc đáo ở miền Tây                
		Liên kết du lịch
					Trang chủ
                         Đặt VnExpress làm trang chủ
                         Đặt VnExpress làm trang chủ
                         Về đầu trang
                     
								  Thời sự
								  Góc nhìn
								  Pháp luật
								  Giáo dục
								  Thế giới
								  Gia đình
								  Kinh doanh
							   Hàng hóa
							   Doanh nghiệp
							   Ebank
								  Giải trí
							   Giới sao
							   Thời trang
							   Phim
								  Thể thao
							   Bóng đá
							   Tennis
							   Các môn khác
								  Video
								  Ảnh
								  Infographics
								  Sức khỏe
							   Các bệnh
							   Khỏe đẹp
							   Dinh dưỡng
								  Du lịch
							   Việt Nam
							   Quốc tế
							   Cộng đồng
								  Khoa học
							   Môi trường
							   Công nghệ mới
							   Hỏi - đáp
								  Số hóa
							   Sản phẩm
							   Đánh giá
							   Đời sống số
								  Xe
							   Tư vấn
							   Thị trường
							   Diễn đàn
								  Cộng đồng
								  Tâm sự
								  Cười
								  Rao vặt
                    Trang chủThời sựGóc nhìnThế giớiKinh doanhGiải tríThể thaoPháp luậtGiáo dụcSức khỏeGia đìnhDu lịchKhoa họcSố hóaXeCộng đồngTâm sựVideoCườiRao vặt
                            © Copyright 1997 VnExpress.net,  All rights reserved
                            ® VnExpress giữ bản quyền nội dung trên website này.
                            VnExpress tuyển dụng   Liên hệ quảng cáo  / Liên hệ Tòa soạn
                            Thông tin Tòa soạn.0123.888.0123 (HN) - 0129.233.3555 (TP HCM)
                                     Liên hệ Tòa soạn
                                     Thông tin Tòa soạn
                                    0123.888.0123 (HN) 
                                    0129.233.3555 (TP HCM)
                                © Copyright 1997 VnExpress.net,  All rights reserved
                                ® VnExpress giữ bản quyền nội dung trên website này.
                     
         
