url:http://dulich.vnexpress.net/photo/anh-video/5-diem-den-cho-nguoi-yeu-ke-ghet-tong-thong-donald-trump-3497056.html?utm_campaign=boxtracking&utm_medium=box_tinkhac&utm_source=detail
Tittle :5 điểm đến cho người yêu - kẻ ghét tổng thống Donald Trump - VnExpress Du lịch
content : 
                     Trang chủ Thời sự Góc nhìn Thế giới Kinh doanh Giải trí Thể thao Pháp luật Giáo dục Sức khỏe Gia đình Du lịch Khoa học Số hóa Xe Cộng đồng Tâm sự Rao vặt Video Ảnh  Cười 24h qua Liên hệ Tòa soạn Thông tin Tòa soạn
                            © Copyright 1997- VnExpress.net, All rights reserved
                            ® VnExpress giữ bản quyền nội dung trên website này.
                         Hotline:
                            0123.888.0123 (Hà Nội) 
                            0129.233.3555 (TP HCM) 
                                    Thế giớiPháp luậtXã hộiKinh doanhGiải tríÔ tô - Xe máy Thể thaoSố hóaGia đình
                         
                     
                    Thời sựThế giớiKinh doanhGiải tríThể thaoPháp luậtGiáo dụcSức khỏeGia đìnhDu lịchKhoa họcSố hóaXeCộng đồngTâm sựVideoCườiRao vặt
    Việt NamQuốc tếCộng đồngẢnh
		        24h qua
            Du lịch Ảnh 
                                        Du Lịch 
                                        Ảnh 
                                 
                                Việt NamQuốc tếCộng đồngẢnh
                            Thứ năm, 10/11/2016 | 20:03 GMT+7                        
|
                        5 điểm đến cho người yêu - kẻ ghét tổng thống Donald Trump                                                
                    Du khách có thể ghé thăm tháp Trump Tower tại Los Angeles, chuỗi khách sạn Trump ở khắp nước Mỹ hay thử sức trên những sân golf của tổng thống đắc cử nằm ở Washington, Scotland hay Dubai.
                                Bên trong khách sạn siêu sang của Donald Trump
                                Ngôi làng chuyên đi bầu cử tổng thống Mỹ lúc nửa đêm
                                             
	Trong hơn 2.500 ngôi sao trên Đại lộ Danh vọng Hollywood (Los Angeles, Mỹ), ngôi sao Donald Trump được bảo vệ từ những ngày đầu tổng thống đắc cử còn chạy chiến dịch tranh cử. Jamie Otis, một người đàn ông cải trang thành công nhân xây dựng, đã sử dụng búa tạ và cuốc để phá hủy ngôi sao này. Stuff đưa tin Otis sẽ phải chịu trách nhiệm cho tội phá hoại. Ảnh: Twitter.
                                                                                 
                                             
	Trump Tower là một tòa nhà 58 tầng nằm trên Fifth Avenue, New York (Mỹ). Sảnh chính của tòa tháp được dựng từ đá cẩm thạch và dát vàng với một thác nước nhân tạo cạnh lối đi bộ. Theo Telegraph, du khách có thể tìm mua áo sơ mi, cà vạt và khuy manchette (khuy măng sét) của dòng thời trang Trump hay những loại nữ trang gắn đá quý trong thương hiệu của Ivanka Trump, con gái tổng thống đắc cử. Ảnh: New York Times.
                                                                                 
                                             
	Nằm cách Nhà Trắng hơn một km, Trump International Hotel tại Washington DC (Mỹ) là khách sạn mới nhất trong chuỗi khách sạn của tổng thống Trump. Công trình này được tu bổ lại từ Bưu điện Pavilion từ năm 1899, là nơi tổ chức tiệc khiêu vũ lớn nhất Washington DC với "Phòng khiêu vũ Tổng thống". Giá phòng của khách sạn này từ 460 USD đến 12.000 USD/đêm. Nếu du khách muốn đặt riêng một căn liền kề, giá là 25.050 USD/đêm. Ảnh: Instagram.
                                                                                 
                                             
	Ngoài Washington, du khách có thể thỏa sức chơi môn thể thao quý tộc này tại nhiều sân golf của tổng thống Trump ở Scotland, Dubai hay Ireland. Ảnh: Washingtonian.
                                                                                 
                                             
	Nếu không phải là người ủng hộ ông Trump, du khách có thể ghé thăm bức tường graffiti về tổng thống đắc cử Mỹ tại thành phố Tijuana, gần biên giới Mexico - Mỹ. Dân chúng trong khu vực nói rằng nhiều du khách đột nhiên kéo đến đây để chiêm ngưỡng bức họa, bao gồm nhiều người Nhật Bản và Trung Quốc. Những họa sĩ đường phố còn vẽ một tấm bản đồ lái xe từ đó dẫn tới Trump Tower.
                                                                                 
                                    Phạm Huyền
                                                                              |  
                Những điều thú vị về điểm đến
                    Khu ổ chuột đầy rẫy tội phạm một thời ở Hong Kong (19/11)
                                             
                    Kỷ niệm hài hước với toilet trên đường du lịch (18/11)
                                             
                    'Vườn thú người' - vết nhơ trong lịch sử châu Âu (18/11)
                                             
                    Ngôi nhà không thích đàn ông ở Mỹ (17/11)
                                             
                    Cây 'đi tiểu' như người tại Đức (17/11)
                                             
                Xem thêm
                         
                Ý kiến bạn đọc (0) 
                Mới nhất | Quan tâm nhất
                Mới nhấtQuan tâm nhất
            Xem thêm
                        Ý kiến của bạn
                            20/1000
                                    Tắt chia sẻĐăng xuất
                         
                                Ý kiến của bạn
                                20/1000
                                 
                        Tags
                                                    Donald Trump
                                                    Điểm du lịch hút khách
                                                    Khách sạn Donald Trump
                                                    Sân golf Donald Trump
                                                    Ủng hộ Trump
                                                    Phản đối Trump
                                                    Đại lộ Danh vọng
                                                    Hollywood
                                                    Bầu cử tổng thống
                                                    Bầu cử tổng thống Mỹ
                                                    Tổng thống Mỹ
    Tin Khác
                                                     
                            Diễm My ăn trưa, trồng rau cùng người dân Hội An
                                                             
                                                     
                            Khu ổ chuột đầy rẫy tội phạm một thời ở Hong Kong
                                                             
                                                     
                            Góc tối của lễ hội phụ nữ khoe ngực trần tại Tây Ban Nha
                                                             
                            Những bữa tiệc 'nóng mắt' với bong bóng xà phòng
                                                             
                                    Đồi cỏ hồng Đà Lạt biến thành cỏ tuyết sau một đêm
                                                                             
                                    Vợ chồng Thu Phương nếm 'bún chửi' Hà Nội
                                                                             
                                    'Vườn thú người' - vết nhơ trong lịch sử châu Âu
                                                                             
                                    Vẻ đẹp của thị trấn nơi William và Kate gặp nhau
                                                                             
                                    Khu cắm trại giữa rừng dương cách Sài Gòn 3 giờ chạy xe
                                                                             
                                    Vẻ đẹp thơ mộng mùa lá đỏ Nhật Bản
                                                                             
                                    Bên trong thị trấn ma lớn nhất thế giới ở quê hương Thành Cát Tư Hãn
                                                                             
                                    Cô gái bị fan cuồng sao y bản chính khi đi du lịch
                                                                             
                                    Quang Vinh khám phá hai mặt đối lập của Sài Gòn
                                                                             
                                    Bảo tàng áo dài tư nhân duy nhất ở Sài Gòn
                                                                             
        Khuyến mãi Du lịch
		  prev
		   next
                                Tour Phú Quốc - Vinpearl Land gồm vé máy bay từ 2,9 triệu đồng
                                        2,999,000 đ 4,160,000 đ
                                        16/11/2016 - 30/12/2016                                    
                                                                Hành trình trọn gói và Free and Easy tới Phú Quốc với nhiều lựa chọn hấp dẫn cùng khuyến mại dịp cuối năm dành cho 
                                Vietrantour tặng 10 triệu đồng tour Nam Phi 8 ngày
                                        49,900,000 đ 59,900,000 đ
                                        21/10/2016 - 01/12/2016                                    
                                                                Tour 8 ngày Johannesburg - Sun City - Pretoria - Capetown, bay hàng không 5 sao Qatar Airways, giá chỉ 49,99 triệu đồng.
                                Tour Campuchia 4 ngày giá chỉ 8,7 triệu đồng
                                        8,700,000 đ 10,990,000 đ
                                        02/11/2016 - 26/01/2017                                    
                                                                Hành trình Phnom Penh - Siem Reap 4 ngày, bay hãng hàng không quốc gia Cambodia Angkor Air, giá chỉ 8,7 triệu đồng.
                                Tour Nhật Bản đón năm mới giá chỉ 28,9 triệu đồng
                                        28,900,000 đ 35,900,000 đ
                                        17/11/2016 - 14/12/2016                                    
                                                                Hành trình sẽ đưa du khách đến cầu may đầu xuân ở đền Kotohira Shrine, mua sắm hàng hiệu giá rẻ dưới lòng đất, tham 
                                Giảm hơn 2 triệu đồng tour Nhật Bản 6 ngày 5 đêm
                                        33,800,000 đ 35,990,000 đ
                                        01/10/2016 - 31/12/2016                                    
                                                                Hongai Tours đưa du khách khám phá xứ Phù Tang mùa lá đỏ theo hành trình Nagoya - Nara - Osaka - Kyoto - núi Phú Sĩ - Tokyo.
                                Tour Hải Nam, Trung Quốc 5 ngày giá từ 7,99 triệu đồng
                                        7,990,000 đ 9,990,000 đ
                                        19/10/2016 - 07/12/2016                                    
                                                                Hành trình 5 ngày Hải Khẩu - Hưng Long - Tam Á khởi hành ngày 1, 8, 15, 22, 29/11 và 6, 13, 20, 27/12, giá từ 7,99 triệu đồng.
                                Tour ngắm hoa tam giác mạch từ 1,99 triệu đồng
                                        1,990,000 đ 2,390,000 đ
                                        08/10/2016 - 30/11/2016                                    
                                                                Danh Nam Travel đưa du khách đi ngắm hoa tam giác mạch tại Hà Giang 3 ngày 2 đêm với giá trọn gói từ 1,99 triệu đồng.
        Xem nhiều nhất
    Góc tối của lễ hội phụ nữ khoe ngực trần tại Tây Ban NhaCặp du khách Trung Quốc quan hệ tình dục trong công viênCả công viên 'nín thở' chờ du khách béo trượt mángBí mật đáng sợ bên dưới hệ thống tàu điện ngầm LondonChàng tiên cá có thật giữa đời thường
					Trang chủ
                         Đặt VnExpress làm trang chủ
                         Đặt VnExpress làm trang chủ
                         Về đầu trang
                     
								  Thời sự
								  Góc nhìn
								  Pháp luật
								  Giáo dục
								  Thế giới
								  Gia đình
								  Kinh doanh
							   Hàng hóa
							   Doanh nghiệp
							   Ebank
								  Giải trí
							   Giới sao
							   Thời trang
							   Phim
								  Thể thao
							   Bóng đá
							   Tennis
							   Các môn khác
								  Video
								  Ảnh
								  Infographics
								  Sức khỏe
							   Các bệnh
							   Khỏe đẹp
							   Dinh dưỡng
								  Du lịch
							   Việt Nam
							   Quốc tế
							   Cộng đồng
								  Khoa học
							   Môi trường
							   Công nghệ mới
							   Hỏi - đáp
								  Số hóa
							   Sản phẩm
							   Đánh giá
							   Đời sống số
								  Xe
							   Tư vấn
							   Thị trường
							   Diễn đàn
								  Cộng đồng
								  Tâm sự
								  Cười
								  Rao vặt
                    Trang chủThời sựGóc nhìnThế giớiKinh doanhGiải tríThể thaoPháp luậtGiáo dụcSức khỏeGia đìnhDu lịchKhoa họcSố hóaXeCộng đồngTâm sựVideoCườiRao vặt
                            © Copyright 1997 VnExpress.net,  All rights reserved
                            ® VnExpress giữ bản quyền nội dung trên website này.
                            VnExpress tuyển dụng   Liên hệ quảng cáo  / Liên hệ Tòa soạn
                            Thông tin Tòa soạn.0123.888.0123 (HN) - 0129.233.3555 (TP HCM)
                                     Liên hệ Tòa soạn
                                     Thông tin Tòa soạn
                                    0123.888.0123 (HN) 
                                    0129.233.3555 (TP HCM)
                                © Copyright 1997 VnExpress.net,  All rights reserved
                                ® VnExpress giữ bản quyền nội dung trên website này.
                     
         
