url:http://dulich.vnexpress.net/tin-tuc/viet-nam/ho-chi-minh/dam-sen-uu-dai-ngay-nha-giao-viet-nam-3500999.html?utm_campaign=boxtracking&utm_medium=box_tinkhac&utm_source=detail
Tittle :Đầm Sen ưu đãi ngày Nhà giáo Việt Nam - VnExpress Du lịch
content : 
                     Trang chủ Thời sự Góc nhìn Thế giới Kinh doanh Giải trí Thể thao Pháp luật Giáo dục Sức khỏe Gia đình Du lịch Khoa học Số hóa Xe Cộng đồng Tâm sự Rao vặt Video Ảnh  Cười 24h qua Liên hệ Tòa soạn Thông tin Tòa soạn
                            © Copyright 1997- VnExpress.net, All rights reserved
                            ® VnExpress giữ bản quyền nội dung trên website này.
                         Hotline:
                            0123.888.0123 (Hà Nội) 
                            0129.233.3555 (TP HCM) 
                                    Thế giớiPháp luậtXã hộiKinh doanhGiải tríÔ tô - Xe máy Thể thaoSố hóaGia đình
                         
                     
                    Thời sựThế giớiKinh doanhGiải tríThể thaoPháp luậtGiáo dụcSức khỏeGia đìnhDu lịchKhoa họcSố hóaXeCộng đồngTâm sựVideoCườiRao vặt
    Việt NamQuốc tếCộng đồngẢnh
                Các địa danh khác
		        24h qua
            Du lịch Việt Nam 
                        Hồ Chí Minh
                                        Du Lịch 
                                        Hồ Chí Minh 
                                        Các địa danh
                                 
                                Việt NamQuốc tếCộng đồngẢnh
						Thứ bảy, 19/11/2016 | 09:00 GMT+7
|
						Đầm Sen ưu đãi ngày Nhà giáo Việt Nam												
					Công viên văn hóa Đầm Sen dành ưu đãi miễn phí vào cổng cho giáo viên và giảm 50% giá vé cho học sinh - sinh viên trong hai ngày 19 và 20/11.
	20/11 là ngày lễ hội của ngành giáo dục và là ngày Nhà giáo nhằm mục đích tôn vinh những người hoạt động trong ngành này. Đây là dịp để thế hệ học trò bày tỏ lòng biết ơn với những thầy cô đã dạy bảo các em nên người.
	Để tạo điều kiện cho thầy cô, các em học sinh - sinh viên tham gia nhiều hoạt động và sân chơi ý nghĩa nhân ngày Nhà giáo Việt Nam năm nay, Đầm Sen dành ưu đãi cho giáo viên như miễn vé vào cổng; hoặc giảm 50% giá vé trọn gói (điều kiện có mang theo thẻ công chức hoặc giấy giới thiệu của trường).
					Cuộc thi “Nét đẹp phấn trắng” giới thiệu về trường, đồng phục của thầy & trò các trường. Vòng chung kết diễn ra ngày 19 & 20/11, tại SK Ngôi Sao Đầm Sen.
	Những học sinh mẫu giáo, cấp 1 sẽ được mua vé cổng Đầm Sen với giá 50.000 đồng (nếu dưới 1m thì được miễn vé vào cổng) hoặc giảm 50% giá vé trọn gói. Điều kiện nếu chưa có thẻ học sinh thì phải đi tập trung một chỗ do trường tổ chức, có giáo viên hướng dẫn, hoặc đi cùng với gia đình.
	Học sinh - sinh viên sẽ được mua vé cổng với giá 50.000 đồng hoặc giảm 50% giá vé trọn gói với điều kiện phải có thẻ học sinh, sinh viên còn trong thời gian sử dụng.
					Có 42 tiểu cảnh OOTD giới thiệu những “Ngôi trường mến yêu” đến từ các quận huyện trong thành phố để quý thầy cô và các bạn học sinh tha hồ tạo dáng.
	Ngoài ra, nhiều hoạt động, sân chơi ý nghĩa dành cho thầy cô và các bạn học sinh diễn ra tại Đầm Sen trong suốt tháng 11. Nổi bật nhất có thể kể đến là cuộc thi trang trí tiểu cảnh “Ngôi trường mến yêu” theo phong cách OOTD.
	Đầm Sen còn tổ chức cuộc thi nấu ăn “Nhà giáo với ẩm thực 3 miền” dành cho cán bộ, giáo viên trổ tài bếp núc với các món hấp dẫn và thi nhau trang trí gian hàng đẹp, sáng tạo. Sau cuộc thi, các đơn vị tổ chức bán hàng giao lưu với giá phù hợp, số tiền thu được sẽ đóng góp vào Quỹ học bổng Nguyễn Đức Cảnh.
					Hội thi “Nhà giáo với ẩm thực 3 miền” có những món ăn ngon, bổ, rẻ giá bán chỉ từ 5.000 đồng (8h-12h, ngày 20/11 tại Đầm Sen). Xem thêm tại đây.
	“Hội đua thuyền rồng” cũng là hoạt động sôi nổi nhất trong chuỗi hoạt động kỷ niệm 34 năm ngày Nhà giáo Việt Nam năm nay. Không khí thi đấu so kè quyết liệt giữa các đội, sự cổ vũ nhiệt tình của lực lượng cổ động viên đã tạo nên nét sôi động riêng biệt của hội thi. Trận chung kết sẽ được diễn ra vào ngày 20/11 với nhiều kịch tính hấp dẫn.
	Hưng Thịnh                        
									Gửi bài viết chia sẻ tại đây hoặc về dulich@vnexpress.net
                                                Khách sạn128Nhà hàng1Tham quan68Giải trí31Mua sắm0                        
				Tin liên quan
							Nhiều hoạt động tôn vinh nhà giáo tại Đầm Sen (14/11/2016)
							Việt Nam trong mắt giới trẻ Thái Lan  (15/11/2016)
							Việt Nam vào top điểm du lịch sinh thái thân thiện nhất thế giới  (26/10/2016)
							Lăng mộ của vua có 103 bà vợ ở Việt Nam  (22/9/2016)
            Xem nhiều nhất
                            Anh Tây đi bộ khắp thế giới mê mẩn núi rừng Việt Nam
                                                             
                                Việt Nam đứng top đầu khách chi tiêu nhiều nhất ở Nhật Bản
                                                                     
                                Thủ tướng chỉ ra 3 giải pháp để phát triển du lịch
                                                                     
                                Những món đồ không thể thiếu khi đi du lịch cuối năm
                                Vị đậm đà tinh tế trong món gà sốt tiêu tỏi
                 
                Tags
                                    Đầm Sen
                                Ngày 20/11
                                Ngày Nhà giáo Việt Nam
    Tin Khác
                                                     
                            Quán bún măng vịt mỗi ngày chỉ bán một tiếng
                                                             
                            Món ăn đặc trưng trong ngày lễ Tạ ơn
                                                     
                            Quang Vinh khám phá hai mặt đối lập của Sài Gòn
                                                             
                                                     
                            Bảo tàng áo dài tư nhân duy nhất ở Sài Gòn
                                                             
                                    Quán xôi cay vỉa hè mỗi ngày hết 40 kg nếp ở Sài Gòn
                                                                             
                                    Việt Nam trong mắt giới trẻ Thái Lan
                                                                             
                                    Đường hoa Nguyễn Huệ sẽ mở từ 28 Tết
                                                                             
                                    Những món ăn đồng quê dân dã ở Sài Gòn
                                    Nhiều hoạt động tôn vinh nhà giáo tại Đầm Sen
                                    Khách Tây khen nhà chờ mới ở sân bay Tân Sơn Nhất
                                                                             
                                    Khu du lịch sinh thái cá cảnh 150 tỷ đồng ở ngoại ô TP HCM
                                                                             
                                    Bún cá thố và bánh canh cốt dừa miền Tây ở Sài Gòn
                                                                             
                                    Quán cà phê vợt hơn nửa thế kỷ ở Sài Gòn
                                                                             
                                    Món sườn nướng hấp dẫn tại Cơm tấm 932P Trường Sa
        Khuyến mãi Du lịch
		  prev
		   next
                                Tour Phú Quốc - Vinpearl Land gồm vé máy bay từ 2,9 triệu đồng
                                        2,999,000 đ 4,160,000 đ
                                        16/11/2016 - 30/12/2016                                    
                                                                Hành trình trọn gói và Free and Easy tới Phú Quốc với nhiều lựa chọn hấp dẫn cùng khuyến mại dịp cuối năm dành cho 
                                Tour Hải Nam, Trung Quốc 5 ngày giá từ 7,99 triệu đồng
                                        7,990,000 đ 9,990,000 đ
                                        19/10/2016 - 07/12/2016                                    
                                                                Hành trình 5 ngày Hải Khẩu - Hưng Long - Tam Á khởi hành ngày 1, 8, 15, 22, 29/11 và 6, 13, 20, 27/12, giá từ 7,99 triệu đồng.
                                Tour Nhật Bản đón năm mới giá chỉ 28,9 triệu đồng
                                        28,900,000 đ 35,900,000 đ
                                        17/11/2016 - 14/12/2016                                    
                                                                Hành trình sẽ đưa du khách đến cầu may đầu xuân ở đền Kotohira Shrine, mua sắm hàng hiệu giá rẻ dưới lòng đất, tham 
                                Vietrantour tặng 10 triệu đồng tour Nam Phi 8 ngày
                                        49,900,000 đ 59,900,000 đ
                                        21/10/2016 - 01/12/2016                                    
                                                                Tour 8 ngày Johannesburg - Sun City - Pretoria - Capetown, bay hàng không 5 sao Qatar Airways, giá chỉ 49,99 triệu đồng.
                                Giảm hơn 2 triệu đồng tour Nhật Bản 6 ngày 5 đêm
                                        33,800,000 đ 35,990,000 đ
                                        01/10/2016 - 31/12/2016                                    
                                                                Hongai Tours đưa du khách khám phá xứ Phù Tang mùa lá đỏ theo hành trình Nagoya - Nara - Osaka - Kyoto - núi Phú Sĩ - Tokyo.
                                Tour ngắm hoa tam giác mạch từ 1,99 triệu đồng
                                        1,990,000 đ 2,390,000 đ
                                        08/10/2016 - 30/11/2016                                    
                                                                Danh Nam Travel đưa du khách đi ngắm hoa tam giác mạch tại Hà Giang 3 ngày 2 đêm với giá trọn gói từ 1,99 triệu đồng.
                                Tour Campuchia 4 ngày giá chỉ 8,7 triệu đồng
                                        8,700,000 đ 10,990,000 đ
                                        02/11/2016 - 26/01/2017                                    
                                                                Hành trình Phnom Penh - Siem Reap 4 ngày, bay hãng hàng không quốc gia Cambodia Angkor Air, giá chỉ 8,7 triệu đồng.
        Quốc tế
         
                Những câu lạc bộ thoát y nóng bỏng nhất thế giới
                        Những cô nàng chân dài với thân hình đồng hồ cát, điệu nhảy khiêu gợi, đồ uống lạnh hảo hạng và điệu nhảy bốc lửa trong các câu lạc bộ thoát y luôn kích thích các giác quan của du khách.
            Bé gái Ấn Độ hồn nhiên tóm cổ rắn hổ mang chúaBí mật đáng sợ bên dưới hệ thống tàu điện ngầm LondonNgã xuống hồ nước nóng, du khách chết mất xác
         Gửi bài viết về tòa soạn
        Ẩm thực
         
                             
            Quán bún măng vịt mỗi ngày chỉ bán một tiếng
            Nằm sâu trong con hẻm nhỏ trên đường Lê Văn Sỹ quận Tân Bình, TP HCM, quán bún vịt chỉ phục vụ khách từ 15h30 và đóng hàng sau đó chừng một tiếng.
                Vợ chồng Thu Phương nếm 'bún chửi' Hà Nội
                'Vua đầu bếp' để khách tự sáng tạo món ăn
        Cộng đồng
         
                'Thời gian biểu' du lịch Việt Nam bốn mùa đều đẹp
                        Hãy lên kế hoạch du lịch đúng thời điểm cho năm mới dựa theo lịch trình du lịch khắp miền đất nước.
            Du khách đứng tim vì voi chặn đầu xe5 vùng đất Samurai nổi tiếng của Nhật BảnĐồi cỏ hồng Đà Lạt biến thành cỏ tuyết sau một đêm
        Ảnh
         
                             
            Quang Vinh khám phá hai mặt đối lập của Sài Gòn
            Sinh ra và lớn lên ở Sài Gòn, Quang Vinh muốn giới thiệu những điểm thú vị mà mọi người có thể đã bỏ qua với loại hình du lịch mới - staycation.
                                     
                Bảo tàng áo dài tư nhân duy nhất ở Sài Gòn
                                     
                Việt Nam trong mắt giới trẻ Thái Lan
        Video
         
            Du khách la hét vì chơi tàu lượn dốc nhất thế giới
            Tàu lượn Takabisha (Nhật Bản) có độ dốc lên tới 121 độ, vận tốc tối đa đạt 160 km/h khiến người chơi như đứng tim khi nhiều đường ray thẳng đứng, tàu như rơi tự do.
                Cả công viên 'nín thở' chờ du khách béo trượt máng
                Cảnh đẹp ngoạn mục trên khắp nẻo đường Na Uy
        Điểm đến yêu thích                
                    Kế hoạch 4 ngày khám phá đảo thiên đường ở Campuchia                
                    Những món ngon nên thử của Phú Quốc                
                    Khách du lịch được mời dùng toilet miễn phí ở Đà Nẵng                
                    Chuyến bay Cần Thơ - Đà Lạt chỉ mất một giờ                
                    Những cây cầu có tên gọi độc đáo ở miền Tây                
		Liên kết du lịch
					Trang chủ
                         Đặt VnExpress làm trang chủ
                         Đặt VnExpress làm trang chủ
                         Về đầu trang
                     
								  Thời sự
								  Góc nhìn
								  Pháp luật
								  Giáo dục
								  Thế giới
								  Gia đình
								  Kinh doanh
							   Hàng hóa
							   Doanh nghiệp
							   Ebank
								  Giải trí
							   Giới sao
							   Thời trang
							   Phim
								  Thể thao
							   Bóng đá
							   Tennis
							   Các môn khác
								  Video
								  Ảnh
								  Infographics
								  Sức khỏe
							   Các bệnh
							   Khỏe đẹp
							   Dinh dưỡng
								  Du lịch
							   Việt Nam
							   Quốc tế
							   Cộng đồng
								  Khoa học
							   Môi trường
							   Công nghệ mới
							   Hỏi - đáp
								  Số hóa
							   Sản phẩm
							   Đánh giá
							   Đời sống số
								  Xe
							   Tư vấn
							   Thị trường
							   Diễn đàn
								  Cộng đồng
								  Tâm sự
								  Cười
								  Rao vặt
                    Trang chủThời sựGóc nhìnThế giớiKinh doanhGiải tríThể thaoPháp luậtGiáo dụcSức khỏeGia đìnhDu lịchKhoa họcSố hóaXeCộng đồngTâm sựVideoCườiRao vặt
                            © Copyright 1997 VnExpress.net,  All rights reserved
                            ® VnExpress giữ bản quyền nội dung trên website này.
                            VnExpress tuyển dụng   Liên hệ quảng cáo  / Liên hệ Tòa soạn
                            Thông tin Tòa soạn.0123.888.0123 (HN) - 0129.233.3555 (TP HCM)
                                     Liên hệ Tòa soạn
                                     Thông tin Tòa soạn
                                    0123.888.0123 (HN) 
                                    0129.233.3555 (TP HCM)
                                © Copyright 1997 VnExpress.net,  All rights reserved
                                ® VnExpress giữ bản quyền nội dung trên website này.
                     
         
