url:http://dulich.vnexpress.net/tin-tuc/cong-dong/
Tittle :Du lịch Cộng đồng, thông tin địa điểm du lịch Cộng đồng 2013 - VnExpress Du lịch
content : 
                     Trang chủ Thời sự Góc nhìn Thế giới Kinh doanh Giải trí Thể thao Pháp luật Giáo dục Sức khỏe Gia đình Du lịch Khoa học Số hóa Xe Cộng đồng Tâm sự Rao vặt Video Ảnh  Cười 24h qua Liên hệ Tòa soạn Thông tin Tòa soạn
                            © Copyright 1997- VnExpress.net, All rights reserved
                            ® VnExpress giữ bản quyền nội dung trên website này.
                         Hotline:
                            0123.888.0123 (Hà Nội) 
                            0129.233.3555 (TP HCM) 
                                    Thế giớiPháp luậtXã hộiKinh doanhGiải tríÔ tô - Xe máy Thể thaoSố hóaGia đình
                         
                     
                    Thời sựThế giớiKinh doanhGiải tríThể thaoPháp luậtGiáo dụcSức khỏeGia đìnhDu lịchKhoa họcSố hóaXeCộng đồngTâm sựVideoCườiRao vặt
    Việt NamQuốc tếCộng đồngẢnh
		        24h qua
            Du lịch Cộng đồng 
                        Dấu chânTư vấnHỏi - Đáp
                                        Du Lịch 
                                        Cộng đồng 
                                 
                                Việt NamQuốc tếCộng đồngẢnh
                     'Thời gian biểu' du lịch Việt Nam bốn mùa đều đẹp 
                                             
                Hãy lên kế hoạch du lịch đúng thời điểm cho năm mới dựa theo lịch trình du lịch khắp miền đất nước.                
                                        Du khách đứng tim vì voi chặn đầu xe
                                                                                     
                                    Đoàn du khách được một phen hú hồn vì gặp đàn voi khi thăm một khu bảo tồn thiên nhiên tại châu Phi.                                    
                                        5 vùng đất Samurai nổi tiếng của Nhật Bản
                                                                                     
                                    Những ngôi nhà cổ kính, bộ áo giáp truyền thống lạ mắt với thanh kiếm cong dài dắt lưng là nét đẹp của các Samurai khiến nhiều du khách thích                                     
                                        Đồi cỏ hồng Đà Lạt biến thành cỏ tuyết sau một đêm
                                                                                     
                                    Tháng 11, những đồi cỏ hồng đẹp như tranh vẽ ở Đà Lạt là điểm đến hút khách. Bạn có thể khám phá nơi đây bằng cách cắm trại, ngủ                                     
                            Kỷ niệm hài hước với toilet trên đường du lịch
                                                             
                                Nhà vệ sinh của người Nhật đứng đầu về khả năng chiều chuộng người dùng, nhưng nếu chẳng may ấn nhầm nút, bạn có thể bị ướt sũng từ đầu đến chân.                                 
                            Hành khách phát hiện gián trong bữa ăn chay trên máy bay
                                                             
                                Một hành khách cảm thấy buồn nôn khi phát hiện con gián chết trong khay thức ăn của mình trên chuyến bay từ Ấn Độ đến Mỹ.                                
                            Vợ chồng Thu Phương nếm 'bún chửi' Hà Nội
                                                             
                                Bà chủ quán rất vui vẻ chào đón nhóm của nữ ca sĩ ngay cả khi quán kín chỗ ngồi, dù vừa mở cửa.                                
                            Du khách mỏi tay câu cá khổng lồ tại Thái Lan
                                                             
                                Leslie và các con tốn rất nhiều công sức mỗi khi có cá cắn câu, chúng thường vùng vẫy khoảng 15 phút mới chịu bỏ cuộc.                                
                            Cả công viên 'nín thở' chờ du khách béo trượt máng
                                                             
                                Không một du khách nào bơi dưới hồ khi người đàn ông trong video chơi trò trượt máng trong công viên nước tại Tây Ban Nha.                                
                            Cặp du khách Trung Quốc quan hệ tình dục trong công viên
                                                             
                                Cảnh sát thành phố Huệ Châu (Trung Quốc) đang tìm kiếm hai du khách vì đã quan hệ tình dục tại một điểm công cộng thuộc thành phố này.                                
                            Khu cắm trại giữa rừng dương cách Sài Gòn 3 giờ chạy xe
                                                             
                                Bỏ qua Vũng Tàu đã quen thuộc, bạn có thể lựa chọn khu lều trại sát biển để tận hưởng chuyến nghỉ cuối năm ở gần Long Hải, cách TP HCM 120 km.                                
                            5 tuyệt chiêu hẹn hò với người lạ trên đường du lịch
                                                             
                                Sẵn sàng bắt chuyện với những chàng trai, cô gái tiềm năng ở bất cứ đâu là một trong những điều bạn cần ghi nhớ.                                
                            Khách Tây nói người Việt bấm còi xe như chơi nhạc
                                                             
                                Đến Việt Nam vào năm 2013, Sophie cho rằng nhiều du khách sẽ cần đến máy trợ thính khi tiếp xúc với văn hóa dùng còi tham gia giao thông của người bản địa.                                
                            Khách Tây truyền nhau bí kíp mua bia ở Việt Nam
                                                             
                                "Xin một ly bia" là cách mà các du khách truyền tai nhau khi muốn gọi tại quán bar ở Việt Nam.                                
                            Giây phút kinh hoàng của chàng trai thoát chết trong lễ hội 'bò đuổi'
                                                             
                                Chase Boehringer không biết thần chết ở gần anh thế nào khi tới lễ hội truyền thống San Fermin tại thành phố Pamplona, Tây Ban Nha.                                
                            Cách tiêu tiền của khách Trung Quốc và sự khác biệt về đẳng cấp
                                                             
                                Khách Trung Quốc thường vung tiền vào những chuyến du lịch châu Âu đắt tiền và các món đồ hàng hiệu, nhưng họ vẫn bị coi là những người thiếu văn hoá và không biết cách ứng xử phù hợp khi đi du lịch nước ngoài.                                
                            Trắc nghiệm kiểu Nhật 'đọc vị' bạn trong 5 phút
                                                             
                                Bài trắc nghiệm tâm lý của người Nhật Bản sẽ giúp bạn khám phá những cảm xúc thật trong bạn, cách bạn điều tiết cảm xúc và kết nối với những người xung quanh.                                
                            Hươu vươn cổ xin đồ ăn tại bàn trong khách sạn
                                                             
                                Tại khách sạn Giraffe Manor (Kenya), du khách có thể thưởng thức bữa sáng với những con hươu vươn cổ vào tận bàn ăn để vòi vĩnh.                                
                            Quán phở ngon và những tên gọi 'xấu xí'
                                                             
                                Phở ngon thì thường tên quán không mỹ miều như nhà hàng hay các quán bán đồ ăn khác.                                 
                            Bạn có phải người sành ngoại tệ?
                                                             
                                10 câu hỏi dưới sẽ giúp bạn kiểm chứng độ hiểu biết về những đơn vị tiền tệ nước ngoài.                                
                            Cuộc sống ngập trong tiền của giới trẻ nhà giàu Trung Quốc
                                                             
                                Những kỳ nghỉ sang trọng bằng du thuyền, phi cơ riêng hay thoả sức mua sắm thương hiệu đắt tiền là cuộc sống trong mơ của giới trẻ nhà giàu Trung Quốc.                                
                            Ăn ở vỉa hè Hà Nội, khách Tây thấy mình như người khổng lồ
                                                             
                                Những chiếc bàn ghế nhựa bày trên vỉa hè nhỏ xíu ở Hà Nội khiến Jeff và Lindsay trông như những người khổng lồ đang ngồi ở quán ăn ven đường.                                
                            Ấn tượng lần đầu đi tàu cao tốc 'viên đạn' ở Nhật Bản
                                                             
                                Chỗ duỗi chân rộng rãi, góc ngả ghế lớn, vận tốc trung bình hơn 280 km/h nhưng ít rung lắc là những ấn tượng mạnh nhất của tôi khi đi tàu cao tốc Shinkansen, niềm tự hào công nghệ của người Nhật trong nửa thế kỷ.                                
                            Kiệt tác toàn vỏ chai của 'người hùng quán bar' ở Canada
                                                             
                                Người dân và du khách đến Keno City, Canada thường nhắc gọi Geordie Dobson là "anh hùng quán bar" sau khi nhìn ngắm kiệt tác được làm từ vỏ chai rượu bỏ đi của ông.                                
                            Khoả thân gây rối trên máy bay, hành khách đối mặt 20 năm tù
                                                             
                                Tấn công tiếp viên, cởi hết quần áo để tiểu ra cabin, doạ giết chết hành khách và nhục mạ một đứa trẻ 3 tuổi khiến người đàn ông phải đối mặt 20 năm tù.                                
                            Đoán biểu tượng nổi tiếng bị xóa trong các bức ảnh
                                                             
                                Hãy cùng xem Cairo, Paris, Copenhagen khi bỏ đi các biểu tượng sẽ ra sao?                                
                            Thói quen ăn uống bình dân của Donald Trump
                                                             
                                Ông Trump thích ăn đồ nấu kỹ, bít tết, trứng ốp la hay thịt hun khói đều phải chín già. Tân tổng thống Mỹ còn khá thích đồ ăn nhanh.                                
                            Nỗi sợ hãi của người mẫu sushi khoả thân ở New York
                                                             
                                Nằm bất động trong thời gian dài, chịu đựng cảm giác bị cô lập và sợ hãi khi những đôi đũa nhảy múa trên cơ thể là những nỗi khổ “không nói thành lời” của người mẫu sushi khoả thân.                                
                            Nơi khách nữ dù xấu cũng trở nên hấp dẫn với đàn ông
                                                             
                                Ở Mỹ, Marie Horace chỉ là cô nàng gầy gò và các chàng trai thích con gái phải nóng bỏng như Kim Kardashian. Nhưng đàn ông Thụy Điển lại coi cô như báu vật, họ tán tỉnh và gọi Marie là "người đẹp" không biết bao lần.                                
                                12345 
                Xem tiếp
        Khuyến mãi Du lịch
		  prev
		   next
                                Tour Nhật Bản đón năm mới giá chỉ 28,9 triệu đồng
                                        28,900,000 đ 35,900,000 đ
                                        17/11/2016 - 14/12/2016                                    
                                                                Hành trình sẽ đưa du khách đến cầu may đầu xuân ở đền Kotohira Shrine, mua sắm hàng hiệu giá rẻ dưới lòng đất, tham 
                                Vietrantour tặng 10 triệu đồng tour Nam Phi 8 ngày
                                        49,900,000 đ 59,900,000 đ
                                        21/10/2016 - 01/12/2016                                    
                                                                Tour 8 ngày Johannesburg - Sun City - Pretoria - Capetown, bay hàng không 5 sao Qatar Airways, giá chỉ 49,99 triệu đồng.
                                Giảm hơn 2 triệu đồng tour Nhật Bản 6 ngày 5 đêm
                                        33,800,000 đ 35,990,000 đ
                                        01/10/2016 - 31/12/2016                                    
                                                                Hongai Tours đưa du khách khám phá xứ Phù Tang mùa lá đỏ theo hành trình Nagoya - Nara - Osaka - Kyoto - núi Phú Sĩ - Tokyo.
                                Tour ngắm hoa tam giác mạch từ 1,99 triệu đồng
                                        1,990,000 đ 2,390,000 đ
                                        08/10/2016 - 30/11/2016                                    
                                                                Danh Nam Travel đưa du khách đi ngắm hoa tam giác mạch tại Hà Giang 3 ngày 2 đêm với giá trọn gói từ 1,99 triệu đồng.
                                Tour Campuchia 4 ngày giá chỉ 8,7 triệu đồng
                                        8,700,000 đ 10,990,000 đ
                                        02/11/2016 - 26/01/2017                                    
                                                                Hành trình Phnom Penh - Siem Reap 4 ngày, bay hãng hàng không quốc gia Cambodia Angkor Air, giá chỉ 8,7 triệu đồng.
                                Tour Phú Quốc - Vinpearl Land gồm vé máy bay từ 2,9 triệu đồng
                                        2,999,000 đ 4,160,000 đ
                                        16/11/2016 - 30/12/2016                                    
                                                                Hành trình trọn gói và Free and Easy tới Phú Quốc với nhiều lựa chọn hấp dẫn cùng khuyến mại dịp cuối năm dành cho 
                                Tour Hải Nam, Trung Quốc 5 ngày giá từ 7,99 triệu đồng
                                        7,990,000 đ 9,990,000 đ
                                        19/10/2016 - 07/12/2016                                    
                                                                Hành trình 5 ngày Hải Khẩu - Hưng Long - Tam Á khởi hành ngày 1, 8, 15, 22, 29/11 và 6, 13, 20, 27/12, giá từ 7,99 triệu đồng.
        Việt Nam
         
                Quán bún măng vịt mỗi ngày chỉ bán một tiếng
                        Nằm sâu trong con hẻm nhỏ trên đường Lê Văn Sỹ quận Tân Bình, TP HCM, quán bún vịt chỉ phục vụ khách từ 15h30 và đóng hàng sau đó chừng một tiếng.
            Bắc Trung Bộ hút khách Thái Lan để vực dậy du lịchViệt Nam đứng top đầu khách chi tiêu nhiều nhất ở Nhật BảnKhông gian điện ảnh đẳng cấp tại Vinpearl Đà Nẵng
         Gửi bài viết về tòa soạn
        Quốc tế
         
                Những câu lạc bộ thoát y nóng bỏng nhất thế giới
                        Những cô nàng chân dài với thân hình đồng hồ cát, điệu nhảy khiêu gợi, đồ uống lạnh hảo hạng và điệu nhảy bốc lửa trong các câu lạc bộ thoát y luôn kích thích các giác quan của du khách.
            Bé gái Ấn Độ hồn nhiên tóm cổ rắn hổ mang chúaBí mật đáng sợ bên dưới hệ thống tàu điện ngầm LondonNgã xuống hồ nước nóng, du khách chết mất xác
        Ảnh
         
                             
            Homestay nằm giữa hồ sen ở Ninh Bình
            Những căn nhà lợp lá tranh tựa vào vách núi, xung quanh là hồ sen bát ngát, tách biệt hẳn với phố thị ồn ào là địa chỉ homestay được yêu thích khi đến Ninh Bình.
                                     
                Cặp đôi nắm tay nhau chụp ảnh ở 30 nước
                                     
                Đông Nam Á không bao giờ cũ trong mắt cô gái 8X
        Video
         
            Du khách la hét vì chơi tàu lượn dốc nhất thế giới
            Tàu lượn Takabisha (Nhật Bản) có độ dốc lên tới 121 độ, vận tốc tối đa đạt 160 km/h khiến người chơi như đứng tim khi nhiều đường ray thẳng đứng, tàu như rơi tự do.
                Cảnh đẹp ngoạn mục trên khắp nẻo đường Na Uy
                Khỉ Cát Bà trộm nước ngọt của du khách lên báo Mỹ
        Bình luận hay
        Xem nhiều nhất
    'Thời gian biểu' du lịch Việt Nam bốn mùa đều đẹpGóc tối của lễ hội phụ nữ khoe ngực trần tại Tây Ban NhaCặp du khách Trung Quốc quan hệ tình dục trong công viênCả công viên 'nín thở' chờ du khách béo trượt mángBí mật đáng sợ bên dưới hệ thống tàu điện ngầm LondonChàng tiên cá có thật giữa đời thường
		 
					Trang chủ
                         Đặt VnExpress làm trang chủ
                         Đặt VnExpress làm trang chủ
                         Về đầu trang
                     
								  Thời sự
								  Góc nhìn
								  Pháp luật
								  Giáo dục
								  Thế giới
								  Gia đình
								  Kinh doanh
							   Hàng hóa
							   Doanh nghiệp
							   Ebank
								  Giải trí
							   Giới sao
							   Thời trang
							   Phim
								  Thể thao
							   Bóng đá
							   Tennis
							   Các môn khác
								  Video
								  Ảnh
								  Infographics
								  Sức khỏe
							   Các bệnh
							   Khỏe đẹp
							   Dinh dưỡng
								  Du lịch
							   Việt Nam
							   Quốc tế
							   Cộng đồng
								  Khoa học
							   Môi trường
							   Công nghệ mới
							   Hỏi - đáp
								  Số hóa
							   Sản phẩm
							   Đánh giá
							   Đời sống số
								  Xe
							   Tư vấn
							   Thị trường
							   Diễn đàn
								  Cộng đồng
								  Tâm sự
								  Cười
								  Rao vặt
                    Trang chủThời sựGóc nhìnThế giớiKinh doanhGiải tríThể thaoPháp luậtGiáo dụcSức khỏeGia đìnhDu lịchKhoa họcSố hóaXeCộng đồngTâm sựVideoCườiRao vặt
                            © Copyright 1997 VnExpress.net,  All rights reserved
                            ® VnExpress giữ bản quyền nội dung trên website này.
                            VnExpress tuyển dụng   Liên hệ quảng cáo  / Liên hệ Tòa soạn
                            Thông tin Tòa soạn.0123.888.0123 (HN) - 0129.233.3555 (TP HCM)
                                     Liên hệ Tòa soạn
                                     Thông tin Tòa soạn
                                    0123.888.0123 (HN) 
                                    0129.233.3555 (TP HCM)
                                © Copyright 1997 VnExpress.net,  All rights reserved
                                ® VnExpress giữ bản quyền nội dung trên website này.
                     
         
