url:http://dulich.vnexpress.net/tin-tuc/cong-dong/tu-van/bo-qua-bun-chui-ha-noi-con-nhieu-mon-bun-ngon-nen-thu-3492936.html?utm_campaign=boxtracking&utm_medium=box_relatedtop&utm_source=detail
Tittle :Bỏ qua bún chửi, Hà Nội còn nhiều món bún ngon nên thử - VnExpress Du lịch
content : 
                     Trang chủ Thời sự Góc nhìn Thế giới Kinh doanh Giải trí Thể thao Pháp luật Giáo dục Sức khỏe Gia đình Du lịch Khoa học Số hóa Xe Cộng đồng Tâm sự Rao vặt Video Ảnh  Cười 24h qua Liên hệ Tòa soạn Thông tin Tòa soạn
                            © Copyright 1997- VnExpress.net, All rights reserved
                            ® VnExpress giữ bản quyền nội dung trên website này.
                         Hotline:
                            0123.888.0123 (Hà Nội) 
                            0129.233.3555 (TP HCM) 
                                    Thế giớiPháp luậtXã hộiKinh doanhGiải tríÔ tô - Xe máy Thể thaoSố hóaGia đình
                         
                     
                    Thời sựThế giớiKinh doanhGiải tríThể thaoPháp luậtGiáo dụcSức khỏeGia đìnhDu lịchKhoa họcSố hóaXeCộng đồngTâm sựVideoCườiRao vặt
    Việt NamQuốc tếCộng đồngẢnh
		        24h qua
            Du lịch Cộng đồng 
                        Dấu chânTư vấnHỏi - Đáp
                                        Du Lịch 
                                        Tư vấn 
                                 
                                Việt NamQuốc tếCộng đồngẢnh
						Thứ năm, 3/11/2016 | 10:13 GMT+7
|
						Bỏ qua bún chửi, Hà Nội còn nhiều món bún ngon nên thử												
					Ẩm thực Hà thành có rất nhiều quán bún nổi tiếng dù đông khách nhưng vẫn giữ thái độ phục vụ tốt, được thực khách đánh giá cao. Bún ngan, bún thang, bún dọc mùng hay bún ốc là những gợi ý cho bạn.
					5 hàng bún ốc luôn đông khách ở Hà Nội  /  Quán 'bún chửi' Hà Nội: người chê, kẻ bênh                    
					Bún dọc mùng Bát Đàn
					Quán mang dáng dấp quán xá xưa của Hà Nội, nhỏ và có phần tuềnh toàng nhưng lại tấp nập khách cả ngày, nếu đến buổi trưa bạn phải ngồi khá chật chội để ăn. Bún dọc mùng ở đây có các loại mọc, thịt nạc, sườn, chân giò và cả bún lưỡi giống như ở quán bún chửi Ngô Sĩ Liên. Dù nổi tiếng và đông khách, chủ quán và nhân viên không hề “chảnh” mà khá thân thiện, nhanh tay làm món cho lượng khách đông kín mỗi ngày. Giá một bát bún là 40.000 đồng. Ảnh: Hồng Ngọc.
					Bún ngan Hàng Hòm
					Bát bún ngan thường có sợi bún nhỏ và trắng, phía trên là lớp thịt ngan thái hoặc chặt, nước dùng có vị ngọt đậm từ xương và chua dịu từ măng. Quán bún ở phố Hàng Hòm có không gian sạch sẽ, được đánh giá là phục vụ tận tình. Ngoài bún thang và bún ngan được yêu thích, quán có các món về gà như miến gà, xôi gà. Các món có giá từ 25.000 đến 35.000 đồng, được xem là rẻ so quán xá khu phố cổ. Ảnh: Má Lúm.
					Bún cá Hồng Phúc
					Trước kia ngõ Hồng Phúc gần bốt Hàng Đậu chỉ có một hàng bún cá, luôn tấp nập khách ra vào từ sáng đến khuya. Ngày nay có thêm vài quán mở, bán 24/24 khiến ngõ nhỏ trở thành địa chỉ ăn đêm quen thuộc ở Hà Nội. Bát bún cá ở đây khá đầy đặn, thịt cá nhiều, rán vàng, chả cá mỏng và nước dùng chua dịu, thơm ngon. Một tô bún cá giá từ 30.000 đồng, phục vụ khá nhanh chóng. Ảnh: Thanh Sơn.
					Bún thang Hàng Trống
					Cũng nằm trong khu phố cổ, quán bún thang này được đánh giá là rẻ. Là món ăn đặc trưng của ẩm thực Hà thành, bát bún thang gồm các loại nguyên liệu như giò, trứng thái chỉ, gà xé nhỏ, củ cải, rau răm, nấm... được bày cùng hành hoa chan nước dùng thanh nhẹ. Một bát trông khá đầy đặn, khách có thể lựa chọn hai mức giá 25.000 và 30.000 đồng. Ảnh: Nguyễn Hà.
					Bún ốc ngõ Nhà Chung
					Không giống nhiều nơi làm bún ốc ăn kèm giò, thịt, đậu; bát bún ở đây đúng vị bún ốc truyền thống, gồm bún, ốc, chút mắm tôm, hành hoa và chan nước dùng. Ốc ở đây được làm cẩn thận nên rất giòn, khi ăn không có cảm giác tanh hay sạn. Giá cả bình dân, tô bún ốc nhỏ giá 25.000 đồng, còn ốc to là 30.000 đồng. Quán phục vụ cả bún nóng, nguội, chan hoặc chấm để khách lựa chọn tùy theo khẩu vị. Chủ quán khá nhiệt tình và chiều khách. Ảnh: Diệp Đặng.
	Xem thêm: 10 món ăn Hà Nội cứ khi lạnh là thèm                        
                                    Má Lúm
                                                                              |  
									Gửi bài viết chia sẻ tại đây hoặc về dulich@vnexpress.net
                Địa chỉ gợi ý cho du khách thích khám phá ẩm thực
                    Quán bún măng vịt mỗi ngày chỉ bán một tiếng (19/11)
                                             
                    Vợ chồng Thu Phương nếm 'bún chửi' Hà Nội (18/11)
                                             
                    'Vua đầu bếp' để khách tự sáng tạo món ăn (17/11)
                                             
                    Những quán ăn không biển hiệu vẫn đông khách ở Hà Nội (16/11)
                                             
                    Cơm lam nếp nương, món ăn 'dã chiến' của người Tây Bắc (16/11)
                                             
                Xem thêm
            Xem nhiều nhất
                            'Thời gian biểu' du lịch Việt Nam bốn mùa đều đẹp
                                                             
                                Góc tối của lễ hội phụ nữ khoe ngực trần tại Tây Ban Nha
                                                                     
                                Cặp du khách Trung Quốc quan hệ tình dục trong công viên
                                                                     
                                Cả công viên 'nín thở' chờ du khách béo trượt máng
                                                                     
                                Bí mật đáng sợ bên dưới hệ thống tàu điện ngầm London
                                                                     
                 
                Ý kiến bạn đọc (0) 
                Mới nhất | Quan tâm nhất
                Mới nhấtQuan tâm nhất
            Xem thêm
                        Ý kiến của bạn
                            20/1000
                                    Tắt chia sẻĐăng xuất
                         
                                Ý kiến của bạn
                                20/1000
                                 
                Tags
                                    Bún ngon Hà Nội
                                Bún chửi
                                Bún ốc
                                Bún thang
                                Bún cá Hồng Phúc
    Tin Khác
                            5 vùng đất Samurai nổi tiếng của Nhật Bản
                                                             
                            Khu cắm trại giữa rừng dương cách Sài Gòn 3 giờ chạy xe
                                                             
                            5 tuyệt chiêu hẹn hò với người lạ trên đường du lịch
                                                             
                                                     
                            Quang Vinh khám phá hai mặt đối lập của Sài Gòn
                                                             
                                    Khách Tây truyền nhau bí kíp mua bia ở Việt Nam
                                                                             
                                    16 điều bạn nên tránh khi du lịch Nhật Bản
                                                                             
                                    Chàng trai Sài Gòn du lịch tự túc Đài Loan với 15 triệu đồng
                                                                             
                                    6 món ngon Quy Nhơn níu chân du khách
                                                                             
                                    Điều cần biết khi tắm khỏa thân ở Nhật Bản
                                                                             
                                    Khách sạn mini - xu hướng mới ở Phú Quốc
                                                                             
                                    5 món nướng cho ngày mưa Đà Lạt
                                                                             
                                    Những nơi được check in khi Hà Nội đón gió lạnh đầu mùa
                                                                             
                                    3 loài hoa dại khiến phượt thủ lên Đà Lạt tháng 11
                                                                             
                                    Những món gỏi ngon mùa nào cũng có ở Sài Gòn
                                                                             
        Khuyến mãi Du lịch
		  prev
		   next
                                Tour ngắm hoa tam giác mạch từ 1,99 triệu đồng
                                        1,990,000 đ 2,390,000 đ
                                        08/10/2016 - 30/11/2016                                    
                                                                Danh Nam Travel đưa du khách đi ngắm hoa tam giác mạch tại Hà Giang 3 ngày 2 đêm với giá trọn gói từ 1,99 triệu đồng.
                                Tour Phú Quốc - Vinpearl Land gồm vé máy bay từ 2,9 triệu đồng
                                        2,999,000 đ 4,160,000 đ
                                        16/11/2016 - 30/12/2016                                    
                                                                Hành trình trọn gói và Free and Easy tới Phú Quốc với nhiều lựa chọn hấp dẫn cùng khuyến mại dịp cuối năm dành cho 
                                Tour Hải Nam, Trung Quốc 5 ngày giá từ 7,99 triệu đồng
                                        7,990,000 đ 9,990,000 đ
                                        19/10/2016 - 07/12/2016                                    
                                                                Hành trình 5 ngày Hải Khẩu - Hưng Long - Tam Á khởi hành ngày 1, 8, 15, 22, 29/11 và 6, 13, 20, 27/12, giá từ 7,99 triệu đồng.
                                Vietrantour tặng 10 triệu đồng tour Nam Phi 8 ngày
                                        49,900,000 đ 59,900,000 đ
                                        21/10/2016 - 01/12/2016                                    
                                                                Tour 8 ngày Johannesburg - Sun City - Pretoria - Capetown, bay hàng không 5 sao Qatar Airways, giá chỉ 49,99 triệu đồng.
                                Tour Nhật Bản đón năm mới giá chỉ 28,9 triệu đồng
                                        28,900,000 đ 35,900,000 đ
                                        17/11/2016 - 14/12/2016                                    
                                                                Hành trình sẽ đưa du khách đến cầu may đầu xuân ở đền Kotohira Shrine, mua sắm hàng hiệu giá rẻ dưới lòng đất, tham 
                                Tour Campuchia 4 ngày giá chỉ 8,7 triệu đồng
                                        8,700,000 đ 10,990,000 đ
                                        02/11/2016 - 26/01/2017                                    
                                                                Hành trình Phnom Penh - Siem Reap 4 ngày, bay hãng hàng không quốc gia Cambodia Angkor Air, giá chỉ 8,7 triệu đồng.
                                Giảm hơn 2 triệu đồng tour Nhật Bản 6 ngày 5 đêm
                                        33,800,000 đ 35,990,000 đ
                                        01/10/2016 - 31/12/2016                                    
                                                                Hongai Tours đưa du khách khám phá xứ Phù Tang mùa lá đỏ theo hành trình Nagoya - Nara - Osaka - Kyoto - núi Phú Sĩ - Tokyo.
        Việt Nam
         
                Quán bún măng vịt mỗi ngày chỉ bán một tiếng
                        Nằm sâu trong con hẻm nhỏ trên đường Lê Văn Sỹ quận Tân Bình, TP HCM, quán bún vịt chỉ phục vụ khách từ 15h30 và đóng hàng sau đó chừng một tiếng.
            Bắc Trung Bộ hút khách Thái Lan để vực dậy du lịchViệt Nam đứng top đầu khách chi tiêu nhiều nhất ở Nhật BảnKhông gian điện ảnh đẳng cấp tại Vinpearl Đà Nẵng
         Gửi bài viết về tòa soạn
        Quốc tế
         
                Những câu lạc bộ thoát y nóng bỏng nhất thế giới
                        Những cô nàng chân dài với thân hình đồng hồ cát, điệu nhảy khiêu gợi, đồ uống lạnh hảo hạng và điệu nhảy bốc lửa trong các câu lạc bộ thoát y luôn kích thích các giác quan của du khách.
            Bé gái Ấn Độ hồn nhiên tóm cổ rắn hổ mang chúaBí mật đáng sợ bên dưới hệ thống tàu điện ngầm LondonNgã xuống hồ nước nóng, du khách chết mất xác
        Ảnh
         
                             
            Quang Vinh khám phá hai mặt đối lập của Sài Gòn
            Sinh ra và lớn lên ở Sài Gòn, Quang Vinh muốn giới thiệu những điểm thú vị mà mọi người có thể đã bỏ qua với loại hình du lịch mới - staycation.
                                     
                Khách sạn mini - xu hướng mới ở Phú Quốc
                                     
                Homestay nằm giữa hồ sen ở Ninh Bình
        Video
         
            Du khách đứng tim vì voi chặn đầu xe
            Đoàn du khách được một phen hú hồn vì gặp đàn voi khi thăm một khu bảo tồn thiên nhiên tại châu Phi.
                Du khách la hét vì chơi tàu lượn dốc nhất thế giới
                Cả công viên 'nín thở' chờ du khách béo trượt máng
        Bình luận hay
					Trang chủ
                         Đặt VnExpress làm trang chủ
                         Đặt VnExpress làm trang chủ
                         Về đầu trang
                     
								  Thời sự
								  Góc nhìn
								  Pháp luật
								  Giáo dục
								  Thế giới
								  Gia đình
								  Kinh doanh
							   Hàng hóa
							   Doanh nghiệp
							   Ebank
								  Giải trí
							   Giới sao
							   Thời trang
							   Phim
								  Thể thao
							   Bóng đá
							   Tennis
							   Các môn khác
								  Video
								  Ảnh
								  Infographics
								  Sức khỏe
							   Các bệnh
							   Khỏe đẹp
							   Dinh dưỡng
								  Du lịch
							   Việt Nam
							   Quốc tế
							   Cộng đồng
								  Khoa học
							   Môi trường
							   Công nghệ mới
							   Hỏi - đáp
								  Số hóa
							   Sản phẩm
							   Đánh giá
							   Đời sống số
								  Xe
							   Tư vấn
							   Thị trường
							   Diễn đàn
								  Cộng đồng
								  Tâm sự
								  Cười
								  Rao vặt
                    Trang chủThời sựGóc nhìnThế giớiKinh doanhGiải tríThể thaoPháp luậtGiáo dụcSức khỏeGia đìnhDu lịchKhoa họcSố hóaXeCộng đồngTâm sựVideoCườiRao vặt
                            © Copyright 1997 VnExpress.net,  All rights reserved
                            ® VnExpress giữ bản quyền nội dung trên website này.
                            VnExpress tuyển dụng   Liên hệ quảng cáo  / Liên hệ Tòa soạn
                            Thông tin Tòa soạn.0123.888.0123 (HN) - 0129.233.3555 (TP HCM)
                                     Liên hệ Tòa soạn
                                     Thông tin Tòa soạn
                                    0123.888.0123 (HN) 
                                    0129.233.3555 (TP HCM)
                                © Copyright 1997 VnExpress.net,  All rights reserved
                                ® VnExpress giữ bản quyền nội dung trên website này.
                     
         
