url:http://dulich.vnexpress.net/photo/anh-video/khach-san-nhu-santorini-thu-nho-giua-long-da-nang-3495400.html
Tittle :Khách sạn như Santorini thu nhỏ giữa lòng Đà Nẵng - VnExpress Du lịch
content : 
                     Trang chủ Thời sự Góc nhìn Thế giới Kinh doanh Giải trí Thể thao Pháp luật Giáo dục Sức khỏe Gia đình Du lịch Khoa học Số hóa Xe Cộng đồng Tâm sự Rao vặt Video Ảnh  Cười 24h qua Liên hệ Tòa soạn Thông tin Tòa soạn
                            © Copyright 1997- VnExpress.net, All rights reserved
                            ® VnExpress giữ bản quyền nội dung trên website này.
                         Hotline:
                            0123.888.0123 (Hà Nội) 
                            0129.233.3555 (TP HCM) 
                                    Thế giớiPháp luậtXã hộiKinh doanhGiải tríÔ tô - Xe máy Thể thaoSố hóaGia đình
                         
                     
                    Thời sựThế giớiKinh doanhGiải tríThể thaoPháp luậtGiáo dụcSức khỏeGia đìnhDu lịchKhoa họcSố hóaXeCộng đồngTâm sựVideoCườiRao vặt
    Việt NamQuốc tếCộng đồngẢnh
		        24h qua
            Du lịch Ảnh 
                                        Du Lịch 
                                        Ảnh 
                                 
                                Việt NamQuốc tếCộng đồngẢnh
                            Thứ ba, 8/11/2016 | 13:06 GMT+7                        
|
                        Khách sạn như Santorini thu nhỏ giữa lòng Đà Nẵng                                                
                    Với hai tông màu chủ đạo là xanh và trắng, khách sạn bên bờ biển Mỹ Khê khiến nhiều du khách có cảm giác như được đặt chân đến hòn đảo nổi tiếng của Hy Lạp.
                                Khách sạn mini - xu hướng mới ở Phú Quốc
                                Homestay xanh mát nằm gần biển ở Đà Nẵng
                                             
	Bước chân đến Risemount Resort, du khách không khỏi ngỡ ngàng trước kiến trúc của khách sạn với những ô ban công màu xanh da trời nổi bật trên nền trắng muốt, giống như những tòa lâu đài ẩn hiện trên vách núi ở Santorini.
                                                                                 
                                             
	Tại đây có 103 phòng nghỉ với tông màu trắng chủ đạo, điểm xuyết bởi những khoảng xanh ngọc mướt mắt.
                                                                                 
                                             
	Không gian trong quầy bar khách sạn với kiến trúc mái vòm đặc trưng ở Santorini. Bạn cũng sẽ bắt gặp nét cổ điển pha lẫn hiện đại của hòn đảo thiên đường xứ Hy Lạp tại mỗi ngóc ngách của công trình.
                                                                                 
                                             
	Tại đây, bạn sẽ được thưởng thức những món ăn nhẹ và nhâm nhi đồ uống, tận hưởng chút phong vị Địa Trung Hải từ không gian xung quanh.
                                                                                 
                                             
	Phòng của khách sạn được chia thành 9 hạng, rẻ nhất là phòng Superior, 22 m2, giá từ 1,7 triệu đồng. Phòng cao cấp nhất là Santorini Suite, 63 m2, giá từ 5,3 triệu đồng.
                                                                                 
                                             
	Các đồ vật trong phòng cũng không nằm ngoài chủ đề chung của khách sạn, do đó, tạo cảm giác thoải mái, dễ chịu cho du khách.
                                                                                 
                                             
	La Maison là khách sạn phục vụ ẩm thực Á - Âu, có thiết kế bán mở dành riêng cho khu vực bếp, nơi thực khách được dễ dàng chiêm ngưỡng những màn trình diễn chế biến món ăn đầy thú vị của đầu bếp. Bạn cũng có thể chọn không gian riêng tư hơn để tận hưởng những phút giây lãng mạn.
                                                                                 
                                             
	Quầy bar bên bể bơi trên tầng thượng là nơi du khách nhâm nhi một ly cocktail hay tách cà phê, tận hưởng làn gió tươi mát của biển cả và ngắm nhìn khung cảnh thơ mộng của bán đảo Sơn Trà, bầu trời xanh ngát của thành phố Đà Nẵng và sự hùng vĩ của núi Ngũ Hành.
                                                                                 
                                             
	Điểm nhấn cho các căn phòng là những dàn hoa giấy rực rỡ sắc màu nơi góc ban công, mang đến một không gian thơ mộng.
                                                                                 
                                             
	Đặc biệt, các dịch vụ trong khách sạn như spa, gym, cafe, bar, restaurant, pool party không chỉ dành cho khách lưu trú mà cả khách tự do.
                                                                                 
	Thiên Thanh
                Các khách sạn lạ và đẹp trên thế giới
                    Tiện nghi xa xỉ trong du thuyền vừa ghé Đà Nẵng (12/11)
                                             
                    5 điểm đến cho người yêu - kẻ ghét tổng thống Donald Trump (10/11)
                                             
                    Bên trong du thuyền lớn nhất châu Á vừa cập cảng Việt Nam (10/11)
                                             
                    Lý do Trump không đặt tiệc chúc mừng tại khách sạn của mình (10/11)
                                             
                    Bên trong khách sạn 7 sao 'tự phong' đầu tiên ở Thượng Hải (8/11)
                                             
                Xem thêm
                         
                Ý kiến bạn đọc (0) 
                Mới nhất | Quan tâm nhất
                Mới nhấtQuan tâm nhất
            Xem thêm
                        Ý kiến của bạn
                            20/1000
                                    Tắt chia sẻĐăng xuất
                         
                                Ý kiến của bạn
                                20/1000
                                 
                        Tags
                                                    Santorini
                                                    Đà nẵng
                                                    Risemount
                                                    Khách sạn đà nẵng
                                                    Hy lạp
    Tin Khác
                                                     
                            Diễm My ăn trưa, trồng rau cùng người dân Hội An
                                                             
                                                     
                            Khu ổ chuột đầy rẫy tội phạm một thời ở Hong Kong
                                                             
                                                     
                            Góc tối của lễ hội phụ nữ khoe ngực trần tại Tây Ban Nha
                                                             
                            Những bữa tiệc 'nóng mắt' với bong bóng xà phòng
                                                             
                                    Đồi cỏ hồng Đà Lạt biến thành cỏ tuyết sau một đêm
                                                                             
                                    Vợ chồng Thu Phương nếm 'bún chửi' Hà Nội
                                                                             
                                    'Vườn thú người' - vết nhơ trong lịch sử châu Âu
                                                                             
                                    Vẻ đẹp của thị trấn nơi William và Kate gặp nhau
                                                                             
                                    Khu cắm trại giữa rừng dương cách Sài Gòn 3 giờ chạy xe
                                                                             
                                    Vẻ đẹp thơ mộng mùa lá đỏ Nhật Bản
                                                                             
                                    Bên trong thị trấn ma lớn nhất thế giới ở quê hương Thành Cát Tư Hãn
                                                                             
                                    Cô gái bị fan cuồng sao y bản chính khi đi du lịch
                                                                             
                                    Quang Vinh khám phá hai mặt đối lập của Sài Gòn
                                                                             
                                    Bảo tàng áo dài tư nhân duy nhất ở Sài Gòn
                                                                             
        Khuyến mãi Du lịch
		  prev
		   next
                                Giảm hơn 2 triệu đồng tour Nhật Bản 6 ngày 5 đêm
                                        33,800,000 đ 35,990,000 đ
                                        01/10/2016 - 31/12/2016                                    
                                                                Hongai Tours đưa du khách khám phá xứ Phù Tang mùa lá đỏ theo hành trình Nagoya - Nara - Osaka - Kyoto - núi Phú Sĩ - Tokyo.
                                Tour Nhật Bản đón năm mới giá chỉ 28,9 triệu đồng
                                        28,900,000 đ 35,900,000 đ
                                        17/11/2016 - 14/12/2016                                    
                                                                Hành trình sẽ đưa du khách đến cầu may đầu xuân ở đền Kotohira Shrine, mua sắm hàng hiệu giá rẻ dưới lòng đất, tham 
                                Tour Hải Nam, Trung Quốc 5 ngày giá từ 7,99 triệu đồng
                                        7,990,000 đ 9,990,000 đ
                                        19/10/2016 - 07/12/2016                                    
                                                                Hành trình 5 ngày Hải Khẩu - Hưng Long - Tam Á khởi hành ngày 1, 8, 15, 22, 29/11 và 6, 13, 20, 27/12, giá từ 7,99 triệu đồng.
                                Tour Campuchia 4 ngày giá chỉ 8,7 triệu đồng
                                        8,700,000 đ 10,990,000 đ
                                        02/11/2016 - 26/01/2017                                    
                                                                Hành trình Phnom Penh - Siem Reap 4 ngày, bay hãng hàng không quốc gia Cambodia Angkor Air, giá chỉ 8,7 triệu đồng.
                                Tour Phú Quốc - Vinpearl Land gồm vé máy bay từ 2,9 triệu đồng
                                        2,999,000 đ 4,160,000 đ
                                        16/11/2016 - 30/12/2016                                    
                                                                Hành trình trọn gói và Free and Easy tới Phú Quốc với nhiều lựa chọn hấp dẫn cùng khuyến mại dịp cuối năm dành cho 
                                Vietrantour tặng 10 triệu đồng tour Nam Phi 8 ngày
                                        49,900,000 đ 59,900,000 đ
                                        21/10/2016 - 01/12/2016                                    
                                                                Tour 8 ngày Johannesburg - Sun City - Pretoria - Capetown, bay hàng không 5 sao Qatar Airways, giá chỉ 49,99 triệu đồng.
                                Tour ngắm hoa tam giác mạch từ 1,99 triệu đồng
                                        1,990,000 đ 2,390,000 đ
                                        08/10/2016 - 30/11/2016                                    
                                                                Danh Nam Travel đưa du khách đi ngắm hoa tam giác mạch tại Hà Giang 3 ngày 2 đêm với giá trọn gói từ 1,99 triệu đồng.
        Xem nhiều nhất
    Góc tối của lễ hội phụ nữ khoe ngực trần tại Tây Ban NhaCặp du khách Trung Quốc quan hệ tình dục trong công viênCả công viên 'nín thở' chờ du khách béo trượt mángBí mật đáng sợ bên dưới hệ thống tàu điện ngầm LondonChàng tiên cá có thật giữa đời thường
					Trang chủ
                         Đặt VnExpress làm trang chủ
                         Đặt VnExpress làm trang chủ
                         Về đầu trang
                     
								  Thời sự
								  Góc nhìn
								  Pháp luật
								  Giáo dục
								  Thế giới
								  Gia đình
								  Kinh doanh
							   Hàng hóa
							   Doanh nghiệp
							   Ebank
								  Giải trí
							   Giới sao
							   Thời trang
							   Phim
								  Thể thao
							   Bóng đá
							   Tennis
							   Các môn khác
								  Video
								  Ảnh
								  Infographics
								  Sức khỏe
							   Các bệnh
							   Khỏe đẹp
							   Dinh dưỡng
								  Du lịch
							   Việt Nam
							   Quốc tế
							   Cộng đồng
								  Khoa học
							   Môi trường
							   Công nghệ mới
							   Hỏi - đáp
								  Số hóa
							   Sản phẩm
							   Đánh giá
							   Đời sống số
								  Xe
							   Tư vấn
							   Thị trường
							   Diễn đàn
								  Cộng đồng
								  Tâm sự
								  Cười
								  Rao vặt
                    Trang chủThời sựGóc nhìnThế giớiKinh doanhGiải tríThể thaoPháp luậtGiáo dụcSức khỏeGia đìnhDu lịchKhoa họcSố hóaXeCộng đồngTâm sựVideoCườiRao vặt
                            © Copyright 1997 VnExpress.net,  All rights reserved
                            ® VnExpress giữ bản quyền nội dung trên website này.
                            VnExpress tuyển dụng   Liên hệ quảng cáo  / Liên hệ Tòa soạn
                            Thông tin Tòa soạn.0123.888.0123 (HN) - 0129.233.3555 (TP HCM)
                                     Liên hệ Tòa soạn
                                     Thông tin Tòa soạn
                                    0123.888.0123 (HN) 
                                    0129.233.3555 (TP HCM)
                                © Copyright 1997 VnExpress.net,  All rights reserved
                                ® VnExpress giữ bản quyền nội dung trên website này.
                     
         
