url:http://dulich.vnexpress.net/tin-tuc/cong-dong/tu-van/3-qua-n-bar-giup-ban-yeu-doi-hon-tai-sa-i-go-n-3126578.html?utm_campaign=boxtracking&utm_medium=box_topic&utm_source=detail
Tittle :3 quán bar giúp bạn yêu đời hơn tại Sài Gòn - VnExpress Du lịch
content : 
                     Trang chủ Thời sự Góc nhìn Thế giới Kinh doanh Giải trí Thể thao Pháp luật Giáo dục Sức khỏe Gia đình Du lịch Khoa học Số hóa Xe Cộng đồng Tâm sự Rao vặt Video Ảnh  Cười 24h qua Liên hệ Tòa soạn Thông tin Tòa soạn
                            © Copyright 1997- VnExpress.net, All rights reserved
                            ® VnExpress giữ bản quyền nội dung trên website này.
                         Hotline:
                            0123.888.0123 (Hà Nội) 
                            0129.233.3555 (TP HCM) 
                                    Thế giớiPháp luậtXã hộiKinh doanhGiải tríÔ tô - Xe máy Thể thaoSố hóaGia đình
                         
                     
                    Thời sựThế giớiKinh doanhGiải tríThể thaoPháp luậtGiáo dụcSức khỏeGia đìnhDu lịchKhoa họcSố hóaXeCộng đồngTâm sựVideoCườiRao vặt
    Việt NamQuốc tếCộng đồngẢnh
		        24h qua
            Du lịch Cộng đồng 
                        Dấu chânTư vấnHỏi - Đáp
                                        Du Lịch 
                                        Tư vấn 
                                 
                                Việt NamQuốc tếCộng đồngẢnh
						Thứ bảy, 27/12/2014 | 18:35 GMT+7
|
						3 quán bar giúp bạn yêu đời hơn tại Sài Gòn												
					Vuvuzela, Le Pub hay Boheme là những địa điểm sẽ giúp bạn rũ bỏ mọi nỗi buồn hay stress trong cuộc sống và cảm thấy yêu đời hơn trước thềm năm mới.
					3 quán bar sôi động về đêm ở Sài Gòn  /  Những ly cocktail màu sắc trong quán bar                    
	Bốn ngày nghỉ Tết Dương lịch cận kề, nhiều người muốn tụ tập bạn bè hoặc gia đình để có buổi tất niên đầy tiếng cười. Dưới đây là 3 lựa chọn hoàn hảo để gặp mặt và xả stress hiệu quả ngày cuối năm. 
	Vuvuzela
	Đây là nơi "xả stress" nổi tiếng hiện nay đối với giới trẻ Sài Gòn. Âm nhạc được những DJ tài năng pha trộn và biến tấu khiến người nghe cảm thấy phấn chấn, vui vẻ. Không gian lúc nào cũng nhộn nhịp khiến những ai đang tâm trạng không vui cũng nhanh chóng phải lắc lư theo nhạc. 
	Ngoài cocktail và thức uống có cồn, bạn còn có thể ăn những món nhẹ trong quán như thịt gà, khoai tây chiên hay trái cây... Bạn nên đặt bàn trước nếu đi theo nhóm để không bị đứng chờ quá lâu. 
					Bạn nên đặt bàn trước nếu đến Vuvuzela cùng đông đảo bạn bè. Ảnh: Bie Blue
	Le Pub
	Đến Le Pub, bạn như có thêm tinh thần để tạm biệt nỗi buồn. Nằm ngay giữa khu phố Tây nổi tiếng, Le Pub mang đến sự lạc quan của người nước ngoài. Họ cười nói, kể chuyện, nhấm nháp vài món ăn vặt rồi lại phá lên cười.
	Quán không quá lớn nhưng tiếng nhạc remix xập xình khiến bất cứ ai cũng muốn nán lại. Món cocktail ống nghiệm đầy màu sắc hay những ly pha chế đều dễ dàng chinh phục khẩu vị bạn. Le Pub thường mở rất khuya nên thích hợp để bạn đón thời khắc chuyển năm mới cùng bạn bè và cả những con người xa lạ từ khắp bốn phương. 
					Phía trong Le Pub có thể ngột ngạt, thích hợp cho vài người đi lẻ. Nếu đi cả nhóm, bạn nên xin ngồi ngoài, không khí sẽ náo nhiệt hẳn. Ảnh: Foody
	Boheme
	Được trang trí với ba tông màu chủ đạo là vàng, trắng và đen, Boheme Pub có một phong cách khó nhầm lẫn với những quán khác. Nếu không thích sự phá cách, nổi loạn, hiển nhiên nơi đây sẽ không dành cho bạn.
	Những khúc nhạc sôi động được đánh liên hồi, vui đến nỗi bạn gạt bỏ lớp vỏ rụt rè để hòa cùng giai điệu. Âm nhạc chính là thế mạnh của Boheme và cũng chính nó tạo cảm giác lâng lâng cho bạn. Thức uống tại Boheme khá ngon, giá cả phải chăng. 
					Bạn có thể chọn ngồi trong hoặc ngồi ngoài cho thoáng khi đến đây. Ảnh: Boheme
	Thảo Nghi                        
									Gửi bài viết chia sẻ tại đây hoặc về dulich@vnexpress.net
                Ăn chơi trong quán bar Việt Nam
                    Khách Tây truyền nhau bí kíp mua bia ở Việt Nam (15/11)
                                             
                    Nghe nhạc rock ở đâu tại Sài Gòn? (30/11)
                                             
                    10 dấu hiệu chứng tỏ bạn quá tuổi đi hộp đêm (23/8)
                                             
                    Những loại cocktail làm nên phong cách quý cô sành điệu (16/1)
                                             
                    3 quán bar sôi động về đêm ở Sài Gòn (16/12)
                                             
                Xem thêm
            Xem nhiều nhất
                            'Thời gian biểu' du lịch Việt Nam bốn mùa đều đẹp
                                                             
                                Góc tối của lễ hội phụ nữ khoe ngực trần tại Tây Ban Nha
                                                                     
                                Cặp du khách Trung Quốc quan hệ tình dục trong công viên
                                                                     
                                Cả công viên 'nín thở' chờ du khách béo trượt máng
                                                                     
                                Bí mật đáng sợ bên dưới hệ thống tàu điện ngầm London
                                                                     
                 
                Ý kiến bạn đọc (0) 
                Mới nhất | Quan tâm nhất
                Mới nhấtQuan tâm nhất
            Xem thêm
                        Ý kiến của bạn
                            20/1000
                                    Tắt chia sẻĐăng xuất
                         
                                Ý kiến của bạn
                                20/1000
                                 
                Tags
                                    Quán bar
                                Vui chơi
                                Đón giao thừa
                                Vuvuzela
                                Le Pub
                                Boheme
                                Ngày cuối năm
                                Sài Gòn
    Tin Khác
                            5 vùng đất Samurai nổi tiếng của Nhật Bản
                                                             
                            Khu cắm trại giữa rừng dương cách Sài Gòn 3 giờ chạy xe
                                                             
                            5 tuyệt chiêu hẹn hò với người lạ trên đường du lịch
                                                             
                                                     
                            Quang Vinh khám phá hai mặt đối lập của Sài Gòn
                                                             
                                    Khách Tây truyền nhau bí kíp mua bia ở Việt Nam
                                                                             
                                    16 điều bạn nên tránh khi du lịch Nhật Bản
                                                                             
                                    Chàng trai Sài Gòn du lịch tự túc Đài Loan với 15 triệu đồng
                                                                             
                                    6 món ngon Quy Nhơn níu chân du khách
                                                                             
                                    Điều cần biết khi tắm khỏa thân ở Nhật Bản
                                                                             
                                    Khách sạn mini - xu hướng mới ở Phú Quốc
                                                                             
                                    5 món nướng cho ngày mưa Đà Lạt
                                                                             
                                    Những nơi được check in khi Hà Nội đón gió lạnh đầu mùa
                                                                             
                                    3 loài hoa dại khiến phượt thủ lên Đà Lạt tháng 11
                                                                             
                                    Bỏ qua bún chửi, Hà Nội còn nhiều món bún ngon nên thử
                                                                             
        Khuyến mãi Du lịch
		  prev
		   next
                                Tour Nhật Bản đón năm mới giá chỉ 28,9 triệu đồng
                                        28,900,000 đ 35,900,000 đ
                                        17/11/2016 - 14/12/2016                                    
                                                                Hành trình sẽ đưa du khách đến cầu may đầu xuân ở đền Kotohira Shrine, mua sắm hàng hiệu giá rẻ dưới lòng đất, tham 
                                Giảm hơn 2 triệu đồng tour Nhật Bản 6 ngày 5 đêm
                                        33,800,000 đ 35,990,000 đ
                                        01/10/2016 - 31/12/2016                                    
                                                                Hongai Tours đưa du khách khám phá xứ Phù Tang mùa lá đỏ theo hành trình Nagoya - Nara - Osaka - Kyoto - núi Phú Sĩ - Tokyo.
                                Tour ngắm hoa tam giác mạch từ 1,99 triệu đồng
                                        1,990,000 đ 2,390,000 đ
                                        08/10/2016 - 30/11/2016                                    
                                                                Danh Nam Travel đưa du khách đi ngắm hoa tam giác mạch tại Hà Giang 3 ngày 2 đêm với giá trọn gói từ 1,99 triệu đồng.
                                Tour Hải Nam, Trung Quốc 5 ngày giá từ 7,99 triệu đồng
                                        7,990,000 đ 9,990,000 đ
                                        19/10/2016 - 07/12/2016                                    
                                                                Hành trình 5 ngày Hải Khẩu - Hưng Long - Tam Á khởi hành ngày 1, 8, 15, 22, 29/11 và 6, 13, 20, 27/12, giá từ 7,99 triệu đồng.
                                Vietrantour tặng 10 triệu đồng tour Nam Phi 8 ngày
                                        49,900,000 đ 59,900,000 đ
                                        21/10/2016 - 01/12/2016                                    
                                                                Tour 8 ngày Johannesburg - Sun City - Pretoria - Capetown, bay hàng không 5 sao Qatar Airways, giá chỉ 49,99 triệu đồng.
                                Tour Phú Quốc - Vinpearl Land gồm vé máy bay từ 2,9 triệu đồng
                                        2,999,000 đ 4,160,000 đ
                                        16/11/2016 - 30/12/2016                                    
                                                                Hành trình trọn gói và Free and Easy tới Phú Quốc với nhiều lựa chọn hấp dẫn cùng khuyến mại dịp cuối năm dành cho 
                                Tour Campuchia 4 ngày giá chỉ 8,7 triệu đồng
                                        8,700,000 đ 10,990,000 đ
                                        02/11/2016 - 26/01/2017                                    
                                                                Hành trình Phnom Penh - Siem Reap 4 ngày, bay hãng hàng không quốc gia Cambodia Angkor Air, giá chỉ 8,7 triệu đồng.
        Việt Nam
         
                Quán bún măng vịt mỗi ngày chỉ bán một tiếng
                        Nằm sâu trong con hẻm nhỏ trên đường Lê Văn Sỹ quận Tân Bình, TP HCM, quán bún vịt chỉ phục vụ khách từ 15h30 và đóng hàng sau đó chừng một tiếng.
            Bắc Trung Bộ hút khách Thái Lan để vực dậy du lịchViệt Nam đứng top đầu khách chi tiêu nhiều nhất ở Nhật BảnKhông gian điện ảnh đẳng cấp tại Vinpearl Đà Nẵng
         Gửi bài viết về tòa soạn
        Quốc tế
         
                Những câu lạc bộ thoát y nóng bỏng nhất thế giới
                        Những cô nàng chân dài với thân hình đồng hồ cát, điệu nhảy khiêu gợi, đồ uống lạnh hảo hạng và điệu nhảy bốc lửa trong các câu lạc bộ thoát y luôn kích thích các giác quan của du khách.
            Bé gái Ấn Độ hồn nhiên tóm cổ rắn hổ mang chúaBí mật đáng sợ bên dưới hệ thống tàu điện ngầm LondonNgã xuống hồ nước nóng, du khách chết mất xác
        Ảnh
         
                             
            Quang Vinh khám phá hai mặt đối lập của Sài Gòn
            Sinh ra và lớn lên ở Sài Gòn, Quang Vinh muốn giới thiệu những điểm thú vị mà mọi người có thể đã bỏ qua với loại hình du lịch mới - staycation.
                                     
                Khách sạn mini - xu hướng mới ở Phú Quốc
                                     
                Homestay nằm giữa hồ sen ở Ninh Bình
        Video
         
            Du khách đứng tim vì voi chặn đầu xe
            Đoàn du khách được một phen hú hồn vì gặp đàn voi khi thăm một khu bảo tồn thiên nhiên tại châu Phi.
                Du khách la hét vì chơi tàu lượn dốc nhất thế giới
                Cả công viên 'nín thở' chờ du khách béo trượt máng
        Bình luận hay
					Trang chủ
                         Đặt VnExpress làm trang chủ
                         Đặt VnExpress làm trang chủ
                         Về đầu trang
                     
								  Thời sự
								  Góc nhìn
								  Pháp luật
								  Giáo dục
								  Thế giới
								  Gia đình
								  Kinh doanh
							   Hàng hóa
							   Doanh nghiệp
							   Ebank
								  Giải trí
							   Giới sao
							   Thời trang
							   Phim
								  Thể thao
							   Bóng đá
							   Tennis
							   Các môn khác
								  Video
								  Ảnh
								  Infographics
								  Sức khỏe
							   Các bệnh
							   Khỏe đẹp
							   Dinh dưỡng
								  Du lịch
							   Việt Nam
							   Quốc tế
							   Cộng đồng
								  Khoa học
							   Môi trường
							   Công nghệ mới
							   Hỏi - đáp
								  Số hóa
							   Sản phẩm
							   Đánh giá
							   Đời sống số
								  Xe
							   Tư vấn
							   Thị trường
							   Diễn đàn
								  Cộng đồng
								  Tâm sự
								  Cười
								  Rao vặt
                    Trang chủThời sựGóc nhìnThế giớiKinh doanhGiải tríThể thaoPháp luậtGiáo dụcSức khỏeGia đìnhDu lịchKhoa họcSố hóaXeCộng đồngTâm sựVideoCườiRao vặt
                            © Copyright 1997 VnExpress.net,  All rights reserved
                            ® VnExpress giữ bản quyền nội dung trên website này.
                            VnExpress tuyển dụng   Liên hệ quảng cáo  / Liên hệ Tòa soạn
                            Thông tin Tòa soạn.0123.888.0123 (HN) - 0129.233.3555 (TP HCM)
                                     Liên hệ Tòa soạn
                                     Thông tin Tòa soạn
                                    0123.888.0123 (HN) 
                                    0129.233.3555 (TP HCM)
                                © Copyright 1997 VnExpress.net,  All rights reserved
                                ® VnExpress giữ bản quyền nội dung trên website này.
                     
         
