url:http://dulich.vnexpress.net/khach-san/ho-chi-minh/khach-san-pullman-saigon-centre-6510.html
Tittle :Khách sạn Pullman Saigon Centre - VnExpress Du lịch
content : 
                     Trang chủ Thời sự Góc nhìn Thế giới Kinh doanh Giải trí Thể thao Pháp luật Giáo dục Sức khỏe Gia đình Du lịch Khoa học Số hóa Xe Cộng đồng Tâm sự Rao vặt Video Ảnh  Cười 24h qua Liên hệ Tòa soạn Thông tin Tòa soạn
                            © Copyright 1997- VnExpress.net, All rights reserved
                            ® VnExpress giữ bản quyền nội dung trên website này.
                         Hotline:
                            0123.888.0123 (Hà Nội) 
                            0129.233.3555 (TP HCM) 
                                    Thế giớiPháp luậtXã hộiKinh doanhGiải tríÔ tô - Xe máy Thể thaoSố hóaGia đình
                         
                     
                    Thời sựThế giớiKinh doanhGiải tríThể thaoPháp luậtGiáo dụcSức khỏeGia đìnhDu lịchKhoa họcSố hóaXeCộng đồngTâm sựVideoCườiRao vặt
    Việt NamQuốc tếCộng đồngẢnh
                Các địa danh khác
		        24h qua
            Du lịch Việt Nam 
                        Hồ Chí Minh
                                        Du Lịch 
                                        Hồ Chí Minh 
                                        Các địa danh
                                 
                                Việt NamQuốc tếCộng đồngẢnh
                            Thứ năm, 8/5/2014 | 10:29 GMT+7                        
                            Khách sạn Pullman Saigon Centre                            
                     148 Trần Hưng Đạo, quận 1, TP HCM                                                Xem bản đồ
                                    Phòng306Giá2,721,000đ - 2,721,000đTel(08) 3933 8008Emailcsc@ivivu.com
                                                                        Hình ảnh
                                    Mô tả
	Khách sạn Pullman Saigon Centre là khách sạn đẳng cấp 5 sao quốc tế có 306 phòng nghỉ rộng rãi, kết hợp thiết kế tinh tế sang trọng với mọi tiện nghi và thoải mái. Ngoài ra, khách sạn còn là một địa điểm thưởng thức ẩm thực thú vị dành cho thực khách với các món ngon được chế biến công phu, đầy sàng tạo và mới lạ tại nhà hàng phục vụ tiệc tự chọn, hay nhà hàng và bar trên tầng thượng của khách sạn - nơi ngắm cảnh lý tưởng với tầm nhìn bao quát thành phố. Sảnh hội nghị lớn với 5 phòng họp và được trang bị những thiệt bị mới nhất. Đường truy cập internet tốc độ cao phủ sóng khắp khách sạn và có thể sử dụng hoàn toàn miễn phí.                                
                                    Tiện nghi và phục vụ
                                Nhà hàngĐưa đón ra sân bayTennisBarĐưa khách tham quanBể bơiPhòng hội thảoQuầy lưu niệmDịch vụ thẩm mỹTrung tâm thương mạiPhòng thể dụcMassageTruy cập InternetCafeSauna
                                ( Thông tin được cung cấp bởi Ivivu.com )
        Khách sạn cùng loại
            1.
                    Khách sạn Moevenpick2.
                    Khách sạn Tân Sơn Nhất Sài Gòn3.
                    Căn hộ Riverside Sài Gòn4.
                    Khách sạn Renaissance Riverside Sài Gòn5.
                    Khách sạn Rex Sài Gòn6.
                    Khách sạn TajmaSago Castle Sài Gòn7.
                    Khách sạn Windsor Plaza Sài Gòn8.
                    Khách sạn Bến Thành (Rex)
        Khách sạn yêu thích
            1.Church Boutique Hang Ca Hotel2.Lăng Cô Beach Resort3.Hotel Basile4.Hôtel Le Royal Monceau Raffles Paris5.Hôtel Fouquet's Barrière6.Holiday Inn Paris Notre Dame7.Khách sạn Equatorial8.Shangri-La Hotel, Paris9.Khu du lịch Topas Ecolodge
                         
  Ý kiến bạn đọc (0) Xếp theo số người thích
     
    Đánh giá của bạn
             
             
             
             
             
             
             
             
             
             
        0/10
     
        Ý kiến của bạn
                      Ý kiến của bạn
                           
        
        Khuyến mãi Du lịch
		  prev
		   next
                                Tour ngắm hoa tam giác mạch từ 1,99 triệu đồng
                                        1,990,000 đ 2,390,000 đ
                                        08/10/2016 - 30/11/2016                                    
                                                                Danh Nam Travel đưa du khách đi ngắm hoa tam giác mạch tại Hà Giang 3 ngày 2 đêm với giá trọn gói từ 1,99 triệu đồng.
                                Giảm hơn 2 triệu đồng tour Nhật Bản 6 ngày 5 đêm
                                        33,800,000 đ 35,990,000 đ
                                        01/10/2016 - 31/12/2016                                    
                                                                Hongai Tours đưa du khách khám phá xứ Phù Tang mùa lá đỏ theo hành trình Nagoya - Nara - Osaka - Kyoto - núi Phú Sĩ - Tokyo.
                                Tour Phú Quốc - Vinpearl Land gồm vé máy bay từ 2,9 triệu đồng
                                        2,999,000 đ 4,160,000 đ
                                        16/11/2016 - 30/12/2016                                    
                                                                Hành trình trọn gói và Free and Easy tới Phú Quốc với nhiều lựa chọn hấp dẫn cùng khuyến mại dịp cuối năm dành cho 
                                Tour Campuchia 4 ngày giá chỉ 8,7 triệu đồng
                                        8,700,000 đ 10,990,000 đ
                                        02/11/2016 - 26/01/2017                                    
                                                                Hành trình Phnom Penh - Siem Reap 4 ngày, bay hãng hàng không quốc gia Cambodia Angkor Air, giá chỉ 8,7 triệu đồng.
                                Tour Nhật Bản đón năm mới giá chỉ 28,9 triệu đồng
                                        28,900,000 đ 35,900,000 đ
                                        17/11/2016 - 14/12/2016                                    
                                                                Hành trình sẽ đưa du khách đến cầu may đầu xuân ở đền Kotohira Shrine, mua sắm hàng hiệu giá rẻ dưới lòng đất, tham 
                                Tour Hải Nam, Trung Quốc 5 ngày giá từ 7,99 triệu đồng
                                        7,990,000 đ 9,990,000 đ
                                        19/10/2016 - 07/12/2016                                    
                                                                Hành trình 5 ngày Hải Khẩu - Hưng Long - Tam Á khởi hành ngày 1, 8, 15, 22, 29/11 và 6, 13, 20, 27/12, giá từ 7,99 triệu đồng.
                                Vietrantour tặng 10 triệu đồng tour Nam Phi 8 ngày
                                        49,900,000 đ 59,900,000 đ
                                        21/10/2016 - 01/12/2016                                    
                                                                Tour 8 ngày Johannesburg - Sun City - Pretoria - Capetown, bay hàng không 5 sao Qatar Airways, giá chỉ 49,99 triệu đồng.
        Quốc tế
         
                Những câu lạc bộ thoát y nóng bỏng nhất thế giới
                        Những cô nàng chân dài với thân hình đồng hồ cát, điệu nhảy khiêu gợi, đồ uống lạnh hảo hạng và điệu nhảy bốc lửa trong các câu lạc bộ thoát y luôn kích thích các giác quan của du khách.
            Bé gái Ấn Độ hồn nhiên tóm cổ rắn hổ mang chúaBí mật đáng sợ bên dưới hệ thống tàu điện ngầm LondonNgã xuống hồ nước nóng, du khách chết mất xác
         Gửi bài viết về tòa soạn
        Ẩm thực
         
                             
            Quán bún măng vịt mỗi ngày chỉ bán một tiếng
            Nằm sâu trong con hẻm nhỏ trên đường Lê Văn Sỹ quận Tân Bình, TP HCM, quán bún vịt chỉ phục vụ khách từ 15h30 và đóng hàng sau đó chừng một tiếng.
                Vợ chồng Thu Phương nếm 'bún chửi' Hà Nội
                'Vua đầu bếp' để khách tự sáng tạo món ăn
        Cộng đồng
         
                'Thời gian biểu' du lịch Việt Nam bốn mùa đều đẹp
                        Hãy lên kế hoạch du lịch đúng thời điểm cho năm mới dựa theo lịch trình du lịch khắp miền đất nước.
            Du khách đứng tim vì voi chặn đầu xe5 vùng đất Samurai nổi tiếng của Nhật BảnĐồi cỏ hồng Đà Lạt biến thành cỏ tuyết sau một đêm
        Ảnh
         
                             
            Quang Vinh khám phá hai mặt đối lập của Sài Gòn
            Sinh ra và lớn lên ở Sài Gòn, Quang Vinh muốn giới thiệu những điểm thú vị mà mọi người có thể đã bỏ qua với loại hình du lịch mới - staycation.
                                     
                Bảo tàng áo dài tư nhân duy nhất ở Sài Gòn
                                     
                Việt Nam trong mắt giới trẻ Thái Lan
        Video
         
            Du khách la hét vì chơi tàu lượn dốc nhất thế giới
            Tàu lượn Takabisha (Nhật Bản) có độ dốc lên tới 121 độ, vận tốc tối đa đạt 160 km/h khiến người chơi như đứng tim khi nhiều đường ray thẳng đứng, tàu như rơi tự do.
                Cả công viên 'nín thở' chờ du khách béo trượt máng
                Cảnh đẹp ngoạn mục trên khắp nẻo đường Na Uy
        Điểm đến yêu thích                
                    Kế hoạch 4 ngày khám phá đảo thiên đường ở Campuchia                
                    Những món ngon nên thử của Phú Quốc                
                    Khách du lịch được mời dùng toilet miễn phí ở Đà Nẵng                
                    Chuyến bay Cần Thơ - Đà Lạt chỉ mất một giờ                
                    Những cây cầu có tên gọi độc đáo ở miền Tây                
		Liên kết du lịch
					Trang chủ
                         Đặt VnExpress làm trang chủ
                         Đặt VnExpress làm trang chủ
                         Về đầu trang
                     
								  Thời sự
								  Góc nhìn
								  Pháp luật
								  Giáo dục
								  Thế giới
								  Gia đình
								  Kinh doanh
							   Hàng hóa
							   Doanh nghiệp
							   Ebank
								  Giải trí
							   Giới sao
							   Thời trang
							   Phim
								  Thể thao
							   Bóng đá
							   Tennis
							   Các môn khác
								  Video
								  Ảnh
								  Infographics
								  Sức khỏe
							   Các bệnh
							   Khỏe đẹp
							   Dinh dưỡng
								  Du lịch
							   Việt Nam
							   Quốc tế
							   Cộng đồng
								  Khoa học
							   Môi trường
							   Công nghệ mới
							   Hỏi - đáp
								  Số hóa
							   Sản phẩm
							   Đánh giá
							   Đời sống số
								  Xe
							   Tư vấn
							   Thị trường
							   Diễn đàn
								  Cộng đồng
								  Tâm sự
								  Cười
								  Rao vặt
                    Trang chủThời sựGóc nhìnThế giớiKinh doanhGiải tríThể thaoPháp luậtGiáo dụcSức khỏeGia đìnhDu lịchKhoa họcSố hóaXeCộng đồngTâm sựVideoCườiRao vặt
                            © Copyright 1997 VnExpress.net,  All rights reserved
                            ® VnExpress giữ bản quyền nội dung trên website này.
                            VnExpress tuyển dụng   Liên hệ quảng cáo  / Liên hệ Tòa soạn
                            Thông tin Tòa soạn.0123.888.0123 (HN) - 0129.233.3555 (TP HCM)
                                     Liên hệ Tòa soạn
                                     Thông tin Tòa soạn
                                    0123.888.0123 (HN) 
                                    0129.233.3555 (TP HCM)
                                © Copyright 1997 VnExpress.net,  All rights reserved
                                ® VnExpress giữ bản quyền nội dung trên website này.
                     
         
