url:http://dulich.vnexpress.net/nha-hang/london/nha-hang-rules-4744.html
Tittle :Nhà hàng Rules - VnExpress Du lịch
content : 
                     Trang chủ Thời sự Góc nhìn Thế giới Kinh doanh Giải trí Thể thao Pháp luật Giáo dục Sức khỏe Gia đình Du lịch Khoa học Số hóa Xe Cộng đồng Tâm sự Rao vặt Video Ảnh  Cười 24h qua Liên hệ Tòa soạn Thông tin Tòa soạn
                            © Copyright 1997- VnExpress.net, All rights reserved
                            ® VnExpress giữ bản quyền nội dung trên website này.
                         Hotline:
                            0123.888.0123 (Hà Nội) 
                            0129.233.3555 (TP HCM) 
                                    Thế giớiPháp luậtXã hộiKinh doanhGiải tríÔ tô - Xe máy Thể thaoSố hóaGia đình
                         
                     
                    Thời sựThế giớiKinh doanhGiải tríThể thaoPháp luậtGiáo dụcSức khỏeGia đìnhDu lịchKhoa họcSố hóaXeCộng đồngTâm sựVideoCườiRao vặt
    Việt NamQuốc tếCộng đồngẢnh
                Các địa danh khác
		        24h qua
            Du lịch Quốc tế 
                        London
                                        Du Lịch 
                                        London 
                                        Các địa danh
                                 
                                Việt NamQuốc tếCộng đồngẢnh
                        Nhà hàng Rules                                                    
                     35 Maiden Lane London WC2E 7LB 
                                    Giá2,400,000đ - 2,800,000đTelEmail
                                    Hình ảnh
                                    Mô tả
	Nhà hàng Rules phục vụ các món ăn truyền thống của người Anh. Nơi đây có phong cách sang trọng, giá cả khá cao, cung cách phục vụ làm hài lòng cả những thực khách khó tính nhất. Đây là một trong những nhà hàng xếp vào loại lâu đời nhất ở Luân Đôn, có phong cách trang trí và nội thất đẹp mắt. Nếu bạn tìm một nhà hàng đúng chất Anh để thưởng thức món Pudding Yorksire hãy chọn ngay nơi này làm điểm đến.                                
        Nhà hàng phổ biến
            1.
               Bún chả Nguyễn Biểu2.
               Nhà hàng 19463.
               Nhà hàng sủi cảo Mr.shi’s Dumplings4.
               Vịt quay Bắc Kinh Toàn Tụ Đức5.
               Peony Jade Restaurant6.
               Phố nướng Sapa7.
               Café Des Vélices8.
               Cháo Trai Trần Xuân Soạn9.
               L’ami Louis restaurant10.
               Nhà hàng Hello Kitty
                         
  Ý kiến bạn đọc (0) Xếp theo số người thích
     
    Đánh giá của bạn
             
             
             
             
             
             
             
             
             
             
        0/10
     
        Ý kiến của bạn
                      Ý kiến của bạn
                           
        
        Khuyến mãi Du lịch
		  prev
		   next
                                Tour Hải Nam, Trung Quốc 5 ngày giá từ 7,99 triệu đồng
                                        7,990,000 đ 9,990,000 đ
                                        19/10/2016 - 07/12/2016                                    
                                                                Hành trình 5 ngày Hải Khẩu - Hưng Long - Tam Á khởi hành ngày 1, 8, 15, 22, 29/11 và 6, 13, 20, 27/12, giá từ 7,99 triệu đồng.
                                Tour Nhật Bản đón năm mới giá chỉ 28,9 triệu đồng
                                        28,900,000 đ 35,900,000 đ
                                        17/11/2016 - 14/12/2016                                    
                                                                Hành trình sẽ đưa du khách đến cầu may đầu xuân ở đền Kotohira Shrine, mua sắm hàng hiệu giá rẻ dưới lòng đất, tham 
                                Giảm hơn 2 triệu đồng tour Nhật Bản 6 ngày 5 đêm
                                        33,800,000 đ 35,990,000 đ
                                        01/10/2016 - 31/12/2016                                    
                                                                Hongai Tours đưa du khách khám phá xứ Phù Tang mùa lá đỏ theo hành trình Nagoya - Nara - Osaka - Kyoto - núi Phú Sĩ - Tokyo.
                                Tour ngắm hoa tam giác mạch từ 1,99 triệu đồng
                                        1,990,000 đ 2,390,000 đ
                                        08/10/2016 - 30/11/2016                                    
                                                                Danh Nam Travel đưa du khách đi ngắm hoa tam giác mạch tại Hà Giang 3 ngày 2 đêm với giá trọn gói từ 1,99 triệu đồng.
                                Tour Campuchia 4 ngày giá chỉ 8,7 triệu đồng
                                        8,700,000 đ 10,990,000 đ
                                        02/11/2016 - 26/01/2017                                    
                                                                Hành trình Phnom Penh - Siem Reap 4 ngày, bay hãng hàng không quốc gia Cambodia Angkor Air, giá chỉ 8,7 triệu đồng.
                                Vietrantour tặng 10 triệu đồng tour Nam Phi 8 ngày
                                        49,900,000 đ 59,900,000 đ
                                        21/10/2016 - 01/12/2016                                    
                                                                Tour 8 ngày Johannesburg - Sun City - Pretoria - Capetown, bay hàng không 5 sao Qatar Airways, giá chỉ 49,99 triệu đồng.
                                Tour Phú Quốc - Vinpearl Land gồm vé máy bay từ 2,9 triệu đồng
                                        2,999,000 đ 4,160,000 đ
                                        16/11/2016 - 30/12/2016                                    
                                                                Hành trình trọn gói và Free and Easy tới Phú Quốc với nhiều lựa chọn hấp dẫn cùng khuyến mại dịp cuối năm dành cho 
        Việt Nam
         
                Quán bún măng vịt mỗi ngày chỉ bán một tiếng
                        Nằm sâu trong con hẻm nhỏ trên đường Lê Văn Sỹ quận Tân Bình, TP HCM, quán bún vịt chỉ phục vụ khách từ 15h30 và đóng hàng sau đó chừng một tiếng.
            Bắc Trung Bộ hút khách Thái Lan để vực dậy du lịchViệt Nam đứng top đầu khách chi tiêu nhiều nhất ở Nhật BảnKhông gian điện ảnh đẳng cấp tại Vinpearl Đà Nẵng
         Gửi bài viết về tòa soạn
        Ẩm thực
         
            Vợ chồng Thu Phương nếm 'bún chửi' Hà Nội
            Bà chủ quán rất vui vẻ chào đón nhóm của nữ ca sĩ ngay cả khi quán kín chỗ ngồi, dù vừa mở cửa.
                'Vua đầu bếp' để khách tự sáng tạo món ăn
                Vị đậm đà tinh tế trong món gà sốt tiêu tỏi
        Cộng đồng
         
                'Thời gian biểu' du lịch Việt Nam bốn mùa đều đẹp
                        Hãy lên kế hoạch du lịch đúng thời điểm cho năm mới dựa theo lịch trình du lịch khắp miền đất nước.
            Du khách đứng tim vì voi chặn đầu xe5 vùng đất Samurai nổi tiếng của Nhật BảnĐồi cỏ hồng Đà Lạt biến thành cỏ tuyết sau một đêm
        Ảnh
         
                             
            Những thành phố chuột đông hơn người
            Nhiều thành phố du lịch nổi tiếng thế giới như Paris, London, Boston, Chicago…. cũng nằm trong danh sách bị nạn chuột hoành hành.
                                     
                Chỉ cần cúi xuống bạn đã thấy một London khác lạ
                                     
                Cảnh London khi không một bóng người
        Video
         
            Bé gái Ấn Độ hồn nhiên tóm cổ rắn hổ mang chúa
            Những đứa trẻ tại làng Gauriganj được làm quen với rắn từ khi lên hai để chúng có thể biểu diễn thuật thôi miên rắn chuyên nghiệp sau 10 năm.
                Du khách la hét vì chơi tàu lượn dốc nhất thế giới
                Cả công viên 'nín thở' chờ du khách béo trượt máng
        Điểm đến yêu thích                
                    Nhật Bản mở dịch vụ tắm mì ramen để cải thiện làn da                
                    Ngôi làng không điện, nước nổi tiếng ở Uruguay                
                    Du khách bị hải cẩu cắn vì mải tạo dáng với cá                
                    Phụ nữ Armenia làm say mê du khách Mỹ                
                    Du khách thoát chết nhờ đấm liên tục vào mặt cá mập                
		Liên kết du lịch
					Trang chủ
                         Đặt VnExpress làm trang chủ
                         Đặt VnExpress làm trang chủ
                         Về đầu trang
                     
								  Thời sự
								  Góc nhìn
								  Pháp luật
								  Giáo dục
								  Thế giới
								  Gia đình
								  Kinh doanh
							   Hàng hóa
							   Doanh nghiệp
							   Ebank
								  Giải trí
							   Giới sao
							   Thời trang
							   Phim
								  Thể thao
							   Bóng đá
							   Tennis
							   Các môn khác
								  Video
								  Ảnh
								  Infographics
								  Sức khỏe
							   Các bệnh
							   Khỏe đẹp
							   Dinh dưỡng
								  Du lịch
							   Việt Nam
							   Quốc tế
							   Cộng đồng
								  Khoa học
							   Môi trường
							   Công nghệ mới
							   Hỏi - đáp
								  Số hóa
							   Sản phẩm
							   Đánh giá
							   Đời sống số
								  Xe
							   Tư vấn
							   Thị trường
							   Diễn đàn
								  Cộng đồng
								  Tâm sự
								  Cười
								  Rao vặt
                    Trang chủThời sựGóc nhìnThế giớiKinh doanhGiải tríThể thaoPháp luậtGiáo dụcSức khỏeGia đìnhDu lịchKhoa họcSố hóaXeCộng đồngTâm sựVideoCườiRao vặt
                            © Copyright 1997 VnExpress.net,  All rights reserved
                            ® VnExpress giữ bản quyền nội dung trên website này.
                            VnExpress tuyển dụng   Liên hệ quảng cáo  / Liên hệ Tòa soạn
                            Thông tin Tòa soạn.0123.888.0123 (HN) - 0129.233.3555 (TP HCM)
                                     Liên hệ Tòa soạn
                                     Thông tin Tòa soạn
                                    0123.888.0123 (HN) 
                                    0129.233.3555 (TP HCM)
                                © Copyright 1997 VnExpress.net,  All rights reserved
                                ® VnExpress giữ bản quyền nội dung trên website này.
                     
         
